%!PS-Adobe-2.0 EPSF-2.0
%%BoundingBox:  0 0 567 401
%%Title: PhiCent10kEMCEJERun0.eps: c2: Phi
%%Creator: ROOT Version 5.34/05
%%CreationDate: Sat Sep 21 19:26:31 2013
%%EndComments
%%BeginProlog
80 dict begin
/s {stroke} def /l {lineto} def /m {moveto} def /t {translate} def
/r {rotate} def /rl {roll}  def /R {repeat} def
/d {rlineto} def /rm {rmoveto} def /gr {grestore} def /f {eofill} def
/c {setrgbcolor} def /black {0 setgray} def /sd {setdash} def
/cl {closepath} def /sf {scalefont setfont} def /lw {setlinewidth} def
/box {m dup 0 exch d exch 0 d 0 exch neg d cl} def
/NC{systemdict begin initclip end}def/C{NC box clip newpath}def
/bl {box s} def /bf {box f} def /Y { 0 exch d} def /X { 0 d} def 
/K {{pop pop 0 moveto} exch kshow} bind def
/ita {/ang 15 def gsave [1 0 ang dup sin exch cos div 1 0 0] concat} def 
/mp {newpath /y exch def /x exch def} def
/side {[w .77 mul w .23 mul] .385 w mul sd w 0 l currentpoint t -144 r} def
/mr {mp x y w2 0 360 arc} def /m24 {mr s} def /m20 {mr f} def
/mb {mp x y w2 add m w2 neg 0 d 0 w neg d w 0 d 0 w d cl} def
/mt {mp x y w2 add m w2 neg w neg d w 0 d cl} def
/m21 {mb f} def /m25 {mb s} def /m22 {mt f} def /m26{mt s} def
/m23 {mp x y w2 sub m w2 w d w neg 0 d cl f} def
/m27 {mp x y w2 add m w3 neg w2 neg d w3 w2 neg d w3 w2 d cl s} def
/m28 {mp x w2 sub y w2 sub w3 add m w3 0 d  0 w3 neg d w3 0 d 0 w3 d w3 0 d  0 w3 d w3 neg 0 d 0 w3 d w3 neg 0 d 0 w3 neg d w3 neg 0 d cl s } def
/m29 {mp gsave x w2 sub y w2 add w3 sub m currentpoint t 4 {side} repeat cl fill gr} def
/m30 {mp gsave x w2 sub y w2 add w3 sub m currentpoint t 4 {side} repeat cl s gr} def
/m31 {mp x y w2 sub m 0 w d x w2 sub y m w 0 d x w2 sub y w2 add m w w neg d x w2 sub y w2 sub m w w d s} def
/m32 {mp x y w2 sub m w2 w d w neg 0 d cl s} def
/m33 {mp x y w2 add m w3 neg w2 neg d w3 w2 neg d w3 w2 d cl f} def
/m34 {mp x w2 sub y w2 sub w3 add m w3 0 d  0 w3 neg d w3 0 d 0 w3 d w3 0 d  0 w3 d w3 neg 0 d 0 w3 d w3 neg 0 d 0 w3 neg d w3 neg 0 d cl f } def
/m2 {mp x y w2 sub m 0 w d x w2 sub y m w 0 d s} def
/m5 {mp x w2 sub y w2 sub m w w d x w2 sub y w2 add m w w neg d s} def
/reEncode {exch findfont dup length dict begin {1 index /FID eq  {pop pop} {def} ifelse } forall /Encoding exch def currentdict end dup /FontName get exch definefont pop } def [/Times-Bold /Times-Italic /Times-BoldItalic /Helvetica /Helvetica-Oblique
 /Helvetica-Bold /Helvetica-BoldOblique /Courier /Courier-Oblique /Courier-Bold /Courier-BoldOblique /Times-Roman /AvantGarde-Book /AvantGarde-BookOblique /AvantGarde-Demi /AvantGarde-DemiOblique /Bookman-Demi /Bookman-DemiItalic /Bookman-Light
 /Bookman-LightItalic /Helvetica-Narrow /Helvetica-Narrow-Bold /Helvetica-Narrow-BoldOblique /Helvetica-Narrow-Oblique /NewCenturySchlbk-Roman /NewCenturySchlbk-Bold /NewCenturySchlbk-BoldItalic /NewCenturySchlbk-Italic /Palatino-Bold
 /Palatino-BoldItalic /Palatino-Italic /Palatino-Roman ] {ISOLatin1Encoding reEncode } forall
%%EndProlog
%%BeginSetup
%%EndSetup
newpath  gsave  .25 .25 scale  gsave  0 0 t black[  ] 0 sd 3 lw 1 1 1 c 2268 1606 0 0 bf black 1 1 1 c 1768 1252 454 193 bf black 1768 1252 454 193 bl 1 1 1 c 1768 1252 454 193 bf black 1768 1252 454 193 bl 454 193 m 1768 X s
 gsave  2268 1606 0 0 C 2176.4 57.0734 t 0 r /Symbol findfont 91.3174 sf 0 0 m (f) show NC gr  454 230 m -37 Y s 510 211 m -18 Y s 566 211 m -18 Y s 622 211 m -18 Y s 679 211 m -18 Y s 735 230 m -37 Y s 791 211 m -18 Y s 848 211 m -18 Y s 904 211 m
 -18 Y s 960 211 m -18 Y s 1017 230 m -37 Y s 1073 211 m -18 Y s 1129 211 m -18 Y s 1185 211 m -18 Y s 1242 211 m -18 Y s 1298 230 m -37 Y s 1354 211 m -18 Y s 1411 211 m -18 Y s 1467 211 m -18 Y s 1523 211 m -18 Y s 1580 230 m -37 Y s 1636 211 m -18
 Y s 1692 211 m -18 Y s 1749 211 m -18 Y s 1805 211 m -18 Y s 1861 230 m -37 Y s 1917 211 m -18 Y s 1974 211 m -18 Y s 2030 211 m -18 Y s 2086 211 m -18 Y s 2143 230 m -37 Y s 2143 230 m -37 Y s 2199 211 m -18 Y s
 gsave  2268 1606 0 0 C 437.563 140.781 t 0 r /Helvetica findfont 53.2685 sf 0 0 m (0) show NC gr 
 gsave  2268 1606 0 0 C 722.93 140.781 t 0 r /Helvetica findfont 53.2685 sf 0 0 m (1) show NC gr 
 gsave  2268 1606 0 0 C 1000.69 140.781 t 0 r /Helvetica findfont 53.2685 sf 0 0 m (2) show NC gr 
 gsave  2268 1606 0 0 C 1282.25 140.781 t 0 r /Helvetica findfont 53.2685 sf 0 0 m (3) show NC gr 
 gsave  2268 1606 0 0 C 1563.81 140.781 t 0 r /Helvetica findfont 53.2685 sf 0 0 m (4) show NC gr 
 gsave  2268 1606 0 0 C 1845.37 140.781 t 0 r /Helvetica findfont 53.2685 sf 0 0 m (5) show NC gr 
 gsave  2268 1606 0 0 C 2126.94 140.781 t 0 r /Helvetica findfont 53.2685 sf 0 0 m (6) show NC gr  454 193 m 1252 Y s
 gsave  2268 1606 0 0 C 216.879 1392.59 t 90 r /Symbol findfont 91.3174 sf 0 0 m (f) show NC gr 
 gsave  2268 1606 0 0 C 216.879 1346.93 t 90 r /Helvetica findfont 91.3174 sf 0 0 m (d) show NC gr 
 gsave  2268 1606 0 0 C 121.757 1339.32 t 90 r /Helvetica findfont 91.3174 sf 0 0 m (dN) show NC gr  6 lw 137 1339 m 111 Y s
 gsave  2268 1606 0 0 C 243.513 1225.18 t 90 r /Helvetica findfont 60.8783 sf 0 0 m (evts) show NC gr 
 gsave  2268 1606 0 0 C 216.879 1164.3 t 90 r /Helvetica findfont 91.3174 sf 0 0 m (N) show NC gr 
 gsave  2268 1606 0 0 C 125.561 1236.59 t 90 r /Helvetica findfont 91.3174 sf 0 0 m (1) show NC gr  137 1168 m 171 Y s 3 lw 507 193 m -53 X s 480 233 m -26 X s 480 274 m -26 X s 480 315 m -26 X s 507 356 m -53 X s 480 396 m -26 X s 480 437 m -26 X s
 480 478 m -26 X s 507 518 m -53 X s 480 559 m -26 X s 480 600 m -26 X s 480 641 m -26 X s 507 681 m -53 X s 480 722 m -26 X s 480 763 m -26 X s 480 804 m -26 X s 507 844 m -53 X s 480 885 m -26 X s 480 926 m -26 X s 480 966 m -26 X s 507 1007 m -53
 X s 480 1048 m -26 X s 480 1089 m -26 X s 480 1129 m -26 X s 507 1170 m -53 X s 480 1211 m -26 X s 480 1252 m -26 X s 480 1292 m -26 X s 507 1333 m -53 X s 507 1333 m -53 X s 480 1374 m -26 X s 480 1414 m -26 X s
 gsave  2268 1606 0 0 C 410.928 175.025 t 0 r /Helvetica findfont 53.2685 sf 0 0 m (0) show NC gr 
 gsave  2268 1606 0 0 C 410.928 334.831 t 0 r /Helvetica findfont 53.2685 sf 0 0 m (2) show NC gr 
 gsave  2268 1606 0 0 C 410.928 498.441 t 0 r /Helvetica findfont 53.2685 sf 0 0 m (4) show NC gr 
 gsave  2268 1606 0 0 C 410.928 665.856 t 0 r /Helvetica findfont 53.2685 sf 0 0 m (6) show NC gr 
 gsave  2268 1606 0 0 C 410.928 825.662 t 0 r /Helvetica findfont 53.2685 sf 0 0 m (8) show NC gr 
 gsave  2268 1606 0 0 C 384.294 989.272 t 0 r /Helvetica findfont 53.2685 sf 0 0 m (10) show NC gr 
 gsave  2268 1606 0 0 C 384.294 1149.08 t 0 r /Helvetica findfont 53.2685 sf 0 0 m (12) show NC gr 
 gsave  2268 1606 0 0 C 380.489 1312.69 t 0 r /Helvetica findfont 53.2685 sf 0 0 m (14) show NC gr  1 0 0 c 9 lw 1 1 1 c black 1 0 0 c 454 857 m 16 X -11 Y 16 X -5 Y 17 X 3 Y 16 X -13 Y 16 X -4 Y 17 X 10 Y 16 X -19 Y 17 X -2 Y 16 X 5 Y 16 X -18 Y 33
 X 16 Y 16 X -18 Y 17 X 11 Y 16 X 13 Y 17 X -16 Y 16 X 13 Y 16 X 8 Y 17 X -13 Y 16 X 19 Y 16 X 18 Y 17 X -14 Y 16 X 33 Y 17 X 21 Y 16 X 11 Y 16 X 42 Y 17 X 17 Y 16 X -14 Y 17 X -10 Y 16 X 9 Y 16 X 10 Y 17 X 7 Y 16 X -58 Y 16 X -5 Y 17 X 63 Y 16 X
 -145 Y 17 X -215 Y 32 X 142 Y 17 X 227 Y 16 X 5 Y 16 X 7 Y 17 X 1 Y 16 X -2 Y 17 X -1 Y 16 X -17 Y 16 X -21 Y 17 X -6 Y 16 X -13 Y 16 X -11 Y 17 X 4 Y 16 X -34 Y 17 X -16 Y 16 X -29 Y 16 X -13 Y 17 X -12 Y 16 X -3 Y 16 X -29 Y 17 X -3 Y 16 X -6 Y 17
 X 24 Y 16 X -7 Y 16 X 6 Y 17 X -1 Y 16 X 1 Y 16 X -16 Y 17 X 22 Y 16 X -4 Y 17 X 10 Y 16 X -2 Y 16 X -10 Y 17 X 9 Y 16 X -21 Y 17 X 21 Y 16 X -8 Y 16 X -19 Y 17 X 73 Y 16 X 4 Y 16 X 10 Y 17 X 13 Y 16 X -12 Y 17 X -9 Y 32 X -2 Y 17 X -7 Y 16 X -131 Y
 16 X 185 Y 17 X -1 Y 16 X 11 Y 17 X 6 Y 16 X -35 Y 16 X 26 Y 17 X -21 Y 16 X -61 Y 16 X -21 Y 17 X -123 Y 16 X 205 Y 17 X 22 Y 16 X -8 Y 16 X -5 Y 17 X -3 Y 16 X -25 Y 16 X -17 Y 33 X 11 Y 17 X -8 Y 16 X -31 Y 16 X s 1 0 1 c 1 1 1 c black 1 0 1 c
 454 210 m 16 X -3 Y 33 X -2 Y 65 X 1 Y 33 X -1 Y 16 X 2 Y 17 X 2 Y 16 X -4 Y 16 X 2 Y 17 X -2 Y 33 X 2 Y 16 X -1 Y 33 X 2 Y 16 X -3 Y 16 X 1 Y 17 X 10 Y 16 X -7 Y 17 X 1 Y 16 X 3 Y 16 X -3 Y 17 X 1 Y 16 X 9 Y 17 X 10 Y 16 X 1 Y 16 X 2 Y 17 X 4 Y 16
 X 60 Y 16 X -11 Y 17 X -48 Y 16 X 157 Y 17 X 211 Y 16 X 8 Y 16 X -160 Y 17 X -225 Y 16 X -13 Y 16 X -3 Y 17 X -2 Y 16 X 6 Y 17 X 1 Y 16 X -6 Y 16 X -1 Y 17 X -1 Y 32 X 1 Y 17 X -2 Y 33 X -1 Y 16 X 2 Y 16 X 1 Y 17 X 1 Y 16 X -1 Y 16 X 8 Y 17 X 2 Y 16
 X -1 Y 17 X -13 Y 49 X -1 Y 16 X 5 Y 16 X 9 Y 17 X -13 Y 49 X 2 Y 16 X 10 Y 17 X 4 Y 16 X 18 Y 17 X -15 Y 16 X 23 Y 16 X 11 Y 17 X -50 Y 32 X -1 Y 17 X -2 Y 16 X 8 Y 17 X 5 Y 16 X 1 Y 33 X 10 Y 16 X 117 Y 16 X -137 Y 17 X -1 Y 49 X 22 Y 16 X -12 Y
 17 X 5 Y 16 X 32 Y 16 X 15 Y 17 X 103 Y 16 X -156 Y 17 X -10 Y 16 X 1 Y 16 X -2 Y 17 X -1 Y 16 X 9 Y 16 X 5 Y 17 X 1 Y 16 X -11 Y 17 X -1 Y 16 X 15 Y 16 X s black 1 1 1 c black 454 874 m 16 X -13 Y 16 X -5 Y 17 X 1 Y 16 X -14 Y 16 X -3 Y 17 X 9 Y 16
 X -18 Y 17 X -2 Y 16 X 4 Y 16 X -15 Y 17 X 2 Y 16 X 11 Y 16 X -16 Y 17 X 10 Y 16 X 12 Y 17 X -14 Y 16 X 13 Y 16 X 7 Y 17 X -11 Y 16 X 17 Y 16 X 18 Y 17 X -4 Y 16 X 27 Y 17 X 21 Y 16 X 14 Y 16 X 39 Y 17 X 18 Y 16 X -4 Y 17 X -1 Y 16 X 10 Y 16 X 12 Y
 17 X 12 Y 16 X 1 Y 16 X -15 Y 17 X 14 Y 16 X 12 Y 17 X -4 Y 16 X 9 Y 16 X -19 Y 17 X 2 Y 16 X -8 Y 16 X 4 Y 33 X 4 Y 17 X -1 Y 16 X -23 Y 16 X -22 Y 17 X -6 Y 16 X -14 Y 16 X -10 Y 17 X 2 Y 16 X -33 Y 17 X -17 Y 16 X -28 Y 16 X -12 Y 17 X -11 Y 16 X
 -4 Y 16 X -20 Y 17 X -2 Y 16 X -6 Y 17 X 10 Y 16 X -7 Y 16 X 6 Y 17 X -2 Y 16 X 7 Y 16 X -8 Y 17 X 10 Y 16 X -5 Y 17 X 11 Y 49 X 12 Y 16 X -3 Y 17 X 6 Y 16 X 16 Y 16 X -8 Y 17 X 23 Y 16 X 3 Y 16 X 9 Y 17 X 11 Y 16 X -4 Y 17 X -3 Y 32 X -2 Y 17 X 4 Y
 16 X -15 Y 16 X 48 Y 17 X -2 Y 16 X 12 Y 17 X 5 Y 16 X -12 Y 16 X 13 Y 17 X -16 Y 16 X -29 Y 16 X -6 Y 17 X -19 Y 16 X 48 Y 17 X 12 Y 16 X -6 Y 16 X -8 Y 17 X -4 Y 16 X -15 Y 16 X -13 Y 17 X 1 Y 16 X 1 Y 17 X -10 Y 16 X -16 Y 16 X s
 gsave  2268 1606 0 0 C 532.685 1343.13 t 0 r /Helvetica findfont 91.3174 sf 0 0 m (Hybrid tracks. run:0) show NC gr 
 gsave  2268 1606 0 0 C 871.321 1240.4 t 0 r /Helvetica findfont 91.3174 sf 0 0 m (w/ SPD & ITSrefit) show NC gr  1 0 0 c 555 1274 m 262 X s black
 gsave  2268 1606 0 0 C 871.321 1149.08 t 0 r /Helvetica findfont 91.3174 sf 0 0 m (w/o SPD & w/ ITSrefit) show NC gr  1 0 1 c 555 1182 m 262 X s black
 gsave  2268 1606 0 0 C 871.321 1065.37 t 0 r /Helvetica findfont 91.3174 sf 0 0 m (sum) show NC gr  555 1090 m 262 X s
 gsave  2268 1606 0 0 C 1396.4 677.271 t 0 r /Helvetica-Bold findfont 76.0979 sf 0 0 m ( = 762574) show NC gr 
 gsave  2268 1606 0 0 C 1240.4 658.247 t 0 r /Helvetica-Bold findfont 49.4636 sf 0 0 m (events) show NC gr 
 gsave  2268 1606 0 0 C 1175.71 677.271 t 0 r /Helvetica-BoldOblique findfont 76.0979 sf 0 0 m (N) show NC gr 
 gr  gr showpage
end
%%EOF
