\relax 
\providecommand\hyper@newdestlabel[2]{}
\providecommand\HyperFirstAtBeginDocument{\AtBeginDocument}
\HyperFirstAtBeginDocument{\ifx\hyper@anchor\@undefined
\global\let\oldcontentsline\contentsline
\gdef\contentsline#1#2#3#4{\oldcontentsline{#1}{#2}{#3}}
\global\let\oldnewlabel\newlabel
\gdef\newlabel#1#2{\newlabelxx{#1}#2}
\gdef\newlabelxx#1#2#3#4#5#6{\oldnewlabel{#1}{{#2}{#3}}}
\AtEndDocument{\ifx\hyper@anchor\@undefined
\let\contentsline\oldcontentsline
\let\newlabel\oldnewlabel
\fi}
\fi}
\global\let\hyper@last\relax 
\gdef\HyperFirstAtBeginDocument#1{#1}
\providecommand\HyField@AuxAddToFields[1]{}
\providecommand\HyField@AuxAddToCoFields[2]{}
\@LN{0}{0}
\@LN{1}{0}
\@LN{2}{0}
\@LN{3}{0}
\@LN{4}{0}
\@LN{5}{0}
\@LN{6}{0}
\@LN{7}{0}
\@LN{8}{0}
\@LN{9}{0}
\@LN{10}{2}
\@LN{11}{2}
\@LN{12}{2}
\@LN{13}{2}
\@LN{14}{2}
\@LN{15}{2}
\@LN{16}{2}
\@LN{17}{2}
\@LN{18}{2}
\@LN{19}{2}
\@LN{20}{2}
\@LN{21}{2}
\@LN{22}{2}
\@LN{23}{2}
\@LN{24}{2}
\@LN{25}{2}
\@LN{26}{2}
\@LN{27}{2}
\@LN{28}{2}
\@LN{29}{2}
\@writefile{toc}{\contentsline {section}{\numberline {1}Event Selection}{1}{section.1}}
\@LN{30}{2}
\@LN{31}{2}
\@LN{32}{2}
\@LN{33}{3}
\@LN{34}{3}
\@LN{35}{3}
\@LN{36}{3}
\@LN{37}{3}
\@LN{38}{3}
\@LN{39}{3}
\@LN{40}{3}
\@LN{41}{3}
\@writefile{toc}{\contentsline {section}{\numberline {2}Charged Tracks}{2}{section.2}}
\newlabel{sect:Tracking}{{2}{2}{Charged Tracks}{section.2}{}}
\@LN{42}{3}
\@LN{43}{3}
\@LN{44}{3}
\@LN{45}{3}
\@LN{46}{3}
\@LN{47}{3}
\@LN{48}{3}
\@LN{49}{3}
\@LN{50}{3}
\@LN{51}{3}
\@LN{52}{3}
\@LN{53}{3}
\@LN{54}{3}
\@LN{55}{3}
\@LN{56}{3}
\@LN{57}{3}
\@LN{58}{3}
\@LN{59}{3}
\@LN{60}{3}
\@LN{61}{3}
\@LN{62}{3}
\@LN{63}{3}
\@LN{64}{3}
\@writefile{lot}{\contentsline {table}{\numberline {1}{\ignorespaces Overview of the hybrid track cuts.\relax }}{3}{table.caption.2}}
\providecommand*\caption@xref[2]{\@setref\relax\@undefined{#1}}
\newlabel{tab:trackcuts}{{1}{3}{Overview of the hybrid track cuts.\relax }{table.caption.2}{}}
\@writefile{lof}{\contentsline {figure}{\numberline {1}{\ignorespaces $\varphi $ distribution of hybrid tracks in different \unhbox \voidb@x \hbox {p--Pb}{} periods with minimum bias (kINT7) trigger. Upper left: LHC13b. Upper right: LHC13c. Lower left: LHC13d. Lower right: LHC13e. \relax }}{4}{figure.caption.3}}
\newlabel{fig:TrackPhiMinBias}{{1}{4}{$\varphi $ distribution of hybrid tracks in different \pPb {} periods with minimum bias (kINT7) trigger. Upper left: LHC13b. Upper right: LHC13c. Lower left: LHC13d. Lower right: LHC13e. \relax }{figure.caption.3}{}}
\@LN{65}{5}
\@LN{66}{5}
\@LN{67}{5}
\@LN{68}{5}
\@writefile{lof}{\contentsline {figure}{\numberline {2}{\ignorespaces $\varphi $ distribution of hybrid tracks in different \unhbox \voidb@x \hbox {p--Pb}{} periods with jet trigger (kEMCEJE). Left: LHC13d. Right: LHC13e. \relax }}{5}{figure.caption.4}}
\newlabel{fig:TrackPhiTriggered}{{2}{5}{$\varphi $ distribution of hybrid tracks in different \pPb {} periods with jet trigger (kEMCEJE). Left: LHC13d. Right: LHC13e. \relax }{figure.caption.4}{}}
\@LN{69}{6}
\@writefile{toc}{\contentsline {section}{\numberline {3}EMCal Clustering and QA}{5}{section.3}}
\newlabel{sect:EMCalClust}{{3}{5}{EMCal Clustering and QA}{section.3}{}}
\@LN{70}{6}
\@LN{71}{6}
\@LN{72}{6}
\@LN{73}{6}
\@LN{74}{6}
\@LN{75}{6}
\@LN{76}{6}
\@LN{77}{6}
\@writefile{toc}{\contentsline {section}{\numberline {4}Hadronic Correction}{5}{section.4}}
\newlabel{sect:ChrgDoubleCount}{{4}{5}{Hadronic Correction}{section.4}{}}
\@LN{78}{6}
\@LN{79}{6}
\@LN{80}{6}
\@LN{81}{6}
\@LN{82}{6}
\@LN{83}{6}
\@writefile{toc}{\contentsline {subsubsection}{\numberline {4.0.1}Cluster-Track Matching}{5}{subsubsection.4.0.1}}
\@LN{84}{6}
\@LN{85}{6}
\@LN{86}{6}
\@LN{87}{6}
\@LN{88}{6}
\@LN{89}{6}
\citation{ppnote}
\citation{ppnote}
\@LN{90}{7}
\@LN{91}{7}
\@LN{92}{7}
\@LN{93}{7}
\@LN{94}{7}
\@LN{95}{7}
\@LN{96}{7}
\@LN{97}{7}
\@LN{98}{7}
\@LN{99}{7}
\@LN{100}{7}
\@LN{101}{7}
\@writefile{lof}{\contentsline {figure}{\numberline {3}{\ignorespaces Track-cluster matching $\Delta \phi $ distributions for 0-10\% p-Pb events. The top row is for positive charged tracks and the bottom are negative tracks. The momentum of the tracks increases from left to right from 0.5 GeV/c to $ p > 8 GeV/c$.\relax }}{6}{figure.caption.5}}
\newlabel{matchdphi}{{3}{6}{Track-cluster matching $\Delta \phi $ distributions for 0-10\% p-Pb events. The top row is for positive charged tracks and the bottom are negative tracks. The momentum of the tracks increases from left to right from 0.5 GeV/c to $ p > 8 GeV/c$.\relax }{figure.caption.5}{}}
\@LN{102}{7}
\@writefile{toc}{\contentsline {subsubsection}{\numberline {4.0.2}Correction procedure}{6}{subsubsection.4.0.2}}
\@LN{103}{7}
\@LN{104}{7}
\@LN{105}{7}
\@LN{106}{7}
\@LN{107}{7}
\@LN{108}{7}
\@LN{109}{7}
\@LN{110}{7}
\@LN{111}{7}
\@writefile{lof}{\contentsline {figure}{\numberline {4}{\ignorespaces Track-cluster matching $\Delta \eta $distributions for 0-10\% p-Pb events from lhc13b. The top row is for positive charged tracks and the bottom are negative tracks. The momentum of the tracks increases from left to right from 0.5GeV/c to $p > 8GeV/c$\relax }}{7}{figure.caption.6}}
\newlabel{matchdeta}{{4}{7}{Track-cluster matching $\Delta \eta $distributions for 0-10\% p-Pb events from lhc13b. The top row is for positive charged tracks and the bottom are negative tracks. The momentum of the tracks increases from left to right from 0.5GeV/c to $p > 8GeV/c$\relax }{figure.caption.6}{}}
\@writefile{lof}{\contentsline {figure}{\numberline {5}{\ignorespaces Track-cluster matching $\Delta \phi $distributions for 0-10\% p-Pb events from lhc13e. The top row is for positive charged tracks and the bottom are negative tracks. The momentum of the tracks increases from left to right from 0.5GeV/c to $p > 8GeV/c$\relax }}{7}{figure.caption.7}}
\newlabel{matchdeta}{{5}{7}{Track-cluster matching $\Delta \phi $distributions for 0-10\% p-Pb events from lhc13e. The top row is for positive charged tracks and the bottom are negative tracks. The momentum of the tracks increases from left to right from 0.5GeV/c to $p > 8GeV/c$\relax }{figure.caption.7}{}}
\citation{ChJetPbPbANNote,FullJetPbPbANNote}
\citation{Cacciari:2011ma,Cacciari:2005hq}
\@LN{112}{9}
\@LN{113}{9}
\@LN{114}{9}
\@LN{115}{9}
\@LN{116}{9}
\@LN{117}{9}
\@LN{118}{9}
\@LN{119}{9}
\@LN{120}{9}
\@LN{121}{9}
\@LN{122}{9}
\@LN{123}{9}
\@LN{124}{9}
\@writefile{toc}{\contentsline {section}{\numberline {5}Jet selection}{8}{section.5}}
\@LN{125}{9}
\@LN{126}{9}
\@LN{127}{9}
\@LN{128}{9}
\@LN{129}{9}
\@LN{130}{9}
\@LN{131}{9}
\@LN{132}{9}
\@LN{133}{9}
\@LN{134}{9}
\@LN{135}{9}
\@LN{136}{9}
\@LN{137}{9}
\@LN{138}{9}
\@LN{139}{9}
\@LN{140}{9}
\@LN{141}{9}
\@writefile{lof}{\contentsline {figure}{\numberline {6}{\ignorespaces The $R_{corr}$ distribution for four different $\Sigma p_{T,track}$ slices. The data (blue points) is pPb from lhc13b, the black points are the corresponding MC production and the red line is the pp data from 2.76 TeV.\relax }}{9}{figure.caption.8}}
\newlabel{fig:Rcorr}{{6}{9}{The $R_{corr}$ distribution for four different $\Sigma p_{T,track}$ slices. The data (blue points) is pPb from lhc13b, the black points are the corresponding MC production and the red line is the pp data from 2.76 TeV.\relax }{figure.caption.8}{}}
\@writefile{lof}{\contentsline {figure}{\numberline {7}{\ignorespaces $\varphi $ distributions of charged and full jets in different periods. For LHC13b and LHC13c minimum bias events are selected while for LHC13d and LHC13e the high threshold jet trigger is used.\relax }}{10}{figure.caption.9}}
\newlabel{fig:JetPhiPeriods}{{7}{10}{$\varphi $ distributions of charged and full jets in different periods. For LHC13b and LHC13c minimum bias events are selected while for LHC13d and LHC13e the high threshold jet trigger is used.\relax }{figure.caption.9}{}}
\@LN{142}{11}
\@LN{143}{11}
\@writefile{toc}{\contentsline {subsection}{\numberline {5.1}Jet QA}{10}{subsection.5.1}}
\@LN{144}{11}
\@LN{145}{11}
\@LN{146}{11}
\@LN{147}{11}
\@LN{148}{11}
\@LN{149}{11}
\@writefile{lof}{\contentsline {figure}{\numberline {8}{\ignorespaces $\eta $ distributions of charged and full jets in different periods. For LHC13b and LHC13c minimum bias events are selected while for LHC13d and LHC13e the high threshold jet trigger is used.\relax }}{11}{figure.caption.10}}
\newlabel{fig:JetEtaPeriods}{{8}{11}{$\eta $ distributions of charged and full jets in different periods. For LHC13b and LHC13c minimum bias events are selected while for LHC13d and LHC13e the high threshold jet trigger is used.\relax }{figure.caption.10}{}}
\@writefile{lof}{\contentsline {figure}{\numberline {9}{\ignorespaces NEFdistributions for full jets.\relax }}{11}{figure.caption.11}}
\newlabel{fig:NEF}{{9}{11}{NEFdistributions for full jets.\relax }{figure.caption.11}{}}
\@writefile{lof}{\contentsline {figure}{\numberline {10}{\ignorespaces NEFdistributions for full jets.\relax }}{12}{figure.caption.12}}
\newlabel{fig:NEF}{{10}{12}{NEFdistributions for full jets.\relax }{figure.caption.12}{}}
\@LN{150}{13}
\@writefile{toc}{\contentsline {section}{\numberline {6}Underlying Event}{12}{section.6}}
\@LN{151}{13}
\@LN{152}{13}
\@LN{153}{13}
\@LN{154}{13}
\@LN{155}{13}
\@LN{156}{13}
\@LN{157}{13}
\@LN{158}{13}
\@writefile{toc}{\contentsline {subsection}{\numberline {6.1}Methods to measure rho}{12}{subsection.6.1}}
\@LN{159}{13}
\@writefile{toc}{\contentsline {subsubsection}{\numberline {6.1.1}CMS-like method}{12}{subsubsection.6.1.1}}
\@LN{160}{13}
\@LN{161}{13}
\@LN{162}{13}
\@LN{163}{13}
\@LN{164}{13}
\@LN{165}{13}
\newlabel{eqn:cmsrho}{{2}{12}{CMS-like method}{equation.6.2}{}}
\@LN{166}{14}
\@LN{167}{14}
\@LN{168}{14}
\@LN{169}{14}
\@writefile{toc}{\contentsline {subsection}{\numberline {6.2}Scale Factor}{13}{subsection.6.2}}
\@LN{170}{14}
\@LN{171}{14}
\@LN{172}{14}
\@LN{173}{14}
\@LN{174}{14}
\@LN{175}{14}
\@LN{176}{14}
\newlabel{eqn:scale}{{3}{13}{Scale Factor}{equation.6.3}{}}
\@LN{177}{14}
\@LN{178}{14}
\@LN{179}{14}
\@LN{180}{14}
\@LN{181}{14}
\@LN{182}{14}
\@LN{183}{14}
\@LN{184}{14}
\@LN{185}{14}
\@LN{186}{14}
\@LN{187}{14}
\@LN{188}{14}
\@writefile{lof}{\contentsline {figure}{\numberline {11}{\ignorespaces Scale factor $s_{\rm  EMC}$ as measured as function of the V0A multiplicity class estimator. \relax }}{14}{figure.caption.13}}
\newlabel{fig:ScaleFactor}{{11}{14}{Scale factor $s_{\rm EMC}$ as measured as function of the V0A multiplicity class estimator. \relax }{figure.caption.13}{}}
\@LN{189}{15}
\@writefile{toc}{\contentsline {section}{\numberline {7}Underlying Event}{14}{section.7}}
\@LN{190}{15}
\@LN{191}{15}
\@LN{192}{15}
\@LN{193}{15}
\@LN{194}{15}
\@LN{195}{15}
\@LN{196}{15}
\@LN{197}{15}
\@writefile{toc}{\contentsline {subsection}{\numberline {7.1}Methods to measure rho}{14}{subsection.7.1}}
\@LN{198}{15}
\@writefile{toc}{\contentsline {subsubsection}{\numberline {7.1.1}CMS-like method}{14}{subsubsection.7.1.1}}
\@LN{199}{15}
\@LN{200}{15}
\@LN{201}{15}
\newlabel{eqn:cmsrho}{{4}{14}{CMS-like method}{equation.7.4}{}}
\@LN{202}{15}
\@LN{203}{15}
\@LN{204}{15}
\@LN{205}{16}
\@writefile{toc}{\contentsline {subsection}{\numberline {7.2}Scale Factor}{15}{subsection.7.2}}
\@LN{206}{16}
\@LN{207}{16}
\@LN{208}{16}
\@LN{209}{16}
\@LN{210}{16}
\@LN{211}{16}
\@LN{212}{16}
\newlabel{eqn:scale}{{5}{15}{Scale Factor}{equation.7.5}{}}
\@LN{213}{16}
\@LN{214}{16}
\@LN{215}{16}
\@LN{216}{16}
\@LN{217}{16}
\@LN{218}{16}
\@LN{219}{16}
\@LN{220}{16}
\@LN{221}{16}
\@LN{222}{16}
\@LN{223}{16}
\@writefile{lof}{\contentsline {figure}{\numberline {12}{\ignorespaces Scale factor $s_{\rm  EMC}$ as measured as function of the V0A multiplicity class estimator. \relax }}{15}{figure.caption.14}}
\newlabel{fig:ScaleFactor}{{12}{15}{Scale factor $s_{\rm EMC}$ as measured as function of the V0A multiplicity class estimator. \relax }{figure.caption.14}{}}
\@LN{224}{16}
\citation{Abelev:2012ej}
\citation{CentralityTwiki}
\@LN{225}{17}
\@writefile{toc}{\contentsline {section}{\numberline {8}Background Fluctuations: \ensuremath  {\delta \ensuremath  {p_T}}}{16}{section.8}}
\@LN{226}{17}
\@LN{227}{17}
\@LN{228}{17}
\@LN{229}{17}
\@LN{230}{17}
\@LN{231}{17}
\newlabel{eq:deltaRC}{{6}{16}{Background Fluctuations: \dpT }{equation.8.6}{}}
\@LN{232}{17}
\@LN{233}{17}
\@LN{234}{17}
\@LN{235}{17}
\@LN{236}{17}
\newlabel{tab:NCollTAANPart}{{\caption@xref {tab:NCollTAANPart}{ on input line 32}}{16}{Background Fluctuations: \dpT }{table.caption.15}{}}
\@writefile{lot}{\contentsline {table}{\numberline {2}{\ignorespaces \relax \fontsize  {10}{12}\selectfont  \abovedisplayskip 10\p@ plus2\p@ minus5\p@ \abovedisplayshortskip \z@ plus3\p@ \belowdisplayshortskip 6\p@ plus3\p@ minus3\p@ \def \leftmargin \leftmargini \parsep 4.5\p@ plus2\p@ minus\p@ \topsep 9\p@ plus3\p@ minus5\p@ \itemsep 4.5\p@ plus2\p@ minus\p@ {\leftmargin \leftmargini \topsep 6\p@ plus2\p@ minus2\p@ \parsep 3\p@ plus2\p@ minus\p@ \itemsep \parsep }\belowdisplayskip \abovedisplayskip  $N_{{\mathrm  {coll}}}$ used for the partially exlusion of jet averlap with the random cones technique to estimate background fluctuations. \relax }}{16}{table.caption.15}}
\@LN{237}{17}
\@LN{238}{17}
\@LN{239}{17}
\@LN{240}{17}
\@LN{241}{17}
\@LN{242}{17}
\@writefile{lof}{\contentsline {figure}{\numberline {13}{\ignorespaces  Background fluctuations for $R=0.4$ in different centrality bins (V0A centrality estimator) in the good runs (LHC13b) for charged jets.\relax }}{17}{figure.caption.16}}
\newlabel{fig:DeltaPtChargedR040LHC13b}{{13}{17}{Background fluctuations for $R=0.4$ in different centrality bins (V0A centrality estimator) in the good runs (LHC13b) for charged jets.\relax }{figure.caption.16}{}}
\@LN{243}{18}
\@writefile{toc}{\contentsline {section}{\numberline {9}Detector Response}{17}{section.9}}
\@LN{244}{18}
\@LN{245}{18}
\@LN{246}{18}
\@LN{247}{18}
\@LN{248}{18}
\@LN{249}{18}
\@LN{250}{18}
\@LN{251}{18}
\@LN{252}{18}
\@LN{253}{18}
\@LN{254}{18}
\@LN{255}{18}
\@LN{256}{18}
\@LN{257}{18}
\@LN{258}{18}
\@LN{259}{18}
\@writefile{lof}{\contentsline {figure}{\numberline {14}{\ignorespaces  Background fluctuations for $R=0.4$ in different centrality bins (V0A centrality estimator) in the good runs (LHC13b) for full jets.\relax }}{18}{figure.caption.17}}
\newlabel{fig:DeltaPtFullR040LHC13b}{{14}{18}{Background fluctuations for $R=0.4$ in different centrality bins (V0A centrality estimator) in the good runs (LHC13b) for full jets.\relax }{figure.caption.17}{}}
\@LN{260}{19}
\@LN{261}{19}
\@LN{262}{19}
\@LN{263}{19}
\@LN{264}{19}
\@LN{265}{19}
\@LN{266}{19}
\@LN{267}{19}
\@writefile{lof}{\contentsline {figure}{\numberline {15}{\ignorespaces  Background fluctuations for $R=0.4$ in different centrality bins (V0A centrality estimator) in the semi-good runs (LHC13c) for charged jets.\relax }}{19}{figure.caption.18}}
\newlabel{fig:DeltaPtChargedR040LHC13c}{{15}{19}{Background fluctuations for $R=0.4$ in different centrality bins (V0A centrality estimator) in the semi-good runs (LHC13c) for charged jets.\relax }{figure.caption.18}{}}
\@writefile{lof}{\contentsline {figure}{\numberline {16}{\ignorespaces  Background fluctuations for $R=0.4$ in different centrality bins (V0A centrality estimator) in the semi-good runs (LHC13c) for full jets.\relax }}{20}{figure.caption.19}}
\newlabel{fig:DeltaPtFullR040LHC13c}{{16}{20}{Background fluctuations for $R=0.4$ in different centrality bins (V0A centrality estimator) in the semi-good runs (LHC13c) for full jets.\relax }{figure.caption.19}{}}
\@writefile{lof}{\contentsline {figure}{\numberline {17}{\ignorespaces The detector RM for R=0.4 PYTHIA jets embeded in semi-good runs.\relax }}{20}{figure.caption.20}}
\newlabel{fig:detRMR4}{{17}{20}{The detector RM for R=0.4 PYTHIA jets embeded in semi-good runs.\relax }{figure.caption.20}{}}
\@writefile{lof}{\contentsline {figure}{\numberline {18}{\ignorespaces The shift in $p_{T}$ due to detector effects for a 50-60 GeV/c particle level jet.\relax }}{21}{figure.caption.21}}
\newlabel{fig:jfeff}{{18}{21}{The shift in $p_{T}$ due to detector effects for a 50-60 GeV/c particle level jet.\relax }{figure.caption.21}{}}
\@writefile{lof}{\contentsline {figure}{\numberline {19}{\ignorespaces The jet finding efficiency for R=0.4 PYTHIA jets embeded in semi-good runs.\relax }}{21}{figure.caption.22}}
\newlabel{fig:jfeff}{{19}{21}{The jet finding efficiency for R=0.4 PYTHIA jets embeded in semi-good runs.\relax }{figure.caption.22}{}}
\@writefile{lof}{\contentsline {figure}{\numberline {20}{\ignorespaces The RM to account for background fluctuations built from the $\delta p_{T}$ distribution for R=0.4 jets.\relax }}{22}{figure.caption.23}}
\newlabel{fig:dptRMR4}{{20}{22}{The RM to account for background fluctuations built from the $\delta p_{T}$ distribution for R=0.4 jets.\relax }{figure.caption.23}{}}
\@writefile{lof}{\contentsline {figure}{\numberline {21}{\ignorespaces The detector RM for R=0.4 PYTHIA jets embeded in semi-good runs.\relax }}{22}{figure.caption.24}}
\newlabel{fig:combRMR4}{{21}{22}{The detector RM for R=0.4 PYTHIA jets embeded in semi-good runs.\relax }{figure.caption.24}{}}
\bibstyle{plain}
\bibdata{biblio}
\bibcite{Abelev:2012ej}{1}
\bibcite{CentralityTwiki}{2}
\bibcite{Cacciari:2005hq}{3}
\bibcite{Cacciari:2011ma}{4}
\bibcite{ppnote}{5}
\bibcite{FullJetPbPbANNote}{6}
\bibcite{ChJetPbPbANNote}{7}
\@LN{268}{24}
\@LN{269}{24}
\@LN{270}{24}
\@LN{271}{24}
\@LN{272}{24}
\@LN{273}{24}
\@LN{274}{24}
\@LN{275}{24}
\@LN{276}{24}
\@LN{277}{24}
\@LN{278}{24}
\@LN{279}{24}
