%!PS-Adobe-2.0 EPSF-2.0
%%BoundingBox:  0 0 567 398
%%Title: : 
%%Creator: ROOT Version 5.34/09
%%CreationDate: Fri Mar 28 16:23:11 2014
%%EndComments
%%BeginProlog
80 dict begin
/s {stroke} def /l {lineto} def /m {moveto} def /t {translate} def
/r {rotate} def /rl {roll}  def /R {repeat} def
/d {rlineto} def /rm {rmoveto} def /gr {grestore} def /f {eofill} def
/c {setrgbcolor} def /black {0 setgray} def /sd {setdash} def
/cl {closepath} def /sf {scalefont setfont} def /lw {setlinewidth} def
/box {m dup 0 exch d exch 0 d 0 exch neg d cl} def
/NC{systemdict begin initclip end}def/C{NC box clip newpath}def
/bl {box s} def /bf {box f} def /Y { 0 exch d} def /X { 0 d} def 
/K {{pop pop 0 moveto} exch kshow} bind def
/ita {/ang 15 def gsave [1 0 ang dup sin exch cos div 1 0 0] concat} def 
/mp {newpath /y exch def /x exch def} def
/side {[w .77 mul w .23 mul] .385 w mul sd w 0 l currentpoint t -144 r} def
/mr {mp x y w2 0 360 arc} def /m24 {mr s} def /m20 {mr f} def
/mb {mp x y w2 add m w2 neg 0 d 0 w neg d w 0 d 0 w d cl} def
/mt {mp x y w2 add m w2 neg w neg d w 0 d cl} def
/m21 {mb f} def /m25 {mb s} def /m22 {mt f} def /m26{mt s} def
/m23 {mp x y w2 sub m w2 w d w neg 0 d cl f} def
/m27 {mp x y w2 add m w3 neg w2 neg d w3 w2 neg d w3 w2 d cl s} def
/m28 {mp x w2 sub y w2 sub w3 add m w3 0 d  0 w3 neg d w3 0 d 0 w3 d w3 0 d  0 w3 d w3 neg 0 d 0 w3 d w3 neg 0 d 0 w3 neg d w3 neg 0 d cl s } def
/m29 {mp gsave x w2 sub y w2 add w3 sub m currentpoint t 4 {side} repeat cl fill gr} def
/m30 {mp gsave x w2 sub y w2 add w3 sub m currentpoint t 4 {side} repeat cl s gr} def
/m31 {mp x y w2 sub m 0 w d x w2 sub y m w 0 d x w2 sub y w2 add m w w neg d x w2 sub y w2 sub m w w d s} def
/m32 {mp x y w2 sub m w2 w d w neg 0 d cl s} def
/m33 {mp x y w2 add m w3 neg w2 neg d w3 w2 neg d w3 w2 d cl f} def
/m34 {mp x w2 sub y w2 sub w3 add m w3 0 d  0 w3 neg d w3 0 d 0 w3 d w3 0 d  0 w3 d w3 neg 0 d 0 w3 d w3 neg 0 d 0 w3 neg d w3 neg 0 d cl f } def
/m2 {mp x y w2 sub m 0 w d x w2 sub y m w 0 d s} def
/m5 {mp x w2 sub y w2 sub m w w d x w2 sub y w2 add m w w neg d s} def
/reEncode {exch findfont dup length dict begin {1 index /FID eq  {pop pop} {def} ifelse } forall /Encoding exch def currentdict end dup /FontName get exch definefont pop } def [/Times-Bold /Times-Italic /Times-BoldItalic /Helvetica /Helvetica-Oblique
 /Helvetica-Bold /Helvetica-BoldOblique /Courier /Courier-Oblique /Courier-Bold /Courier-BoldOblique /Times-Roman /AvantGarde-Book /AvantGarde-BookOblique /AvantGarde-Demi /AvantGarde-DemiOblique /Bookman-Demi /Bookman-DemiItalic /Bookman-Light
 /Bookman-LightItalic /Helvetica-Narrow /Helvetica-Narrow-Bold /Helvetica-Narrow-BoldOblique /Helvetica-Narrow-Oblique /NewCenturySchlbk-Roman /NewCenturySchlbk-Bold /NewCenturySchlbk-BoldItalic /NewCenturySchlbk-Italic /Palatino-Bold
 /Palatino-BoldItalic /Palatino-Italic /Palatino-Roman ] {ISOLatin1Encoding reEncode } forall
%%EndProlog
%%BeginSetup
%%EndSetup
newpath  gsave  .25 .25 scale  gsave  0 0 t black[  ] 0 sd 3 lw 0.999 0.999 0.999 c 2268 1594 0 0 bf black 0.999 0.999 0.999 c 1814 1276 227 159 bf black 1814 1276 227 159 bl 0 0 1 c 1 1 1 c 0 0 1 c 227 806 m 22 X s 265 806 m 22 X s /w 16 def /w2 {w
 2 div} def /w3 {w 3 div} def 257 806 m20 287 854 m 22 X s 326 854 m 22 X s 317 854 m20 348 907 m 22 X s 386 907 m 22 X s 378 907 m20 408 922 m 22 X s 447 922 m 22 X s 438 922 m20 469 952 m 22 X s 507 952 m 22 X s 499 952 m20 529 938 m 22 X s 568 938
 m 22 X s 559 938 m20 590 954 m 22 X s 628 954 m 22 X s 620 954 m20 650 974 m 22 X s 689 974 m 22 X s 680 974 m20 711 975 m 22 X s 749 975 m 22 X s 741 975 m20 771 976 m 22 X s 809 976 m 22 X s 801 976 m20 831 978 m 23 X s 870 978 m 22 X s 862 978
 m20 892 989 m 22 X s 930 989 m 22 X s 922 989 m20 952 1000 m 22 X s 991 1000 m 22 X s 983 1000 m20 1013 982 m 22 X s 1051 982 m 22 X s 1043 982 m20 1073 1012 m 22 X s 1112 1012 m 22 X s 1104 1012 m20 1134 999 m 22 X s 1172 999 m 22 X s 1164 999 m20
 1194 1002 m 22 X s 1233 1002 m 22 X s 1225 1002 m20 1255 1000 m 22 X s 1293 1000 m 22 X s 1285 1000 m20 1315 1035 m 22 X s 1354 1035 m 22 X s 1346 1035 m20 1376 1031 m 22 X s 1414 1031 m 22 X s 1406 1031 m20 1436 1022 m 22 X s 1475 1022 m 22 X s
 1466 1022 m20 1497 1004 m 22 X s 1535 1004 m 22 X s 1527 1004 m20 1557 1019 m 22 X s 1596 1019 m 22 X s 1587 1019 m20 1618 1017 m 22 X s 1656 1017 m 22 X s 1648 1017 m20 1678 1033 m 22 X s 1717 1033 m 22 X s 1708 1033 m20 1739 1062 m 22 X s 1777
 1062 m 22 X s 1769 1062 m20 1799 1020 m 22 X s 1838 1020 m 22 X s 1829 1020 m20 1860 1061 m 22 X s 1898 1061 m 22 X s 1890 1061 m20 1920 1059 m 22 X s 1958 1059 m 22 X s 1950 1059 m20 1980 1049 m 22 X s 2019 1049 m 22 X s 2011 1049 m20 black 227 159
 m 1814 X s
 gsave  2268 1594 0 0 C 1891.82 51.3523 t 0 r /Helvetica findfont 51.3523 sf 0 0 m ( \(GeV\)) show NC gr 
 gsave  2268 1594 0 0 C 1824.03 22.595 t 0 r /Helvetica findfont 34.9195 sf 0 0 m (T,jet) show NC gr 
 gsave  2268 1594 0 0 C 1795.28 51.3523 t 0 r /Helvetica findfont 51.3523 sf 0 0 m (p) show NC gr  227 198 m -39 Y s 287 179 m -20 Y s 348 179 m -20 Y s 408 179 m -20 Y s 469 198 m -39 Y s 529 179 m -20 Y s 590 179 m -20 Y s 650 179 m -20 Y s 711 198
 m -39 Y s 771 179 m -20 Y s 831 179 m -20 Y s 892 179 m -20 Y s 952 198 m -39 Y s 1013 179 m -20 Y s 1073 179 m -20 Y s 1134 179 m -20 Y s 1194 198 m -39 Y s 1255 179 m -20 Y s 1315 179 m -20 Y s 1376 179 m -20 Y s 1436 198 m -39 Y s 1497 179 m -20
 Y s 1557 179 m -20 Y s 1618 179 m -20 Y s 1678 198 m -39 Y s 1739 179 m -20 Y s 1799 179 m -20 Y s 1860 179 m -20 Y s 1920 198 m -39 Y s 1920 198 m -39 Y s 1980 179 m -20 Y s 2041 179 m -20 Y s
 gsave  2268 1594 0 0 C 211.571 106.813 t 0 r /Helvetica findfont 51.3523 sf 0 0 m (0) show NC gr 
 gsave  2268 1594 0 0 C 439.576 106.813 t 0 r /Helvetica findfont 51.3523 sf 0 0 m (20) show NC gr 
 gsave  2268 1594 0 0 C 679.904 106.813 t 0 r /Helvetica findfont 51.3523 sf 0 0 m (40) show NC gr 
 gsave  2268 1594 0 0 C 922.287 106.813 t 0 r /Helvetica findfont 51.3523 sf 0 0 m (60) show NC gr 
 gsave  2268 1594 0 0 C 1164.67 106.813 t 0 r /Helvetica findfont 51.3523 sf 0 0 m (80) show NC gr 
 gsave  2268 1594 0 0 C 1392.67 106.813 t 0 r /Helvetica findfont 51.3523 sf 0 0 m (100) show NC gr 
 gsave  2268 1594 0 0 C 1633 106.813 t 0 r /Helvetica findfont 51.3523 sf 0 0 m (120) show NC gr 
 gsave  2268 1594 0 0 C 1875.39 106.813 t 0 r /Helvetica findfont 51.3523 sf 0 0 m (140) show NC gr  227 159 m 1276 Y s
 gsave  2268 1594 0 0 C 92.4341 1273.54 t 90 r /Helvetica findfont 51.3523 sf 0 0 m (<NEF>) show NC gr  281 159 m -54 X s 254 185 m -27 X s 254 210 m -27 X s 254 236 m -27 X s 254 261 m -27 X s 281 287 m -54 X s 254 312 m -27 X s 254 338 m -27 X s
 254 363 m -27 X s 254 389 m -27 X s 281 414 m -54 X s 254 440 m -27 X s 254 465 m -27 X s 254 491 m -27 X s 254 516 m -27 X s 281 542 m -54 X s 254 567 m -27 X s 254 593 m -27 X s 254 618 m -27 X s 254 644 m -27 X s 281 669 m -54 X s 254 695 m -27 X
 s 254 720 m -27 X s 254 746 m -27 X s 254 771 m -27 X s 281 797 m -54 X s 254 822 m -27 X s 254 848 m -27 X s 254 873 m -27 X s 254 899 m -27 X s 281 925 m -54 X s 254 950 m -27 X s 254 976 m -27 X s 254 1001 m -27 X s 254 1027 m -27 X s 281 1052 m
 -54 X s 254 1078 m -27 X s 254 1103 m -27 X s 254 1129 m -27 X s 254 1154 m -27 X s 281 1180 m -54 X s 254 1205 m -27 X s 254 1231 m -27 X s 254 1256 m -27 X s 254 1282 m -27 X s 281 1307 m -54 X s 254 1333 m -27 X s 254 1358 m -27 X s 254 1384 m
 -27 X s 254 1409 m -27 X s 281 1435 m -54 X s
 gsave  2268 1594 0 0 C 186.922 141.732 t 0 r /Helvetica findfont 51.3523 sf 0 0 m (0) show NC gr 
 gsave  2268 1594 0 0 C 115.029 269.086 t 0 r /Helvetica findfont 51.3523 sf 0 0 m (0.05) show NC gr 
 gsave  2268 1594 0 0 C 152.003 396.44 t 0 r /Helvetica findfont 51.3523 sf 0 0 m (0.1) show NC gr 
 gsave  2268 1594 0 0 C 115.029 523.793 t 0 r /Helvetica findfont 51.3523 sf 0 0 m (0.15) show NC gr 
 gsave  2268 1594 0 0 C 143.786 651.147 t 0 r /Helvetica findfont 51.3523 sf 0 0 m (0.2) show NC gr 
 gsave  2268 1594 0 0 C 115.029 778.5 t 0 r /Helvetica findfont 51.3523 sf 0 0 m (0.25) show NC gr 
 gsave  2268 1594 0 0 C 143.786 907.908 t 0 r /Helvetica findfont 51.3523 sf 0 0 m (0.3) show NC gr 
 gsave  2268 1594 0 0 C 115.029 1035.26 t 0 r /Helvetica findfont 51.3523 sf 0 0 m (0.35) show NC gr 
 gsave  2268 1594 0 0 C 143.786 1162.62 t 0 r /Helvetica findfont 51.3523 sf 0 0 m (0.4) show NC gr 
 gsave  2268 1594 0 0 C 115.029 1289.97 t 0 r /Helvetica findfont 51.3523 sf 0 0 m (0.45) show NC gr 
 gsave  2268 1594 0 0 C 143.786 1417.32 t 0 r /Helvetica findfont 51.3523 sf 0 0 m (0.5) show NC gr  1 1 1 c black 257 159 m 1043 Y s 257 1218 m 217 Y s 227 1210 m 22 X s 265 1210 m 22 X s 257 1210 m21 317 159 m 1064 Y s 317 1239 m 196 Y s 287 1231 m
 22 X s 326 1231 m 22 X s 317 1231 m21 378 159 m 1109 Y s 378 1285 m 150 Y s 348 1277 m 22 X s 386 1277 m 22 X s 378 1277 m21 438 741 m 436 Y s 438 1193 m 242 Y s 408 1185 m 22 X s 447 1185 m 22 X s 438 1185 m21 499 1299 m 60 Y s 499 1376 m 59 Y s
 469 1367 m 22 X s 507 1367 m 22 X s 499 1367 m21 529 1231 m 22 X s 568 1231 m 22 X s 559 1231 m21 590 1202 m 22 X s 628 1202 m 22 X s 620 1202 m21 650 1226 m 22 X s 689 1226 m 22 X s 680 1226 m21 711 1229 m 22 X s 749 1229 m 22 X s 741 1229 m21 771
 1238 m 22 X s 809 1238 m 22 X s 801 1238 m21 831 1187 m 23 X s 870 1187 m 22 X s 862 1187 m21 892 1239 m 22 X s 930 1239 m 22 X s 922 1239 m21 952 1192 m 22 X s 991 1192 m 22 X s 983 1192 m21 1013 1210 m 22 X s 1051 1210 m 22 X s 1043 1210 m21 1073
 1231 m 22 X s 1112 1231 m 22 X s 1104 1231 m21 1134 1215 m 22 X s 1172 1215 m 22 X s 1164 1215 m21 1194 1237 m 22 X s 1233 1237 m 22 X s 1225 1237 m21 1255 1206 m 22 X s 1293 1206 m 22 X s 1285 1206 m21 1315 1223 m 22 X s 1354 1223 m 22 X s 1346
 1223 m21 1376 1213 m 22 X s 1414 1213 m 22 X s 1406 1213 m21 1436 1259 m 22 X s 1475 1259 m 22 X s 1466 1259 m21 1497 1237 m 22 X s 1535 1237 m 22 X s 1527 1237 m21 1557 1216 m 22 X s 1596 1216 m 22 X s 1587 1216 m21 1618 1236 m 22 X s 1656 1236 m
 22 X s 1648 1236 m21 1678 1227 m 22 X s 1717 1227 m 22 X s 1708 1227 m21 1739 1242 m 22 X s 1777 1242 m 22 X s 1769 1242 m21 1799 1235 m 22 X s 1838 1235 m 22 X s 1829 1235 m21 1860 1214 m 22 X s 1898 1214 m 22 X s 1890 1214 m21 1920 1223 m 22 X s
 1958 1223 m 22 X s 1950 1223 m21 1980 1207 m 22 X s 2019 1207 m 22 X s 2011 1207 m21 1 1 1 c 681 240 1247 398 bf black
 gsave  2268 1594 0 0 C 1417.32 558.713 t 0 r /Helvetica-Bold findfont 53.4064 sf 0 0 m (Detector Level) show NC gr  0 0 1 c 1332 578 m20 black
 gsave  2268 1594 0 0 C 1417.32 439.576 t 0 r /Helvetica-Bold findfont 53.4064 sf 0 0 m (Particle Level) show NC gr  1332 458 m21
 gsave  2268 1594 0 0 C 1435.81 796.987 t 0 r /Helvetica-Bold findfont 55.4605 sf 0 0 m (Jet <NEF>) show NC gr 
 gsave  2268 1594 0 0 C 1606.3 696.337 t 0 r /Helvetica-Bold findfont 55.4605 sf 0 0 m ( R = 0.4) show NC gr 
 gsave  2268 1594 0 0 C 1583.7 677.85 t 0 r /Helvetica-Bold findfont 36.9736 sf 0 0 m (T) show NC gr 
 gsave  2268 1594 0 0 C 1435.81 696.337 t 0 r /Helvetica-Bold findfont 55.4605 sf 0 0 m (anti\255k) show NC gr 
 gr  gr showpage
end
%%EOF
