%!PS-Adobe-2.0 EPSF-2.0
%%BoundingBox:  0 0 567 398
%%Title: : 
%%Creator: ROOT Version 5.34/09
%%CreationDate: Fri Mar 28 16:23:11 2014
%%EndComments
%%BeginProlog
80 dict begin
/s {stroke} def /l {lineto} def /m {moveto} def /t {translate} def
/r {rotate} def /rl {roll}  def /R {repeat} def
/d {rlineto} def /rm {rmoveto} def /gr {grestore} def /f {eofill} def
/c {setrgbcolor} def /black {0 setgray} def /sd {setdash} def
/cl {closepath} def /sf {scalefont setfont} def /lw {setlinewidth} def
/box {m dup 0 exch d exch 0 d 0 exch neg d cl} def
/NC{systemdict begin initclip end}def/C{NC box clip newpath}def
/bl {box s} def /bf {box f} def /Y { 0 exch d} def /X { 0 d} def 
/K {{pop pop 0 moveto} exch kshow} bind def
/ita {/ang 15 def gsave [1 0 ang dup sin exch cos div 1 0 0] concat} def 
/mp {newpath /y exch def /x exch def} def
/side {[w .77 mul w .23 mul] .385 w mul sd w 0 l currentpoint t -144 r} def
/mr {mp x y w2 0 360 arc} def /m24 {mr s} def /m20 {mr f} def
/mb {mp x y w2 add m w2 neg 0 d 0 w neg d w 0 d 0 w d cl} def
/mt {mp x y w2 add m w2 neg w neg d w 0 d cl} def
/m21 {mb f} def /m25 {mb s} def /m22 {mt f} def /m26{mt s} def
/m23 {mp x y w2 sub m w2 w d w neg 0 d cl f} def
/m27 {mp x y w2 add m w3 neg w2 neg d w3 w2 neg d w3 w2 d cl s} def
/m28 {mp x w2 sub y w2 sub w3 add m w3 0 d  0 w3 neg d w3 0 d 0 w3 d w3 0 d  0 w3 d w3 neg 0 d 0 w3 d w3 neg 0 d 0 w3 neg d w3 neg 0 d cl s } def
/m29 {mp gsave x w2 sub y w2 add w3 sub m currentpoint t 4 {side} repeat cl fill gr} def
/m30 {mp gsave x w2 sub y w2 add w3 sub m currentpoint t 4 {side} repeat cl s gr} def
/m31 {mp x y w2 sub m 0 w d x w2 sub y m w 0 d x w2 sub y w2 add m w w neg d x w2 sub y w2 sub m w w d s} def
/m32 {mp x y w2 sub m w2 w d w neg 0 d cl s} def
/m33 {mp x y w2 add m w3 neg w2 neg d w3 w2 neg d w3 w2 d cl f} def
/m34 {mp x w2 sub y w2 sub w3 add m w3 0 d  0 w3 neg d w3 0 d 0 w3 d w3 0 d  0 w3 d w3 neg 0 d 0 w3 d w3 neg 0 d 0 w3 neg d w3 neg 0 d cl f } def
/m2 {mp x y w2 sub m 0 w d x w2 sub y m w 0 d s} def
/m5 {mp x w2 sub y w2 sub m w w d x w2 sub y w2 add m w w neg d s} def
/reEncode {exch findfont dup length dict begin {1 index /FID eq  {pop pop} {def} ifelse } forall /Encoding exch def currentdict end dup /FontName get exch definefont pop } def [/Times-Bold /Times-Italic /Times-BoldItalic /Helvetica /Helvetica-Oblique
 /Helvetica-Bold /Helvetica-BoldOblique /Courier /Courier-Oblique /Courier-Bold /Courier-BoldOblique /Times-Roman /AvantGarde-Book /AvantGarde-BookOblique /AvantGarde-Demi /AvantGarde-DemiOblique /Bookman-Demi /Bookman-DemiItalic /Bookman-Light
 /Bookman-LightItalic /Helvetica-Narrow /Helvetica-Narrow-Bold /Helvetica-Narrow-BoldOblique /Helvetica-Narrow-Oblique /NewCenturySchlbk-Roman /NewCenturySchlbk-Bold /NewCenturySchlbk-BoldItalic /NewCenturySchlbk-Italic /Palatino-Bold
 /Palatino-BoldItalic /Palatino-Italic /Palatino-Roman ] {ISOLatin1Encoding reEncode } forall
%%EndProlog
%%BeginSetup
%%EndSetup
newpath  gsave  .25 .25 scale  gsave  0 0 t black[  ] 0 sd 3 lw 0.999 0.999 0.999 c 2268 1594 0 0 bf black 0.999 0.999 0.999 c 1814 1276 227 159 bf black 1814 1276 227 159 bl 0 0 1 c 1 1 1 c 0 0 1 c 227 344 m 10 X s 253 344 m 10 X s /w 16 def /w2 {w
 2 div} def /w3 {w 3 div} def 245 344 m20 281 910 m 14 Y s 281 940 m 14 Y s 263 932 m 10 X s 289 932 m 10 X s 281 932 m20 317 941 m 33 Y s 317 991 m 33 Y s 299 982 m 10 X s 326 982 m 10 X s 317 982 m20 354 942 m 47 Y s 354 1005 m 47 Y s 336 997 m 10
 X s 362 997 m 10 X s 354 997 m20 390 963 m 56 Y s 390 1036 m 56 Y s 372 1027 m 10 X s 398 1027 m 10 X s 390 1027 m20 426 943 m 56 Y s 426 1015 m 56 Y s 408 1007 m 10 X s 435 1007 m 9 X s 426 1007 m20 463 951 m 54 Y s 463 1022 m 55 Y s 444 1014 m 10
 X s 471 1014 m 10 X s 463 1014 m20 499 993 m 59 Y s 499 1068 m 59 Y s 481 1060 m 10 X s 507 1060 m 10 X s 499 1060 m20 535 993 m 55 Y s 535 1064 m 54 Y s 517 1056 m 10 X s 543 1056 m 10 X s 535 1056 m20 571 947 m 55 Y s 571 1018 m 55 Y s 553 1010 m
 10 X s 580 1010 m 10 X s 571 1010 m20 608 1006 m 49 Y s 608 1072 m 49 Y s 590 1063 m 10 X s 616 1063 m 10 X s 608 1063 m20 644 1009 m 50 Y s 644 1076 m 51 Y s 626 1068 m 10 X s 652 1068 m 10 X s 644 1068 m20 680 977 m 58 Y s 680 1052 m 58 Y s 662
 1043 m 10 X s 689 1043 m 9 X s 680 1043 m20 717 1000 m 55 Y s 717 1071 m 55 Y s 698 1063 m 10 X s 725 1063 m 10 X s 717 1063 m20 753 946 m 53 Y s 753 1016 m 53 Y s 735 1008 m 10 X s 761 1008 m 10 X s 753 1008 m20 789 967 m 61 Y s 789 1044 m 61 Y s
 771 1036 m 10 X s 797 1036 m 10 X s 789 1036 m20 825 959 m 57 Y s 825 1033 m 57 Y s 807 1025 m 10 X s 834 1025 m 10 X s 825 1025 m20 862 966 m 65 Y s 862 1048 m 64 Y s 844 1039 m 10 X s 870 1039 m 10 X s 862 1039 m20 898 952 m 57 Y s 898 1025 m 57 Y
 s 880 1017 m 10 X s 906 1017 m 10 X s 898 1017 m20 934 990 m 58 Y s 934 1064 m 59 Y s 916 1056 m 10 X s 943 1056 m 9 X s 934 1056 m20 971 986 m 62 Y s 971 1064 m 62 Y s 952 1056 m 10 X s 979 1056 m 10 X s 971 1056 m20 1007 987 m 60 Y s 1007 1063 m
 60 Y s 989 1055 m 10 X s 1015 1055 m 10 X s 1007 1055 m20 1043 980 m 58 Y s 1043 1055 m 58 Y s 1025 1046 m 10 X s 1051 1046 m 10 X s 1043 1046 m20 1079 988 m 58 Y s 1079 1062 m 58 Y s 1061 1054 m 10 X s 1088 1054 m 10 X s 1079 1054 m20 1116 987 m 55
 Y s 1116 1059 m 54 Y s 1098 1050 m 10 X s 1124 1050 m 10 X s 1116 1050 m20 1152 960 m 56 Y s 1152 1032 m 56 Y s 1134 1024 m 10 X s 1160 1024 m 10 X s 1152 1024 m20 1188 991 m 56 Y s 1188 1063 m 57 Y s 1170 1055 m 10 X s 1196 1055 m 10 X s 1188 1055
 m20 1225 994 m 55 Y s 1225 1066 m 55 Y s 1206 1058 m 10 X s 1233 1058 m 10 X s 1225 1058 m20 1261 959 m 54 Y s 1261 1029 m 54 Y s 1243 1021 m 10 X s 1269 1021 m 10 X s 1261 1021 m20 1297 983 m 60 Y s 1297 1060 m 59 Y s 1279 1051 m 10 X s 1305 1051 m
 10 X s 1297 1051 m20 1333 978 m 52 Y s 1333 1047 m 52 Y s 1315 1038 m 10 X s 1342 1038 m 10 X s 1333 1038 m20 1370 968 m 53 Y s 1370 1038 m 53 Y s 1352 1029 m 9 X s 1378 1029 m 10 X s 1370 1029 m20 1406 968 m 55 Y s 1406 1040 m 56 Y s 1388 1032 m 10
 X s 1414 1032 m 10 X s 1406 1032 m20 1442 943 m 49 Y s 1442 1009 m 49 Y s 1424 1000 m 10 X s 1450 1000 m 10 X s 1442 1000 m20 1479 985 m 53 Y s 1479 1055 m 52 Y s 1460 1046 m 10 X s 1487 1046 m 10 X s 1479 1046 m20 1515 994 m 64 Y s 1515 1075 m 64 Y
 s 1497 1067 m 10 X s 1523 1067 m 10 X s 1515 1067 m20 1551 1000 m 53 Y s 1551 1069 m 53 Y s 1533 1061 m 10 X s 1559 1061 m 10 X s 1551 1061 m20 1587 997 m 50 Y s 1587 1063 m 49 Y s 1569 1055 m 10 X s 1596 1055 m 10 X s 1587 1055 m20 1624 978 m 51 Y
 s 1624 1046 m 51 Y s 1606 1038 m 9 X s 1632 1038 m 10 X s 1624 1038 m20 1660 1017 m 59 Y s 1660 1092 m 59 Y s 1642 1084 m 10 X s 1668 1084 m 10 X s 1660 1084 m20 1696 1002 m 53 Y s 1696 1072 m 53 Y s 1678 1064 m 10 X s 1704 1064 m 10 X s 1696 1064
 m20 1733 997 m 65 Y s 1733 1078 m 65 Y s 1714 1070 m 10 X s 1741 1070 m 10 X s 1733 1070 m20 1769 993 m 56 Y s 1769 1066 m 56 Y s 1751 1058 m 10 X s 1777 1058 m 10 X s 1769 1058 m20 1805 999 m 58 Y s 1805 1073 m 58 Y s 1787 1065 m 10 X s 1813 1065 m
 10 X s 1805 1065 m20 1841 983 m 59 Y s 1841 1058 m 60 Y s 1823 1050 m 10 X s 1850 1050 m 10 X s 1841 1050 m20 1878 1008 m 58 Y s 1878 1082 m 58 Y s 1860 1074 m 9 X s 1886 1074 m 10 X s 1878 1074 m20 1914 987 m 58 Y s 1914 1062 m 57 Y s 1896 1053 m
 10 X s 1922 1053 m 10 X s 1914 1053 m20 1950 1026 m 58 Y s 1950 1100 m 58 Y s 1932 1092 m 10 X s 1958 1092 m 10 X s 1950 1092 m20 1987 1036 m 67 Y s 1987 1120 m 68 Y s 1968 1112 m 10 X s 1995 1112 m 10 X s 1987 1112 m20 2023 1014 m 67 Y s 2023 1097
 m 67 Y s 2005 1089 m 10 X s 2031 1089 m 10 X s 2023 1089 m20 black 227 159 m 1814 X s
 gsave  2268 1594 0 0 C 1850.74 49.2982 t 0 r /Helvetica findfont 51.3523 sf 0 0 m ( \(GeV/c\)) show NC gr 
 gsave  2268 1594 0 0 C 1782.95 76.0014 t 0 r /Helvetica findfont 34.9195 sf 0 0 m (part) show NC gr 
 gsave  2268 1594 0 0 C 1782.95 20.5409 t 0 r /Helvetica findfont 34.9195 sf 0 0 m (T,jet) show NC gr 
 gsave  2268 1594 0 0 C 1754.19 49.2982 t 0 r /Helvetica findfont 51.3523 sf 0 0 m (p) show NC gr  227 198 m -39 Y s 299 179 m -20 Y s 372 179 m -20 Y s 444 179 m -20 Y s 517 179 m -20 Y s 590 198 m -39 Y s 662 179 m -20 Y s 735 179 m -20 Y s 807 179
 m -20 Y s 880 179 m -20 Y s 952 198 m -39 Y s 1025 179 m -20 Y s 1098 179 m -20 Y s 1170 179 m -20 Y s 1243 179 m -20 Y s 1315 198 m -39 Y s 1388 179 m -20 Y s 1460 179 m -20 Y s 1533 179 m -20 Y s 1606 179 m -20 Y s 1678 198 m -39 Y s 1751 179 m
 -20 Y s 1823 179 m -20 Y s 1896 179 m -20 Y s 1968 179 m -20 Y s 2041 198 m -39 Y s
 gsave  2268 1594 0 0 C 211.571 106.813 t 0 r /Helvetica findfont 51.3523 sf 0 0 m (0) show NC gr 
 gsave  2268 1594 0 0 C 560.767 106.813 t 0 r /Helvetica findfont 51.3523 sf 0 0 m (50) show NC gr 
 gsave  2268 1594 0 0 C 907.908 106.813 t 0 r /Helvetica findfont 51.3523 sf 0 0 m (100) show NC gr 
 gsave  2268 1594 0 0 C 1271.48 106.813 t 0 r /Helvetica findfont 51.3523 sf 0 0 m (150) show NC gr 
 gsave  2268 1594 0 0 C 1633 106.813 t 0 r /Helvetica findfont 51.3523 sf 0 0 m (200) show NC gr 
 gsave  2268 1594 0 0 C 1996.58 106.813 t 0 r /Helvetica findfont 51.3523 sf 0 0 m (250) show NC gr  227 159 m 1276 Y s
 gsave  2268 1594 0 0 C 82.1636 1216.02 t 90 r /Helvetica findfont 51.3523 sf 0 0 m (Efficiency) show NC gr  281 159 m -54 X s 254 196 m -27 X s 254 232 m -27 X s 254 269 m -27 X s 254 305 m -27 X s 281 342 m -54 X s 254 378 m -27 X s 254 414 m -27 X
 s 254 451 m -27 X s 254 487 m -27 X s 281 524 m -54 X s 254 560 m -27 X s 254 597 m -27 X s 254 633 m -27 X s 254 669 m -27 X s 281 706 m -54 X s 254 742 m -27 X s 254 779 m -27 X s 254 815 m -27 X s 254 852 m -27 X s 281 888 m -54 X s 254 925 m -27
 X s 254 961 m -27 X s 254 997 m -27 X s 254 1034 m -27 X s 281 1070 m -54 X s 254 1107 m -27 X s 254 1143 m -27 X s 254 1180 m -27 X s 254 1216 m -27 X s 281 1252 m -54 X s 254 1289 m -27 X s 254 1325 m -27 X s 254 1362 m -27 X s 254 1398 m -27 X s
 281 1435 m -54 X s
 gsave  2268 1594 0 0 C 143.786 141.732 t 0 r /Helvetica findfont 51.3523 sf 0 0 m (0.5) show NC gr 
 gsave  2268 1594 0 0 C 143.786 324.546 t 0 r /Helvetica findfont 51.3523 sf 0 0 m (0.6) show NC gr 
 gsave  2268 1594 0 0 C 143.786 505.306 t 0 r /Helvetica findfont 51.3523 sf 0 0 m (0.7) show NC gr 
 gsave  2268 1594 0 0 C 143.786 688.12 t 0 r /Helvetica findfont 51.3523 sf 0 0 m (0.8) show NC gr 
 gsave  2268 1594 0 0 C 143.786 870.935 t 0 r /Helvetica findfont 51.3523 sf 0 0 m (0.9) show NC gr 
 gsave  2268 1594 0 0 C 195.139 1051.69 t 0 r /Helvetica findfont 51.3523 sf 0 0 m (1) show NC gr 
 gsave  2268 1594 0 0 C 152.003 1232.45 t 0 r /Helvetica findfont 51.3523 sf 0 0 m (1.1) show NC gr 
 gsave  2268 1594 0 0 C 143.786 1415.27 t 0 r /Helvetica findfont 51.3523 sf 0 0 m (1.2) show NC gr  1 1 1 c black 227 310 m 10 X s 253 310 m 10 X s 245 310 m21 281 945 m 15 Y s 281 976 m 14 Y s 263 968 m 10 X s 289 968 m 10 X s 281 968 m21 317 975 m
 36 Y s 317 1028 m 36 Y s 299 1020 m 10 X s 326 1020 m 10 X s 317 1020 m21 354 984 m 56 Y s 354 1056 m 55 Y s 336 1048 m 10 X s 362 1048 m 10 X s 354 1048 m21 390 996 m 73 Y s 390 1085 m 73 Y s 372 1077 m 10 X s 398 1077 m 10 X s 390 1077 m21 426
 1001 m 82 Y s 426 1100 m 82 Y s 408 1091 m 10 X s 435 1091 m 9 X s 426 1091 m21 463 924 m 81 Y s 463 1021 m 80 Y s 444 1013 m 10 X s 471 1013 m 10 X s 463 1013 m21 499 1012 m 66 Y s 499 1094 m 66 Y s 481 1086 m 10 X s 507 1086 m 10 X s 499 1086 m21
 535 1066 m 116 Y s 535 1199 m 116 Y s 517 1190 m 10 X s 543 1190 m 10 X s 535 1190 m21 571 973 m 72 Y s 571 1061 m 72 Y s 553 1053 m 10 X s 580 1053 m 10 X s 571 1053 m21 608 909 m 82 Y s 608 1008 m 83 Y s 590 1000 m 10 X s 616 1000 m 10 X s 608
 1000 m21 644 945 m 72 Y s 644 1033 m 72 Y s 626 1025 m 10 X s 652 1025 m 10 X s 644 1025 m21 680 909 m 71 Y s 680 996 m 72 Y s 662 988 m 10 X s 689 988 m 9 X s 680 988 m21 717 999 m 76 Y s 717 1092 m 76 Y s 698 1083 m 10 X s 725 1083 m 10 X s 717
 1083 m21 753 959 m 83 Y s 753 1058 m 83 Y s 735 1050 m 10 X s 761 1050 m 10 X s 753 1050 m21 789 968 m 84 Y s 789 1069 m 84 Y s 771 1061 m 10 X s 797 1061 m 10 X s 789 1061 m21 825 932 m 86 Y s 825 1034 m 86 Y s 807 1026 m 10 X s 834 1026 m 10 X s
 825 1026 m21 862 962 m 81 Y s 862 1060 m 81 Y s 844 1052 m 10 X s 870 1052 m 10 X s 862 1052 m21 898 954 m 72 Y s 898 1043 m 72 Y s 880 1035 m 10 X s 906 1035 m 10 X s 898 1035 m21 934 992 m 84 Y s 934 1092 m 84 Y s 916 1084 m 10 X s 943 1084 m 9 X
 s 934 1084 m21 971 941 m 92 Y s 971 1049 m 92 Y s 952 1041 m 10 X s 979 1041 m 10 X s 971 1041 m21 1007 1005 m 85 Y s 1007 1106 m 85 Y s 989 1098 m 10 X s 1015 1098 m 10 X s 1007 1098 m21 1043 950 m 88 Y s 1043 1054 m 88 Y s 1025 1046 m 10 X s 1051
 1046 m 10 X s 1043 1046 m21 1079 964 m 87 Y s 1079 1068 m 87 Y s 1061 1060 m 10 X s 1088 1060 m 10 X s 1079 1060 m21 1116 936 m 84 Y s 1116 1037 m 85 Y s 1098 1029 m 10 X s 1124 1029 m 10 X s 1116 1029 m21 1152 913 m 79 Y s 1152 1008 m 80 Y s 1134
 1000 m 10 X s 1160 1000 m 10 X s 1152 1000 m21 1188 957 m 79 Y s 1188 1052 m 79 Y s 1170 1044 m 10 X s 1196 1044 m 10 X s 1188 1044 m21 1225 1017 m 86 Y s 1225 1119 m 86 Y s 1206 1111 m 10 X s 1233 1111 m 10 X s 1225 1111 m21 1261 957 m 75 Y s 1261
 1049 m 75 Y s 1243 1040 m 10 X s 1269 1040 m 10 X s 1261 1040 m21 1297 984 m 79 Y s 1297 1080 m 79 Y s 1279 1071 m 10 X s 1305 1071 m 10 X s 1297 1071 m21 1333 926 m 90 Y s 1333 1033 m 90 Y s 1315 1025 m 10 X s 1342 1025 m 10 X s 1333 1025 m21 1370
 972 m 93 Y s 1370 1081 m 93 Y s 1352 1073 m 9 X s 1378 1073 m 10 X s 1370 1073 m21 1406 920 m 76 Y s 1406 1012 m 76 Y s 1388 1004 m 10 X s 1414 1004 m 10 X s 1406 1004 m21 1442 910 m 77 Y s 1442 1004 m 78 Y s 1424 996 m 10 X s 1450 996 m 10 X s 1442
 996 m21 1479 983 m 72 Y s 1479 1072 m 73 Y s 1460 1064 m 10 X s 1487 1064 m 10 X s 1479 1064 m21 1515 964 m 79 Y s 1515 1059 m 79 Y s 1497 1051 m 10 X s 1523 1051 m 10 X s 1515 1051 m21 1551 954 m 85 Y s 1551 1056 m 85 Y s 1533 1047 m 10 X s 1559
 1047 m 10 X s 1551 1047 m21 1587 952 m 81 Y s 1587 1049 m 81 Y s 1569 1041 m 10 X s 1596 1041 m 10 X s 1587 1041 m21 1624 997 m 75 Y s 1624 1088 m 74 Y s 1606 1080 m 9 X s 1632 1080 m 10 X s 1624 1080 m21 1660 988 m 98 Y s 1660 1102 m 98 Y s 1642
 1094 m 10 X s 1668 1094 m 10 X s 1660 1094 m21 1696 942 m 74 Y s 1696 1033 m 75 Y s 1678 1025 m 10 X s 1704 1025 m 10 X s 1696 1025 m21 1733 955 m 79 Y s 1733 1050 m 79 Y s 1714 1042 m 10 X s 1741 1042 m 10 X s 1733 1042 m21 1769 926 m 79 Y s 1769
 1021 m 79 Y s 1751 1013 m 10 X s 1777 1013 m 10 X s 1769 1013 m21 1805 987 m 82 Y s 1805 1085 m 82 Y s 1787 1077 m 10 X s 1813 1077 m 10 X s 1805 1077 m21 1841 946 m 83 Y s 1841 1045 m 82 Y s 1823 1037 m 10 X s 1850 1037 m 10 X s 1841 1037 m21 1878
 949 m 84 Y s 1878 1049 m 83 Y s 1860 1041 m 9 X s 1886 1041 m 10 X s 1878 1041 m21 1914 932 m 81 Y s 1914 1030 m 80 Y s 1896 1021 m 10 X s 1922 1021 m 10 X s 1914 1021 m21 1950 945 m 87 Y s 1950 1049 m 87 Y s 1932 1041 m 10 X s 1958 1041 m 10 X s
 1950 1041 m21 1987 973 m 88 Y s 1987 1077 m 88 Y s 1968 1069 m 10 X s 1995 1069 m 10 X s 1987 1069 m21 2023 1016 m 92 Y s 2023 1124 m 92 Y s 2005 1116 m 10 X s 2031 1116 m 10 X s 2023 1116 m21 1 1 1 c 454 319 1474 558 bf black
 gsave  2268 1594 0 0 C 1585.76 764.122 t 0 r /Helvetica-Bold findfont 90.38 sf 0 0 m (R=0.2) show NC gr  0 0 1 c 1531 797 m20 black
 gsave  2268 1594 0 0 C 1585.76 605.957 t 0 r /Helvetica-Bold findfont 90.38 sf 0 0 m (R=0.4) show NC gr  1531 638 m21
 gsave  2268 1594 0 0 C 1468.68 1378.3 t 0 r /Helvetica-Bold findfont 36.9736 sf 0 0 m (part) show NC gr 
 gsave  2268 1594 0 0 C 1468.68 1316.67 t 0 r /Helvetica-Bold findfont 36.9736 sf 0 0 m (T,jet) show NC gr 
 gsave  2268 1594 0 0 C 770.284 1345.43 t 0 r /Helvetica-Bold findfont 55.4605 sf 0 0 m (Jet Finding Efficiency vs p) show NC gr 
 gsave  2268 1594 0 0 C 809.312 583.362 t 0 r /Helvetica-Bold findfont 55.4605 sf 0 0 m (All particle level jets) show NC gr 
 gsave  2268 1594 0 0 C 733.31 651.147 t 0 r /Helvetica-Bold findfont 55.4605 sf 0 0 m (Matched particle level jets) show NC gr  6 lw 733 633 m 686 X s
 gsave  2268 1594 0 0 C 589.524 616.227 t 0 r /Helvetica-Bold findfont 55.4605 sf 0 0 m (Eff = ) show NC gr [ 12 12] 0 sd 227 1070 m 1814 X s
 gr  gr showpage
end
%%EOF
