%!PS-Adobe-2.0 EPSF-2.0
%%BoundingBox:  0 0 567 366
%%Title: ../Unfolding/lhc13_R4_TrackEff.eps: 
%%Creator: ROOT Version 5.34/02
%%CreationDate: Thu Apr 10 21:01:00 2014
%%EndComments
%%BeginProlog
80 dict begin
/s {stroke} def /l {lineto} def /m {moveto} def /t {translate} def
/r {rotate} def /rl {roll}  def /R {repeat} def
/d {rlineto} def /rm {rmoveto} def /gr {grestore} def /f {eofill} def
/c {setrgbcolor} def /black {0 setgray} def /sd {setdash} def
/cl {closepath} def /sf {scalefont setfont} def /lw {setlinewidth} def
/box {m dup 0 exch d exch 0 d 0 exch neg d cl} def
/NC{systemdict begin initclip end}def/C{NC box clip newpath}def
/bl {box s} def /bf {box f} def /Y { 0 exch d} def /X { 0 d} def 
/K {{pop pop 0 moveto} exch kshow} bind def
/ita {/ang 15 def gsave [1 0 ang dup sin exch cos div 1 0 0] concat} def 
/mp {newpath /y exch def /x exch def} def
/side {[w .77 mul w .23 mul] .385 w mul sd w 0 l currentpoint t -144 r} def
/mr {mp x y w2 0 360 arc} def /m24 {mr s} def /m20 {mr f} def
/mb {mp x y w2 add m w2 neg 0 d 0 w neg d w 0 d 0 w d cl} def
/mt {mp x y w2 add m w2 neg w neg d w 0 d cl} def
/m21 {mb f} def /m25 {mb s} def /m22 {mt f} def /m26{mt s} def
/m23 {mp x y w2 sub m w2 w d w neg 0 d cl f} def
/m27 {mp x y w2 add m w3 neg w2 neg d w3 w2 neg d w3 w2 d cl s} def
/m28 {mp x w2 sub y w2 sub w3 add m w3 0 d  0 w3 neg d w3 0 d 0 w3 d w3 0 d  0 w3 d w3 neg 0 d 0 w3 d w3 neg 0 d 0 w3 neg d w3 neg 0 d cl s } def
/m29 {mp gsave x w2 sub y w2 add w3 sub m currentpoint t 4 {side} repeat cl fill gr} def
/m30 {mp gsave x w2 sub y w2 add w3 sub m currentpoint t 4 {side} repeat cl s gr} def
/m31 {mp x y w2 sub m 0 w d x w2 sub y m w 0 d x w2 sub y w2 add m w w neg d x w2 sub y w2 sub m w w d s} def
/m32 {mp x y w2 sub m w2 w d w neg 0 d cl s} def
/m33 {mp x y w2 add m w3 neg w2 neg d w3 w2 neg d w3 w2 d cl f} def
/m34 {mp x w2 sub y w2 sub w3 add m w3 0 d  0 w3 neg d w3 0 d 0 w3 d w3 0 d  0 w3 d w3 neg 0 d 0 w3 d w3 neg 0 d 0 w3 neg d w3 neg 0 d cl f } def
/m2 {mp x y w2 sub m 0 w d x w2 sub y m w 0 d s} def
/m5 {mp x w2 sub y w2 sub m w w d x w2 sub y w2 add m w w neg d s} def
/reEncode {exch findfont dup length dict begin {1 index /FID eq  {pop pop} {def} ifelse } forall /Encoding exch def currentdict end dup /FontName get exch definefont pop } def [/Times-Bold /Times-Italic /Times-BoldItalic /Helvetica /Helvetica-Oblique
 /Helvetica-Bold /Helvetica-BoldOblique /Courier /Courier-Oblique /Courier-Bold /Courier-BoldOblique /Times-Roman /AvantGarde-Book /AvantGarde-BookOblique /AvantGarde-Demi /AvantGarde-DemiOblique /Bookman-Demi /Bookman-DemiItalic /Bookman-Light
 /Bookman-LightItalic /Helvetica-Narrow /Helvetica-Narrow-Bold /Helvetica-Narrow-BoldOblique /Helvetica-Narrow-Oblique /NewCenturySchlbk-Roman /NewCenturySchlbk-Bold /NewCenturySchlbk-BoldItalic /NewCenturySchlbk-Italic /Palatino-Bold
 /Palatino-BoldItalic /Palatino-Italic /Palatino-Roman ] {ISOLatin1Encoding reEncode } forall
%%EndProlog
%%BeginSetup
%%EndSetup
newpath  gsave  .25 .25 scale  gsave  0 0 t black[  ] 0 sd 3 lw 1 1 1 c 2268 1464 0 0 bf black 1 1 1 c 1814 1171 227 146 bf black 1814 1171 227 146 bl 0 0 1 c 1 1 1 c 0 0 1 c 317 809 m 21 Y s 317 845 m 21 Y s 227 838 m 83 X s 325 838 m 83 X s /w 15
 def /w2 {w 2 div} def /w3 {w 3 div} def 317 838 m20 499 738 m 20 Y s 499 773 m 21 Y s 408 766 m 83 X s 506 766 m 84 X s 499 766 m20 680 784 m 26 Y s 680 825 m 25 Y s 590 817 m 83 X s 688 817 m 83 X s 680 817 m20 862 778 m 26 Y s 862 819 m 26 Y s 771
 812 m 83 X s 869 812 m 83 X s 862 812 m20 1043 801 m 29 Y s 1043 845 m 28 Y s 952 837 m 84 X s 1051 837 m 83 X s 1043 837 m20 1225 789 m 33 Y s 1225 837 m 32 Y s 1134 829 m 83 X s 1232 829 m 83 X s 1225 829 m20 1406 816 m 38 Y s 1406 869 m 39 Y s
 1315 862 m 83 X s 1414 862 m 83 X s 1406 862 m20 1587 863 m 43 Y s 1587 921 m 43 Y s 1497 913 m 83 X s 1595 913 m 83 X s 1587 913 m20 1769 860 m 49 Y s 1769 924 m 49 Y s 1678 916 m 83 X s 1776 916 m 84 X s 1769 916 m20 1950 838 m 49 Y s 1950 902 m
 50 Y s 1860 895 m 83 X s 1958 895 m 83 X s 1950 895 m20 black 227 146 m 1814 X s
 gsave  2268 1464 0 0 C 1901.77 43.6099 t 0 r /Helvetica findfont 47.4021 sf 0 0 m ( \(GeV\)) show NC gr 
 gsave  2268 1464 0 0 C 1805.07 60.6747 t 0 r /Helvetica findfont 32.2334 sf 0 0 m (ch+em) show NC gr 
 gsave  2268 1464 0 0 C 1805.07 18.9608 t 0 r /Helvetica findfont 32.2334 sf 0 0 m 
 50 32 25 16
(T,jet) K NC gr 
 gsave  2268 1464 0 0 C 1780.42 43.6099 t 0 r /Helvetica findfont 47.4021 sf 0 0 m (p) show NC gr  227 182 m -36 Y s 263 164 m -18 Y s 299 164 m -18 Y s 336 164 m -18 Y s 372 164 m -18 Y s 408 182 m -36 Y s 444 164 m -18 Y s 481 164 m -18 Y s 517 164
 m -18 Y s 553 164 m -18 Y s 590 182 m -36 Y s 626 164 m -18 Y s 662 164 m -18 Y s 698 164 m -18 Y s 735 164 m -18 Y s 771 182 m -36 Y s 807 164 m -18 Y s 844 164 m -18 Y s 880 164 m -18 Y s 916 164 m -18 Y s 952 182 m -36 Y s 989 164 m -18 Y s 1025
 164 m -18 Y s 1061 164 m -18 Y s 1098 164 m -18 Y s 1134 182 m -36 Y s 1170 164 m -18 Y s 1206 164 m -18 Y s 1243 164 m -18 Y s 1279 164 m -18 Y s 1315 182 m -36 Y s 1352 164 m -18 Y s 1388 164 m -18 Y s 1424 164 m -18 Y s 1460 164 m -18 Y s 1497
 182 m -36 Y s 1533 164 m -18 Y s 1569 164 m -18 Y s 1606 164 m -18 Y s 1642 164 m -18 Y s 1678 182 m -36 Y s 1714 164 m -18 Y s 1751 164 m -18 Y s 1787 164 m -18 Y s 1823 164 m -18 Y s 1860 182 m -36 Y s 1896 164 m -18 Y s 1932 164 m -18 Y s 1968
 164 m -18 Y s 2005 164 m -18 Y s 2041 182 m -36 Y s
 gsave  2268 1464 0 0 C 199.089 98.5964 t 0 r /Helvetica findfont 47.4021 sf 0 0 m (20) show NC gr 
 gsave  2268 1464 0 0 C 381.113 98.5964 t 0 r /Helvetica findfont 47.4021 sf 0 0 m (30) show NC gr 
 gsave  2268 1464 0 0 C 561.241 98.5964 t 0 r /Helvetica findfont 47.4021 sf 0 0 m (40) show NC gr 
 gsave  2268 1464 0 0 C 743.265 98.5964 t 0 r /Helvetica findfont 47.4021 sf 0 0 m (50) show NC gr 
 gsave  2268 1464 0 0 C 925.289 98.5964 t 0 r /Helvetica findfont 47.4021 sf 0 0 m (60) show NC gr 
 gsave  2268 1464 0 0 C 1107.31 98.5964 t 0 r /Helvetica findfont 47.4021 sf 0 0 m (70) show NC gr 
 gsave  2268 1464 0 0 C 1287.44 98.5964 t 0 r /Helvetica findfont 47.4021 sf 0 0 m (80) show NC gr 
 gsave  2268 1464 0 0 C 1469.47 98.5964 t 0 r /Helvetica findfont 47.4021 sf 0 0 m (90) show NC gr 
 gsave  2268 1464 0 0 C 1638.22 98.5964 t 0 r /Helvetica findfont 47.4021 sf 0 0 m (100) show NC gr 
 gsave  2268 1464 0 0 C 1820.24 98.5964 t 0 r /Helvetica findfont 47.4021 sf 0 0 m 
 50 23
(110) K NC gr 
 gsave  2268 1464 0 0 C 2000.37 98.5964 t 0 r /Helvetica findfont 47.4021 sf 0 0 m (120) show NC gr  227 1317 m 1814 X s 227 1282 m 35 Y s 263 1300 m 17 Y s 299 1300 m 17 Y s 336 1300 m 17 Y s 372 1300 m 17 Y s 408 1282 m 35 Y s 444 1300 m 17 Y s 481
 1300 m 17 Y s 517 1300 m 17 Y s 553 1300 m 17 Y s 590 1282 m 35 Y s 626 1300 m 17 Y s 662 1300 m 17 Y s 698 1300 m 17 Y s 735 1300 m 17 Y s 771 1282 m 35 Y s 807 1300 m 17 Y s 844 1300 m 17 Y s 880 1300 m 17 Y s 916 1300 m 17 Y s 952 1282 m 35 Y s
 989 1300 m 17 Y s 1025 1300 m 17 Y s 1061 1300 m 17 Y s 1098 1300 m 17 Y s 1134 1282 m 35 Y s 1170 1300 m 17 Y s 1206 1300 m 17 Y s 1243 1300 m 17 Y s 1279 1300 m 17 Y s 1315 1282 m 35 Y s 1352 1300 m 17 Y s 1388 1300 m 17 Y s 1424 1300 m 17 Y s
 1460 1300 m 17 Y s 1497 1282 m 35 Y s 1533 1300 m 17 Y s 1569 1300 m 17 Y s 1606 1300 m 17 Y s 1642 1300 m 17 Y s 1678 1282 m 35 Y s 1714 1300 m 17 Y s 1751 1300 m 17 Y s 1787 1300 m 17 Y s 1823 1300 m 17 Y s 1860 1282 m 35 Y s 1896 1300 m 17 Y s
 1932 1300 m 17 Y s 1968 1300 m 17 Y s 2005 1300 m 17 Y s 2041 1282 m 35 Y s 227 146 m 1171 Y s
 gsave  2268 1464 0 0 C 94.8042 1260.9 t 90 r /Helvetica findfont 32.2334 sf 0 0 m (pPb) show NC gr 
 gsave  2268 1464 0 0 C 81.5316 1226.77 t 90 r /Helvetica findfont 47.4021 sf 0 0 m (R) show NC gr  281 146 m -54 X s 254 176 m -27 X s 254 205 m -27 X s 254 234 m -27 X s 281 263 m -54 X s 254 293 m -27 X s 254 322 m -27 X s 254 351 m -27 X s 281
 381 m -54 X s 254 410 m -27 X s 254 439 m -27 X s 254 468 m -27 X s 281 498 m -54 X s 254 527 m -27 X s 254 556 m -27 X s 254 586 m -27 X s 281 615 m -54 X s 254 644 m -27 X s 254 673 m -27 X s 254 703 m -27 X s 281 732 m -54 X s 254 761 m -27 X s
 254 790 m -27 X s 254 820 m -27 X s 281 849 m -54 X s 254 878 m -27 X s 254 908 m -27 X s 254 937 m -27 X s 281 966 m -54 X s 254 995 m -27 X s 254 1025 m -27 X s 254 1054 m -27 X s 281 1083 m -54 X s 254 1112 m -27 X s 254 1142 m -27 X s 254 1171 m
 -27 X s 281 1200 m -54 X s 254 1230 m -27 X s 254 1259 m -27 X s 254 1288 m -27 X s 281 1317 m -54 X s
 gsave  2268 1464 0 0 C 189.608 130.83 t 0 r /Helvetica findfont 47.4021 sf 0 0 m (0) show NC gr 
 gsave  2268 1464 0 0 C 149.791 246.491 t 0 r /Helvetica findfont 47.4021 sf 0 0 m (0.2) show NC gr 
 gsave  2268 1464 0 0 C 149.791 364.048 t 0 r /Helvetica findfont 47.4021 sf 0 0 m (0.4) show NC gr 
 gsave  2268 1464 0 0 C 149.791 481.605 t 0 r /Helvetica findfont 47.4021 sf 0 0 m (0.6) show NC gr 
 gsave  2268 1464 0 0 C 149.791 599.163 t 0 r /Helvetica findfont 47.4021 sf 0 0 m (0.8) show NC gr 
 gsave  2268 1464 0 0 C 195.297 712.928 t 0 r /Helvetica findfont 47.4021 sf 0 0 m (1) show NC gr 
 gsave  2268 1464 0 0 C 149.791 830.485 t 0 r /Helvetica findfont 47.4021 sf 0 0 m (1.2) show NC gr 
 gsave  2268 1464 0 0 C 149.791 948.042 t 0 r /Helvetica findfont 47.4021 sf 0 0 m (1.4) show NC gr 
 gsave  2268 1464 0 0 C 149.791 1067.5 t 0 r /Helvetica findfont 47.4021 sf 0 0 m (1.6) show NC gr 
 gsave  2268 1464 0 0 C 149.791 1185.05 t 0 r /Helvetica findfont 47.4021 sf 0 0 m (1.8) show NC gr 
 gsave  2268 1464 0 0 C 189.608 1298.82 t 0 r /Helvetica findfont 47.4021 sf 0 0 m (2) show NC gr  2041 146 m 1171 Y s 1987 146 m 54 X s 2014 176 m 27 X s 2014 205 m 27 X s 2014 234 m 27 X s 1987 263 m 54 X s 2014 293 m 27 X s 2014 322 m 27 X s 2014
 351 m 27 X s 1987 381 m 54 X s 2014 410 m 27 X s 2014 439 m 27 X s 2014 468 m 27 X s 1987 498 m 54 X s 2014 527 m 27 X s 2014 556 m 27 X s 2014 586 m 27 X s 1987 615 m 54 X s 2014 644 m 27 X s 2014 673 m 27 X s 2014 703 m 27 X s 1987 732 m 54 X s
 2014 761 m 27 X s 2014 790 m 27 X s 2014 820 m 27 X s 1987 849 m 54 X s 2014 878 m 27 X s 2014 908 m 27 X s 2014 937 m 27 X s 1987 966 m 54 X s 2014 995 m 27 X s 2014 1025 m 27 X s 2014 1054 m 27 X s 1987 1083 m 54 X s 2014 1112 m 27 X s 2014 1142 m
 27 X s 2014 1171 m 27 X s 1987 1200 m 54 X s 2014 1230 m 27 X s 2014 1259 m 27 X s 2014 1288 m 27 X s 1987 1317 m 54 X s 1 0 0 c 1 1 1 c 1 0 0 c 317 875 m 24 Y s 317 914 m 24 Y s 227 906 m 83 X s 325 906 m 83 X s 317 906 m25 499 784 m 23 Y s 499 822
 m 22 Y s 408 814 m 83 X s 506 814 m 84 X s 499 814 m25 680 835 m 28 Y s 680 878 m 28 Y s 590 871 m 83 X s 688 871 m 83 X s 680 871 m25 862 818 m 27 Y s 862 860 m 28 Y s 771 853 m 83 X s 869 853 m 83 X s 862 853 m25 1043 845 m 31 Y s 1043 891 m 31 Y
 s 952 883 m 84 X s 1051 883 m 83 X s 1043 883 m25 1225 851 m 35 Y s 1225 901 m 36 Y s 1134 894 m 83 X s 1232 894 m 83 X s 1225 894 m25 1406 871 m 42 Y s 1406 928 m 42 Y s 1315 921 m 83 X s 1414 921 m 83 X s 1406 921 m25 1587 934 m 48 Y s 1587 997 m
 47 Y s 1497 989 m 83 X s 1595 989 m 83 X s 1587 989 m25 1769 936 m 54 Y s 1769 1005 m 54 Y s 1678 998 m 83 X s 1776 998 m 84 X s 1769 998 m25 1950 915 m 54 Y s 1950 984 m 55 Y s 1860 977 m 83 X s 1958 977 m 83 X s 1950 977 m25 black
 gsave  2268 1464 0 0 C 633.292 1202.12 t 0 r /Helvetica-Bold findfont 68.259 sf 0 0 m 
 1064 1026 1006 968 927 889 870 832 813 790 767 721 703 661 619 600 562 524 486 459 421 402 380 338 300 273 235 212 190 171 129 110 83 41 19
( for different Tracking Efficiencies) K NC gr 
 gsave  2268 1464 0 0 C 547.968 1183.16 t 0 r /Helvetica-Bold findfont 45.506 sf 0 0 m (pPb) show NC gr 
 gsave  2268 1464 0 0 C 498.67 1202.12 t 0 r /Helvetica-Bold findfont 68.259 sf 0 0 m (R) show NC gr  1 0 1 c[ 12 12] 0 sd 6 lw 227 732 m 1814 X s black[  ] 0 sd 3 lw 1 1 1 c 566 366 454 220 bf black
 gsave  2268 1464 0 0 C 593.474 479.709 t 0 r /Helvetica findfont 54.9864 sf 0 0 m 
 608 593 581 551 520 505 475 435 417 402 353 323 293 262 247 215 200 185 171 134 107 80 49 31
(TrackEff = 100% \(Default\)) K NC gr  0 0 1 c 524 494 m20 black
 gsave  2268 1464 0 0 C 593.474 291.997 t 0 r /Helvetica findfont 54.9864 sf 0 0 m 
 323 293 262 247 215 200 185 171 134 107 80 49 31
(TrackEff = 95%) K NC gr  1 0 0 c 524 311 m25
 gr  gr showpage
end
%%EOF
