%!PS-Adobe-2.0 EPSF-2.0
%%BoundingBox:  0 0 567 544
%%Title: fig_PbPbSpectraR02Bias5.eps: 14 May 2014
%%Creator: ROOT Version 5.34/02
%%CreationDate: Wed May 14 14:34:19 2014
%%EndComments
%%BeginProlog
80 dict begin
/s {stroke} def /l {lineto} def /m {moveto} def /t {translate} def
/r {rotate} def /rl {roll}  def /R {repeat} def
/d {rlineto} def /rm {rmoveto} def /gr {grestore} def /f {eofill} def
/c {setrgbcolor} def /black {0 setgray} def /sd {setdash} def
/cl {closepath} def /sf {scalefont setfont} def /lw {setlinewidth} def
/box {m dup 0 exch d exch 0 d 0 exch neg d cl} def
/NC{systemdict begin initclip end}def/C{NC box clip newpath}def
/bl {box s} def /bf {box f} def /Y { 0 exch d} def /X { 0 d} def 
/K {{pop pop 0 moveto} exch kshow} bind def
/ita {/ang 15 def gsave [1 0 ang dup sin exch cos div 1 0 0] concat} def 
/mp {newpath /y exch def /x exch def} def
/side {[w .77 mul w .23 mul] .385 w mul sd w 0 l currentpoint t -144 r} def
/mr {mp x y w2 0 360 arc} def /m24 {mr s} def /m20 {mr f} def
/mb {mp x y w2 add m w2 neg 0 d 0 w neg d w 0 d 0 w d cl} def
/mt {mp x y w2 add m w2 neg w neg d w 0 d cl} def
/m21 {mb f} def /m25 {mb s} def /m22 {mt f} def /m26{mt s} def
/m23 {mp x y w2 sub m w2 w d w neg 0 d cl f} def
/m27 {mp x y w2 add m w3 neg w2 neg d w3 w2 neg d w3 w2 d cl s} def
/m28 {mp x w2 sub y w2 sub w3 add m w3 0 d  0 w3 neg d w3 0 d 0 w3 d w3 0 d  0 w3 d w3 neg 0 d 0 w3 d w3 neg 0 d 0 w3 neg d w3 neg 0 d cl s } def
/m29 {mp gsave x w2 sub y w2 add w3 sub m currentpoint t 4 {side} repeat cl fill gr} def
/m30 {mp gsave x w2 sub y w2 add w3 sub m currentpoint t 4 {side} repeat cl s gr} def
/m31 {mp x y w2 sub m 0 w d x w2 sub y m w 0 d x w2 sub y w2 add m w w neg d x w2 sub y w2 sub m w w d s} def
/m32 {mp x y w2 sub m w2 w d w neg 0 d cl s} def
/m33 {mp x y w2 add m w3 neg w2 neg d w3 w2 neg d w3 w2 d cl f} def
/m34 {mp x w2 sub y w2 sub w3 add m w3 0 d  0 w3 neg d w3 0 d 0 w3 d w3 0 d  0 w3 d w3 neg 0 d 0 w3 d w3 neg 0 d 0 w3 neg d w3 neg 0 d cl f } def
/m2 {mp x y w2 sub m 0 w d x w2 sub y m w 0 d s} def
/m5 {mp x w2 sub y w2 sub m w w d x w2 sub y w2 add m w w neg d s} def
/reEncode {exch findfont dup length dict begin {1 index /FID eq  {pop pop} {def} ifelse } forall /Encoding exch def currentdict end dup /FontName get exch definefont pop } def [/Times-Bold /Times-Italic /Times-BoldItalic /Helvetica /Helvetica-Oblique
 /Helvetica-Bold /Helvetica-BoldOblique /Courier /Courier-Oblique /Courier-Bold /Courier-BoldOblique /Times-Roman /AvantGarde-Book /AvantGarde-BookOblique /AvantGarde-Demi /AvantGarde-DemiOblique /Bookman-Demi /Bookman-DemiItalic /Bookman-Light
 /Bookman-LightItalic /Helvetica-Narrow /Helvetica-Narrow-Bold /Helvetica-Narrow-BoldOblique /Helvetica-Narrow-Oblique /NewCenturySchlbk-Roman /NewCenturySchlbk-Bold /NewCenturySchlbk-BoldItalic /NewCenturySchlbk-Italic /Palatino-Bold
 /Palatino-BoldItalic /Palatino-Italic /Palatino-Roman ] {ISOLatin1Encoding reEncode } forall
%%EndProlog
%%BeginSetup
%%EndSetup
newpath  gsave  .25 .25 scale  gsave  0 0 t black[  ] 0 sd 3 lw 0.999 0.999 0.999 c 2268 2176 0 0 bf black 0.999 0.999 0.999 c 2268 2176 0 0 bf black 1 1 1 c 1678 1763 499 326 bf black 1678 1763 499 326 bl 0 0 0.6 c 1 1 1 c black 0 0 0.6 c 499 326 m
 1678 X s black 499 326 m 1678 X s
 gsave  2268 2176 0 0 C 2142.16 110.342 t 0 r /Helvetica findfont 102.732 sf 0 0 m (\)) show NC gr 
 gsave  2268 2176 0 0 C 2088.89 110.342 t 0 r /Helvetica-Oblique findfont 102.732 sf 0 0 m (c) show NC gr 
 gsave  2268 2176 0 0 C 1788.3 110.342 t 0 r /Helvetica findfont 102.732 sf 0 0 m ( \(GeV/) show NC gr 
 gsave  2268 2176 0 0 C 1662.74 60.8783 t 0 r /Helvetica findfont 68.4881 sf 0 0 m 
 106 68 53 34
(T,jet) K NC gr 
 gsave  2268 2176 0 0 C 1601.86 110.342 t 0 r /Helvetica-Oblique findfont 102.732 sf 0 0 m (p) show NC gr  499 375 m -49 Y s 563 351 m -25 Y s 628 351 m -25 Y s 693 351 m -25 Y s 757 375 m -49 Y s 822 351 m -25 Y s 886 351 m -25 Y s 951 351 m -25 Y s
 1015 375 m -49 Y s 1080 351 m -25 Y s 1144 351 m -25 Y s 1209 351 m -25 Y s 1273 375 m -49 Y s 1338 351 m -25 Y s 1402 351 m -25 Y s 1467 351 m -25 Y s 1532 375 m -49 Y s 1596 351 m -25 Y s 1661 351 m -25 Y s 1725 351 m -25 Y s 1790 375 m -49 Y s
 1854 351 m -25 Y s 1919 351 m -25 Y s 1983 351 m -25 Y s 2048 375 m -49 Y s 2048 375 m -49 Y s 2112 351 m -25 Y s 2177 351 m -25 Y s
 gsave  2268 2176 0 0 C 471.807 220.684 t 0 r /Helvetica findfont 102.732 sf 0 0 m (0) show NC gr 
 gsave  2268 2176 0 0 C 696.296 220.684 t 0 r /Helvetica findfont 102.732 sf 0 0 m (20) show NC gr 
 gsave  2268 2176 0 0 C 955.028 220.684 t 0 r /Helvetica findfont 102.732 sf 0 0 m (40) show NC gr 
 gsave  2268 2176 0 0 C 1213.76 220.684 t 0 r /Helvetica findfont 102.732 sf 0 0 m (60) show NC gr 
 gsave  2268 2176 0 0 C 1472.49 220.684 t 0 r /Helvetica findfont 102.732 sf 0 0 m (80) show NC gr 
 gsave  2268 2176 0 0 C 1704.59 220.684 t 0 r /Helvetica findfont 102.732 sf 0 0 m (100) show NC gr 
 gsave  2268 2176 0 0 C 1963.33 220.684 t 0 r /Helvetica findfont 102.732 sf 0 0 m (120) show NC gr  499 326 m 1763 Y s
 gsave  2268 2176 0 0 C 114.147 2043.23 t 90 r /Helvetica findfont 68.4881 sf 0 0 m (\2551) show NC gr 
 gsave  2268 2176 0 0 C 159.806 2008.98 t 90 r /Helvetica findfont 102.732 sf 0 0 m (\)) show NC gr 
 gsave  2268 2176 0 0 C 159.806 1955.72 t 90 r /Helvetica-Oblique findfont 102.732 sf 0 0 m (c) show NC gr 
 gsave  2268 2176 0 0 C 159.806 1655.13 t 90 r /Helvetica findfont 102.732 sf 0 0 m ( \(GeV/) show NC gr 
 gsave  2268 2176 0 0 C 273.952 1579.03 t 90 r /Helvetica findfont 68.4881 sf 0 0 m (jet) show NC gr 
 gsave  2268 2176 0 0 C 220.684 1521.96 t 90 r /Symbol findfont 102.732 sf 0 0 m (h) show NC gr 
 gsave  2268 2176 0 0 C 220.684 1468.69 t 90 r /Helvetica findfont 102.732 sf 0 0 m (d) show NC gr 
 gsave  2268 2176 0 0 C 273.952 1343.13 t 90 r /Helvetica findfont 68.4881 sf 0 0 m 
 106 68 53 34
(T,jet) K NC gr 
 gsave  2268 2176 0 0 C 220.684 1282.25 t 90 r /Helvetica-Oblique findfont 102.732 sf 0 0 m (p) show NC gr 
 gsave  2268 2176 0 0 C 220.684 1228.98 t 90 r /Helvetica findfont 102.732 sf 0 0 m (d) show NC gr 
 gsave  2268 2176 0 0 C 114.147 1449.66 t 90 r /Helvetica-Oblique findfont 102.732 sf 0 0 m (N) show NC gr 
 gsave  2268 2176 0 0 C 68.4881 1411.62 t 90 r /Helvetica findfont 68.4881 sf 0 0 m (2) show NC gr 
 gsave  2268 2176 0 0 C 114.147 1358.35 t 90 r /Helvetica findfont 102.732 sf 0 0 m (d) show NC gr  6 lw 133 1229 m 426 Y s
 gsave  2268 2176 0 0 C 159.806 1202.35 t 90 r /Helvetica findfont 102.732 sf 0 0 m ( ) show NC gr 
 gsave  2268 2176 0 0 C 251.123 1111.03 t 90 r /Helvetica findfont 68.4881 sf 0 0 m (evt) show NC gr 
 gsave  2268 2176 0 0 C 220.684 1031.13 t 90 r /Helvetica-Oblique findfont 102.732 sf 0 0 m (N) show NC gr 
 gsave  2268 2176 0 0 C 117.952 1095.81 t 90 r /Helvetica findfont 102.732 sf 0 0 m (1) show NC gr  133 1031 m 171 Y s
 gsave  2268 2176 0 0 C 159.806 1004.49 t 90 r /Helvetica findfont 102.732 sf 0 0 m ( ) show NC gr 
 gsave  2268 2176 0 0 C 251.123 905.565 t 90 r /Helvetica findfont 68.4881 sf 0 0 m (coll) show NC gr 
 gsave  2268 2176 0 0 C 220.684 825.662 t 90 r /Helvetica-Oblique findfont 102.732 sf 0 0 m (N) show NC gr 
 gsave  2268 2176 0 0 C 117.952 894.15 t 90 r /Helvetica findfont 102.732 sf 0 0 m (1) show NC gr  133 826 m 178 Y s 3 lw 517 326 m -18 X s 517 351 m -18 X s 517 373 m -18 X s 536 393 m -37 X s
 gsave  2268 2176 0 0 C 403.319 395.709 t 0 r /Helvetica findfont 68.4881 sf 0 0 m (\2559) show NC gr 
 gsave  2268 2176 0 0 C 292.977 346.245 t 0 r /Helvetica findfont 102.732 sf 0 0 m (10) show NC gr  517 522 m -18 X s 517 598 m -18 X s 517 651 m -18 X s 517 693 m -18 X s 517 727 m -18 X s 517 755 m -18 X s 517 780 m -18 X s 517 802 m -18 X s 536
 822 m -37 X s
 gsave  2268 2176 0 0 C 403.319 825.662 t 0 r /Helvetica findfont 68.4881 sf 0 0 m (\2558) show NC gr 
 gsave  2268 2176 0 0 C 292.977 776.198 t 0 r /Helvetica findfont 102.732 sf 0 0 m (10) show NC gr  517 951 m -18 X s 517 1027 m -18 X s 517 1080 m -18 X s 517 1122 m -18 X s 517 1156 m -18 X s 517 1184 m -18 X s 517 1209 m -18 X s 517 1231 m -18 X s
 536 1251 m -37 X s
 gsave  2268 2176 0 0 C 403.319 1248.01 t 0 r /Helvetica findfont 68.4881 sf 0 0 m (\2557) show NC gr 
 gsave  2268 2176 0 0 C 292.977 1202.35 t 0 r /Helvetica findfont 102.732 sf 0 0 m (10) show NC gr  517 1380 m -18 X s 517 1456 m -18 X s 517 1509 m -18 X s 517 1551 m -18 X s 517 1585 m -18 X s 517 1614 m -18 X s 517 1638 m -18 X s 517 1660 m -18 X
 s 536 1680 m -37 X s
 gsave  2268 2176 0 0 C 403.319 1681.76 t 0 r /Helvetica findfont 68.4881 sf 0 0 m (\2556) show NC gr 
 gsave  2268 2176 0 0 C 292.977 1632.3 t 0 r /Helvetica findfont 102.732 sf 0 0 m (10) show NC gr  517 1809 m -18 X s 517 1885 m -18 X s 517 1938 m -18 X s 517 1980 m -18 X s 517 2014 m -18 X s 517 2043 m -18 X s 517 2067 m -18 X s 517 2089 m -18 X s
 0.8 0.8 0.8 c 129 18 886 1758 bf black 0.8 0.8 0.8 c 129 18 1015 1533 bf black 0.8 0.8 0.8 c 129 18 1144 1362 bf black 0.8 0.8 0.8 c 129 18 1273 1235 bf black 0.8 0.8 0.8 c 130 21 1402 1091 bf black 0.8 0.8 0.8 c 129 25 1532 967 bf black 0.8 0.8 0.8
 c 129 26 1661 883 bf black 0.8 0.8 0.8 c 129 33 1790 743 bf black 0.8 0.8 0.8 c 129 45 1919 575 bf black 0.8 0.8 0.8 c black 9 lw 1467 1125 m 5 Y s 1456 1130 m 22 X s 1467 1079 m -11 Y s 1456 1068 m 22 X s 1596 1003 m 16 Y s 1585 1019 m 23 X s 1596
 957 m -27 Y s 1585 930 m 23 X s 1725 919 m 26 Y s 1714 945 m 23 X s 1725 873 m -44 Y s 1714 829 m 23 X s 1854 783 m 46 Y s 1843 829 m 23 X s 1854 738 m -88 Y s 1843 650 m 23 X s 1983 622 m 76 Y s 1972 698 m 23 X s 1983 576 m -206 Y s 1972 370 m 23 X
 s 3 lw /w 46 def /w2 {w 2 div} def /w3 {w 3 div} def 951 1767 1080 1542 1209 1371 1338 1244 1467 1102 1596 980 1725 896 1854 760 1983 599 9 { m20} R 9 lw 3 lw 0.8 0.8 0.8 c black 129 18 886 1758 bl 0.8 0.8 0.8 c black 129 18 1015 1533 bl 0.8 0.8 0.8
 c black 129 18 1144 1362 bl 0.8 0.8 0.8 c black 129 18 1273 1235 bl 0.8 0.8 0.8 c black 130 21 1402 1091 bl 0.8 0.8 0.8 c black 129 25 1532 967 bl 0.8 0.8 0.8 c black 129 26 1661 883 bl 0.8 0.8 0.8 c black 129 33 1790 743 bl 0.8 0.8 0.8 c black 129
 45 1919 575 bl 0.8 0.8 0.8 c black 1 0 0 c 9 lw 0.8 0.8 0.8 c 207 114 628 434 bf 0 0 1 c 0.6 0.6 1 c 129 88 886 1447 bf 0 0 1 c 0.6 0.6 1 c 129 85 1015 1246 bf 0 0 1 c 0.6 0.6 1 c 129 72 1144 1098 bf 0 0 1 c 0.6 0.6 1 c 129 67 1273 977 bf 0 0 1 c
 0.6 0.6 1 c 130 64 1402 872 bf 0 0 1 c 0.6 0.6 1 c 129 63 1532 772 bf 0 0 1 c 0.6 0.6 1 c 129 63 1661 674 bf 0 0 1 c 0.6 0.6 1 c 129 64 1790 585 bf 0 0 1 c 0.6 0.6 1 c 129 64 1919 503 bf 0 0 1 c 0.6 0.6 1 c 0 0 1 c 3 lw black 0 0 1 c 951 1496 1080
 1293 1209 1137 1338 1014 1467 906 1596 806 1725 708 1854 620 1983 538 9 { m21} R 1 0 0 c 0 0 1 c 129 88 886 1447 bl 1 0 0 c 0 0 1 c 129 85 1015 1246 bl 1 0 0 c 0 0 1 c 129 72 1144 1098 bl 1 0 0 c 0 0 1 c 129 67 1273 977 bl 1 0 0 c 0 0 1 c 130 64
 1402 872 bl 1 0 0 c 0 0 1 c 129 63 1532 772 bl 1 0 0 c 0 0 1 c 129 63 1661 674 bl 1 0 0 c 0 0 1 c 129 64 1790 585 bl 1 0 0 c 0 0 1 c 129 64 1919 503 bl 1 0 0 c black 1 0 0 c 9 lw 0.6 0.6 1 c 207 111 628 711 bf black 3 lw 1 0.6 0.6 c black 129 62 886
 1529 bl 1 0.6 0.6 c black 129 57 1015 1356 bl 1 0.6 0.6 c black 129 56 1144 1169 bl 1 0.6 0.6 c black 129 56 1273 1025 bl 1 0.6 0.6 c black 130 50 1402 915 bl 1 0.6 0.6 c black 129 51 1532 797 bl 1 0.6 0.6 c black 129 59 1661 663 bl 1 0.6 0.6 c
 black 1 0 0 c 9 lw black 1 0 0 c 129 62 886 1529 bl black 1 0 0 c 129 57 1015 1356 bl black 1 0 0 c 129 56 1144 1169 bl black 1 0 0 c 129 56 1273 1025 bl black 1 0 0 c 130 50 1402 915 bl black 1 0 0 c 129 51 1532 797 bl black 1 0 0 c 129 59 1661 663
 bl black 1 0 0 c 1 0.6 0.6 c 1 0 0 c 207 110 628 571 bl 1596 847 m 1 Y s 1585 848 m 23 X s 1596 802 m -4 Y s 1585 798 m 23 X s 1725 718 m 7 Y s 1714 725 m 23 X s 1725 672 m -13 Y s 1714 659 m 23 X s black 1 0 0 c 3 lw 951 1562 1080 1387 1209 1199
 1338 1055 1467 941 1596 825 1725 695 7 { m34} R 9 lw 1 1 1 c 3 lw 0.6 0.8 0.6 c 129 56 886 1927 bf 1 1 1 c 0.6 0.8 0.6 c 129 61 1015 1728 bf 1 1 1 c 0.6 0.8 0.6 c 129 53 1144 1537 bf 1 1 1 c 0.6 0.8 0.6 c 129 53 1273 1384 bf 1 1 1 c 0.6 0.8 0.6 c
 130 53 1402 1259 bf 1 1 1 c 0.6 0.8 0.6 c 129 53 1532 1146 bf 1 1 1 c 0.6 0.8 0.6 c 0 0.4 0 c 0 0 0.6 c 1 1 1 c 0 0.4 0 c /w 61 def /w2 {w 2 div} def /w3 {w 3 div} def 951 1955 m33 1080 1759 m33 1209 1563 m33 1338 1410 m33 1467 1285 m33 1596 1172
 m33 black
 gsave  2268 2176 0 0 C 1970.93 2005.18 t 0 r /Helvetica findfont 79.9028 sf 0 0 m (|<0.5) show NC gr 
 gsave  2268 2176 0 0 C 1910.06 1963.33 t 0 r /Helvetica findfont 53.2685 sf 0 0 m (jet) show NC gr 
 gsave  2268 2176 0 0 C 1864.4 2005.18 t 0 r /Symbol findfont 79.9028 sf 0 0 m (h) show NC gr 
 gsave  2268 2176 0 0 C 1624.69 2005.18 t 0 r /Helvetica findfont 79.9028 sf 0 0 m ( = 0.2 |) show NC gr 
 gsave  2268 2176 0 0 C 1563.81 2005.18 t 0 r /Helvetica-Oblique findfont 79.9028 sf 0 0 m (R) show NC gr 
 gsave  2268 2176 0 0 C 1544.79 2005.18 t 0 r /Helvetica findfont 79.9028 sf 0 0 m ( ) show NC gr 
 gsave  2268 2176 0 0 C 1510.54 1982.35 t 0 r /Helvetica findfont 53.2685 sf 0 0 m (T) show NC gr 
 gsave  2268 2176 0 0 C 1464.88 2005.18 t 0 r /Helvetica-Oblique findfont 79.9028 sf 0 0 m (k) show NC gr 
 gsave  2268 2176 0 0 C 544.1 2005.18 t 0 r /Helvetica findfont 79.9028 sf 0 0 m (ALICE Preliminary     anti\255) show NC gr 
 gsave  2268 2176 0 0 C 852.296 734.344 t 0 r /Helvetica findfont 79.9028 sf 0 0 m (  0 \255 10% ) show NC gr  0 0 1 c /w 46 def /w2 {w 2 div} def /w3 {w 3 div} def 734 762 m21 black
 gsave  2268 2176 0 0 C 852.296 601.173 t 0 r /Helvetica findfont 79.9028 sf 0 0 m ( 10 \255 30% ) show NC gr  1 0 0 c 734 631 m34 black
 gsave  2268 2176 0 0 C 1088.2 475.612 t 0 r /Helvetica findfont 79.9028 sf 0 0 m 
 358 313 272 251 206 161 138 93 71 23
( = 2.76 TeV) K NC gr 
 gsave  2268 2176 0 0 C 1046.35 475.612 t 0 r /Helvetica-Oblique findfont 79.9028 sf 0 0 m (s) show NC gr  6 lw 1020 521 m 7 -49 d s 0 lw 1027 472 m 12 72 d s 1039 544 m 49 X s
 gsave  2268 2176 0 0 C 852.296 475.612 t 0 r /Helvetica findfont 79.9028 sf 0 0 m (  pp ) show NC gr  3 lw 734 501 m20 0 lw
 gsave  2268 2176 0 0 C 1811.13 1765.47 t 0 r /Helvetica findfont 79.9028 sf 0 0 m 
 312 267 226 205 160 115 92 47
(=5.02 TeV) K NC gr 
 gsave  2268 2176 0 0 C 1735.03 1738.84 t 0 r /Helvetica findfont 53.2685 sf 0 0 m (NN) show NC gr 
 gsave  2268 2176 0 0 C 1693.18 1765.47 t 0 r /Helvetica-Oblique findfont 79.9028 sf 0 0 m (s) show NC gr  6 lw 1659 1811 m 11 -72 d s 0 lw 1670 1739 m 16 95 d s 1686 1834 m 125 X s
 gsave  2268 2176 0 0 C 1419.23 1765.47 t 0 r /Helvetica findfont 79.9028 sf 0 0 m (  p\255Pb ) show NC gr  0.6 0.8 0.6 c 3 lw 1216 1708 m 170 X 153 Y -170 X f 0 lw 1 1 1 c 3 lw 1216 1861 m 170 X s 1216 1708 m 170 X s 1386 1708 m 153 Y s 1216 1708 m
 153 Y s 0 0.4 0 c /w 61 def /w2 {w 2 div} def /w3 {w 3 div} def 1301 1785 m33 black
 gsave  2268 2176 0 0 C 1137.66 981.663 t 0 r /Helvetica-Oblique findfont 72.293 sf 0 0 m (c) show NC gr 
 gsave  2268 2176 0 0 C 829.467 981.663 t 0 r /Helvetica findfont 72.293 sf 0 0 m ( > 5 GeV/) show NC gr 
 gsave  2268 2176 0 0 C 631.612 1019.71 t 0 r /Helvetica findfont 45.6587 sf 0 0 m (leading) show NC gr 
 gsave  2268 2176 0 0 C 631.612 947.419 t 0 r /Helvetica findfont 45.6587 sf 0 0 m 
 181 155 129 113 87 60 36 23
(T,charged) K NC gr 
 gsave  2268 2176 0 0 C 585.954 981.663 t 0 r /Helvetica-Oblique findfont 72.293 sf 0 0 m (p) show NC gr 
 gsave  2268 2176 0 0 C 947.418 871.321 t 0 r /Helvetica findfont 72.293 sf 0 0 m 
 313 274 238 220 180 141 121 81 62 20
( = 2.76 TeV) K NC gr 
 gsave  2268 2176 0 0 C 882.735 848.491 t 0 r /Helvetica findfont 45.6587 sf 0 0 m (NN) show NC gr 
 gsave  2268 2176 0 0 C 844.686 871.321 t 0 r /Helvetica-Oblique findfont 72.293 sf 0 0 m (s) show NC gr  6 lw 814 913 m 12 -65 d s 0 lw 826 848 m 11 88 d s 837 936 m 110 X s
 gsave  2268 2176 0 0 C 585.954 871.321 t 0 r /Helvetica findfont 72.293 sf 0 0 m (Pb\255Pb ) show NC gr 
 gr  gr showpage
end
%%EOF
