%!PS-Adobe-2.0 EPSF-2.0
%%BoundingBox:  0 0 567 354
%%Title: DeltaPtFullJetsR040.eps: c2: dpt
%%Creator: ROOT Version 5.34/05
%%CreationDate: Sun Sep  8 09:50:50 2013
%%EndComments
%%BeginProlog
80 dict begin
/s {stroke} def /l {lineto} def /m {moveto} def /t {translate} def
/r {rotate} def /rl {roll}  def /R {repeat} def
/d {rlineto} def /rm {rmoveto} def /gr {grestore} def /f {eofill} def
/c {setrgbcolor} def /black {0 setgray} def /sd {setdash} def
/cl {closepath} def /sf {scalefont setfont} def /lw {setlinewidth} def
/box {m dup 0 exch d exch 0 d 0 exch neg d cl} def
/NC{systemdict begin initclip end}def/C{NC box clip newpath}def
/bl {box s} def /bf {box f} def /Y { 0 exch d} def /X { 0 d} def 
/K {{pop pop 0 moveto} exch kshow} bind def
/ita {/ang 15 def gsave [1 0 ang dup sin exch cos div 1 0 0] concat} def 
/mp {newpath /y exch def /x exch def} def
/side {[w .77 mul w .23 mul] .385 w mul sd w 0 l currentpoint t -144 r} def
/mr {mp x y w2 0 360 arc} def /m24 {mr s} def /m20 {mr f} def
/mb {mp x y w2 add m w2 neg 0 d 0 w neg d w 0 d 0 w d cl} def
/mt {mp x y w2 add m w2 neg w neg d w 0 d cl} def
/m21 {mb f} def /m25 {mb s} def /m22 {mt f} def /m26{mt s} def
/m23 {mp x y w2 sub m w2 w d w neg 0 d cl f} def
/m27 {mp x y w2 add m w3 neg w2 neg d w3 w2 neg d w3 w2 d cl s} def
/m28 {mp x w2 sub y w2 sub w3 add m w3 0 d  0 w3 neg d w3 0 d 0 w3 d w3 0 d  0 w3 d w3 neg 0 d 0 w3 d w3 neg 0 d 0 w3 neg d w3 neg 0 d cl s } def
/m29 {mp gsave x w2 sub y w2 add w3 sub m currentpoint t 4 {side} repeat cl fill gr} def
/m30 {mp gsave x w2 sub y w2 add w3 sub m currentpoint t 4 {side} repeat cl s gr} def
/m31 {mp x y w2 sub m 0 w d x w2 sub y m w 0 d x w2 sub y w2 add m w w neg d x w2 sub y w2 sub m w w d s} def
/m32 {mp x y w2 sub m w2 w d w neg 0 d cl s} def
/m33 {mp x y w2 add m w3 neg w2 neg d w3 w2 neg d w3 w2 d cl f} def
/m34 {mp x w2 sub y w2 sub w3 add m w3 0 d  0 w3 neg d w3 0 d 0 w3 d w3 0 d  0 w3 d w3 neg 0 d 0 w3 d w3 neg 0 d 0 w3 neg d w3 neg 0 d cl f } def
/m2 {mp x y w2 sub m 0 w d x w2 sub y m w 0 d s} def
/m5 {mp x w2 sub y w2 sub m w w d x w2 sub y w2 add m w w neg d s} def
/reEncode {exch findfont dup length dict begin {1 index /FID eq  {pop pop} {def} ifelse } forall /Encoding exch def currentdict end dup /FontName get exch definefont pop } def [/Times-Bold /Times-Italic /Times-BoldItalic /Helvetica /Helvetica-Oblique
 /Helvetica-Bold /Helvetica-BoldOblique /Courier /Courier-Oblique /Courier-Bold /Courier-BoldOblique /Times-Roman /AvantGarde-Book /AvantGarde-BookOblique /AvantGarde-Demi /AvantGarde-DemiOblique /Bookman-Demi /Bookman-DemiItalic /Bookman-Light
 /Bookman-LightItalic /Helvetica-Narrow /Helvetica-Narrow-Bold /Helvetica-Narrow-BoldOblique /Helvetica-Narrow-Oblique /NewCenturySchlbk-Roman /NewCenturySchlbk-Bold /NewCenturySchlbk-BoldItalic /NewCenturySchlbk-Italic /Palatino-Bold
 /Palatino-BoldItalic /Palatino-Italic /Palatino-Roman ] {ISOLatin1Encoding reEncode } forall
%%EndProlog
%%BeginSetup
%%EndSetup
newpath  gsave  .25 .25 scale  gsave  0 0 t black[  ] 0 sd 3 lw 0.999 0.999 0.999 c 2268 1416 0 0 bf black 0.999 0.999 0.999 c 710 680 23 722 bf black 1 1 1 c 533 510 129 824 bf black 533 510 129 824 bl 1 1 1 c 533 510 129 824 bf black 533 510 129
 824 bl 0 0 0.6 c 1 1 1 c black 0 0 0.6 c 129 824 m 533 X s black 129 824 m 533 X s
 gsave  710 680 23 722 C 648.895 762.736 t 0 r /Helvetica findfont 38.7787 sf 0 0 m (\)) show NC gr 
 gsave  710 680 23 722 C 626.127 762.736 t 0 r /Helvetica-Oblique findfont 38.7787 sf 0 0 m (c) show NC gr 
 gsave  710 680 23 722 C 512.285 762.736 t 0 r /Helvetica findfont 38.7787 sf 0 0 m ( \(GeV/) show NC gr 
 gsave  710 680 23 722 C 496.348 739.968 t 0 r /Helvetica findfont 25.0921 sf 0 0 m (T) show NC gr 
 gsave  710 680 23 722 C 471.303 762.736 t 0 r /Helvetica-Oblique findfont 38.7787 sf 0 0 m (p) show NC gr 
 gsave  710 680 23 722 C 457.642 762.736 t 0 r /Helvetica findfont 38.7787 sf 0 0 m ( ) show NC gr 
 gsave  710 680 23 722 C 437.15 762.736 t 0 r /Symbol findfont 38.7787 sf 0 0 m (d) show NC gr  129 840 m -16 Y s 147 832 m -8 Y s 165 832 m -8 Y s 183 832 m -8 Y s 200 832 m -8 Y s 218 840 m -16 Y s 236 832 m -8 Y s 254 832 m -8 Y s 271 832 m -8 Y s
 289 832 m -8 Y s 307 840 m -16 Y s 325 832 m -8 Y s 342 832 m -8 Y s 360 832 m -8 Y s 378 832 m -8 Y s 396 840 m -16 Y s 413 832 m -8 Y s 431 832 m -8 Y s 449 832 m -8 Y s 467 832 m -8 Y s 485 840 m -16 Y s 502 832 m -8 Y s 520 832 m -8 Y s 538 832
 m -8 Y s 556 832 m -8 Y s 573 840 m -16 Y s 591 832 m -8 Y s 609 832 m -8 Y s 627 832 m -8 Y s 644 832 m -8 Y s 662 840 m -16 Y s
 gsave  710 680 23 722 C 104.734 794.612 t 0 r /Helvetica findfont 31.9354 sf 0 0 m (\25510) show NC gr 
 gsave  710 680 23 722 C 207.191 794.612 t 0 r /Helvetica findfont 31.9354 sf 0 0 m (0) show NC gr 
 gsave  710 680 23 722 C 286.88 794.612 t 0 r /Helvetica findfont 31.9354 sf 0 0 m (10) show NC gr 
 gsave  710 680 23 722 C 375.676 794.612 t 0 r /Helvetica findfont 31.9354 sf 0 0 m (20) show NC gr 
 gsave  710 680 23 722 C 464.472 794.612 t 0 r /Helvetica findfont 31.9354 sf 0 0 m (30) show NC gr 
 gsave  710 680 23 722 C 553.268 794.612 t 0 r /Helvetica findfont 31.9354 sf 0 0 m (40) show NC gr 
 gsave  710 680 23 722 C 642.064 794.612 t 0 r /Helvetica findfont 31.9354 sf 0 0 m (50) show NC gr  129 824 m 510 Y s
 gsave  710 680 23 722 C 63.7511 1097.43 t 90 r /Helvetica findfont 38.7787 sf 0 0 m (probability/bin) show NC gr  145 824 m -16 X s
 gsave  710 680 23 722 C 102.457 826.487 t 0 r /Helvetica findfont 20.5299 sf 0 0 m (\2558) show NC gr 
 gsave  710 680 23 722 C 68.3047 810.549 t 0 r /Helvetica findfont 31.9354 sf 0 0 m (10) show NC gr  137 843 m -8 X s 137 855 m -8 X s 137 863 m -8 X s 137 869 m -8 X s 137 874 m -8 X s 137 878 m -8 X s 137 882 m -8 X s 137 885 m -8 X s 145 888 m -16
 X s
 gsave  710 680 23 722 C 102.457 885.684 t 0 r /Helvetica findfont 20.5299 sf 0 0 m (\2557) show NC gr 
 gsave  710 680 23 722 C 68.3047 872.023 t 0 r /Helvetica findfont 31.9354 sf 0 0 m (10) show NC gr  137 907 m -8 X s 137 918 m -8 X s 137 926 m -8 X s 137 932 m -8 X s 137 938 m -8 X s 137 942 m -8 X s 137 946 m -8 X s 137 949 m -8 X s 145 952 m -16
 X s
 gsave  710 680 23 722 C 102.457 951.712 t 0 r /Helvetica findfont 20.5299 sf 0 0 m (\2556) show NC gr 
 gsave  710 680 23 722 C 68.3047 935.775 t 0 r /Helvetica findfont 31.9354 sf 0 0 m (10) show NC gr  137 971 m -8 X s 137 982 m -8 X s 137 990 m -8 X s 137 996 m -8 X s 137 1001 m -8 X s 137 1006 m -8 X s 137 1009 m -8 X s 137 1012 m -8 X s 145 1015
 m -16 X s
 gsave  710 680 23 722 C 102.457 1015.46 t 0 r /Helvetica findfont 20.5299 sf 0 0 m (\2555) show NC gr 
 gsave  710 680 23 722 C 68.3047 999.526 t 0 r /Helvetica findfont 31.9354 sf 0 0 m (10) show NC gr  137 1035 m -8 X s 137 1046 m -8 X s 137 1054 m -8 X s 137 1060 m -8 X s 137 1065 m -8 X s 137 1069 m -8 X s 137 1073 m -8 X s 137 1076 m -8 X s 145
 1079 m -16 X s
 gsave  710 680 23 722 C 102.457 1076.94 t 0 r /Helvetica findfont 20.5299 sf 0 0 m (\2554) show NC gr 
 gsave  710 680 23 722 C 68.3047 1063.28 t 0 r /Helvetica findfont 31.9354 sf 0 0 m (10) show NC gr  137 1098 m -8 X s 137 1110 m -8 X s 137 1118 m -8 X s 137 1124 m -8 X s 137 1129 m -8 X s 137 1133 m -8 X s 137 1137 m -8 X s 137 1140 m -8 X s 145
 1143 m -16 X s
 gsave  710 680 23 722 C 102.457 1142.97 t 0 r /Helvetica findfont 20.5299 sf 0 0 m (\2553) show NC gr 
 gsave  710 680 23 722 C 68.3047 1127.03 t 0 r /Helvetica findfont 31.9354 sf 0 0 m (10) show NC gr  137 1162 m -8 X s 137 1173 m -8 X s 137 1181 m -8 X s 137 1187 m -8 X s 137 1192 m -8 X s 137 1197 m -8 X s 137 1200 m -8 X s 137 1204 m -8 X s 145
 1207 m -16 X s
 gsave  710 680 23 722 C 102.457 1204.44 t 0 r /Helvetica findfont 20.5299 sf 0 0 m (\2552) show NC gr 
 gsave  710 680 23 722 C 68.3047 1190.78 t 0 r /Helvetica findfont 31.9354 sf 0 0 m (10) show NC gr  137 1226 m -8 X s 137 1237 m -8 X s 137 1245 m -8 X s 137 1251 m -8 X s 137 1256 m -8 X s 137 1260 m -8 X s 137 1264 m -8 X s 137 1267 m -8 X s 145
 1270 m -16 X s
 gsave  710 680 23 722 C 104.734 1268.19 t 0 r /Helvetica findfont 20.5299 sf 0 0 m (\2551) show NC gr 
 gsave  710 680 23 722 C 70.5815 1254.53 t 0 r /Helvetica findfont 31.9354 sf 0 0 m (10) show NC gr  137 1290 m -8 X s 137 1301 m -8 X s 137 1309 m -8 X s 137 1315 m -8 X s 137 1320 m -8 X s 137 1324 m -8 X s 137 1328 m -8 X s 137 1331 m -8 X s 145
 1334 m -16 X s
 gsave  710 680 23 722 C 122.865 1321.3 t 0 r  -17 0 t /Helvetica findfont 31.9354 sf 0 0 m (1) show NC gr  6 lw 1 1 1 c black 136 824 m 77 Y s 136 919 m 10 Y s 3 lw /w 18 def /w2 {w 2 div} def /w3 {w 3 div} def 136 910 m20 6 lw 158 824 m 77 Y s 158
 919 m 10 Y s 3 lw 158 910 m20 6 lw 163 895 m 25 Y s 163 938 m 6 Y s 3 lw 163 929 m20 6 lw 167 963 m 2 Y s 3 lw 167 974 m20 6 lw 3 lw 171 1013 m20 6 lw 3 lw 176 1035 m20 6 lw 3 lw 180 1070 m20 6 lw 3 lw 185 1104 m20 6 lw 3 lw 189 1141 m20 6 lw 3 lw
 194 1174 m20 6 lw 3 lw 198 1205 m20 6 lw 3 lw 203 1233 m20 6 lw 3 lw 207 1256 m20 6 lw 3 lw 211 1274 m20 6 lw 3 lw 216 1281 m20 6 lw 3 lw 220 1280 m20 6 lw 3 lw 225 1274 m20 6 lw 3 lw 229 1267 m20 6 lw 3 lw 234 1260 m20 6 lw 3 lw 238 1252 m20 6 lw 3
 lw 243 1245 m20 6 lw 3 lw 247 1237 m20 6 lw 3 lw 251 1229 m20 6 lw 3 lw 256 1222 m20 6 lw 3 lw 260 1215 m20 6 lw 3 lw 265 1207 m20 6 lw 3 lw 269 1200 m20 6 lw 3 lw 274 1193 m20 6 lw 3 lw 278 1186 m20 6 lw 3 lw 282 1179 m20 6 lw 3 lw 287 1172 m20 6
 lw 3 lw 291 1166 m20 6 lw 3 lw 296 1160 m20 6 lw 3 lw 300 1153 m20 6 lw 3 lw 305 1147 m20 6 lw 3 lw 309 1141 m20 6 lw 3 lw 314 1135 m20 6 lw 3 lw 318 1129 m20 6 lw 3 lw 322 1124 m20 6 lw 3 lw 327 1118 m20 6 lw 3 lw 331 1113 m20 6 lw 3 lw 336 1107
 m20 6 lw 3 lw 340 1101 m20 6 lw 3 lw 345 1097 m20 6 lw 3 lw 349 1094 m20 6 lw 3 lw 354 1089 m20 6 lw 3 lw 358 1085 m20 6 lw 3 lw 362 1076 m20 6 lw 3 lw 367 1075 m20 6 lw 3 lw 371 1070 m20 6 lw 3 lw 376 1067 m20 6 lw 3 lw 380 1062 m20 6 lw 3 lw 385
 1060 m20 6 lw 3 lw 389 1054 m20 6 lw 3 lw 393 1053 m20 6 lw 3 lw 398 1046 m20 6 lw 3 lw 402 1043 m20 6 lw 3 lw 407 1042 m20 6 lw 3 lw 411 1035 m20 6 lw 3 lw 416 1038 m20 6 lw 3 lw 420 1025 m20 6 lw 3 lw 425 1030 m20 6 lw 3 lw 429 1026 m20 6 lw 3 lw
 433 1021 m20 6 lw 3 lw 438 1021 m20 6 lw 3 lw 442 1019 m20 6 lw 3 lw 447 1012 m20 6 lw 3 lw 451 1004 m20 6 lw 3 lw 456 1009 m20 6 lw 3 lw 460 1008 m20 6 lw 3 lw 465 1011 m20 6 lw 3 lw 469 997 m20 6 lw 3 lw 473 1002 m20 6 lw 478 967 m s 3 lw 478 976
 m20 6 lw 3 lw 482 994 m20 6 lw 3 lw 487 987 m20 6 lw 3 lw 491 992 m20 6 lw 3 lw 496 985 m20 6 lw 3 lw 500 988 m20 6 lw 3 lw 505 988 m20 6 lw 3 lw 509 988 m20 6 lw 3 lw 513 981 m20 6 lw 518 969 m 1 Y s 3 lw 518 979 m20 6 lw 522 951 m 4 Y s 3 lw 522
 964 m20 6 lw 3 lw 527 985 m20 6 lw 531 963 m 2 Y s 3 lw 531 974 m20 6 lw 536 951 m 4 Y s 3 lw 536 964 m20 6 lw 540 960 m 2 Y s 3 lw 540 971 m20 6 lw 544 960 m 2 Y s 3 lw 544 971 m20 6 lw 549 963 m 2 Y s 3 lw 549 974 m20 6 lw 553 929 m 10 Y s 553 958
 m 2 Y s 3 lw 553 948 m20 6 lw 558 960 m 2 Y s 3 lw 558 971 m20 6 lw 562 956 m 3 Y s 3 lw 562 968 m20 6 lw 567 945 m 6 Y s 567 969 m s 3 lw 567 960 m20 6 lw 571 929 m 10 Y s 571 958 m 2 Y s 3 lw 571 948 m20 6 lw 576 929 m 10 Y s 576 958 m 2 Y s 3 lw
 576 948 m20 6 lw 580 895 m 25 Y s 580 938 m 6 Y s 3 lw 580 929 m20 6 lw 584 929 m 10 Y s 584 958 m 2 Y s 3 lw 584 948 m20 6 lw 589 951 m 4 Y s 3 lw 589 964 m20 6 lw 593 929 m 10 Y s 593 958 m 2 Y s 3 lw 593 948 m20 6 lw 598 945 m 6 Y s 598 969 m s 3
 lw 598 960 m20 6 lw 602 917 m 14 Y s 602 950 m 3 Y s 3 lw 602 940 m20 6 lw 607 917 m 14 Y s 607 950 m 3 Y s 3 lw 607 940 m20 6 lw 611 917 m 14 Y s 611 950 m 3 Y s 3 lw 611 940 m20 6 lw 616 824 m 77 Y s 616 919 m 10 Y s 3 lw 616 910 m20 6 lw 620 938
 m 8 Y s 620 964 m 1 Y s 3 lw 620 955 m20 6 lw 624 945 m 6 Y s 624 969 m s 3 lw 624 960 m20 6 lw 633 824 m 77 Y s 633 919 m 10 Y s 3 lw 633 910 m20 6 lw 638 917 m 14 Y s 638 950 m 3 Y s 3 lw 638 940 m20 6 lw 642 917 m 14 Y s 642 950 m 3 Y s 3 lw 642
 940 m20 6 lw 651 917 m 14 Y s 651 950 m 3 Y s 3 lw 651 940 m20 6 lw 656 895 m 25 Y s 656 938 m 6 Y s 3 lw 656 929 m20 6 lw 660 895 m 25 Y s 660 938 m 6 Y s 3 lw 660 929 m20 6 lw 0 0 1 c 1 1 1 c 0 0 1 c 136 824 m 78 Y s 136 920 m 10 Y s 3 lw 136 911
 m21 6 lw 158 824 m 78 Y s 158 920 m 10 Y s 3 lw 158 911 m21 6 lw 163 946 m 5 Y s 163 969 m 1 Y s 3 lw 163 960 m21 6 lw 3 lw 167 986 m21 6 lw 3 lw 171 1021 m21 6 lw 3 lw 176 1048 m21 6 lw 3 lw 180 1082 m21 6 lw 3 lw 185 1116 m21 6 lw 3 lw 189 1152
 m21 6 lw 3 lw 194 1185 m21 6 lw 3 lw 198 1216 m21 6 lw 3 lw 203 1243 m21 6 lw 3 lw 207 1265 m21 6 lw 3 lw 211 1280 m21 6 lw 3 lw 216 1286 m21 6 lw 3 lw 220 1281 m21 6 lw 3 lw 225 1272 m21 6 lw 3 lw 229 1263 m21 6 lw 3 lw 234 1254 m21 6 lw 3 lw 238
 1245 m21 6 lw 3 lw 243 1236 m21 6 lw 3 lw 247 1228 m21 6 lw 3 lw 251 1219 m21 6 lw 3 lw 256 1211 m21 6 lw 3 lw 260 1203 m21 6 lw 3 lw 265 1195 m21 6 lw 3 lw 269 1187 m21 6 lw 3 lw 274 1180 m21 6 lw 3 lw 278 1173 m21 6 lw 3 lw 282 1165 m21 6 lw 3 lw
 287 1157 m21 6 lw 3 lw 291 1152 m21 6 lw 3 lw 296 1144 m21 6 lw 3 lw 300 1138 m21 6 lw 3 lw 305 1131 m21 6 lw 3 lw 309 1125 m21 6 lw 3 lw 314 1119 m21 6 lw 3 lw 318 1112 m21 6 lw 3 lw 322 1107 m21 6 lw 3 lw 327 1102 m21 6 lw 3 lw 331 1096 m21 6 lw 3
 lw 336 1090 m21 6 lw 3 lw 340 1088 m21 6 lw 3 lw 345 1081 m21 6 lw 3 lw 349 1075 m21 6 lw 3 lw 354 1070 m21 6 lw 3 lw 358 1066 m21 6 lw 3 lw 362 1063 m21 6 lw 3 lw 367 1058 m21 6 lw 3 lw 371 1049 m21 6 lw 3 lw 376 1049 m21 6 lw 3 lw 380 1047 m21 6
 lw 3 lw 385 1034 m21 6 lw 3 lw 389 1038 m21 6 lw 3 lw 393 1032 m21 6 lw 3 lw 398 1029 m21 6 lw 3 lw 402 1022 m21 6 lw 3 lw 407 1021 m21 6 lw 3 lw 411 1012 m21 6 lw 3 lw 416 1025 m21 6 lw 3 lw 420 1016 m21 6 lw 3 lw 425 1008 m21 6 lw 3 lw 429 996 m21
 6 lw 3 lw 433 1007 m21 6 lw 3 lw 438 991 m21 6 lw 3 lw 442 1000 m21 6 lw 3 lw 447 995 m21 6 lw 3 lw 451 988 m21 6 lw 3 lw 456 986 m21 6 lw 3 lw 460 989 m21 6 lw 465 964 m 1 Y s 3 lw 465 975 m21 6 lw 469 967 m 1 Y s 3 lw 469 977 m21 6 lw 473 970 m s
 3 lw 473 980 m21 6 lw 3 lw 478 984 m21 6 lw 482 964 m 1 Y s 3 lw 482 975 m21 6 lw 487 956 m 3 Y s 3 lw 487 968 m21 6 lw 491 967 m 1 Y s 3 lw 491 977 m21 6 lw 496 946 m 5 Y s 496 969 m 1 Y s 3 lw 496 960 m21 6 lw 500 930 m 10 Y s 500 958 m 2 Y s 3 lw
 500 949 m21 6 lw 505 930 m 10 Y s 505 958 m 2 Y s 3 lw 505 949 m21 6 lw 509 956 m 3 Y s 3 lw 509 968 m21 6 lw 513 951 m 5 Y s 3 lw 513 965 m21 6 lw 518 967 m 1 Y s 3 lw 518 977 m21 6 lw 522 939 m 7 Y s 522 964 m 2 Y s 3 lw 522 955 m21 6 lw 527 956 m
 3 Y s 3 lw 527 968 m21 6 lw 531 939 m 7 Y s 531 964 m 2 Y s 3 lw 531 955 m21 6 lw 536 951 m 5 Y s 3 lw 536 965 m21 6 lw 540 946 m 5 Y s 540 969 m 1 Y s 3 lw 540 960 m21 6 lw 544 939 m 7 Y s 544 964 m 2 Y s 3 lw 544 955 m21 6 lw 549 930 m 10 Y s 549
 958 m 2 Y s 3 lw 549 949 m21 6 lw 558 917 m 15 Y s 558 950 m 4 Y s 3 lw 558 941 m21 6 lw 562 917 m 15 Y s 562 950 m 4 Y s 3 lw 562 941 m21 6 lw 567 946 m 5 Y s 567 969 m 1 Y s 3 lw 567 960 m21 6 lw 571 917 m 15 Y s 571 950 m 4 Y s 3 lw 571 941 m21 6
 lw 576 917 m 15 Y s 576 950 m 4 Y s 3 lw 576 941 m21 6 lw 580 896 m 25 Y s 580 939 m 6 Y s 3 lw 580 930 m21 6 lw 589 930 m 10 Y s 589 958 m 2 Y s 3 lw 589 949 m21 6 lw 593 917 m 15 Y s 593 950 m 4 Y s 3 lw 593 941 m21 6 lw 598 824 m 78 Y s 598 920 m
 10 Y s 3 lw 598 911 m21 6 lw 602 824 m 78 Y s 602 920 m 10 Y s 3 lw 602 911 m21 6 lw 607 824 m 78 Y s 607 920 m 10 Y s 3 lw 607 911 m21 6 lw 611 824 m 78 Y s 611 920 m 10 Y s 3 lw 611 911 m21 6 lw 616 896 m 25 Y s 616 939 m 6 Y s 3 lw 616 930 m21 6
 lw 620 824 m 78 Y s 620 920 m 10 Y s 3 lw 620 911 m21 6 lw 624 824 m 78 Y s 624 920 m 10 Y s 3 lw 624 911 m21 6 lw 629 896 m 25 Y s 629 939 m 6 Y s 3 lw 629 930 m21 6 lw 633 824 m 78 Y s 633 920 m 10 Y s 3 lw 633 911 m21 6 lw 638 824 m 78 Y s 638
 920 m 10 Y s 3 lw 638 911 m21 6 lw 651 824 m 78 Y s 651 920 m 10 Y s 3 lw 651 911 m21 6 lw 656 824 m 78 Y s 656 920 m 10 Y s 3 lw 656 911 m21 6 lw 660 896 m 25 Y s 660 939 m 6 Y s 3 lw 660 930 m21 6 lw 1 0 0 c 1 1 1 c 1 0 0 c 136 824 m 77 Y s 136
 919 m 10 Y s 3 lw 136 910 m22 6 lw 158 917 m 14 Y s 158 950 m 3 Y s 3 lw 158 941 m22 6 lw 163 938 m 8 Y s 163 964 m 1 Y s 3 lw 163 955 m22 6 lw 3 lw 167 987 m22 6 lw 3 lw 171 1010 m22 6 lw 3 lw 176 1035 m22 6 lw 3 lw 180 1070 m22 6 lw 3 lw 185 1104
 m22 6 lw 3 lw 189 1141 m22 6 lw 3 lw 194 1174 m22 6 lw 3 lw 198 1205 m22 6 lw 3 lw 203 1233 m22 6 lw 3 lw 207 1257 m22 6 lw 3 lw 211 1274 m22 6 lw 3 lw 216 1281 m22 6 lw 3 lw 220 1280 m22 6 lw 3 lw 225 1274 m22 6 lw 3 lw 229 1267 m22 6 lw 3 lw 234
 1260 m22 6 lw 3 lw 238 1252 m22 6 lw 3 lw 243 1244 m22 6 lw 3 lw 247 1237 m22 6 lw 3 lw 251 1229 m22 6 lw 3 lw 256 1222 m22 6 lw 3 lw 260 1214 m22 6 lw 3 lw 265 1207 m22 6 lw 3 lw 269 1200 m22 6 lw 3 lw 274 1193 m22 6 lw 3 lw 278 1185 m22 6 lw 3 lw
 282 1179 m22 6 lw 3 lw 287 1172 m22 6 lw 3 lw 291 1166 m22 6 lw 3 lw 296 1159 m22 6 lw 3 lw 300 1153 m22 6 lw 3 lw 305 1147 m22 6 lw 3 lw 309 1140 m22 6 lw 3 lw 314 1135 m22 6 lw 3 lw 318 1129 m22 6 lw 3 lw 322 1123 m22 6 lw 3 lw 327 1118 m22 6 lw 3
 lw 331 1112 m22 6 lw 3 lw 336 1107 m22 6 lw 3 lw 340 1102 m22 6 lw 3 lw 345 1098 m22 6 lw 3 lw 349 1093 m22 6 lw 3 lw 354 1088 m22 6 lw 3 lw 358 1080 m22 6 lw 3 lw 362 1077 m22 6 lw 3 lw 367 1074 m22 6 lw 3 lw 371 1069 m22 6 lw 3 lw 376 1065 m22 6
 lw 3 lw 380 1062 m22 6 lw 3 lw 385 1057 m22 6 lw 3 lw 389 1056 m22 6 lw 3 lw 393 1050 m22 6 lw 3 lw 398 1048 m22 6 lw 3 lw 402 1042 m22 6 lw 3 lw 407 1042 m22 6 lw 3 lw 411 1034 m22 6 lw 3 lw 416 1038 m22 6 lw 3 lw 420 1025 m22 6 lw 3 lw 425 1026
 m22 6 lw 3 lw 429 1025 m22 6 lw 3 lw 433 1018 m22 6 lw 3 lw 438 1023 m22 6 lw 3 lw 442 1011 m22 6 lw 3 lw 447 1014 m22 6 lw 3 lw 451 1009 m22 6 lw 3 lw 456 1014 m22 6 lw 3 lw 460 1002 m22 6 lw 3 lw 465 1001 m22 6 lw 3 lw 469 992 m22 6 lw 3 lw 473
 985 m22 6 lw 3 lw 478 987 m22 6 lw 3 lw 482 1005 m22 6 lw 3 lw 487 989 m22 6 lw 491 963 m 2 Y s 3 lw 491 974 m22 6 lw 3 lw 496 996 m22 6 lw 3 lw 500 983 m22 6 lw 3 lw 505 983 m22 6 lw 3 lw 509 981 m22 6 lw 3 lw 513 985 m22 6 lw 3 lw 518 987 m22 6 lw
 3 lw 522 981 m22 6 lw 3 lw 527 989 m22 6 lw 3 lw 531 983 m22 6 lw 536 945 m 6 Y s 536 969 m s 3 lw 536 960 m22 6 lw 3 lw 540 981 m22 6 lw 544 945 m 6 Y s 544 969 m s 3 lw 544 960 m22 6 lw 549 956 m 3 Y s 3 lw 549 968 m22 6 lw 553 938 m 8 Y s 553 964
 m 1 Y s 3 lw 553 955 m22 6 lw 558 951 m 4 Y s 3 lw 558 964 m22 6 lw 562 938 m 8 Y s 562 964 m 1 Y s 3 lw 562 955 m22 6 lw 567 917 m 14 Y s 567 950 m 3 Y s 3 lw 567 941 m22 6 lw 571 929 m 10 Y s 571 958 m 2 Y s 3 lw 571 948 m22 6 lw 576 929 m 10 Y s
 576 958 m 2 Y s 3 lw 576 948 m22 6 lw 580 929 m 10 Y s 580 958 m 2 Y s 3 lw 580 948 m22 6 lw 589 956 m 3 Y s 3 lw 589 968 m22 6 lw 593 824 m 77 Y s 593 919 m 10 Y s 3 lw 593 910 m22 6 lw 598 929 m 10 Y s 598 958 m 2 Y s 3 lw 598 948 m22 6 lw 602 824
 m 77 Y s 602 919 m 10 Y s 3 lw 602 910 m22 6 lw 607 917 m 14 Y s 607 950 m 3 Y s 3 lw 607 941 m22 6 lw 611 917 m 14 Y s 611 950 m 3 Y s 3 lw 611 941 m22 6 lw 616 917 m 14 Y s 616 950 m 3 Y s 3 lw 616 941 m22 6 lw 620 917 m 14 Y s 620 950 m 3 Y s 3
 lw 620 941 m22 6 lw 624 938 m 8 Y s 624 964 m 1 Y s 3 lw 624 955 m22 6 lw 633 929 m 10 Y s 633 958 m 2 Y s 3 lw 633 948 m22 6 lw 638 895 m 25 Y s 638 938 m 6 Y s 3 lw 638 929 m22 6 lw 642 895 m 25 Y s 642 938 m 6 Y s 3 lw 642 929 m22 6 lw 647 895 m
 25 Y s 647 938 m 6 Y s 3 lw 647 929 m22 6 lw 651 895 m 25 Y s 651 938 m 6 Y s 3 lw 651 929 m22 6 lw 656 895 m 25 Y s 656 938 m 6 Y s 3 lw 656 929 m22 6 lw 660 895 m 25 Y s 660 938 m 6 Y s 3 lw 660 929 m22 6 lw black
 gsave  710 680 23 722 C 368.845 1279.57 t 0 r /Helvetica findfont 29.6543 sf 0 0 m (Centrality: 0 \255 20%) show NC gr 
 gsave  710 680 23 722 C 450.811 1197.61 t 0 r /Helvetica findfont 29.6543 sf 0 0 m (=2.15 GeV/c) show NC gr 
 gsave  710 680 23 722 C 432.597 1197.61 t 0 r /Symbol findfont 29.6543 sf 0 0 m (s) show NC gr 
 gsave  710 680 23 722 C 432.597 1229.48 t 0 r /Helvetica findfont 29.6543 sf 0 0 m (RC) show NC gr  3 lw 399 1224 m20 6 lw
 gsave  710 680 23 722 C 450.811 1131.58 t 0 r /Helvetica findfont 29.6543 sf 0 0 m (=1.88 GeV/c) show NC gr 
 gsave  710 680 23 722 C 432.597 1131.58 t 0 r /Symbol findfont 29.6543 sf 0 0 m (s) show NC gr 
 gsave  710 680 23 722 C 432.597 1168.01 t 0 r /Helvetica findfont 29.6543 sf 0 0 m (RC w/o lead. jet) show NC gr  0 0 1 c 3 lw 399 1159 m21 6 lw black
 gsave  710 680 23 722 C 450.811 1065.55 t 0 r /Helvetica findfont 29.6543 sf 0 0 m (=2.14 GeV/c) show NC gr 
 gsave  710 680 23 722 C 432.597 1065.55 t 0 r /Symbol findfont 29.6543 sf 0 0 m (s) show NC gr 
 gsave  710 680 23 722 C 432.597 1101.98 t 0 r /Helvetica findfont 29.6543 sf 0 0 m (RC partial) show NC gr  1 0 0 c 3 lw 399 1094 m22 6 lw black 3 lw 0.999 0.999 0.999 c 710 680 779 722 bf black 1 1 1 c 533 510 885 824 bf black 533 510 885 824 bl 1
 1 1 c 533 510 885 824 bf black 533 510 885 824 bl 0 0 0.6 c 1 1 1 c black 0 0 0.6 c 885 824 m 533 X s black 885 824 m 533 X s
 gsave  710 680 779 722 C 1404.8 762.736 t 0 r /Helvetica findfont 38.7787 sf 0 0 m (\)) show NC gr 
 gsave  710 680 779 722 C 1382.03 762.736 t 0 r /Helvetica-Oblique findfont 38.7787 sf 0 0 m (c) show NC gr 
 gsave  710 680 779 722 C 1268.19 762.736 t 0 r /Helvetica findfont 38.7787 sf 0 0 m ( \(GeV/) show NC gr 
 gsave  710 680 779 722 C 1252.25 739.968 t 0 r /Helvetica findfont 25.0921 sf 0 0 m (T) show NC gr 
 gsave  710 680 779 722 C 1227.21 762.736 t 0 r /Helvetica-Oblique findfont 38.7787 sf 0 0 m (p) show NC gr 
 gsave  710 680 779 722 C 1213.55 762.736 t 0 r /Helvetica findfont 38.7787 sf 0 0 m ( ) show NC gr 
 gsave  710 680 779 722 C 1193.06 762.736 t 0 r /Symbol findfont 38.7787 sf 0 0 m (d) show NC gr  885 840 m -16 Y s 903 832 m -8 Y s 921 832 m -8 Y s 938 832 m -8 Y s 956 832 m -8 Y s 974 840 m -16 Y s 992 832 m -8 Y s 1010 832 m -8 Y s 1027 832 m -8
 Y s 1045 832 m -8 Y s 1063 840 m -16 Y s 1081 832 m -8 Y s 1098 832 m -8 Y s 1116 832 m -8 Y s 1134 832 m -8 Y s 1152 840 m -16 Y s 1169 832 m -8 Y s 1187 832 m -8 Y s 1205 832 m -8 Y s 1223 832 m -8 Y s 1240 840 m -16 Y s 1258 832 m -8 Y s 1276 832
 m -8 Y s 1294 832 m -8 Y s 1311 832 m -8 Y s 1329 840 m -16 Y s 1347 832 m -8 Y s 1365 832 m -8 Y s 1383 832 m -8 Y s 1400 832 m -8 Y s 1418 840 m -16 Y s
 gsave  710 680 779 722 C 860.639 794.612 t 0 r /Helvetica findfont 31.9354 sf 0 0 m (\25510) show NC gr 
 gsave  710 680 779 722 C 963.096 794.612 t 0 r /Helvetica findfont 31.9354 sf 0 0 m (0) show NC gr 
 gsave  710 680 779 722 C 1042.79 794.612 t 0 r /Helvetica findfont 31.9354 sf 0 0 m (10) show NC gr 
 gsave  710 680 779 722 C 1131.58 794.612 t 0 r /Helvetica findfont 31.9354 sf 0 0 m (20) show NC gr 
 gsave  710 680 779 722 C 1220.38 794.612 t 0 r /Helvetica findfont 31.9354 sf 0 0 m (30) show NC gr 
 gsave  710 680 779 722 C 1309.17 794.612 t 0 r /Helvetica findfont 31.9354 sf 0 0 m (40) show NC gr 
 gsave  710 680 779 722 C 1397.97 794.612 t 0 r /Helvetica findfont 31.9354 sf 0 0 m (50) show NC gr  885 824 m 510 Y s
 gsave  710 680 779 722 C 819.657 1097.43 t 90 r /Helvetica findfont 38.7787 sf 0 0 m (probability/bin) show NC gr  901 824 m -16 X s
 gsave  710 680 779 722 C 858.363 826.487 t 0 r /Helvetica findfont 20.5299 sf 0 0 m (\2558) show NC gr 
 gsave  710 680 779 722 C 824.21 810.549 t 0 r /Helvetica findfont 31.9354 sf 0 0 m (10) show NC gr  893 843 m -8 X s 893 855 m -8 X s 893 863 m -8 X s 893 869 m -8 X s 893 874 m -8 X s 893 878 m -8 X s 893 882 m -8 X s 893 885 m -8 X s 901 888 m -16
 X s
 gsave  710 680 779 722 C 858.363 885.684 t 0 r /Helvetica findfont 20.5299 sf 0 0 m (\2557) show NC gr 
 gsave  710 680 779 722 C 824.21 872.023 t 0 r /Helvetica findfont 31.9354 sf 0 0 m (10) show NC gr  893 907 m -8 X s 893 918 m -8 X s 893 926 m -8 X s 893 932 m -8 X s 893 938 m -8 X s 893 942 m -8 X s 893 946 m -8 X s 893 949 m -8 X s 901 952 m -16
 X s
 gsave  710 680 779 722 C 858.363 951.712 t 0 r /Helvetica findfont 20.5299 sf 0 0 m (\2556) show NC gr 
 gsave  710 680 779 722 C 824.21 935.775 t 0 r /Helvetica findfont 31.9354 sf 0 0 m (10) show NC gr  893 971 m -8 X s 893 982 m -8 X s 893 990 m -8 X s 893 996 m -8 X s 893 1001 m -8 X s 893 1006 m -8 X s 893 1009 m -8 X s 893 1012 m -8 X s 901 1015
 m -16 X s
 gsave  710 680 779 722 C 858.363 1015.46 t 0 r /Helvetica findfont 20.5299 sf 0 0 m (\2555) show NC gr 
 gsave  710 680 779 722 C 824.21 999.526 t 0 r /Helvetica findfont 31.9354 sf 0 0 m (10) show NC gr  893 1035 m -8 X s 893 1046 m -8 X s 893 1054 m -8 X s 893 1060 m -8 X s 893 1065 m -8 X s 893 1069 m -8 X s 893 1073 m -8 X s 893 1076 m -8 X s 901
 1079 m -16 X s
 gsave  710 680 779 722 C 858.363 1076.94 t 0 r /Helvetica findfont 20.5299 sf 0 0 m (\2554) show NC gr 
 gsave  710 680 779 722 C 824.21 1063.28 t 0 r /Helvetica findfont 31.9354 sf 0 0 m (10) show NC gr  893 1098 m -8 X s 893 1110 m -8 X s 893 1118 m -8 X s 893 1124 m -8 X s 893 1129 m -8 X s 893 1133 m -8 X s 893 1137 m -8 X s 893 1140 m -8 X s 901
 1143 m -16 X s
 gsave  710 680 779 722 C 858.363 1142.97 t 0 r /Helvetica findfont 20.5299 sf 0 0 m (\2553) show NC gr 
 gsave  710 680 779 722 C 824.21 1127.03 t 0 r /Helvetica findfont 31.9354 sf 0 0 m (10) show NC gr  893 1162 m -8 X s 893 1173 m -8 X s 893 1181 m -8 X s 893 1187 m -8 X s 893 1192 m -8 X s 893 1197 m -8 X s 893 1200 m -8 X s 893 1204 m -8 X s 901
 1207 m -16 X s
 gsave  710 680 779 722 C 858.363 1204.44 t 0 r /Helvetica findfont 20.5299 sf 0 0 m (\2552) show NC gr 
 gsave  710 680 779 722 C 824.21 1190.78 t 0 r /Helvetica findfont 31.9354 sf 0 0 m (10) show NC gr  893 1226 m -8 X s 893 1237 m -8 X s 893 1245 m -8 X s 893 1251 m -8 X s 893 1256 m -8 X s 893 1260 m -8 X s 893 1264 m -8 X s 893 1267 m -8 X s 901
 1270 m -16 X s
 gsave  710 680 779 722 C 860.639 1268.19 t 0 r /Helvetica findfont 20.5299 sf 0 0 m (\2551) show NC gr 
 gsave  710 680 779 722 C 826.487 1254.53 t 0 r /Helvetica findfont 31.9354 sf 0 0 m (10) show NC gr  893 1290 m -8 X s 893 1301 m -8 X s 893 1309 m -8 X s 893 1315 m -8 X s 893 1320 m -8 X s 893 1324 m -8 X s 893 1328 m -8 X s 893 1331 m -8 X s 901
 1334 m -16 X s
 gsave  710 680 779 722 C 878.77 1321.3 t 0 r  -17 0 t /Helvetica findfont 31.9354 sf 0 0 m (1) show NC gr  6 lw 1 1 1 c black 923 899 m 25 Y s 923 942 m 6 Y s 3 lw 923 933 m20 6 lw 927 899 m 25 Y s 927 942 m 6 Y s 3 lw 927 933 m20 6 lw 932 933 m 10
 Y s 932 961 m 2 Y s 3 lw 932 952 m20 6 lw 3 lw 936 990 m20 6 lw 3 lw 941 1035 m20 6 lw 3 lw 945 1081 m20 6 lw 3 lw 950 1123 m20 6 lw 3 lw 954 1165 m20 6 lw 3 lw 958 1205 m20 6 lw 3 lw 963 1241 m20 6 lw 3 lw 967 1271 m20 6 lw 3 lw 972 1290 m20 6 lw 3
 lw 976 1289 m20 6 lw 3 lw 981 1279 m20 6 lw 3 lw 985 1269 m20 6 lw 3 lw 990 1258 m20 6 lw 3 lw 994 1248 m20 6 lw 3 lw 998 1237 m20 6 lw 3 lw 1003 1227 m20 6 lw 3 lw 1007 1218 m20 6 lw 3 lw 1012 1208 m20 6 lw 3 lw 1016 1200 m20 6 lw 3 lw 1021 1191
 m20 6 lw 3 lw 1025 1183 m20 6 lw 3 lw 1029 1175 m20 6 lw 3 lw 1034 1167 m20 6 lw 3 lw 1038 1159 m20 6 lw 3 lw 1043 1152 m20 6 lw 3 lw 1047 1145 m20 6 lw 3 lw 1052 1139 m20 6 lw 3 lw 1056 1131 m20 6 lw 3 lw 1061 1125 m20 6 lw 3 lw 1065 1120 m20 6 lw
 3 lw 1069 1113 m20 6 lw 3 lw 1074 1108 m20 6 lw 3 lw 1078 1104 m20 6 lw 3 lw 1083 1098 m20 6 lw 3 lw 1087 1092 m20 6 lw 3 lw 1092 1089 m20 6 lw 3 lw 1096 1081 m20 6 lw 3 lw 1101 1077 m20 6 lw 3 lw 1105 1073 m20 6 lw 3 lw 1109 1069 m20 6 lw 3 lw 1114
 1065 m20 6 lw 3 lw 1118 1055 m20 6 lw 3 lw 1123 1056 m20 6 lw 3 lw 1127 1052 m20 6 lw 3 lw 1132 1051 m20 6 lw 3 lw 1136 1046 m20 6 lw 3 lw 1141 1044 m20 6 lw 3 lw 1145 1040 m20 6 lw 3 lw 1149 1040 m20 6 lw 3 lw 1154 1033 m20 6 lw 3 lw 1158 1026 m20
 6 lw 3 lw 1163 1023 m20 6 lw 3 lw 1167 1012 m20 6 lw 3 lw 1172 1015 m20 6 lw 3 lw 1176 1011 m20 6 lw 3 lw 1180 1020 m20 6 lw 3 lw 1185 1018 m20 6 lw 3 lw 1189 1014 m20 6 lw 3 lw 1194 1006 m20 6 lw 3 lw 1198 1002 m20 6 lw 3 lw 1203 1009 m20 6 lw 3 lw
 1207 1000 m20 6 lw 3 lw 1212 990 m20 6 lw 3 lw 1216 999 m20 6 lw 3 lw 1220 990 m20 6 lw 3 lw 1225 989 m20 6 lw 1229 973 m s 3 lw 1229 982 m20 6 lw 3 lw 1234 996 m20 6 lw 3 lw 1238 989 m20 6 lw 3 lw 1243 985 m20 6 lw 1247 954 m 4 Y s 3 lw 1247 967
 m20 6 lw 3 lw 1252 995 m20 6 lw 1256 942 m 7 Y s 1256 967 m 1 Y s 3 lw 1256 958 m20 6 lw 1260 942 m 7 Y s 1260 967 m 1 Y s 3 lw 1260 958 m20 6 lw 1265 949 m 5 Y s 1265 972 m 1 Y s 3 lw 1265 963 m20 6 lw 1269 959 m 3 Y s 3 lw 1269 971 m20 6 lw 1274
 824 m 80 Y s 1274 923 m 10 Y s 3 lw 1274 914 m20 6 lw 1278 954 m 4 Y s 3 lw 1278 967 m20 6 lw 1283 899 m 25 Y s 1283 942 m 6 Y s 3 lw 1283 933 m20 6 lw 1287 963 m 2 Y s 3 lw 1287 974 m20 6 lw 1292 959 m 3 Y s 3 lw 1292 971 m20 6 lw 1296 949 m 5 Y s
 1296 972 m 1 Y s 3 lw 1296 963 m20 6 lw 1300 959 m 3 Y s 3 lw 1300 971 m20 6 lw 1305 920 m 15 Y s 1305 953 m 4 Y s 3 lw 1305 944 m20 6 lw 1309 959 m 3 Y s 3 lw 1309 971 m20 6 lw 1314 942 m 7 Y s 1314 967 m 1 Y s 3 lw 1314 958 m20 6 lw 1318 899 m 25
 Y s 1318 942 m 6 Y s 3 lw 1318 933 m20 6 lw 1323 933 m 10 Y s 1323 961 m 2 Y s 3 lw 1323 952 m20 6 lw 1327 920 m 15 Y s 1327 953 m 4 Y s 3 lw 1327 944 m20 6 lw 1331 933 m 10 Y s 1331 961 m 2 Y s 3 lw 1331 952 m20 6 lw 1336 899 m 25 Y s 1336 942 m 6
 Y s 3 lw 1336 933 m20 6 lw 1340 949 m 5 Y s 1340 972 m 1 Y s 3 lw 1340 963 m20 6 lw 1345 899 m 25 Y s 1345 942 m 6 Y s 3 lw 1345 933 m20 6 lw 1349 824 m 80 Y s 1349 923 m 10 Y s 3 lw 1349 914 m20 6 lw 1354 899 m 25 Y s 1354 942 m 6 Y s 3 lw 1354 933
 m20 6 lw 1358 824 m 80 Y s 1358 923 m 10 Y s 3 lw 1358 914 m20 6 lw 1363 942 m 7 Y s 1363 967 m 1 Y s 3 lw 1363 958 m20 6 lw 1367 933 m 10 Y s 1367 961 m 2 Y s 3 lw 1367 952 m20 6 lw 1371 899 m 25 Y s 1371 942 m 6 Y s 3 lw 1371 933 m20 6 lw 1376 942
 m 7 Y s 1376 967 m 1 Y s 3 lw 1376 958 m20 6 lw 1380 920 m 15 Y s 1380 953 m 4 Y s 3 lw 1380 944 m20 6 lw 1385 824 m 80 Y s 1385 923 m 10 Y s 3 lw 1385 914 m20 6 lw 1389 954 m 4 Y s 3 lw 1389 967 m20 6 lw 1394 824 m 80 Y s 1394 923 m 10 Y s 3 lw
 1394 914 m20 6 lw 1398 824 m 80 Y s 1398 923 m 10 Y s 3 lw 1398 914 m20 6 lw 1416 824 m 80 Y s 1416 923 m 10 Y s 3 lw 1416 914 m20 6 lw 0 0 1 c 1 1 1 c 0 0 1 c 918 824 m 82 Y s 918 924 m 10 Y s 3 lw 918 915 m21 6 lw 923 921 m 15 Y s 923 954 m 4 Y s
 3 lw 923 945 m21 6 lw 927 943 m 7 Y s 927 968 m 2 Y s 3 lw 927 959 m21 6 lw 932 971 m 1 Y s 3 lw 932 981 m21 6 lw 3 lw 936 996 m21 6 lw 3 lw 941 1044 m21 6 lw 3 lw 945 1092 m21 6 lw 3 lw 950 1134 m21 6 lw 3 lw 954 1176 m21 6 lw 3 lw 958 1215 m21 6
 lw 3 lw 963 1250 m21 6 lw 3 lw 967 1279 m21 6 lw 3 lw 972 1295 m21 6 lw 3 lw 976 1291 m21 6 lw 3 lw 981 1276 m21 6 lw 3 lw 985 1262 m21 6 lw 3 lw 990 1249 m21 6 lw 3 lw 994 1238 m21 6 lw 3 lw 998 1226 m21 6 lw 3 lw 1003 1215 m21 6 lw 3 lw 1007 1205
 m21 6 lw 3 lw 1012 1195 m21 6 lw 3 lw 1016 1186 m21 6 lw 3 lw 1021 1176 m21 6 lw 3 lw 1025 1168 m21 6 lw 3 lw 1029 1159 m21 6 lw 3 lw 1034 1150 m21 6 lw 3 lw 1038 1142 m21 6 lw 3 lw 1043 1136 m21 6 lw 3 lw 1047 1130 m21 6 lw 3 lw 1052 1121 m21 6 lw
 3 lw 1056 1115 m21 6 lw 3 lw 1061 1107 m21 6 lw 3 lw 1065 1101 m21 6 lw 3 lw 1069 1093 m21 6 lw 3 lw 1074 1088 m21 6 lw 3 lw 1078 1084 m21 6 lw 3 lw 1083 1078 m21 6 lw 3 lw 1087 1073 m21 6 lw 3 lw 1092 1069 m21 6 lw 3 lw 1096 1060 m21 6 lw 3 lw 1101
 1056 m21 6 lw 3 lw 1105 1053 m21 6 lw 3 lw 1109 1049 m21 6 lw 3 lw 1114 1047 m21 6 lw 3 lw 1118 1040 m21 6 lw 3 lw 1123 1034 m21 6 lw 3 lw 1127 1035 m21 6 lw 3 lw 1132 1029 m21 6 lw 3 lw 1136 1030 m21 6 lw 3 lw 1141 1020 m21 6 lw 3 lw 1145 1022 m21
 6 lw 3 lw 1149 1014 m21 6 lw 3 lw 1154 1006 m21 6 lw 3 lw 1158 1006 m21 6 lw 3 lw 1163 1011 m21 6 lw 3 lw 1167 1003 m21 6 lw 3 lw 1172 1006 m21 6 lw 1176 974 m s 3 lw 1176 984 m21 6 lw 3 lw 1180 996 m21 6 lw 3 lw 1185 995 m21 6 lw 3 lw 1189 996 m21
 6 lw 3 lw 1194 993 m21 6 lw 1198 974 m s 3 lw 1198 984 m21 6 lw 1203 943 m 7 Y s 1203 968 m 2 Y s 3 lw 1203 959 m21 6 lw 1207 968 m 1 Y s 3 lw 1207 979 m21 6 lw 1212 968 m 1 Y s 3 lw 1212 979 m21 6 lw 1216 960 m 3 Y s 3 lw 1216 972 m21 6 lw 1220 934
 m 10 Y s 1220 962 m 2 Y s 3 lw 1220 953 m21 6 lw 1225 921 m 15 Y s 1225 954 m 4 Y s 3 lw 1225 945 m21 6 lw 1229 956 m 4 Y s 3 lw 1229 969 m21 6 lw 1234 956 m 4 Y s 3 lw 1234 969 m21 6 lw 1238 956 m 4 Y s 3 lw 1238 969 m21 6 lw 1243 950 m 5 Y s 1243
 974 m s 3 lw 1243 964 m21 6 lw 1247 934 m 10 Y s 1247 962 m 2 Y s 3 lw 1247 953 m21 6 lw 1252 950 m 5 Y s 1252 974 m s 3 lw 1252 964 m21 6 lw 1256 921 m 15 Y s 1256 954 m 4 Y s 3 lw 1256 945 m21 6 lw 1260 921 m 15 Y s 1260 954 m 4 Y s 3 lw 1260 945
 m21 6 lw 1265 900 m 25 Y s 1265 943 m 6 Y s 3 lw 1265 934 m21 6 lw 1269 900 m 25 Y s 1269 943 m 6 Y s 3 lw 1269 934 m21 6 lw 1274 934 m 10 Y s 1274 962 m 2 Y s 3 lw 1274 953 m21 6 lw 1278 900 m 25 Y s 1278 943 m 6 Y s 3 lw 1278 934 m21 6 lw 1283 900
 m 25 Y s 1283 943 m 6 Y s 3 lw 1283 934 m21 6 lw 1287 956 m 4 Y s 3 lw 1287 969 m21 6 lw 1292 900 m 25 Y s 1292 943 m 6 Y s 3 lw 1292 934 m21 6 lw 1296 934 m 10 Y s 1296 962 m 2 Y s 3 lw 1296 953 m21 6 lw 1300 934 m 10 Y s 1300 962 m 2 Y s 3 lw 1300
 953 m21 6 lw 1305 921 m 15 Y s 1305 954 m 4 Y s 3 lw 1305 945 m21 6 lw 1309 921 m 15 Y s 1309 954 m 4 Y s 3 lw 1309 945 m21 6 lw 1314 921 m 15 Y s 1314 954 m 4 Y s 3 lw 1314 945 m21 6 lw 1318 900 m 25 Y s 1318 943 m 6 Y s 3 lw 1318 934 m21 6 lw 1323
 900 m 25 Y s 1323 943 m 6 Y s 3 lw 1323 934 m21 6 lw 1327 934 m 10 Y s 1327 962 m 2 Y s 3 lw 1327 953 m21 6 lw 1336 921 m 15 Y s 1336 954 m 4 Y s 3 lw 1336 945 m21 6 lw 1340 921 m 15 Y s 1340 954 m 4 Y s 3 lw 1340 945 m21 6 lw 1349 900 m 25 Y s 1349
 943 m 6 Y s 3 lw 1349 934 m21 6 lw 1354 921 m 15 Y s 1354 954 m 4 Y s 3 lw 1354 945 m21 6 lw 1363 824 m 82 Y s 1363 924 m 10 Y s 3 lw 1363 915 m21 6 lw 1367 824 m 82 Y s 1367 924 m 10 Y s 3 lw 1367 915 m21 6 lw 1371 921 m 15 Y s 1371 954 m 4 Y s 3
 lw 1371 945 m21 6 lw 1380 900 m 25 Y s 1380 943 m 6 Y s 3 lw 1380 934 m21 6 lw 1416 824 m 82 Y s 1416 924 m 10 Y s 3 lw 1416 915 m21 6 lw 1 0 0 c 1 1 1 c 1 0 0 c 918 824 m 80 Y s 918 923 m 10 Y s 3 lw 918 914 m22 6 lw 923 920 m 15 Y s 923 953 m 4 Y
 s 3 lw 923 944 m22 6 lw 927 920 m 15 Y s 927 953 m 4 Y s 3 lw 927 944 m22 6 lw 932 959 m 3 Y s 3 lw 932 971 m22 6 lw 3 lw 936 987 m22 6 lw 3 lw 941 1032 m22 6 lw 3 lw 945 1082 m22 6 lw 3 lw 950 1123 m22 6 lw 3 lw 954 1165 m22 6 lw 3 lw 958 1205 m22
 6 lw 3 lw 963 1241 m22 6 lw 3 lw 967 1271 m22 6 lw 3 lw 972 1290 m22 6 lw 3 lw 976 1289 m22 6 lw 3 lw 981 1279 m22 6 lw 3 lw 985 1268 m22 6 lw 3 lw 990 1258 m22 6 lw 3 lw 994 1247 m22 6 lw 3 lw 998 1237 m22 6 lw 3 lw 1003 1227 m22 6 lw 3 lw 1007
 1217 m22 6 lw 3 lw 1012 1208 m22 6 lw 3 lw 1016 1199 m22 6 lw 3 lw 1021 1190 m22 6 lw 3 lw 1025 1182 m22 6 lw 3 lw 1029 1174 m22 6 lw 3 lw 1034 1166 m22 6 lw 3 lw 1038 1159 m22 6 lw 3 lw 1043 1151 m22 6 lw 3 lw 1047 1144 m22 6 lw 3 lw 1052 1139 m22
 6 lw 3 lw 1056 1132 m22 6 lw 3 lw 1061 1125 m22 6 lw 3 lw 1065 1119 m22 6 lw 3 lw 1069 1114 m22 6 lw 3 lw 1074 1109 m22 6 lw 3 lw 1078 1102 m22 6 lw 3 lw 1083 1095 m22 6 lw 3 lw 1087 1092 m22 6 lw 3 lw 1092 1086 m22 6 lw 3 lw 1096 1084 m22 6 lw 3 lw
 1101 1075 m22 6 lw 3 lw 1105 1071 m22 6 lw 3 lw 1109 1066 m22 6 lw 3 lw 1114 1060 m22 6 lw 3 lw 1118 1061 m22 6 lw 3 lw 1123 1058 m22 6 lw 3 lw 1127 1054 m22 6 lw 3 lw 1132 1050 m22 6 lw 3 lw 1136 1042 m22 6 lw 3 lw 1141 1042 m22 6 lw 3 lw 1145 1039
 m22 6 lw 3 lw 1149 1038 m22 6 lw 3 lw 1154 1026 m22 6 lw 3 lw 1158 1026 m22 6 lw 3 lw 1163 1021 m22 6 lw 3 lw 1167 1025 m22 6 lw 3 lw 1172 1013 m22 6 lw 3 lw 1176 1005 m22 6 lw 3 lw 1180 1012 m22 6 lw 3 lw 1185 1017 m22 6 lw 3 lw 1189 1014 m22 6 lw
 3 lw 1194 1000 m22 6 lw 3 lw 1198 1003 m22 6 lw 3 lw 1203 992 m22 6 lw 3 lw 1207 997 m22 6 lw 3 lw 1212 985 m22 6 lw 3 lw 1216 997 m22 6 lw 3 lw 1220 995 m22 6 lw 1225 970 m 1 Y s 3 lw 1225 980 m22 6 lw 3 lw 1229 989 m22 6 lw 3 lw 1234 994 m22 6 lw
 3 lw 1238 994 m22 6 lw 1243 973 m s 3 lw 1243 982 m22 6 lw 3 lw 1247 989 m22 6 lw 1252 963 m 2 Y s 3 lw 1252 974 m22 6 lw 1256 942 m 7 Y s 1256 967 m 1 Y s 3 lw 1256 958 m22 6 lw 1260 970 m 1 Y s 3 lw 1260 980 m22 6 lw 1265 963 m 2 Y s 3 lw 1265 974
 m22 6 lw 1269 920 m 15 Y s 1269 953 m 4 Y s 3 lw 1269 944 m22 6 lw 1274 963 m 2 Y s 3 lw 1274 974 m22 6 lw 1278 973 m s 3 lw 1278 982 m22 6 lw 1283 954 m 4 Y s 3 lw 1283 967 m22 6 lw 3 lw 1287 985 m22 6 lw 1292 899 m 25 Y s 1292 942 m 6 Y s 3 lw
 1292 933 m22 6 lw 1296 959 m 3 Y s 3 lw 1296 971 m22 6 lw 1300 933 m 10 Y s 1300 961 m 2 Y s 3 lw 1300 952 m22 6 lw 1305 967 m 1 Y s 3 lw 1305 977 m22 6 lw 1309 933 m 10 Y s 1309 961 m 2 Y s 3 lw 1309 952 m22 6 lw 1314 920 m 15 Y s 1314 953 m 4 Y s
 3 lw 1314 944 m22 6 lw 1318 933 m 10 Y s 1318 961 m 2 Y s 3 lw 1318 952 m22 6 lw 1323 824 m 80 Y s 1323 923 m 10 Y s 3 lw 1323 914 m22 6 lw 1327 899 m 25 Y s 1327 942 m 6 Y s 3 lw 1327 933 m22 6 lw 1331 920 m 15 Y s 1331 953 m 4 Y s 3 lw 1331 944
 m22 6 lw 1336 949 m 5 Y s 1336 972 m 1 Y s 3 lw 1336 963 m22 6 lw 1340 933 m 10 Y s 1340 961 m 2 Y s 3 lw 1340 952 m22 6 lw 1345 933 m 10 Y s 1345 961 m 2 Y s 3 lw 1345 952 m22 6 lw 1349 920 m 15 Y s 1349 953 m 4 Y s 3 lw 1349 944 m22 6 lw 1354 824
 m 80 Y s 1354 923 m 10 Y s 3 lw 1354 914 m22 6 lw 1358 949 m 5 Y s 1358 972 m 1 Y s 3 lw 1358 963 m22 6 lw 1363 942 m 7 Y s 1363 967 m 1 Y s 3 lw 1363 958 m22 6 lw 1367 824 m 80 Y s 1367 923 m 10 Y s 3 lw 1367 914 m22 6 lw 1371 899 m 25 Y s 1371 942
 m 6 Y s 3 lw 1371 933 m22 6 lw 1376 899 m 25 Y s 1376 942 m 6 Y s 3 lw 1376 933 m22 6 lw 1380 899 m 25 Y s 1380 942 m 6 Y s 3 lw 1380 933 m22 6 lw 1385 824 m 80 Y s 1385 923 m 10 Y s 3 lw 1385 914 m22 6 lw 1389 899 m 25 Y s 1389 942 m 6 Y s 3 lw
 1389 933 m22 6 lw 1394 824 m 80 Y s 1394 923 m 10 Y s 3 lw 1394 914 m22 6 lw 1398 920 m 15 Y s 1398 953 m 4 Y s 3 lw 1398 944 m22 6 lw 1403 824 m 80 Y s 1403 923 m 10 Y s 3 lw 1403 914 m22 6 lw 1407 920 m 15 Y s 1407 953 m 4 Y s 3 lw 1407 944 m22 6
 lw black
 gsave  710 680 779 722 C 1124.75 1279.57 t 0 r /Helvetica findfont 29.6543 sf 0 0 m (Centrality: 20 \255 40%) show NC gr 
 gsave  710 680 779 722 C 1206.72 1197.61 t 0 r /Helvetica findfont 29.6543 sf 0 0 m (=1.67 GeV/c) show NC gr 
 gsave  710 680 779 722 C 1188.5 1197.61 t 0 r /Symbol findfont 29.6543 sf 0 0 m (s) show NC gr 
 gsave  710 680 779 722 C 1188.5 1229.48 t 0 r /Helvetica findfont 29.6543 sf 0 0 m (RC) show NC gr  3 lw 1155 1224 m20 6 lw
 gsave  710 680 779 722 C 1206.72 1131.58 t 0 r /Helvetica findfont 29.6543 sf 0 0 m (=1.42 GeV/c) show NC gr 
 gsave  710 680 779 722 C 1188.5 1131.58 t 0 r /Symbol findfont 29.6543 sf 0 0 m (s) show NC gr 
 gsave  710 680 779 722 C 1188.5 1168.01 t 0 r /Helvetica findfont 29.6543 sf 0 0 m (RC w/o lead. jet) show NC gr  0 0 1 c 3 lw 1155 1159 m21 6 lw black
 gsave  710 680 779 722 C 1206.72 1065.55 t 0 r /Helvetica findfont 29.6543 sf 0 0 m (=1.67 GeV/c) show NC gr 
 gsave  710 680 779 722 C 1188.5 1065.55 t 0 r /Symbol findfont 29.6543 sf 0 0 m (s) show NC gr 
 gsave  710 680 779 722 C 1188.5 1101.98 t 0 r /Helvetica findfont 29.6543 sf 0 0 m (RC partial) show NC gr  1 0 0 c 3 lw 1155 1094 m22 6 lw black 3 lw 0.999 0.999 0.999 c 711 680 1534 722 bf black 1 1 1 c 533 510 1641 824 bf black 533 510 1641 824
 bl 1 1 1 c 533 510 1641 824 bf black 533 510 1641 824 bl 0 0 0.6 c 1 1 1 c black 0 0 0.6 c 1641 824 m 533 X s black 1641 824 m 533 X s
 gsave  711 680 1534 722 C 2160.71 762.736 t 0 r /Helvetica findfont 38.7787 sf 0 0 m (\)) show NC gr 
 gsave  711 680 1534 722 C 2137.94 762.736 t 0 r /Helvetica-Oblique findfont 38.7787 sf 0 0 m (c) show NC gr 
 gsave  711 680 1534 722 C 2024.1 762.736 t 0 r /Helvetica findfont 38.7787 sf 0 0 m ( \(GeV/) show NC gr 
 gsave  711 680 1534 722 C 2008.16 739.968 t 0 r /Helvetica findfont 25.0921 sf 0 0 m (T) show NC gr 
 gsave  711 680 1534 722 C 1983.11 762.736 t 0 r /Helvetica-Oblique findfont 38.7787 sf 0 0 m (p) show NC gr 
 gsave  711 680 1534 722 C 1969.45 762.736 t 0 r /Helvetica findfont 38.7787 sf 0 0 m ( ) show NC gr 
 gsave  711 680 1534 722 C 1948.96 762.736 t 0 r /Symbol findfont 38.7787 sf 0 0 m (d) show NC gr  1641 840 m -16 Y s 1659 832 m -8 Y s 1677 832 m -8 Y s 1694 832 m -8 Y s 1712 832 m -8 Y s 1730 840 m -16 Y s 1748 832 m -8 Y s 1765 832 m -8 Y s 1783
 832 m -8 Y s 1801 832 m -8 Y s 1819 840 m -16 Y s 1836 832 m -8 Y s 1854 832 m -8 Y s 1872 832 m -8 Y s 1890 832 m -8 Y s 1908 840 m -16 Y s 1925 832 m -8 Y s 1943 832 m -8 Y s 1961 832 m -8 Y s 1979 832 m -8 Y s 1996 840 m -16 Y s 2014 832 m -8 Y s
 2032 832 m -8 Y s 2050 832 m -8 Y s 2067 832 m -8 Y s 2085 840 m -16 Y s 2103 832 m -8 Y s 2121 832 m -8 Y s 2138 832 m -8 Y s 2156 832 m -8 Y s 2174 840 m -16 Y s
 gsave  711 680 1534 722 C 1616.54 794.612 t 0 r /Helvetica findfont 31.9354 sf 0 0 m (\25510) show NC gr 
 gsave  711 680 1534 722 C 1719 794.612 t 0 r /Helvetica findfont 31.9354 sf 0 0 m (0) show NC gr 
 gsave  711 680 1534 722 C 1798.69 794.612 t 0 r /Helvetica findfont 31.9354 sf 0 0 m (10) show NC gr 
 gsave  711 680 1534 722 C 1887.49 794.612 t 0 r /Helvetica findfont 31.9354 sf 0 0 m (20) show NC gr 
 gsave  711 680 1534 722 C 1976.28 794.612 t 0 r /Helvetica findfont 31.9354 sf 0 0 m (30) show NC gr 
 gsave  711 680 1534 722 C 2065.08 794.612 t 0 r /Helvetica findfont 31.9354 sf 0 0 m (40) show NC gr 
 gsave  711 680 1534 722 C 2153.88 794.612 t 0 r /Helvetica findfont 31.9354 sf 0 0 m (50) show NC gr  1641 824 m 510 Y s
 gsave  711 680 1534 722 C 1575.56 1097.43 t 90 r /Helvetica findfont 38.7787 sf 0 0 m (probability/bin) show NC gr  1657 824 m -16 X s
 gsave  711 680 1534 722 C 1614.27 826.487 t 0 r /Helvetica findfont 20.5299 sf 0 0 m (\2558) show NC gr 
 gsave  711 680 1534 722 C 1580.12 810.549 t 0 r /Helvetica findfont 31.9354 sf 0 0 m (10) show NC gr  1649 843 m -8 X s 1649 855 m -8 X s 1649 863 m -8 X s 1649 869 m -8 X s 1649 874 m -8 X s 1649 878 m -8 X s 1649 882 m -8 X s 1649 885 m -8 X s
 1657 888 m -16 X s
 gsave  711 680 1534 722 C 1614.27 885.684 t 0 r /Helvetica findfont 20.5299 sf 0 0 m (\2557) show NC gr 
 gsave  711 680 1534 722 C 1580.12 872.023 t 0 r /Helvetica findfont 31.9354 sf 0 0 m (10) show NC gr  1649 907 m -8 X s 1649 918 m -8 X s 1649 926 m -8 X s 1649 932 m -8 X s 1649 938 m -8 X s 1649 942 m -8 X s 1649 946 m -8 X s 1649 949 m -8 X s
 1657 952 m -16 X s
 gsave  711 680 1534 722 C 1614.27 951.712 t 0 r /Helvetica findfont 20.5299 sf 0 0 m (\2556) show NC gr 
 gsave  711 680 1534 722 C 1580.12 935.775 t 0 r /Helvetica findfont 31.9354 sf 0 0 m (10) show NC gr  1649 971 m -8 X s 1649 982 m -8 X s 1649 990 m -8 X s 1649 996 m -8 X s 1649 1001 m -8 X s 1649 1006 m -8 X s 1649 1009 m -8 X s 1649 1012 m -8 X s
 1657 1015 m -16 X s
 gsave  711 680 1534 722 C 1614.27 1015.46 t 0 r /Helvetica findfont 20.5299 sf 0 0 m (\2555) show NC gr 
 gsave  711 680 1534 722 C 1580.12 999.526 t 0 r /Helvetica findfont 31.9354 sf 0 0 m (10) show NC gr  1649 1035 m -8 X s 1649 1046 m -8 X s 1649 1054 m -8 X s 1649 1060 m -8 X s 1649 1065 m -8 X s 1649 1069 m -8 X s 1649 1073 m -8 X s 1649 1076 m -8
 X s 1657 1079 m -16 X s
 gsave  711 680 1534 722 C 1614.27 1076.94 t 0 r /Helvetica findfont 20.5299 sf 0 0 m (\2554) show NC gr 
 gsave  711 680 1534 722 C 1580.12 1063.28 t 0 r /Helvetica findfont 31.9354 sf 0 0 m (10) show NC gr  1649 1098 m -8 X s 1649 1110 m -8 X s 1649 1118 m -8 X s 1649 1124 m -8 X s 1649 1129 m -8 X s 1649 1133 m -8 X s 1649 1137 m -8 X s 1649 1140 m -8
 X s 1657 1143 m -16 X s
 gsave  711 680 1534 722 C 1614.27 1142.97 t 0 r /Helvetica findfont 20.5299 sf 0 0 m (\2553) show NC gr 
 gsave  711 680 1534 722 C 1580.12 1127.03 t 0 r /Helvetica findfont 31.9354 sf 0 0 m (10) show NC gr  1649 1162 m -8 X s 1649 1173 m -8 X s 1649 1181 m -8 X s 1649 1187 m -8 X s 1649 1192 m -8 X s 1649 1197 m -8 X s 1649 1200 m -8 X s 1649 1204 m -8
 X s 1657 1207 m -16 X s
 gsave  711 680 1534 722 C 1614.27 1204.44 t 0 r /Helvetica findfont 20.5299 sf 0 0 m (\2552) show NC gr 
 gsave  711 680 1534 722 C 1580.12 1190.78 t 0 r /Helvetica findfont 31.9354 sf 0 0 m (10) show NC gr  1649 1226 m -8 X s 1649 1237 m -8 X s 1649 1245 m -8 X s 1649 1251 m -8 X s 1649 1256 m -8 X s 1649 1260 m -8 X s 1649 1264 m -8 X s 1649 1267 m -8
 X s 1657 1270 m -16 X s
 gsave  711 680 1534 722 C 1616.54 1268.19 t 0 r /Helvetica findfont 20.5299 sf 0 0 m (\2551) show NC gr 
 gsave  711 680 1534 722 C 1582.39 1254.53 t 0 r /Helvetica findfont 31.9354 sf 0 0 m (10) show NC gr  1649 1290 m -8 X s 1649 1301 m -8 X s 1649 1309 m -8 X s 1649 1315 m -8 X s 1649 1320 m -8 X s 1649 1324 m -8 X s 1649 1328 m -8 X s 1649 1331 m -8
 X s 1657 1334 m -16 X s
 gsave  711 680 1534 722 C 1634.68 1321.3 t 0 r  -17 0 t /Helvetica findfont 31.9354 sf 0 0 m (1) show NC gr  6 lw 1 1 1 c black 1692 925 m 15 Y s 1692 958 m 3 Y s 3 lw /w 19 def /w2 {w 2 div} def /w3 {w 3 div} def 1692 949 m20 6 lw 1697 978 m s 3 lw
 1697 987 m20 6 lw 3 lw 1701 1031 m20 6 lw 3 lw 1705 1076 m20 6 lw 3 lw 1710 1125 m20 6 lw 3 lw 1714 1173 m20 6 lw 3 lw 1719 1218 m20 6 lw 3 lw 1723 1260 m20 6 lw 3 lw 1728 1292 m20 6 lw 3 lw 1732 1298 m20 6 lw 3 lw 1737 1283 m20 6 lw 3 lw 1741 1269
 m20 6 lw 3 lw 1745 1255 m20 6 lw 3 lw 1750 1242 m20 6 lw 3 lw 1754 1230 m20 6 lw 3 lw 1759 1219 m20 6 lw 3 lw 1763 1208 m20 6 lw 3 lw 1768 1197 m20 6 lw 3 lw 1772 1187 m20 6 lw 3 lw 1777 1178 m20 6 lw 3 lw 1781 1169 m20 6 lw 3 lw 1785 1160 m20 6 lw
 3 lw 1790 1152 m20 6 lw 3 lw 1794 1145 m20 6 lw 3 lw 1799 1138 m20 6 lw 3 lw 1803 1129 m20 6 lw 3 lw 1808 1123 m20 6 lw 3 lw 1812 1116 m20 6 lw 3 lw 1816 1110 m20 6 lw 3 lw 1821 1104 m20 6 lw 3 lw 1825 1097 m20 6 lw 3 lw 1830 1094 m20 6 lw 3 lw 1834
 1087 m20 6 lw 3 lw 1839 1085 m20 6 lw 3 lw 1843 1079 m20 6 lw 3 lw 1848 1075 m20 6 lw 3 lw 1852 1067 m20 6 lw 3 lw 1856 1064 m20 6 lw 3 lw 1861 1062 m20 6 lw 3 lw 1865 1053 m20 6 lw 3 lw 1870 1052 m20 6 lw 3 lw 1874 1047 m20 6 lw 3 lw 1879 1044 m20
 6 lw 3 lw 1883 1045 m20 6 lw 3 lw 1888 1039 m20 6 lw 3 lw 1892 1035 m20 6 lw 3 lw 1896 1038 m20 6 lw 3 lw 1901 1027 m20 6 lw 3 lw 1905 1016 m20 6 lw 3 lw 1910 1022 m20 6 lw 3 lw 1914 1018 m20 6 lw 3 lw 1919 1014 m20 6 lw 3 lw 1923 1020 m20 6 lw 3 lw
 1928 1013 m20 6 lw 3 lw 1932 1012 m20 6 lw 3 lw 1936 1004 m20 6 lw 3 lw 1941 1003 m20 6 lw 3 lw 1945 998 m20 6 lw 3 lw 1950 998 m20 6 lw 3 lw 1954 998 m20 6 lw 3 lw 1959 995 m20 6 lw 1963 972 m 1 Y s 3 lw 1963 982 m20 6 lw 1967 959 m 4 Y s 3 lw 1967
 972 m20 6 lw 1972 968 m 2 Y s 3 lw 1972 979 m20 6 lw 1976 975 m 1 Y s 3 lw 1976 985 m20 6 lw 1981 968 m 2 Y s 3 lw 1981 979 m20 6 lw 1985 953 m 6 Y s 1985 977 m s 3 lw 1985 968 m20 6 lw 1990 975 m 1 Y s 3 lw 1990 985 m20 6 lw 1994 959 m 4 Y s 3 lw
 1994 972 m20 6 lw 1999 972 m 1 Y s 3 lw 1999 982 m20 6 lw 2003 964 m 3 Y s 3 lw 2003 976 m20 6 lw 2007 953 m 6 Y s 2007 977 m s 3 lw 2007 968 m20 6 lw 2012 964 m 3 Y s 3 lw 2012 976 m20 6 lw 2016 968 m 2 Y s 3 lw 2016 979 m20 6 lw 2021 953 m 6 Y s
 2021 977 m s 3 lw 2021 968 m20 6 lw 2025 972 m 1 Y s 3 lw 2025 982 m20 6 lw 2030 938 m 10 Y s 2030 966 m 2 Y s 3 lw 2030 957 m20 6 lw 2034 947 m 7 Y s 2034 972 m 1 Y s 3 lw 2034 963 m20 6 lw 2039 938 m 10 Y s 2039 966 m 2 Y s 3 lw 2039 957 m20 6 lw
 2043 904 m 24 Y s 2043 947 m 5 Y s 3 lw 2043 938 m20 6 lw 2047 938 m 10 Y s 2047 966 m 2 Y s 3 lw 2047 957 m20 6 lw 2052 904 m 24 Y s 2052 947 m 5 Y s 3 lw 2052 938 m20 6 lw 2056 925 m 15 Y s 2056 958 m 3 Y s 3 lw 2056 949 m20 6 lw 2061 925 m 15 Y s
 2061 958 m 3 Y s 3 lw 2061 949 m20 6 lw 2065 938 m 10 Y s 2065 966 m 2 Y s 3 lw 2065 957 m20 6 lw 2070 938 m 10 Y s 2070 966 m 2 Y s 3 lw 2070 957 m20 6 lw 2074 824 m 85 Y s 2074 927 m 11 Y s 3 lw 2074 918 m20 6 lw 2083 938 m 10 Y s 2083 966 m 2 Y s
 3 lw 2083 957 m20 6 lw 2087 824 m 85 Y s 2087 927 m 11 Y s 3 lw 2087 918 m20 6 lw 2092 925 m 15 Y s 2092 958 m 3 Y s 3 lw 2092 949 m20 6 lw 2096 904 m 24 Y s 2096 947 m 5 Y s 3 lw 2096 938 m20 6 lw 2101 824 m 85 Y s 2101 927 m 11 Y s 3 lw 2101 918
 m20 6 lw 2105 904 m 24 Y s 2105 947 m 5 Y s 3 lw 2105 938 m20 6 lw 2118 904 m 24 Y s 2118 947 m 5 Y s 3 lw 2118 938 m20 6 lw 2127 925 m 15 Y s 2127 958 m 3 Y s 3 lw 2127 949 m20 6 lw 2136 925 m 15 Y s 2136 958 m 3 Y s 3 lw 2136 949 m20 6 lw 2141 824
 m 85 Y s 2141 927 m 11 Y s 3 lw 2141 918 m20 6 lw 2145 824 m 85 Y s 2145 927 m 11 Y s 3 lw 2145 918 m20 6 lw 2150 904 m 24 Y s 2150 947 m 5 Y s 3 lw 2150 938 m20 6 lw 2154 904 m 24 Y s 2154 947 m 5 Y s 3 lw 2154 938 m20 6 lw 2158 824 m 85 Y s 2158
 927 m 11 Y s 3 lw 2158 918 m20 6 lw 2167 904 m 24 Y s 2167 947 m 5 Y s 3 lw 2167 938 m20 6 lw 2172 925 m 15 Y s 2172 958 m 3 Y s 3 lw 2172 949 m20 6 lw 0 0 1 c 1 1 1 c 0 0 1 c 1688 905 m 25 Y s 1688 948 m 6 Y s 3 lw 1688 939 m21 6 lw 1692 905 m 25 Y
 s 1692 948 m 6 Y s 3 lw 1692 939 m21 6 lw 1697 976 m 1 Y s 3 lw 1697 986 m21 6 lw 3 lw 1701 1036 m21 6 lw 3 lw 1705 1089 m21 6 lw 3 lw 1710 1137 m21 6 lw 3 lw 1714 1183 m21 6 lw 3 lw 1719 1227 m21 6 lw 3 lw 1723 1268 m21 6 lw 3 lw 1728 1298 m21 6 lw
 3 lw 1732 1300 m21 6 lw 3 lw 1737 1280 m21 6 lw 3 lw 1741 1260 m21 6 lw 3 lw 1745 1245 m21 6 lw 3 lw 1750 1230 m21 6 lw 3 lw 1754 1217 m21 6 lw 3 lw 1759 1204 m21 6 lw 3 lw 1763 1193 m21 6 lw 3 lw 1768 1181 m21 6 lw 3 lw 1772 1171 m21 6 lw 3 lw 1777
 1161 m21 6 lw 3 lw 1781 1152 m21 6 lw 3 lw 1785 1144 m21 6 lw 3 lw 1790 1135 m21 6 lw 3 lw 1794 1126 m21 6 lw 3 lw 1799 1118 m21 6 lw 3 lw 1803 1112 m21 6 lw 3 lw 1808 1106 m21 6 lw 3 lw 1812 1097 m21 6 lw 3 lw 1816 1092 m21 6 lw 3 lw 1821 1084 m21
 6 lw 3 lw 1825 1082 m21 6 lw 3 lw 1830 1076 m21 6 lw 3 lw 1834 1064 m21 6 lw 3 lw 1839 1065 m21 6 lw 3 lw 1843 1060 m21 6 lw 3 lw 1848 1051 m21 6 lw 3 lw 1852 1043 m21 6 lw 3 lw 1856 1041 m21 6 lw 3 lw 1861 1040 m21 6 lw 3 lw 1865 1035 m21 6 lw 3 lw
 1870 1031 m21 6 lw 3 lw 1874 1035 m21 6 lw 3 lw 1879 1023 m21 6 lw 3 lw 1883 1026 m21 6 lw 3 lw 1888 1014 m21 6 lw 3 lw 1892 1021 m21 6 lw 3 lw 1896 1013 m21 6 lw 3 lw 1901 1003 m21 6 lw 3 lw 1905 991 m21 6 lw 3 lw 1910 995 m21 6 lw 3 lw 1914 1000
 m21 6 lw 3 lw 1919 1000 m21 6 lw 3 lw 1923 993 m21 6 lw 1928 973 m 2 Y s 3 lw 1928 984 m21 6 lw 1932 961 m 4 Y s 3 lw 1932 974 m21 6 lw 1936 973 m 2 Y s 3 lw 1936 984 m21 6 lw 1941 973 m 2 Y s 3 lw 1941 984 m21 6 lw 1945 976 m 1 Y s 3 lw 1945 986
 m21 6 lw 3 lw 1950 991 m21 6 lw 1954 966 m 2 Y s 3 lw 1954 978 m21 6 lw 1959 955 m 6 Y s 1959 979 m s 3 lw 1959 970 m21 6 lw 1963 966 m 2 Y s 3 lw 1963 978 m21 6 lw 1967 905 m 25 Y s 1967 948 m 6 Y s 3 lw 1967 939 m21 6 lw 1972 939 m 10 Y s 1972 968
 m 2 Y s 3 lw 1972 958 m21 6 lw 1976 955 m 6 Y s 1976 979 m s 3 lw 1976 970 m21 6 lw 1985 939 m 10 Y s 1985 968 m 2 Y s 3 lw 1985 958 m21 6 lw 1990 948 m 7 Y s 1990 974 m 1 Y s 3 lw 1990 965 m21 6 lw 1994 939 m 10 Y s 1994 968 m 2 Y s 3 lw 1994 958
 m21 6 lw 1999 927 m 14 Y s 1999 960 m 3 Y s 3 lw 1999 950 m21 6 lw 2003 955 m 6 Y s 2003 979 m s 3 lw 2003 970 m21 6 lw 2007 905 m 25 Y s 2007 948 m 6 Y s 3 lw 2007 939 m21 6 lw 2016 948 m 7 Y s 2016 974 m 1 Y s 3 lw 2016 965 m21 6 lw 2021 927 m 14
 Y s 2021 960 m 3 Y s 3 lw 2021 950 m21 6 lw 2025 905 m 25 Y s 2025 948 m 6 Y s 3 lw 2025 939 m21 6 lw 2030 939 m 10 Y s 2030 968 m 2 Y s 3 lw 2030 958 m21 6 lw 2034 824 m 87 Y s 2034 929 m 10 Y s 3 lw 2034 920 m21 6 lw 2039 905 m 25 Y s 2039 948 m 6
 Y s 3 lw 2039 939 m21 6 lw 2043 905 m 25 Y s 2043 948 m 6 Y s 3 lw 2043 939 m21 6 lw 2047 927 m 14 Y s 2047 960 m 3 Y s 3 lw 2047 950 m21 6 lw 2052 824 m 87 Y s 2052 929 m 10 Y s 3 lw 2052 920 m21 6 lw 2056 824 m 87 Y s 2056 929 m 10 Y s 3 lw 2056
 920 m21 6 lw 2061 905 m 25 Y s 2061 948 m 6 Y s 3 lw 2061 939 m21 6 lw 2065 927 m 14 Y s 2065 960 m 3 Y s 3 lw 2065 950 m21 6 lw 2070 905 m 25 Y s 2070 948 m 6 Y s 3 lw 2070 939 m21 6 lw 2087 824 m 87 Y s 2087 929 m 10 Y s 3 lw 2087 920 m21 6 lw
 2092 905 m 25 Y s 2092 948 m 6 Y s 3 lw 2092 939 m21 6 lw 2096 905 m 25 Y s 2096 948 m 6 Y s 3 lw 2096 939 m21 6 lw 2101 824 m 87 Y s 2101 929 m 10 Y s 3 lw 2101 920 m21 6 lw 2118 824 m 87 Y s 2118 929 m 10 Y s 3 lw 2118 920 m21 6 lw 2123 824 m 87 Y
 s 2123 929 m 10 Y s 3 lw 2123 920 m21 6 lw 2127 824 m 87 Y s 2127 929 m 10 Y s 3 lw 2127 920 m21 6 lw 2132 905 m 25 Y s 2132 948 m 6 Y s 3 lw 2132 939 m21 6 lw 2141 824 m 87 Y s 2141 929 m 10 Y s 3 lw 2141 920 m21 6 lw 2145 905 m 25 Y s 2145 948 m 6
 Y s 3 lw 2145 939 m21 6 lw 2150 824 m 87 Y s 2150 929 m 10 Y s 3 lw 2150 920 m21 6 lw 2167 824 m 87 Y s 2167 929 m 10 Y s 3 lw 2167 920 m21 6 lw 2172 905 m 25 Y s 2172 948 m 6 Y s 3 lw 2172 939 m21 6 lw 1 0 0 c 1 1 1 c 1 0 0 c 1688 824 m 85 Y s 1688
 928 m 10 Y s 3 lw 1688 918 m22 6 lw 1697 964 m 3 Y s 3 lw 1697 976 m22 6 lw 3 lw 1701 1029 m22 6 lw 3 lw 1705 1077 m22 6 lw 3 lw 1710 1126 m22 6 lw 3 lw 1714 1173 m22 6 lw 3 lw 1719 1218 m22 6 lw 3 lw 1723 1260 m22 6 lw 3 lw 1728 1292 m22 6 lw 3 lw
 1732 1298 m22 6 lw 3 lw 1737 1283 m22 6 lw 3 lw 1741 1268 m22 6 lw 3 lw 1745 1255 m22 6 lw 3 lw 1750 1242 m22 6 lw 3 lw 1754 1229 m22 6 lw 3 lw 1759 1218 m22 6 lw 3 lw 1763 1207 m22 6 lw 3 lw 1768 1196 m22 6 lw 3 lw 1772 1187 m22 6 lw 3 lw 1777 1177
 m22 6 lw 3 lw 1781 1169 m22 6 lw 3 lw 1785 1160 m22 6 lw 3 lw 1790 1151 m22 6 lw 3 lw 1794 1144 m22 6 lw 3 lw 1799 1137 m22 6 lw 3 lw 1803 1129 m22 6 lw 3 lw 1808 1122 m22 6 lw 3 lw 1812 1116 m22 6 lw 3 lw 1816 1109 m22 6 lw 3 lw 1821 1104 m22 6 lw
 3 lw 1825 1098 m22 6 lw 3 lw 1830 1091 m22 6 lw 3 lw 1834 1088 m22 6 lw 3 lw 1839 1084 m22 6 lw 3 lw 1843 1078 m22 6 lw 3 lw 1848 1073 m22 6 lw 3 lw 1852 1066 m22 6 lw 3 lw 1856 1064 m22 6 lw 3 lw 1861 1063 m22 6 lw 3 lw 1865 1057 m22 6 lw 3 lw 1870
 1050 m22 6 lw 3 lw 1874 1052 m22 6 lw 3 lw 1879 1045 m22 6 lw 3 lw 1883 1041 m22 6 lw 3 lw 1888 1033 m22 6 lw 3 lw 1892 1035 m22 6 lw 3 lw 1896 1029 m22 6 lw 3 lw 1901 1031 m22 6 lw 3 lw 1905 1026 m22 6 lw 3 lw 1910 1019 m22 6 lw 3 lw 1914 1018 m22
 6 lw 3 lw 1919 1018 m22 6 lw 3 lw 1923 1011 m22 6 lw 3 lw 1928 1012 m22 6 lw 3 lw 1932 1008 m22 6 lw 3 lw 1936 1014 m22 6 lw 3 lw 1941 1005 m22 6 lw 3 lw 1945 1009 m22 6 lw 3 lw 1950 989 m22 6 lw 3 lw 1954 995 m22 6 lw 1959 975 m 1 Y s 3 lw 1959 985
 m22 6 lw 3 lw 1963 989 m22 6 lw 1967 954 m 5 Y s 1967 977 m 1 Y s 3 lw 1967 968 m22 6 lw 1972 964 m 3 Y s 3 lw 1972 976 m22 6 lw 1976 975 m 1 Y s 3 lw 1976 985 m22 6 lw 1981 964 m 3 Y s 3 lw 1981 976 m22 6 lw 1985 975 m 1 Y s 3 lw 1985 985 m22 6 lw
 3 lw 1990 989 m22 6 lw 1994 925 m 15 Y s 1994 958 m 3 Y s 3 lw 1994 949 m22 6 lw 1999 904 m 25 Y s 1999 947 m 5 Y s 3 lw 1999 938 m22 6 lw 2003 964 m 3 Y s 3 lw 2003 976 m22 6 lw 2007 947 m 7 Y s 2007 972 m 1 Y s 3 lw 2007 963 m22 6 lw 2012 972 m 1
 Y s 3 lw 2012 982 m22 6 lw 2016 947 m 7 Y s 2016 972 m 1 Y s 3 lw 2016 963 m22 6 lw 2021 925 m 15 Y s 2021 958 m 3 Y s 3 lw 2021 949 m22 6 lw 2025 938 m 10 Y s 2025 966 m 2 Y s 3 lw 2025 957 m22 6 lw 2030 904 m 25 Y s 2030 947 m 5 Y s 3 lw 2030 938
 m22 6 lw 2034 947 m 7 Y s 2034 972 m 1 Y s 3 lw 2034 963 m22 6 lw 2039 925 m 15 Y s 2039 958 m 3 Y s 3 lw 2039 949 m22 6 lw 2043 938 m 10 Y s 2043 966 m 2 Y s 3 lw 2043 957 m22 6 lw 2047 938 m 10 Y s 2047 966 m 2 Y s 3 lw 2047 957 m22 6 lw 2052 959
 m 4 Y s 3 lw 2052 972 m22 6 lw 2056 824 m 85 Y s 2056 928 m 10 Y s 3 lw 2056 918 m22 6 lw 2061 938 m 10 Y s 2061 966 m 2 Y s 3 lw 2061 957 m22 6 lw 2065 904 m 25 Y s 2065 947 m 5 Y s 3 lw 2065 938 m22 6 lw 2070 925 m 15 Y s 2070 958 m 3 Y s 3 lw
 2070 949 m22 6 lw 2074 938 m 10 Y s 2074 966 m 2 Y s 3 lw 2074 957 m22 6 lw 2079 904 m 25 Y s 2079 947 m 5 Y s 3 lw 2079 938 m22 6 lw 2083 904 m 25 Y s 2083 947 m 5 Y s 3 lw 2083 938 m22 6 lw 2087 904 m 25 Y s 2087 947 m 5 Y s 3 lw 2087 938 m22 6 lw
 2092 904 m 25 Y s 2092 947 m 5 Y s 3 lw 2092 938 m22 6 lw 2096 824 m 85 Y s 2096 928 m 10 Y s 3 lw 2096 918 m22 6 lw 2101 904 m 25 Y s 2101 947 m 5 Y s 3 lw 2101 938 m22 6 lw 2105 824 m 85 Y s 2105 928 m 10 Y s 3 lw 2105 918 m22 6 lw 2110 824 m 85 Y
 s 2110 928 m 10 Y s 3 lw 2110 918 m22 6 lw 2114 904 m 25 Y s 2114 947 m 5 Y s 3 lw 2114 938 m22 6 lw 2123 904 m 25 Y s 2123 947 m 5 Y s 3 lw 2123 938 m22 6 lw 2132 925 m 15 Y s 2132 958 m 3 Y s 3 lw 2132 949 m22 6 lw 2136 904 m 25 Y s 2136 947 m 5 Y
 s 3 lw 2136 938 m22 6 lw 2145 824 m 85 Y s 2145 928 m 10 Y s 3 lw 2145 918 m22 6 lw 2154 824 m 85 Y s 2154 928 m 10 Y s 3 lw 2154 918 m22 6 lw 2158 824 m 85 Y s 2158 928 m 10 Y s 3 lw 2158 918 m22 6 lw 2163 904 m 25 Y s 2163 947 m 5 Y s 3 lw 2163
 938 m22 6 lw black
 gsave  711 680 1534 722 C 1880.66 1279.57 t 0 r /Helvetica findfont 29.6543 sf 0 0 m (Centrality: 40 \255 60%) show NC gr 
 gsave  711 680 1534 722 C 1962.62 1197.61 t 0 r /Helvetica findfont 29.6543 sf 0 0 m (=1.38 GeV/c) show NC gr 
 gsave  711 680 1534 722 C 1944.41 1197.61 t 0 r /Symbol findfont 29.6543 sf 0 0 m (s) show NC gr 
 gsave  711 680 1534 722 C 1944.41 1229.48 t 0 r /Helvetica findfont 29.6543 sf 0 0 m (RC) show NC gr  3 lw 1911 1224 m20 6 lw
 gsave  711 680 1534 722 C 1962.62 1131.58 t 0 r /Helvetica findfont 29.6543 sf 0 0 m (=1.15 GeV/c) show NC gr 
 gsave  711 680 1534 722 C 1944.41 1131.58 t 0 r /Symbol findfont 29.6543 sf 0 0 m (s) show NC gr 
 gsave  711 680 1534 722 C 1944.41 1168.01 t 0 r /Helvetica findfont 29.6543 sf 0 0 m (RC w/o lead. jet) show NC gr  0 0 1 c 3 lw 1911 1159 m21 6 lw black
 gsave  711 680 1534 722 C 1962.62 1065.55 t 0 r /Helvetica findfont 29.6543 sf 0 0 m (=1.37 GeV/c) show NC gr 
 gsave  711 680 1534 722 C 1944.41 1065.55 t 0 r /Symbol findfont 29.6543 sf 0 0 m (s) show NC gr 
 gsave  711 680 1534 722 C 1944.41 1101.98 t 0 r /Helvetica findfont 29.6543 sf 0 0 m (RC partial) show NC gr  1 0 0 c 3 lw 1911 1094 m22 6 lw black 3 lw 0.999 0.999 0.999 c 710 680 23 14 bf black 1 1 1 c 533 510 129 116 bf black 533 510 129 116 bl 1
 1 1 c 533 510 129 116 bf black 533 510 129 116 bl 0 0 0.6 c 1 1 1 c black 0 0 0.6 c 129 116 m 533 X s black 129 116 m 533 X s
 gsave  710 680 23 14 C 648.895 54.6438 t 0 r /Helvetica findfont 38.7787 sf 0 0 m (\)) show NC gr 
 gsave  710 680 23 14 C 626.127 54.6438 t 0 r /Helvetica-Oblique findfont 38.7787 sf 0 0 m (c) show NC gr 
 gsave  710 680 23 14 C 512.285 54.6438 t 0 r /Helvetica findfont 38.7787 sf 0 0 m ( \(GeV/) show NC gr 
 gsave  710 680 23 14 C 496.348 31.8755 t 0 r /Helvetica findfont 25.0921 sf 0 0 m (T) show NC gr 
 gsave  710 680 23 14 C 471.303 54.6438 t 0 r /Helvetica-Oblique findfont 38.7787 sf 0 0 m (p) show NC gr 
 gsave  710 680 23 14 C 457.642 54.6438 t 0 r /Helvetica findfont 38.7787 sf 0 0 m ( ) show NC gr 
 gsave  710 680 23 14 C 437.15 54.6438 t 0 r /Symbol findfont 38.7787 sf 0 0 m (d) show NC gr  129 131 m -15 Y s 147 124 m -8 Y s 165 124 m -8 Y s 183 124 m -8 Y s 200 124 m -8 Y s 218 131 m -15 Y s 236 124 m -8 Y s 254 124 m -8 Y s 271 124 m -8 Y s
 289 124 m -8 Y s 307 131 m -15 Y s 325 124 m -8 Y s 342 124 m -8 Y s 360 124 m -8 Y s 378 124 m -8 Y s 396 131 m -15 Y s 413 124 m -8 Y s 431 124 m -8 Y s 449 124 m -8 Y s 467 124 m -8 Y s 485 131 m -15 Y s 502 124 m -8 Y s 520 124 m -8 Y s 538 124
 m -8 Y s 556 124 m -8 Y s 573 131 m -15 Y s 591 124 m -8 Y s 609 124 m -8 Y s 627 124 m -8 Y s 644 124 m -8 Y s 662 131 m -15 Y s
 gsave  710 680 23 14 C 104.734 86.5193 t 0 r /Helvetica findfont 31.9354 sf 0 0 m (\25510) show NC gr 
 gsave  710 680 23 14 C 207.191 86.5193 t 0 r /Helvetica findfont 31.9354 sf 0 0 m (0) show NC gr 
 gsave  710 680 23 14 C 286.88 86.5193 t 0 r /Helvetica findfont 31.9354 sf 0 0 m (10) show NC gr 
 gsave  710 680 23 14 C 375.676 86.5193 t 0 r /Helvetica findfont 31.9354 sf 0 0 m (20) show NC gr 
 gsave  710 680 23 14 C 464.472 86.5193 t 0 r /Helvetica findfont 31.9354 sf 0 0 m (30) show NC gr 
 gsave  710 680 23 14 C 553.268 86.5193 t 0 r /Helvetica findfont 31.9354 sf 0 0 m (40) show NC gr 
 gsave  710 680 23 14 C 642.064 86.5193 t 0 r /Helvetica findfont 31.9354 sf 0 0 m (50) show NC gr  129 116 m 510 Y s
 gsave  710 680 23 14 C 63.7511 389.337 t 90 r /Helvetica findfont 38.7787 sf 0 0 m (probability/bin) show NC gr  145 116 m -16 X s
 gsave  710 680 23 14 C 102.457 118.395 t 0 r /Helvetica findfont 20.5299 sf 0 0 m (\2558) show NC gr 
 gsave  710 680 23 14 C 68.3047 102.457 t 0 r /Helvetica findfont 31.9354 sf 0 0 m (10) show NC gr  137 135 m -8 X s 137 147 m -8 X s 137 154 m -8 X s 137 161 m -8 X s 137 166 m -8 X s 137 170 m -8 X s 137 174 m -8 X s 137 177 m -8 X s 145 180 m -16
 X s
 gsave  710 680 23 14 C 102.457 177.592 t 0 r /Helvetica findfont 20.5299 sf 0 0 m (\2557) show NC gr 
 gsave  710 680 23 14 C 68.3047 163.931 t 0 r /Helvetica findfont 31.9354 sf 0 0 m (10) show NC gr  137 199 m -8 X s 137 210 m -8 X s 137 218 m -8 X s 137 224 m -8 X s 137 229 m -8 X s 137 234 m -8 X s 137 237 m -8 X s 137 241 m -8 X s 145 244 m -16
 X s
 gsave  710 680 23 14 C 102.457 243.62 t 0 r /Helvetica findfont 20.5299 sf 0 0 m (\2556) show NC gr 
 gsave  710 680 23 14 C 68.3047 227.682 t 0 r /Helvetica findfont 31.9354 sf 0 0 m (10) show NC gr  137 263 m -8 X s 137 274 m -8 X s 137 282 m -8 X s 137 288 m -8 X s 137 293 m -8 X s 137 297 m -8 X s 137 301 m -8 X s 137 304 m -8 X s 145 307 m -16
 X s
 gsave  710 680 23 14 C 102.457 307.371 t 0 r /Helvetica findfont 20.5299 sf 0 0 m (\2555) show NC gr 
 gsave  710 680 23 14 C 68.3047 291.433 t 0 r /Helvetica findfont 31.9354 sf 0 0 m (10) show NC gr  137 326 m -8 X s 137 338 m -8 X s 137 346 m -8 X s 137 352 m -8 X s 137 357 m -8 X s 137 361 m -8 X s 137 365 m -8 X s 137 368 m -8 X s 145 371 m -16
 X s
 gsave  710 680 23 14 C 102.457 368.845 t 0 r /Helvetica findfont 20.5299 sf 0 0 m (\2554) show NC gr 
 gsave  710 680 23 14 C 68.3047 355.185 t 0 r /Helvetica findfont 31.9354 sf 0 0 m (10) show NC gr  137 390 m -8 X s 137 401 m -8 X s 137 409 m -8 X s 137 416 m -8 X s 137 421 m -8 X s 137 425 m -8 X s 137 429 m -8 X s 137 432 m -8 X s 145 435 m -16
 X s
 gsave  710 680 23 14 C 102.457 434.873 t 0 r /Helvetica findfont 20.5299 sf 0 0 m (\2553) show NC gr 
 gsave  710 680 23 14 C 68.3047 418.936 t 0 r /Helvetica findfont 31.9354 sf 0 0 m (10) show NC gr  137 454 m -8 X s 137 465 m -8 X s 137 473 m -8 X s 137 479 m -8 X s 137 484 m -8 X s 137 489 m -8 X s 137 492 m -8 X s 137 496 m -8 X s 145 498 m -16
 X s
 gsave  710 680 23 14 C 102.457 496.348 t 0 r /Helvetica findfont 20.5299 sf 0 0 m (\2552) show NC gr 
 gsave  710 680 23 14 C 68.3047 482.687 t 0 r /Helvetica findfont 31.9354 sf 0 0 m (10) show NC gr  137 518 m -8 X s 137 529 m -8 X s 137 537 m -8 X s 137 543 m -8 X s 137 548 m -8 X s 137 552 m -8 X s 137 556 m -8 X s 137 559 m -8 X s 145 562 m -16
 X s
 gsave  710 680 23 14 C 104.734 560.099 t 0 r /Helvetica findfont 20.5299 sf 0 0 m (\2551) show NC gr 
 gsave  710 680 23 14 C 70.5815 546.438 t 0 r /Helvetica findfont 31.9354 sf 0 0 m (10) show NC gr  137 581 m -8 X s 137 593 m -8 X s 137 601 m -8 X s 137 607 m -8 X s 137 612 m -8 X s 137 616 m -8 X s 137 620 m -8 X s 137 623 m -8 X s 145 626 m -16
 X s
 gsave  710 680 23 14 C 122.865 613.203 t 0 r  -17 0 t /Helvetica findfont 31.9354 sf 0 0 m (1) show NC gr  6 lw 1 1 1 c black 171 116 m 93 Y s 171 227 m 10 Y s 3 lw /w 18 def /w2 {w 2 div} def /w3 {w 3 div} def 171 218 m20 6 lw 180 203 m 25 Y s 180
 246 m 6 Y s 3 lw 180 237 m20 6 lw 185 237 m 10 Y s 185 265 m 2 Y s 3 lw 185 256 m20 6 lw 189 237 m 10 Y s 189 265 m 2 Y s 3 lw 189 256 m20 6 lw 3 lw 194 314 m20 6 lw 3 lw 198 371 m20 6 lw 3 lw 203 421 m20 6 lw 3 lw 207 476 m20 6 lw 3 lw 211 530 m20
 6 lw 3 lw 216 580 m20 6 lw 3 lw 220 599 m20 6 lw 3 lw 225 579 m20 6 lw 3 lw 229 559 m20 6 lw 3 lw 234 542 m20 6 lw 3 lw 238 526 m20 6 lw 3 lw 243 512 m20 6 lw 3 lw 247 499 m20 6 lw 3 lw 251 486 m20 6 lw 3 lw 256 474 m20 6 lw 3 lw 260 464 m20 6 lw 3
 lw 265 455 m20 6 lw 3 lw 269 445 m20 6 lw 3 lw 274 436 m20 6 lw 3 lw 278 427 m20 6 lw 3 lw 282 420 m20 6 lw 3 lw 287 413 m20 6 lw 3 lw 291 406 m20 6 lw 3 lw 296 400 m20 6 lw 3 lw 300 394 m20 6 lw 3 lw 305 386 m20 6 lw 3 lw 309 382 m20 6 lw 3 lw 314
 374 m20 6 lw 3 lw 318 369 m20 6 lw 3 lw 322 363 m20 6 lw 3 lw 327 361 m20 6 lw 3 lw 331 356 m20 6 lw 3 lw 336 354 m20 6 lw 3 lw 340 345 m20 6 lw 3 lw 345 341 m20 6 lw 3 lw 349 338 m20 6 lw 3 lw 354 333 m20 6 lw 3 lw 358 332 m20 6 lw 3 lw 362 324 m20
 6 lw 3 lw 367 323 m20 6 lw 3 lw 371 310 m20 6 lw 3 lw 376 311 m20 6 lw 3 lw 380 309 m20 6 lw 3 lw 385 315 m20 6 lw 3 lw 389 311 m20 6 lw 3 lw 393 305 m20 6 lw 3 lw 398 314 m20 6 lw 3 lw 402 306 m20 6 lw 407 277 m 1 Y s 3 lw 407 287 m20 6 lw 3 lw 411
 296 m20 6 lw 3 lw 416 291 m20 6 lw 420 277 m 1 Y s 3 lw 420 287 m20 6 lw 3 lw 425 295 m20 6 lw 3 lw 429 289 m20 6 lw 433 271 m 2 Y s 3 lw 433 282 m20 6 lw 438 253 m 5 Y s 438 277 m s 3 lw 438 267 m20 6 lw 442 277 m 1 Y s 3 lw 442 287 m20 6 lw 447
 237 m 10 Y s 447 265 m 2 Y s 3 lw 447 256 m20 6 lw 451 263 m 3 Y s 3 lw 451 275 m20 6 lw 456 267 m 3 Y s 3 lw 456 279 m20 6 lw 460 116 m 93 Y s 460 227 m 10 Y s 3 lw 460 218 m20 6 lw 465 237 m 10 Y s 465 265 m 2 Y s 3 lw 465 256 m20 6 lw 469 263 m 3
 Y s 3 lw 469 275 m20 6 lw 473 237 m 10 Y s 473 265 m 2 Y s 3 lw 473 256 m20 6 lw 478 246 m 7 Y s 478 272 m 1 Y s 3 lw 478 262 m20 6 lw 482 237 m 10 Y s 482 265 m 2 Y s 3 lw 482 256 m20 6 lw 487 203 m 25 Y s 487 246 m 6 Y s 3 lw 487 237 m20 6 lw 491
 203 m 25 Y s 491 246 m 6 Y s 3 lw 491 237 m20 6 lw 496 224 m 15 Y s 496 257 m 4 Y s 3 lw 496 248 m20 6 lw 500 224 m 15 Y s 500 257 m 4 Y s 3 lw 500 248 m20 6 lw 505 237 m 10 Y s 505 265 m 2 Y s 3 lw 505 256 m20 6 lw 509 259 m 4 Y s 3 lw 509 272 m20
 6 lw 513 259 m 4 Y s 3 lw 513 272 m20 6 lw 518 203 m 25 Y s 518 246 m 6 Y s 3 lw 518 237 m20 6 lw 522 116 m 93 Y s 522 227 m 10 Y s 3 lw 522 218 m20 6 lw 527 237 m 10 Y s 527 265 m 2 Y s 3 lw 527 256 m20 6 lw 531 203 m 25 Y s 531 246 m 6 Y s 3 lw
 531 237 m20 6 lw 536 246 m 7 Y s 536 272 m 1 Y s 3 lw 536 262 m20 6 lw 540 203 m 25 Y s 540 246 m 6 Y s 3 lw 540 237 m20 6 lw 549 116 m 93 Y s 549 227 m 10 Y s 3 lw 549 218 m20 6 lw 553 116 m 93 Y s 553 227 m 10 Y s 3 lw 553 218 m20 6 lw 558 224 m
 15 Y s 558 257 m 4 Y s 3 lw 558 248 m20 6 lw 562 224 m 15 Y s 562 257 m 4 Y s 3 lw 562 248 m20 6 lw 567 203 m 25 Y s 567 246 m 6 Y s 3 lw 567 237 m20 6 lw 571 116 m 93 Y s 571 227 m 10 Y s 3 lw 571 218 m20 6 lw 584 116 m 93 Y s 584 227 m 10 Y s 3 lw
 584 218 m20 6 lw 589 116 m 93 Y s 589 227 m 10 Y s 3 lw 589 218 m20 6 lw 593 116 m 93 Y s 593 227 m 10 Y s 3 lw 593 218 m20 6 lw 602 203 m 25 Y s 602 246 m 6 Y s 3 lw 602 237 m20 6 lw 611 116 m 93 Y s 611 227 m 10 Y s 3 lw 611 218 m20 6 lw 620 116 m
 93 Y s 620 227 m 10 Y s 3 lw 620 218 m20 6 lw 660 116 m 93 Y s 660 227 m 10 Y s 3 lw 660 218 m20 6 lw 0 0 1 c 1 1 1 c 0 0 1 c 171 205 m 25 Y s 171 248 m 6 Y s 3 lw 171 239 m21 6 lw 180 205 m 25 Y s 180 248 m 6 Y s 3 lw 180 239 m21 6 lw 185 116 m 95
 Y s 185 229 m 10 Y s 3 lw 185 220 m21 6 lw 189 255 m 5 Y s 189 279 m s 3 lw 189 269 m21 6 lw 3 lw 194 329 m21 6 lw 3 lw 198 378 m21 6 lw 3 lw 203 432 m21 6 lw 3 lw 207 485 m21 6 lw 3 lw 211 537 m21 6 lw 3 lw 216 585 m21 6 lw 3 lw 220 602 m21 6 lw 3
 lw 225 576 m21 6 lw 3 lw 229 549 m21 6 lw 3 lw 234 530 m21 6 lw 3 lw 238 512 m21 6 lw 3 lw 243 497 m21 6 lw 3 lw 247 483 m21 6 lw 3 lw 251 469 m21 6 lw 3 lw 256 457 m21 6 lw 3 lw 260 446 m21 6 lw 3 lw 265 436 m21 6 lw 3 lw 269 426 m21 6 lw 3 lw 274
 417 m21 6 lw 3 lw 278 405 m21 6 lw 3 lw 282 400 m21 6 lw 3 lw 287 393 m21 6 lw 3 lw 291 385 m21 6 lw 3 lw 296 379 m21 6 lw 3 lw 300 374 m21 6 lw 3 lw 305 368 m21 6 lw 3 lw 309 360 m21 6 lw 3 lw 314 351 m21 6 lw 3 lw 318 350 m21 6 lw 3 lw 322 347 m21
 6 lw 3 lw 327 335 m21 6 lw 3 lw 331 327 m21 6 lw 3 lw 336 330 m21 6 lw 3 lw 340 328 m21 6 lw 3 lw 345 326 m21 6 lw 3 lw 349 311 m21 6 lw 3 lw 354 321 m21 6 lw 3 lw 358 304 m21 6 lw 3 lw 362 307 m21 6 lw 3 lw 367 293 m21 6 lw 3 lw 371 291 m21 6 lw 3
 lw 376 297 m21 6 lw 380 276 m 1 Y s 3 lw 380 286 m21 6 lw 385 261 m 4 Y s 3 lw 385 274 m21 6 lw 389 261 m 4 Y s 3 lw 389 274 m21 6 lw 393 255 m 5 Y s 393 279 m s 3 lw 393 269 m21 6 lw 398 255 m 5 Y s 398 279 m s 3 lw 398 269 m21 6 lw 402 248 m 7 Y s
 402 273 m 2 Y s 3 lw 402 264 m21 6 lw 407 239 m 10 Y s 407 267 m 2 Y s 3 lw 407 258 m21 6 lw 411 248 m 7 Y s 411 273 m 2 Y s 3 lw 411 264 m21 6 lw 416 239 m 10 Y s 416 267 m 2 Y s 3 lw 416 258 m21 6 lw 420 239 m 10 Y s 420 267 m 2 Y s 3 lw 420 258
 m21 6 lw 425 248 m 7 Y s 425 273 m 2 Y s 3 lw 425 264 m21 6 lw 429 248 m 7 Y s 429 273 m 2 Y s 3 lw 429 264 m21 6 lw 433 205 m 25 Y s 433 248 m 6 Y s 3 lw 433 239 m21 6 lw 438 205 m 25 Y s 438 248 m 6 Y s 3 lw 438 239 m21 6 lw 442 261 m 4 Y s 3 lw
 442 274 m21 6 lw 447 239 m 10 Y s 447 267 m 2 Y s 3 lw 447 258 m21 6 lw 451 226 m 15 Y s 451 259 m 4 Y s 3 lw 451 250 m21 6 lw 456 205 m 25 Y s 456 248 m 6 Y s 3 lw 456 239 m21 6 lw 460 116 m 95 Y s 460 229 m 10 Y s 3 lw 460 220 m21 6 lw 469 239 m
 10 Y s 469 267 m 2 Y s 3 lw 469 258 m21 6 lw 473 226 m 15 Y s 473 259 m 4 Y s 3 lw 473 250 m21 6 lw 478 116 m 95 Y s 478 229 m 10 Y s 3 lw 478 220 m21 6 lw 482 205 m 25 Y s 482 248 m 6 Y s 3 lw 482 239 m21 6 lw 487 205 m 25 Y s 487 248 m 6 Y s 3 lw
 487 239 m21 6 lw 491 116 m 95 Y s 491 229 m 10 Y s 3 lw 491 220 m21 6 lw 496 116 m 95 Y s 496 229 m 10 Y s 3 lw 496 220 m21 6 lw 500 116 m 95 Y s 500 229 m 10 Y s 3 lw 500 220 m21 6 lw 505 255 m 5 Y s 505 279 m s 3 lw 505 269 m21 6 lw 509 205 m 25 Y
 s 509 248 m 6 Y s 3 lw 509 239 m21 6 lw 527 205 m 25 Y s 527 248 m 6 Y s 3 lw 527 239 m21 6 lw 531 116 m 95 Y s 531 229 m 10 Y s 3 lw 531 220 m21 6 lw 536 116 m 95 Y s 536 229 m 10 Y s 3 lw 536 220 m21 6 lw 540 205 m 25 Y s 540 248 m 6 Y s 3 lw 540
 239 m21 6 lw 544 116 m 95 Y s 544 229 m 10 Y s 3 lw 544 220 m21 6 lw 553 116 m 95 Y s 553 229 m 10 Y s 3 lw 553 220 m21 6 lw 558 116 m 95 Y s 558 229 m 10 Y s 3 lw 558 220 m21 6 lw 580 116 m 95 Y s 580 229 m 10 Y s 3 lw 580 220 m21 6 lw 593 116 m 95
 Y s 593 229 m 10 Y s 3 lw 593 220 m21 6 lw 602 116 m 95 Y s 602 229 m 10 Y s 3 lw 602 220 m21 6 lw 611 116 m 95 Y s 611 229 m 10 Y s 3 lw 611 220 m21 6 lw 647 116 m 95 Y s 647 229 m 10 Y s 3 lw 647 220 m21 6 lw 1 0 0 c 1 1 1 c 1 0 0 c 167 116 m 93 Y
 s 167 227 m 10 Y s 3 lw 167 218 m22 6 lw 171 203 m 25 Y s 171 246 m 6 Y s 3 lw 171 237 m22 6 lw 180 203 m 25 Y s 180 246 m 6 Y s 3 lw 180 237 m22 6 lw 185 203 m 25 Y s 185 246 m 6 Y s 3 lw 185 237 m22 6 lw 189 237 m 10 Y s 189 266 m 2 Y s 3 lw 189
 256 m22 6 lw 3 lw 194 319 m22 6 lw 3 lw 198 368 m22 6 lw 3 lw 203 423 m22 6 lw 3 lw 207 477 m22 6 lw 3 lw 211 531 m22 6 lw 3 lw 216 580 m22 6 lw 3 lw 220 599 m22 6 lw 3 lw 225 578 m22 6 lw 3 lw 229 558 m22 6 lw 3 lw 234 541 m22 6 lw 3 lw 238 525 m22
 6 lw 3 lw 243 511 m22 6 lw 3 lw 247 497 m22 6 lw 3 lw 251 485 m22 6 lw 3 lw 256 473 m22 6 lw 3 lw 260 463 m22 6 lw 3 lw 265 453 m22 6 lw 3 lw 269 443 m22 6 lw 3 lw 274 434 m22 6 lw 3 lw 278 426 m22 6 lw 3 lw 282 419 m22 6 lw 3 lw 287 409 m22 6 lw 3
 lw 291 404 m22 6 lw 3 lw 296 396 m22 6 lw 3 lw 300 389 m22 6 lw 3 lw 305 387 m22 6 lw 3 lw 309 379 m22 6 lw 3 lw 314 371 m22 6 lw 3 lw 318 367 m22 6 lw 3 lw 322 364 m22 6 lw 3 lw 327 356 m22 6 lw 3 lw 331 355 m22 6 lw 3 lw 336 349 m22 6 lw 3 lw 340
 342 m22 6 lw 3 lw 345 341 m22 6 lw 3 lw 349 338 m22 6 lw 3 lw 354 333 m22 6 lw 3 lw 358 333 m22 6 lw 3 lw 362 319 m22 6 lw 3 lw 367 326 m22 6 lw 3 lw 371 316 m22 6 lw 3 lw 376 314 m22 6 lw 3 lw 380 309 m22 6 lw 3 lw 385 313 m22 6 lw 3 lw 389 312 m22
 6 lw 3 lw 393 295 m22 6 lw 3 lw 398 302 m22 6 lw 3 lw 402 308 m22 6 lw 3 lw 407 300 m22 6 lw 3 lw 411 298 m22 6 lw 416 277 m 1 Y s 3 lw 416 287 m22 6 lw 3 lw 420 293 m22 6 lw 3 lw 425 291 m22 6 lw 429 268 m 2 Y s 3 lw 429 279 m22 6 lw 433 277 m 1 Y
 s 3 lw 433 287 m22 6 lw 438 253 m 6 Y s 438 277 m s 3 lw 438 268 m22 6 lw 442 253 m 6 Y s 442 277 m s 3 lw 442 268 m22 6 lw 447 246 m 8 Y s 447 272 m 1 Y s 3 lw 447 263 m22 6 lw 451 271 m 2 Y s 3 lw 451 282 m22 6 lw 456 203 m 25 Y s 456 246 m 6 Y s
 3 lw 456 237 m22 6 lw 460 253 m 6 Y s 460 277 m s 3 lw 460 268 m22 6 lw 465 246 m 8 Y s 465 272 m 1 Y s 3 lw 465 263 m22 6 lw 469 203 m 25 Y s 469 246 m 6 Y s 3 lw 469 237 m22 6 lw 473 237 m 10 Y s 473 266 m 2 Y s 3 lw 473 256 m22 6 lw 478 116 m 93
 Y s 478 227 m 10 Y s 3 lw 478 218 m22 6 lw 482 259 m 4 Y s 3 lw 482 272 m22 6 lw 487 203 m 25 Y s 487 246 m 6 Y s 3 lw 487 237 m22 6 lw 491 268 m 2 Y s 3 lw 491 279 m22 6 lw 500 237 m 10 Y s 500 266 m 2 Y s 3 lw 500 256 m22 6 lw 505 259 m 4 Y s 3 lw
 505 272 m22 6 lw 509 203 m 25 Y s 509 246 m 6 Y s 3 lw 509 237 m22 6 lw 513 225 m 14 Y s 513 258 m 3 Y s 3 lw 513 248 m22 6 lw 518 225 m 14 Y s 518 258 m 3 Y s 3 lw 518 248 m22 6 lw 522 203 m 25 Y s 522 246 m 6 Y s 3 lw 522 237 m22 6 lw 527 225 m 14
 Y s 527 258 m 3 Y s 3 lw 527 248 m22 6 lw 531 203 m 25 Y s 531 246 m 6 Y s 3 lw 531 237 m22 6 lw 536 116 m 93 Y s 536 227 m 10 Y s 3 lw 536 218 m22 6 lw 540 253 m 6 Y s 540 277 m s 3 lw 540 268 m22 6 lw 553 203 m 25 Y s 553 246 m 6 Y s 3 lw 553 237
 m22 6 lw 558 203 m 25 Y s 558 246 m 6 Y s 3 lw 558 237 m22 6 lw 562 116 m 93 Y s 562 227 m 10 Y s 3 lw 562 218 m22 6 lw 567 116 m 93 Y s 567 227 m 10 Y s 3 lw 567 218 m22 6 lw 580 116 m 93 Y s 580 227 m 10 Y s 3 lw 580 218 m22 6 lw 589 116 m 93 Y s
 589 227 m 10 Y s 3 lw 589 218 m22 6 lw 593 116 m 93 Y s 593 227 m 10 Y s 3 lw 593 218 m22 6 lw 598 116 m 93 Y s 598 227 m 10 Y s 3 lw 598 218 m22 6 lw 607 116 m 93 Y s 607 227 m 10 Y s 3 lw 607 218 m22 6 lw 611 116 m 93 Y s 611 227 m 10 Y s 3 lw 611
 218 m22 6 lw 616 116 m 93 Y s 616 227 m 10 Y s 3 lw 616 218 m22 6 lw 620 203 m 25 Y s 620 246 m 6 Y s 3 lw 620 237 m22 6 lw 624 237 m 10 Y s 624 266 m 2 Y s 3 lw 624 256 m22 6 lw 629 116 m 93 Y s 629 227 m 10 Y s 3 lw 629 218 m22 6 lw black
 gsave  710 680 23 14 C 368.845 571.483 t 0 r /Helvetica findfont 29.6543 sf 0 0 m (Centrality: 60 \255 80%) show NC gr 
 gsave  710 680 23 14 C 450.811 489.517 t 0 r /Helvetica findfont 29.6543 sf 0 0 m (=1.11 GeV/c) show NC gr 
 gsave  710 680 23 14 C 432.597 489.517 t 0 r /Symbol findfont 29.6543 sf 0 0 m (s) show NC gr 
 gsave  710 680 23 14 C 432.597 521.393 t 0 r /Helvetica findfont 29.6543 sf 0 0 m (RC) show NC gr  3 lw 399 515 m20 6 lw
 gsave  710 680 23 14 C 450.811 423.489 t 0 r /Helvetica findfont 29.6543 sf 0 0 m (=0.88 GeV/c) show NC gr 
 gsave  710 680 23 14 C 432.597 423.489 t 0 r /Symbol findfont 29.6543 sf 0 0 m (s) show NC gr 
 gsave  710 680 23 14 C 432.597 459.918 t 0 r /Helvetica findfont 29.6543 sf 0 0 m (RC w/o lead. jet) show NC gr  0 0 1 c 3 lw 399 451 m21 6 lw black
 gsave  710 680 23 14 C 450.811 357.461 t 0 r /Helvetica findfont 29.6543 sf 0 0 m (=1.10 GeV/c) show NC gr 
 gsave  710 680 23 14 C 432.597 357.461 t 0 r /Symbol findfont 29.6543 sf 0 0 m (s) show NC gr 
 gsave  710 680 23 14 C 432.597 393.891 t 0 r /Helvetica findfont 29.6543 sf 0 0 m (RC partial) show NC gr  1 0 0 c 3 lw 399 386 m22 6 lw black 3 lw 0.999 0.999 0.999 c 710 680 779 14 bf black 1 1 1 c 533 510 885 116 bf black 533 510 885 116 bl 1 1 1
 c 533 510 885 116 bf black 533 510 885 116 bl 0 0 0.6 c 1 1 1 c black 0 0 0.6 c 885 116 m 533 X s black 885 116 m 533 X s
 gsave  710 680 779 14 C 1404.8 54.6438 t 0 r /Helvetica findfont 38.7787 sf 0 0 m (\)) show NC gr 
 gsave  710 680 779 14 C 1382.03 54.6438 t 0 r /Helvetica-Oblique findfont 38.7787 sf 0 0 m (c) show NC gr 
 gsave  710 680 779 14 C 1268.19 54.6438 t 0 r /Helvetica findfont 38.7787 sf 0 0 m ( \(GeV/) show NC gr 
 gsave  710 680 779 14 C 1252.25 31.8755 t 0 r /Helvetica findfont 25.0921 sf 0 0 m (T) show NC gr 
 gsave  710 680 779 14 C 1227.21 54.6438 t 0 r /Helvetica-Oblique findfont 38.7787 sf 0 0 m (p) show NC gr 
 gsave  710 680 779 14 C 1213.55 54.6438 t 0 r /Helvetica findfont 38.7787 sf 0 0 m ( ) show NC gr 
 gsave  710 680 779 14 C 1193.06 54.6438 t 0 r /Symbol findfont 38.7787 sf 0 0 m (d) show NC gr  885 131 m -15 Y s 903 124 m -8 Y s 921 124 m -8 Y s 938 124 m -8 Y s 956 124 m -8 Y s 974 131 m -15 Y s 992 124 m -8 Y s 1010 124 m -8 Y s 1027 124 m -8
 Y s 1045 124 m -8 Y s 1063 131 m -15 Y s 1081 124 m -8 Y s 1098 124 m -8 Y s 1116 124 m -8 Y s 1134 124 m -8 Y s 1152 131 m -15 Y s 1169 124 m -8 Y s 1187 124 m -8 Y s 1205 124 m -8 Y s 1223 124 m -8 Y s 1240 131 m -15 Y s 1258 124 m -8 Y s 1276 124
 m -8 Y s 1294 124 m -8 Y s 1311 124 m -8 Y s 1329 131 m -15 Y s 1347 124 m -8 Y s 1365 124 m -8 Y s 1383 124 m -8 Y s 1400 124 m -8 Y s 1418 131 m -15 Y s
 gsave  710 680 779 14 C 860.639 86.5193 t 0 r /Helvetica findfont 31.9354 sf 0 0 m (\25510) show NC gr 
 gsave  710 680 779 14 C 963.096 86.5193 t 0 r /Helvetica findfont 31.9354 sf 0 0 m (0) show NC gr 
 gsave  710 680 779 14 C 1042.79 86.5193 t 0 r /Helvetica findfont 31.9354 sf 0 0 m (10) show NC gr 
 gsave  710 680 779 14 C 1131.58 86.5193 t 0 r /Helvetica findfont 31.9354 sf 0 0 m (20) show NC gr 
 gsave  710 680 779 14 C 1220.38 86.5193 t 0 r /Helvetica findfont 31.9354 sf 0 0 m (30) show NC gr 
 gsave  710 680 779 14 C 1309.17 86.5193 t 0 r /Helvetica findfont 31.9354 sf 0 0 m (40) show NC gr 
 gsave  710 680 779 14 C 1397.97 86.5193 t 0 r /Helvetica findfont 31.9354 sf 0 0 m (50) show NC gr  885 116 m 510 Y s
 gsave  710 680 779 14 C 819.657 389.337 t 90 r /Helvetica findfont 38.7787 sf 0 0 m (probability/bin) show NC gr  901 116 m -16 X s
 gsave  710 680 779 14 C 858.363 118.395 t 0 r /Helvetica findfont 20.5299 sf 0 0 m (\2558) show NC gr 
 gsave  710 680 779 14 C 824.21 102.457 t 0 r /Helvetica findfont 31.9354 sf 0 0 m (10) show NC gr  893 135 m -8 X s 893 147 m -8 X s 893 154 m -8 X s 893 161 m -8 X s 893 166 m -8 X s 893 170 m -8 X s 893 174 m -8 X s 893 177 m -8 X s 901 180 m -16
 X s
 gsave  710 680 779 14 C 858.363 177.592 t 0 r /Helvetica findfont 20.5299 sf 0 0 m (\2557) show NC gr 
 gsave  710 680 779 14 C 824.21 163.931 t 0 r /Helvetica findfont 31.9354 sf 0 0 m (10) show NC gr  893 199 m -8 X s 893 210 m -8 X s 893 218 m -8 X s 893 224 m -8 X s 893 229 m -8 X s 893 234 m -8 X s 893 237 m -8 X s 893 241 m -8 X s 901 244 m -16
 X s
 gsave  710 680 779 14 C 858.363 243.62 t 0 r /Helvetica findfont 20.5299 sf 0 0 m (\2556) show NC gr 
 gsave  710 680 779 14 C 824.21 227.682 t 0 r /Helvetica findfont 31.9354 sf 0 0 m (10) show NC gr  893 263 m -8 X s 893 274 m -8 X s 893 282 m -8 X s 893 288 m -8 X s 893 293 m -8 X s 893 297 m -8 X s 893 301 m -8 X s 893 304 m -8 X s 901 307 m -16
 X s
 gsave  710 680 779 14 C 858.363 307.371 t 0 r /Helvetica findfont 20.5299 sf 0 0 m (\2555) show NC gr 
 gsave  710 680 779 14 C 824.21 291.433 t 0 r /Helvetica findfont 31.9354 sf 0 0 m (10) show NC gr  893 326 m -8 X s 893 338 m -8 X s 893 346 m -8 X s 893 352 m -8 X s 893 357 m -8 X s 893 361 m -8 X s 893 365 m -8 X s 893 368 m -8 X s 901 371 m -16
 X s
 gsave  710 680 779 14 C 858.363 368.845 t 0 r /Helvetica findfont 20.5299 sf 0 0 m (\2554) show NC gr 
 gsave  710 680 779 14 C 824.21 355.185 t 0 r /Helvetica findfont 31.9354 sf 0 0 m (10) show NC gr  893 390 m -8 X s 893 401 m -8 X s 893 409 m -8 X s 893 416 m -8 X s 893 421 m -8 X s 893 425 m -8 X s 893 429 m -8 X s 893 432 m -8 X s 901 435 m -16
 X s
 gsave  710 680 779 14 C 858.363 434.873 t 0 r /Helvetica findfont 20.5299 sf 0 0 m (\2553) show NC gr 
 gsave  710 680 779 14 C 824.21 418.936 t 0 r /Helvetica findfont 31.9354 sf 0 0 m (10) show NC gr  893 454 m -8 X s 893 465 m -8 X s 893 473 m -8 X s 893 479 m -8 X s 893 484 m -8 X s 893 489 m -8 X s 893 492 m -8 X s 893 496 m -8 X s 901 498 m -16
 X s
 gsave  710 680 779 14 C 858.363 496.348 t 0 r /Helvetica findfont 20.5299 sf 0 0 m (\2552) show NC gr 
 gsave  710 680 779 14 C 824.21 482.687 t 0 r /Helvetica findfont 31.9354 sf 0 0 m (10) show NC gr  893 518 m -8 X s 893 529 m -8 X s 893 537 m -8 X s 893 543 m -8 X s 893 548 m -8 X s 893 552 m -8 X s 893 556 m -8 X s 893 559 m -8 X s 901 562 m -16
 X s
 gsave  710 680 779 14 C 860.639 560.099 t 0 r /Helvetica findfont 20.5299 sf 0 0 m (\2551) show NC gr 
 gsave  710 680 779 14 C 826.487 546.438 t 0 r /Helvetica findfont 31.9354 sf 0 0 m (10) show NC gr  893 581 m -8 X s 893 593 m -8 X s 893 601 m -8 X s 893 607 m -8 X s 893 612 m -8 X s 893 616 m -8 X s 893 620 m -8 X s 893 623 m -8 X s 901 626 m -16
 X s
 gsave  710 680 779 14 C 878.77 613.203 t 0 r  -17 0 t /Helvetica findfont 31.9354 sf 0 0 m (1) show NC gr  6 lw 1 1 1 c black 950 222 m 25 Y s 950 265 m 6 Y s 3 lw 950 256 m20 6 lw 3 lw 954 318 m20 6 lw 3 lw 958 369 m20 6 lw 3 lw 963 421 m20 6 lw 3
 lw 967 488 m20 6 lw 3 lw 972 562 m20 6 lw 3 lw 976 609 m20 6 lw 3 lw 981 582 m20 6 lw 3 lw 985 554 m20 6 lw 3 lw 990 532 m20 6 lw 3 lw 994 512 m20 6 lw 3 lw 998 495 m20 6 lw 3 lw 1003 480 m20 6 lw 3 lw 1007 466 m20 6 lw 3 lw 1012 453 m20 6 lw 3 lw
 1016 441 m20 6 lw 3 lw 1021 432 m20 6 lw 3 lw 1025 421 m20 6 lw 3 lw 1029 414 m20 6 lw 3 lw 1034 404 m20 6 lw 3 lw 1038 395 m20 6 lw 3 lw 1043 387 m20 6 lw 3 lw 1047 384 m20 6 lw 3 lw 1052 370 m20 6 lw 3 lw 1056 371 m20 6 lw 3 lw 1061 363 m20 6 lw 3
 lw 1065 353 m20 6 lw 3 lw 1069 354 m20 6 lw 3 lw 1074 347 m20 6 lw 3 lw 1078 347 m20 6 lw 3 lw 1083 336 m20 6 lw 3 lw 1087 331 m20 6 lw 3 lw 1092 324 m20 6 lw 3 lw 1096 322 m20 6 lw 3 lw 1101 331 m20 6 lw 3 lw 1105 308 m20 6 lw 3 lw 1109 318 m20 6
 lw 1114 293 m 1 Y s 3 lw 1114 303 m20 6 lw 3 lw 1118 308 m20 6 lw 1123 286 m 3 Y s 3 lw 1123 298 m20 6 lw 1127 278 m 4 Y s 3 lw 1127 291 m20 6 lw 1132 282 m 3 Y s 3 lw 1132 294 m20 6 lw 1136 265 m 7 Y s 1136 291 m 1 Y s 3 lw 1136 281 m20 6 lw 1141
 282 m 3 Y s 3 lw 1141 294 m20 6 lw 1145 265 m 7 Y s 1145 291 m 1 Y s 3 lw 1145 281 m20 6 lw 1149 256 m 10 Y s 1149 284 m 2 Y s 3 lw 1149 275 m20 6 lw 1154 116 m 112 Y s 1154 246 m 10 Y s 3 lw 1154 237 m20 6 lw 1158 272 m 5 Y s 1158 296 m s 3 lw 1158
 286 m20 6 lw 1163 256 m 10 Y s 1163 284 m 2 Y s 3 lw 1163 275 m20 6 lw 1167 243 m 15 Y s 1167 276 m 4 Y s 3 lw 1167 267 m20 6 lw 1172 222 m 25 Y s 1172 265 m 6 Y s 3 lw 1172 256 m20 6 lw 1176 116 m 112 Y s 1176 246 m 10 Y s 3 lw 1176 237 m20 6 lw
 1180 222 m 25 Y s 1180 265 m 6 Y s 3 lw 1180 256 m20 6 lw 1185 116 m 112 Y s 1185 246 m 10 Y s 3 lw 1185 237 m20 6 lw 1189 265 m 7 Y s 1189 291 m 1 Y s 3 lw 1189 281 m20 6 lw 1194 243 m 15 Y s 1194 276 m 4 Y s 3 lw 1194 267 m20 6 lw 1198 256 m 10 Y
 s 1198 284 m 2 Y s 3 lw 1198 275 m20 6 lw 1207 116 m 112 Y s 1207 246 m 10 Y s 3 lw 1207 237 m20 6 lw 1216 222 m 25 Y s 1216 265 m 6 Y s 3 lw 1216 256 m20 6 lw 1229 116 m 112 Y s 1229 246 m 10 Y s 3 lw 1229 237 m20 6 lw 1234 116 m 112 Y s 1234 246 m
 10 Y s 3 lw 1234 237 m20 6 lw 1238 116 m 112 Y s 1238 246 m 10 Y s 3 lw 1238 237 m20 6 lw 1243 222 m 25 Y s 1243 265 m 6 Y s 3 lw 1243 256 m20 6 lw 1247 116 m 112 Y s 1247 246 m 10 Y s 3 lw 1247 237 m20 6 lw 1256 116 m 112 Y s 1256 246 m 10 Y s 3 lw
 1256 237 m20 6 lw 1260 116 m 112 Y s 1260 246 m 10 Y s 3 lw 1260 237 m20 6 lw 1265 116 m 112 Y s 1265 246 m 10 Y s 3 lw 1265 237 m20 6 lw 1274 116 m 112 Y s 1274 246 m 10 Y s 3 lw 1274 237 m20 6 lw 1278 116 m 112 Y s 1278 246 m 10 Y s 3 lw 1278 237
 m20 6 lw 1292 222 m 25 Y s 1292 265 m 6 Y s 3 lw 1292 256 m20 6 lw 1305 222 m 25 Y s 1305 265 m 6 Y s 3 lw 1305 256 m20 6 lw 1331 116 m 112 Y s 1331 246 m 10 Y s 3 lw 1331 237 m20 6 lw 1398 116 m 112 Y s 1398 246 m 10 Y s 3 lw 1398 237 m20 6 lw 1411
 116 m 112 Y s 1411 246 m 10 Y s 3 lw 1411 237 m20 6 lw 0 0 1 c 1 1 1 c 0 0 1 c 941 116 m 114 Y s 941 248 m 10 Y s 3 lw 941 239 m21 6 lw 950 267 m 7 Y s 950 292 m 1 Y s 3 lw 950 283 m21 6 lw 3 lw 954 330 m21 6 lw 3 lw 958 374 m21 6 lw 3 lw 963 431
 m21 6 lw 3 lw 967 495 m21 6 lw 3 lw 972 566 m21 6 lw 3 lw 976 611 m21 6 lw 3 lw 981 581 m21 6 lw 3 lw 985 543 m21 6 lw 3 lw 990 517 m21 6 lw 3 lw 994 496 m21 6 lw 3 lw 998 476 m21 6 lw 3 lw 1003 462 m21 6 lw 3 lw 1007 446 m21 6 lw 3 lw 1012 433 m21
 6 lw 3 lw 1016 421 m21 6 lw 3 lw 1021 411 m21 6 lw 3 lw 1025 400 m21 6 lw 3 lw 1029 390 m21 6 lw 3 lw 1034 382 m21 6 lw 3 lw 1038 374 m21 6 lw 3 lw 1043 368 m21 6 lw 3 lw 1047 362 m21 6 lw 3 lw 1052 347 m21 6 lw 3 lw 1056 351 m21 6 lw 3 lw 1061 338
 m21 6 lw 3 lw 1065 331 m21 6 lw 3 lw 1069 332 m21 6 lw 3 lw 1074 325 m21 6 lw 3 lw 1078 325 m21 6 lw 3 lw 1083 323 m21 6 lw 1087 298 m s 3 lw 1087 307 m21 6 lw 3 lw 1092 312 m21 6 lw 1096 279 m 4 Y s 3 lw 1096 293 m21 6 lw 1101 116 m 114 Y s 1101
 248 m 10 Y s 3 lw 1101 239 m21 6 lw 1105 298 m s 3 lw 1105 307 m21 6 lw 1109 279 m 4 Y s 3 lw 1109 293 m21 6 lw 1114 288 m 2 Y s 3 lw 1114 300 m21 6 lw 1118 258 m 10 Y s 1118 286 m 2 Y s 3 lw 1118 277 m21 6 lw 1123 224 m 25 Y s 1123 267 m 6 Y s 3 lw
 1123 258 m21 6 lw 1127 224 m 25 Y s 1127 267 m 6 Y s 3 lw 1127 258 m21 6 lw 1132 267 m 7 Y s 1132 292 m 1 Y s 3 lw 1132 283 m21 6 lw 1136 224 m 25 Y s 1136 267 m 6 Y s 3 lw 1136 258 m21 6 lw 1141 224 m 25 Y s 1141 267 m 6 Y s 3 lw 1141 258 m21 6 lw
 1145 116 m 114 Y s 1145 248 m 10 Y s 3 lw 1145 239 m21 6 lw 1149 245 m 15 Y s 1149 278 m 4 Y s 3 lw 1149 269 m21 6 lw 1154 116 m 114 Y s 1154 248 m 10 Y s 3 lw 1154 239 m21 6 lw 1158 116 m 114 Y s 1158 248 m 10 Y s 3 lw 1158 239 m21 6 lw 1167 258 m
 10 Y s 1167 286 m 2 Y s 3 lw 1167 277 m21 6 lw 1172 224 m 25 Y s 1172 267 m 6 Y s 3 lw 1172 258 m21 6 lw 1180 224 m 25 Y s 1180 267 m 6 Y s 3 lw 1180 258 m21 6 lw 1189 224 m 25 Y s 1189 267 m 6 Y s 3 lw 1189 258 m21 6 lw 1220 116 m 114 Y s 1220 248
 m 10 Y s 3 lw 1220 239 m21 6 lw 1247 116 m 114 Y s 1247 248 m 10 Y s 3 lw 1247 239 m21 6 lw 1252 116 m 114 Y s 1252 248 m 10 Y s 3 lw 1252 239 m21 6 lw 1260 116 m 114 Y s 1260 248 m 10 Y s 3 lw 1260 239 m21 6 lw 1274 116 m 114 Y s 1274 248 m 10 Y s
 3 lw 1274 239 m21 6 lw 1292 116 m 114 Y s 1292 248 m 10 Y s 3 lw 1292 239 m21 6 lw 1 0 0 c 1 1 1 c 1 0 0 c 941 223 m 25 Y s 941 266 m 6 Y s 3 lw 941 257 m22 6 lw 945 116 m 112 Y s 945 247 m 10 Y s 3 lw 945 238 m22 6 lw 950 257 m 10 Y s 950 285 m 2 Y
 s 3 lw 950 276 m22 6 lw 3 lw 954 319 m22 6 lw 3 lw 958 368 m22 6 lw 3 lw 963 426 m22 6 lw 3 lw 967 491 m22 6 lw 3 lw 972 563 m22 6 lw 3 lw 976 610 m22 6 lw 3 lw 981 582 m22 6 lw 3 lw 985 551 m22 6 lw 3 lw 990 528 m22 6 lw 3 lw 994 507 m22 6 lw 3 lw
 998 490 m22 6 lw 3 lw 1003 475 m22 6 lw 3 lw 1007 461 m22 6 lw 3 lw 1012 448 m22 6 lw 3 lw 1016 436 m22 6 lw 3 lw 1021 425 m22 6 lw 3 lw 1025 416 m22 6 lw 3 lw 1029 406 m22 6 lw 3 lw 1034 400 m22 6 lw 3 lw 1038 389 m22 6 lw 3 lw 1043 385 m22 6 lw 3
 lw 1047 373 m22 6 lw 3 lw 1052 372 m22 6 lw 3 lw 1056 365 m22 6 lw 3 lw 1061 356 m22 6 lw 3 lw 1065 347 m22 6 lw 3 lw 1069 342 m22 6 lw 3 lw 1074 346 m22 6 lw 3 lw 1078 336 m22 6 lw 3 lw 1083 335 m22 6 lw 3 lw 1087 319 m22 6 lw 3 lw 1092 319 m22 6
 lw 3 lw 1096 319 m22 6 lw 3 lw 1101 313 m22 6 lw 1105 294 m 1 Y s 3 lw 1105 304 m22 6 lw 3 lw 1109 314 m22 6 lw 1114 283 m 3 Y s 3 lw 1114 295 m22 6 lw 1118 273 m 5 Y s 1118 296 m 1 Y s 3 lw 1118 287 m22 6 lw 1123 273 m 5 Y s 1123 296 m 1 Y s 3 lw
 1123 287 m22 6 lw 1127 273 m 5 Y s 1127 296 m 1 Y s 3 lw 1127 287 m22 6 lw 1132 278 m 4 Y s 3 lw 1132 291 m22 6 lw 1136 273 m 5 Y s 1136 296 m 1 Y s 3 lw 1136 287 m22 6 lw 1141 266 m 7 Y s 1141 291 m 1 Y s 3 lw 1141 282 m22 6 lw 1145 116 m 112 Y s
 1145 247 m 10 Y s 3 lw 1145 238 m22 6 lw 1149 257 m 10 Y s 1149 285 m 2 Y s 3 lw 1149 276 m22 6 lw 1154 257 m 10 Y s 1154 285 m 2 Y s 3 lw 1154 276 m22 6 lw 1158 266 m 7 Y s 1158 291 m 1 Y s 3 lw 1158 282 m22 6 lw 1163 244 m 15 Y s 1163 277 m 4 Y s
 3 lw 1163 268 m22 6 lw 1167 244 m 15 Y s 1167 277 m 4 Y s 3 lw 1167 268 m22 6 lw 1172 223 m 25 Y s 1172 266 m 6 Y s 3 lw 1172 257 m22 6 lw 1176 244 m 15 Y s 1176 277 m 4 Y s 3 lw 1176 268 m22 6 lw 1185 116 m 112 Y s 1185 247 m 10 Y s 3 lw 1185 238
 m22 6 lw 1189 223 m 25 Y s 1189 266 m 6 Y s 3 lw 1189 257 m22 6 lw 1194 116 m 112 Y s 1194 247 m 10 Y s 3 lw 1194 238 m22 6 lw 1198 223 m 25 Y s 1198 266 m 6 Y s 3 lw 1198 257 m22 6 lw 1203 223 m 25 Y s 1203 266 m 6 Y s 3 lw 1203 257 m22 6 lw 1207
 273 m 5 Y s 1207 296 m 1 Y s 3 lw 1207 287 m22 6 lw 1212 116 m 112 Y s 1212 247 m 10 Y s 3 lw 1212 238 m22 6 lw 1216 223 m 25 Y s 1216 266 m 6 Y s 3 lw 1216 257 m22 6 lw 1220 223 m 25 Y s 1220 266 m 6 Y s 3 lw 1220 257 m22 6 lw 1225 116 m 112 Y s
 1225 247 m 10 Y s 3 lw 1225 238 m22 6 lw 1234 116 m 112 Y s 1234 247 m 10 Y s 3 lw 1234 238 m22 6 lw 1243 116 m 112 Y s 1243 247 m 10 Y s 3 lw 1243 238 m22 6 lw 1247 116 m 112 Y s 1247 247 m 10 Y s 3 lw 1247 238 m22 6 lw 1265 116 m 112 Y s 1265 247
 m 10 Y s 3 lw 1265 238 m22 6 lw 1269 116 m 112 Y s 1269 247 m 10 Y s 3 lw 1269 238 m22 6 lw 1278 116 m 112 Y s 1278 247 m 10 Y s 3 lw 1278 238 m22 6 lw 1292 116 m 112 Y s 1292 247 m 10 Y s 3 lw 1292 238 m22 6 lw 1300 116 m 112 Y s 1300 247 m 10 Y s
 3 lw 1300 238 m22 6 lw 1314 116 m 112 Y s 1314 247 m 10 Y s 3 lw 1314 238 m22 6 lw 1340 116 m 112 Y s 1340 247 m 10 Y s 3 lw 1340 238 m22 6 lw black
 gsave  710 680 779 14 C 1124.75 571.483 t 0 r /Helvetica findfont 29.6543 sf 0 0 m (Centrality: 80 \255 100%) show NC gr 
 gsave  710 680 779 14 C 1206.72 489.517 t 0 r /Helvetica findfont 29.6543 sf 0 0 m (=0.79 GeV/c) show NC gr 
 gsave  710 680 779 14 C 1188.5 489.517 t 0 r /Symbol findfont 29.6543 sf 0 0 m (s) show NC gr 
 gsave  710 680 779 14 C 1188.5 521.393 t 0 r /Helvetica findfont 29.6543 sf 0 0 m (RC) show NC gr  3 lw 1155 515 m20 6 lw
 gsave  710 680 779 14 C 1206.72 423.489 t 0 r /Helvetica findfont 29.6543 sf 0 0 m (=0.62 GeV/c) show NC gr 
 gsave  710 680 779 14 C 1188.5 423.489 t 0 r /Symbol findfont 29.6543 sf 0 0 m (s) show NC gr 
 gsave  710 680 779 14 C 1188.5 459.918 t 0 r /Helvetica findfont 29.6543 sf 0 0 m (RC w/o lead. jet) show NC gr  0 0 1 c 3 lw 1155 451 m21 6 lw black
 gsave  710 680 779 14 C 1206.72 357.461 t 0 r /Helvetica findfont 29.6543 sf 0 0 m (=0.74 GeV/c) show NC gr 
 gsave  710 680 779 14 C 1188.5 357.461 t 0 r /Symbol findfont 29.6543 sf 0 0 m (s) show NC gr 
 gsave  710 680 779 14 C 1188.5 393.891 t 0 r /Helvetica findfont 29.6543 sf 0 0 m (RC partial) show NC gr  1 0 0 c 3 lw 1155 386 m22 6 lw black 3 lw 0.999 0.999 0.999 c 711 680 1534 14 bf
 gr  gr showpage
end
%%EOF
