%!PS-Adobe-2.0 EPSF-2.0
%%BoundingBox:  0 0 567 355
%%Title: DeltaPtChargedJetsR040.eps: c2: dpt
%%Creator: ROOT Version 5.34/09
%%CreationDate: Tue Jan  7 10:12:07 2014
%%EndComments
%%BeginProlog
80 dict begin
/s {stroke} def /l {lineto} def /m {moveto} def /t {translate} def
/r {rotate} def /rl {roll}  def /R {repeat} def
/d {rlineto} def /rm {rmoveto} def /gr {grestore} def /f {eofill} def
/c {setrgbcolor} def /black {0 setgray} def /sd {setdash} def
/cl {closepath} def /sf {scalefont setfont} def /lw {setlinewidth} def
/box {m dup 0 exch d exch 0 d 0 exch neg d cl} def
/NC{systemdict begin initclip end}def/C{NC box clip newpath}def
/bl {box s} def /bf {box f} def /Y { 0 exch d} def /X { 0 d} def 
/K {{pop pop 0 moveto} exch kshow} bind def
/ita {/ang 15 def gsave [1 0 ang dup sin exch cos div 1 0 0] concat} def 
/mp {newpath /y exch def /x exch def} def
/side {[w .77 mul w .23 mul] .385 w mul sd w 0 l currentpoint t -144 r} def
/mr {mp x y w2 0 360 arc} def /m24 {mr s} def /m20 {mr f} def
/mb {mp x y w2 add m w2 neg 0 d 0 w neg d w 0 d 0 w d cl} def
/mt {mp x y w2 add m w2 neg w neg d w 0 d cl} def
/m21 {mb f} def /m25 {mb s} def /m22 {mt f} def /m26{mt s} def
/m23 {mp x y w2 sub m w2 w d w neg 0 d cl f} def
/m27 {mp x y w2 add m w3 neg w2 neg d w3 w2 neg d w3 w2 d cl s} def
/m28 {mp x w2 sub y w2 sub w3 add m w3 0 d  0 w3 neg d w3 0 d 0 w3 d w3 0 d  0 w3 d w3 neg 0 d 0 w3 d w3 neg 0 d 0 w3 neg d w3 neg 0 d cl s } def
/m29 {mp gsave x w2 sub y w2 add w3 sub m currentpoint t 4 {side} repeat cl fill gr} def
/m30 {mp gsave x w2 sub y w2 add w3 sub m currentpoint t 4 {side} repeat cl s gr} def
/m31 {mp x y w2 sub m 0 w d x w2 sub y m w 0 d x w2 sub y w2 add m w w neg d x w2 sub y w2 sub m w w d s} def
/m32 {mp x y w2 sub m w2 w d w neg 0 d cl s} def
/m33 {mp x y w2 add m w3 neg w2 neg d w3 w2 neg d w3 w2 d cl f} def
/m34 {mp x w2 sub y w2 sub w3 add m w3 0 d  0 w3 neg d w3 0 d 0 w3 d w3 0 d  0 w3 d w3 neg 0 d 0 w3 d w3 neg 0 d 0 w3 neg d w3 neg 0 d cl f } def
/m2 {mp x y w2 sub m 0 w d x w2 sub y m w 0 d s} def
/m5 {mp x w2 sub y w2 sub m w w d x w2 sub y w2 add m w w neg d s} def
/reEncode {exch findfont dup length dict begin {1 index /FID eq  {pop pop} {def} ifelse } forall /Encoding exch def currentdict end dup /FontName get exch definefont pop } def [/Times-Bold /Times-Italic /Times-BoldItalic /Helvetica /Helvetica-Oblique
 /Helvetica-Bold /Helvetica-BoldOblique /Courier /Courier-Oblique /Courier-Bold /Courier-BoldOblique /Times-Roman /AvantGarde-Book /AvantGarde-BookOblique /AvantGarde-Demi /AvantGarde-DemiOblique /Bookman-Demi /Bookman-DemiItalic /Bookman-Light
 /Bookman-LightItalic /Helvetica-Narrow /Helvetica-Narrow-Bold /Helvetica-Narrow-BoldOblique /Helvetica-Narrow-Oblique /NewCenturySchlbk-Roman /NewCenturySchlbk-Bold /NewCenturySchlbk-BoldItalic /NewCenturySchlbk-Italic /Palatino-Bold
 /Palatino-BoldItalic /Palatino-Italic /Palatino-Roman ] {ISOLatin1Encoding reEncode } forall
%%EndProlog
%%BeginSetup
%%EndSetup
newpath  gsave  .25 .25 scale  gsave  0 0 t black[  ] 0 sd 3 lw 0.999 0.999 0.999 c 2268 1421 0 0 bf black 0.999 0.999 0.999 c 710 682 23 725 bf black 1 1 1 c 533 511 129 827 bf black 533 511 129 827 bl 1 1 1 c 533 511 129 827 bf black 533 511 129
 827 bl 0 0 0.6 c 1 1 1 c black 0 0 0.6 c 129 827 m 533 X s black 129 827 m 533 X s
 gsave  710 682 23 725 C 648.895 765.013 t 0 r /Helvetica findfont 38.7733 sf 0 0 m (\)) show NC gr 
 gsave  710 682 23 725 C 626.127 765.013 t 0 r /Helvetica-Oblique findfont 38.7733 sf 0 0 m (c) show NC gr 
 gsave  710 682 23 725 C 512.285 765.013 t 0 r /Helvetica findfont 38.7733 sf 0 0 m ( \(GeV/) show NC gr 
 gsave  710 682 23 725 C 496.348 742.245 t 0 r /Helvetica findfont 25.0886 sf 0 0 m (T) show NC gr 
 gsave  710 682 23 725 C 471.303 765.013 t 0 r /Helvetica-Oblique findfont 38.7733 sf 0 0 m (p) show NC gr 
 gsave  710 682 23 725 C 457.642 765.013 t 0 r /Helvetica findfont 38.7733 sf 0 0 m ( ) show NC gr 
 gsave  710 682 23 725 C 437.15 765.013 t 0 r /Symbol findfont 38.7733 sf 0 0 m (d) show NC gr  129 842 m -15 Y s 147 835 m -8 Y s 165 835 m -8 Y s 183 835 m -8 Y s 200 835 m -8 Y s 218 842 m -15 Y s 236 835 m -8 Y s 254 835 m -8 Y s 271 835 m -8 Y s
 289 835 m -8 Y s 307 842 m -15 Y s 325 835 m -8 Y s 342 835 m -8 Y s 360 835 m -8 Y s 378 835 m -8 Y s 396 842 m -15 Y s 413 835 m -8 Y s 431 835 m -8 Y s 449 835 m -8 Y s 467 835 m -8 Y s 485 842 m -15 Y s 502 835 m -8 Y s 520 835 m -8 Y s 538 835
 m -8 Y s 556 835 m -8 Y s 573 842 m -15 Y s 591 835 m -8 Y s 609 835 m -8 Y s 627 835 m -8 Y s 644 835 m -8 Y s 662 842 m -15 Y s
 gsave  710 682 23 725 C 104.734 796.888 t 0 r /Helvetica findfont 31.931 sf 0 0 m (\25510) show NC gr 
 gsave  710 682 23 725 C 207.191 796.888 t 0 r /Helvetica findfont 31.931 sf 0 0 m (0) show NC gr 
 gsave  710 682 23 725 C 286.88 796.888 t 0 r /Helvetica findfont 31.931 sf 0 0 m (10) show NC gr 
 gsave  710 682 23 725 C 375.676 796.888 t 0 r /Helvetica findfont 31.931 sf 0 0 m (20) show NC gr 
 gsave  710 682 23 725 C 464.472 796.888 t 0 r /Helvetica findfont 31.931 sf 0 0 m (30) show NC gr 
 gsave  710 682 23 725 C 553.268 796.888 t 0 r /Helvetica findfont 31.931 sf 0 0 m (40) show NC gr 
 gsave  710 682 23 725 C 642.064 796.888 t 0 r /Helvetica findfont 31.931 sf 0 0 m (50) show NC gr  129 827 m 511 Y s
 gsave  710 682 23 725 C 63.7511 1101.98 t 90 r /Helvetica findfont 38.7733 sf 0 0 m (probability/bin) show NC gr  145 827 m -16 X s
 gsave  710 682 23 725 C 102.457 828.764 t 0 r /Helvetica findfont 20.5271 sf 0 0 m (\2558) show NC gr 
 gsave  710 682 23 725 C 68.3047 812.826 t 0 r /Helvetica findfont 31.931 sf 0 0 m (10) show NC gr  137 846 m -8 X s 137 857 m -8 X s 137 865 m -8 X s 137 872 m -8 X s 137 877 m -8 X s 137 881 m -8 X s 137 885 m -8 X s 137 888 m -8 X s 145 891 m -16
 X s
 gsave  710 682 23 725 C 102.457 890.238 t 0 r /Helvetica findfont 20.5271 sf 0 0 m (\2557) show NC gr 
 gsave  710 682 23 725 C 68.3047 876.577 t 0 r /Helvetica findfont 31.931 sf 0 0 m (10) show NC gr  137 910 m -8 X s 137 921 m -8 X s 137 929 m -8 X s 137 935 m -8 X s 137 941 m -8 X s 137 945 m -8 X s 137 949 m -8 X s 137 952 m -8 X s 145 955 m -16
 X s
 gsave  710 682 23 725 C 102.457 956.266 t 0 r /Helvetica findfont 20.5271 sf 0 0 m (\2556) show NC gr 
 gsave  710 682 23 725 C 68.3047 940.328 t 0 r /Helvetica findfont 31.931 sf 0 0 m (10) show NC gr  137 974 m -8 X s 137 985 m -8 X s 137 993 m -8 X s 137 999 m -8 X s 137 1004 m -8 X s 137 1009 m -8 X s 137 1012 m -8 X s 137 1016 m -8 X s 145 1019 m
 -16 X s
 gsave  710 682 23 725 C 102.457 1020.02 t 0 r /Helvetica findfont 20.5271 sf 0 0 m (\2555) show NC gr 
 gsave  710 682 23 725 C 68.3047 1004.08 t 0 r /Helvetica findfont 31.931 sf 0 0 m (10) show NC gr  137 1038 m -8 X s 137 1049 m -8 X s 137 1057 m -8 X s 137 1063 m -8 X s 137 1068 m -8 X s 137 1073 m -8 X s 137 1076 m -8 X s 137 1080 m -8 X s 145
 1083 m -16 X s
 gsave  710 682 23 725 C 102.457 1081.49 t 0 r /Helvetica findfont 20.5271 sf 0 0 m (\2554) show NC gr 
 gsave  710 682 23 725 C 68.3047 1067.83 t 0 r /Helvetica findfont 31.931 sf 0 0 m (10) show NC gr  137 1102 m -8 X s 137 1113 m -8 X s 137 1121 m -8 X s 137 1127 m -8 X s 137 1132 m -8 X s 137 1137 m -8 X s 137 1140 m -8 X s 137 1144 m -8 X s 145
 1147 m -16 X s
 gsave  710 682 23 725 C 102.457 1147.52 t 0 r /Helvetica findfont 20.5271 sf 0 0 m (\2553) show NC gr 
 gsave  710 682 23 725 C 68.3047 1131.58 t 0 r /Helvetica findfont 31.931 sf 0 0 m (10) show NC gr  137 1166 m -8 X s 137 1177 m -8 X s 137 1185 m -8 X s 137 1191 m -8 X s 137 1196 m -8 X s 137 1201 m -8 X s 137 1204 m -8 X s 137 1208 m -8 X s 145
 1210 m -16 X s
 gsave  710 682 23 725 C 102.457 1208.99 t 0 r /Helvetica findfont 20.5271 sf 0 0 m (\2552) show NC gr 
 gsave  710 682 23 725 C 68.3047 1195.33 t 0 r /Helvetica findfont 31.931 sf 0 0 m (10) show NC gr  137 1230 m -8 X s 137 1241 m -8 X s 137 1249 m -8 X s 137 1255 m -8 X s 137 1260 m -8 X s 137 1264 m -8 X s 137 1268 m -8 X s 137 1271 m -8 X s 145
 1274 m -16 X s
 gsave  710 682 23 725 C 104.734 1272.74 t 0 r /Helvetica findfont 20.5271 sf 0 0 m (\2551) show NC gr 
 gsave  710 682 23 725 C 70.5815 1259.08 t 0 r /Helvetica findfont 31.931 sf 0 0 m (10) show NC gr  137 1294 m -8 X s 137 1305 m -8 X s 137 1313 m -8 X s 137 1319 m -8 X s 137 1324 m -8 X s 137 1328 m -8 X s 137 1332 m -8 X s 137 1335 m -8 X s 145
 1338 m -16 X s
 gsave  710 682 23 725 C 122.865 1325.59 t 0 r  -17 0 t /Helvetica findfont 31.931 sf 0 0 m (1) show NC gr  6 lw 1 1 1 c black 145 838 m 1 Y s 3 lw /w 22 def /w2 {w 2 div} def /w3 {w 3 div} def 145 828 m20 6 lw 149 838 m 1 Y s 3 lw 149 828 m20 6 lw
 154 838 m 1 Y s 3 lw 154 828 m20 6 lw 158 827 m 2 Y s 3 lw 158 838 m20 6 lw 3 lw 163 859 m20 6 lw 3 lw 167 879 m20 6 lw 3 lw 171 921 m20 6 lw 3 lw 176 951 m20 6 lw 3 lw 180 989 m20 6 lw 3 lw 185 1033 m20 6 lw 3 lw 189 1080 m20 6 lw 3 lw 194 1127 m20
 6 lw 3 lw 198 1174 m20 6 lw 3 lw 203 1216 m20 6 lw 3 lw 207 1253 m20 6 lw 3 lw 211 1280 m20 6 lw 3 lw 216 1293 m20 6 lw 3 lw 220 1290 m20 6 lw 3 lw 225 1282 m20 6 lw 3 lw 229 1272 m20 6 lw 3 lw 234 1262 m20 6 lw 3 lw 238 1252 m20 6 lw 3 lw 243 1242
 m20 6 lw 3 lw 247 1232 m20 6 lw 3 lw 251 1223 m20 6 lw 3 lw 256 1213 m20 6 lw 3 lw 260 1204 m20 6 lw 3 lw 265 1195 m20 6 lw 3 lw 269 1186 m20 6 lw 3 lw 274 1177 m20 6 lw 3 lw 278 1169 m20 6 lw 3 lw 282 1160 m20 6 lw 3 lw 287 1152 m20 6 lw 3 lw 291
 1144 m20 6 lw 3 lw 296 1136 m20 6 lw 3 lw 300 1128 m20 6 lw 3 lw 305 1121 m20 6 lw 3 lw 309 1114 m20 6 lw 3 lw 314 1107 m20 6 lw 3 lw 318 1100 m20 6 lw 3 lw 322 1094 m20 6 lw 3 lw 327 1088 m20 6 lw 3 lw 331 1082 m20 6 lw 3 lw 336 1076 m20 6 lw 3 lw
 340 1070 m20 6 lw 3 lw 345 1065 m20 6 lw 3 lw 349 1060 m20 6 lw 3 lw 354 1055 m20 6 lw 3 lw 358 1051 m20 6 lw 3 lw 362 1046 m20 6 lw 3 lw 367 1041 m20 6 lw 3 lw 371 1037 m20 6 lw 3 lw 376 1033 m20 6 lw 3 lw 380 1029 m20 6 lw 3 lw 385 1025 m20 6 lw 3
 lw 389 1021 m20 6 lw 3 lw 393 1017 m20 6 lw 3 lw 398 1014 m20 6 lw 3 lw 402 1010 m20 6 lw 3 lw 407 1007 m20 6 lw 3 lw 411 1004 m20 6 lw 3 lw 416 1002 m20 6 lw 3 lw 420 998 m20 6 lw 3 lw 425 995 m20 6 lw 3 lw 429 990 m20 6 lw 3 lw 433 989 m20 6 lw 3
 lw 438 984 m20 6 lw 3 lw 442 983 m20 6 lw 3 lw 447 979 m20 6 lw 3 lw 451 978 m20 6 lw 3 lw 456 974 m20 6 lw 3 lw 460 973 m20 6 lw 3 lw 465 971 m20 6 lw 3 lw 469 969 m20 6 lw 3 lw 473 965 m20 6 lw 3 lw 478 962 m20 6 lw 3 lw 482 959 m20 6 lw 3 lw 487
 961 m20 6 lw 3 lw 491 959 m20 6 lw 3 lw 496 957 m20 6 lw 3 lw 500 953 m20 6 lw 3 lw 505 950 m20 6 lw 3 lw 509 947 m20 6 lw 3 lw 513 946 m20 6 lw 3 lw 518 943 m20 6 lw 3 lw 522 941 m20 6 lw 3 lw 527 938 m20 6 lw 3 lw 531 934 m20 6 lw 3 lw 536 938 m20
 6 lw 3 lw 540 934 m20 6 lw 3 lw 544 933 m20 6 lw 3 lw 549 925 m20 6 lw 3 lw 553 928 m20 6 lw 3 lw 558 923 m20 6 lw 3 lw 562 922 m20 6 lw 3 lw 567 917 m20 6 lw 3 lw 571 920 m20 6 lw 3 lw 576 917 m20 6 lw 3 lw 580 917 m20 6 lw 3 lw 584 911 m20 6 lw 3
 lw 589 913 m20 6 lw 3 lw 593 910 m20 6 lw 3 lw 598 908 m20 6 lw 3 lw 602 907 m20 6 lw 3 lw 607 905 m20 6 lw 3 lw 611 901 m20 6 lw 3 lw 616 900 m20 6 lw 3 lw 620 902 m20 6 lw 3 lw 624 895 m20 6 lw 3 lw 629 896 m20 6 lw 3 lw 633 896 m20 6 lw 3 lw 638
 899 m20 6 lw 3 lw 642 900 m20 6 lw 3 lw 647 898 m20 6 lw 3 lw 651 888 m20 6 lw 3 lw 656 885 m20 6 lw 3 lw 660 882 m20 6 lw 0 0 1 c 1 1 1 c 0 0 1 c 145 830 m 3 Y s 3 lw /w 18 def /w2 {w 2 div} def /w3 {w 3 div} def 145 842 m21 6 lw 154 827 m 2 Y s 3
 lw 154 838 m21 6 lw 158 827 m 2 Y s 3 lw 158 838 m21 6 lw 3 lw 163 878 m21 6 lw 3 lw 167 896 m21 6 lw 3 lw 171 921 m21 6 lw 3 lw 176 956 m21 6 lw 3 lw 180 992 m21 6 lw 3 lw 185 1037 m21 6 lw 3 lw 189 1083 m21 6 lw 3 lw 194 1131 m21 6 lw 3 lw 198
 1177 m21 6 lw 3 lw 203 1219 m21 6 lw 3 lw 207 1256 m21 6 lw 3 lw 211 1283 m21 6 lw 3 lw 216 1296 m21 6 lw 3 lw 220 1292 m21 6 lw 3 lw 225 1283 m21 6 lw 3 lw 229 1271 m21 6 lw 3 lw 234 1259 m21 6 lw 3 lw 238 1247 m21 6 lw 3 lw 243 1234 m21 6 lw 3 lw
 247 1222 m21 6 lw 3 lw 251 1210 m21 6 lw 3 lw 256 1199 m21 6 lw 3 lw 260 1187 m21 6 lw 3 lw 265 1176 m21 6 lw 3 lw 269 1165 m21 6 lw 3 lw 274 1154 m21 6 lw 3 lw 278 1143 m21 6 lw 3 lw 282 1133 m21 6 lw 3 lw 287 1123 m21 6 lw 3 lw 291 1113 m21 6 lw 3
 lw 296 1104 m21 6 lw 3 lw 300 1095 m21 6 lw 3 lw 305 1087 m21 6 lw 3 lw 309 1079 m21 6 lw 3 lw 314 1071 m21 6 lw 3 lw 318 1063 m21 6 lw 3 lw 322 1056 m21 6 lw 3 lw 327 1050 m21 6 lw 3 lw 331 1042 m21 6 lw 3 lw 336 1036 m21 6 lw 3 lw 340 1031 m21 6
 lw 3 lw 345 1024 m21 6 lw 3 lw 349 1019 m21 6 lw 3 lw 354 1014 m21 6 lw 3 lw 358 1010 m21 6 lw 3 lw 362 1006 m21 6 lw 3 lw 367 1001 m21 6 lw 3 lw 371 995 m21 6 lw 3 lw 376 992 m21 6 lw 3 lw 380 989 m21 6 lw 3 lw 385 984 m21 6 lw 3 lw 389 980 m21 6
 lw 3 lw 393 975 m21 6 lw 3 lw 398 975 m21 6 lw 3 lw 402 970 m21 6 lw 3 lw 407 967 m21 6 lw 3 lw 411 962 m21 6 lw 3 lw 416 961 m21 6 lw 3 lw 420 955 m21 6 lw 3 lw 425 952 m21 6 lw 3 lw 429 949 m21 6 lw 3 lw 433 948 m21 6 lw 3 lw 438 944 m21 6 lw 3 lw
 442 942 m21 6 lw 3 lw 447 941 m21 6 lw 3 lw 451 937 m21 6 lw 3 lw 456 935 m21 6 lw 3 lw 460 933 m21 6 lw 3 lw 465 928 m21 6 lw 3 lw 469 927 m21 6 lw 3 lw 473 924 m21 6 lw 3 lw 478 923 m21 6 lw 3 lw 482 922 m21 6 lw 3 lw 487 915 m21 6 lw 3 lw 491 917
 m21 6 lw 3 lw 496 913 m21 6 lw 3 lw 500 915 m21 6 lw 3 lw 505 911 m21 6 lw 3 lw 509 908 m21 6 lw 3 lw 513 903 m21 6 lw 3 lw 518 901 m21 6 lw 3 lw 522 897 m21 6 lw 3 lw 527 897 m21 6 lw 3 lw 531 898 m21 6 lw 3 lw 536 898 m21 6 lw 3 lw 540 893 m21 6
 lw 3 lw 544 884 m21 6 lw 3 lw 549 885 m21 6 lw 3 lw 553 882 m21 6 lw 3 lw 558 883 m21 6 lw 3 lw 562 883 m21 6 lw 3 lw 567 880 m21 6 lw 3 lw 571 874 m21 6 lw 3 lw 576 877 m21 6 lw 3 lw 580 871 m21 6 lw 3 lw 584 870 m21 6 lw 3 lw 589 877 m21 6 lw 3 lw
 593 860 m21 6 lw 3 lw 598 866 m21 6 lw 3 lw 602 865 m21 6 lw 3 lw 607 865 m21 6 lw 3 lw 611 858 m21 6 lw 3 lw 616 856 m21 6 lw 3 lw 620 856 m21 6 lw 3 lw 624 865 m21 6 lw 3 lw 629 863 m21 6 lw 3 lw 633 865 m21 6 lw 638 830 m 3 Y s 3 lw 638 842 m21 6
 lw 3 lw 642 856 m21 6 lw 3 lw 647 856 m21 6 lw 651 834 m 2 Y s 3 lw 651 845 m21 6 lw 656 830 m 3 Y s 3 lw 656 842 m21 6 lw 660 827 m 2 Y s 3 lw 660 838 m21 6 lw 1 0 0 c 1 1 1 c 1 0 0 c 149 838 m 1 Y s 3 lw 149 828 m22 6 lw 3 lw 163 868 m22 6 lw 3 lw
 167 884 m22 6 lw 3 lw 171 916 m22 6 lw 3 lw 176 951 m22 6 lw 3 lw 180 989 m22 6 lw 3 lw 185 1033 m22 6 lw 3 lw 189 1080 m22 6 lw 3 lw 194 1128 m22 6 lw 3 lw 198 1174 m22 6 lw 3 lw 203 1216 m22 6 lw 3 lw 207 1253 m22 6 lw 3 lw 211 1280 m22 6 lw 3 lw
 216 1293 m22 6 lw 3 lw 220 1291 m22 6 lw 3 lw 225 1282 m22 6 lw 3 lw 229 1272 m22 6 lw 3 lw 234 1262 m22 6 lw 3 lw 238 1252 m22 6 lw 3 lw 243 1242 m22 6 lw 3 lw 247 1232 m22 6 lw 3 lw 251 1222 m22 6 lw 3 lw 256 1213 m22 6 lw 3 lw 260 1203 m22 6 lw 3
 lw 265 1194 m22 6 lw 3 lw 269 1185 m22 6 lw 3 lw 274 1176 m22 6 lw 3 lw 278 1168 m22 6 lw 3 lw 282 1159 m22 6 lw 3 lw 287 1151 m22 6 lw 3 lw 291 1143 m22 6 lw 3 lw 296 1135 m22 6 lw 3 lw 300 1127 m22 6 lw 3 lw 305 1120 m22 6 lw 3 lw 309 1113 m22 6
 lw 3 lw 314 1106 m22 6 lw 3 lw 318 1099 m22 6 lw 3 lw 322 1093 m22 6 lw 3 lw 327 1086 m22 6 lw 3 lw 331 1080 m22 6 lw 3 lw 336 1075 m22 6 lw 3 lw 340 1069 m22 6 lw 3 lw 345 1063 m22 6 lw 3 lw 349 1059 m22 6 lw 3 lw 354 1053 m22 6 lw 3 lw 358 1049
 m22 6 lw 3 lw 362 1044 m22 6 lw 3 lw 367 1040 m22 6 lw 3 lw 371 1036 m22 6 lw 3 lw 376 1031 m22 6 lw 3 lw 380 1027 m22 6 lw 3 lw 385 1023 m22 6 lw 3 lw 389 1020 m22 6 lw 3 lw 393 1016 m22 6 lw 3 lw 398 1012 m22 6 lw 3 lw 402 1009 m22 6 lw 3 lw 407
 1006 m22 6 lw 3 lw 411 1003 m22 6 lw 3 lw 416 1000 m22 6 lw 3 lw 420 995 m22 6 lw 3 lw 425 993 m22 6 lw 3 lw 429 989 m22 6 lw 3 lw 433 987 m22 6 lw 3 lw 438 983 m22 6 lw 3 lw 442 983 m22 6 lw 3 lw 447 980 m22 6 lw 3 lw 451 977 m22 6 lw 3 lw 456 974
 m22 6 lw 3 lw 460 973 m22 6 lw 3 lw 465 970 m22 6 lw 3 lw 469 968 m22 6 lw 3 lw 473 964 m22 6 lw 3 lw 478 962 m22 6 lw 3 lw 482 960 m22 6 lw 3 lw 487 958 m22 6 lw 3 lw 491 954 m22 6 lw 3 lw 496 954 m22 6 lw 3 lw 500 950 m22 6 lw 3 lw 505 948 m22 6
 lw 3 lw 509 948 m22 6 lw 3 lw 513 942 m22 6 lw 3 lw 518 942 m22 6 lw 3 lw 522 938 m22 6 lw 3 lw 527 937 m22 6 lw 3 lw 531 932 m22 6 lw 3 lw 536 937 m22 6 lw 3 lw 540 932 m22 6 lw 3 lw 544 927 m22 6 lw 3 lw 549 930 m22 6 lw 3 lw 553 923 m22 6 lw 3 lw
 558 924 m22 6 lw 3 lw 562 921 m22 6 lw 3 lw 567 925 m22 6 lw 3 lw 571 920 m22 6 lw 3 lw 576 916 m22 6 lw 3 lw 580 914 m22 6 lw 3 lw 584 913 m22 6 lw 3 lw 589 913 m22 6 lw 3 lw 593 907 m22 6 lw 3 lw 598 903 m22 6 lw 3 lw 602 905 m22 6 lw 3 lw 607 902
 m22 6 lw 3 lw 611 904 m22 6 lw 3 lw 616 896 m22 6 lw 3 lw 620 894 m22 6 lw 3 lw 624 892 m22 6 lw 3 lw 629 893 m22 6 lw 3 lw 633 900 m22 6 lw 3 lw 638 893 m22 6 lw 3 lw 642 892 m22 6 lw 3 lw 647 893 m22 6 lw 3 lw 651 890 m22 6 lw 3 lw 656 883 m22 6
 lw 3 lw 660 879 m22 6 lw black
 gsave  710 682 23 725 C 368.845 1306.9 t 0 r /Helvetica findfont 29.6502 sf 0 0 m (Centrality: 0 \255 20%) show NC gr 
 gsave  710 682 23 725 C 450.811 1213.55 t 0 r /Helvetica findfont 29.6502 sf 0 0 m (=1.62 GeV/c) show NC gr 
 gsave  710 682 23 725 C 432.597 1213.55 t 0 r /Symbol findfont 29.6502 sf 0 0 m (s) show NC gr 
 gsave  710 682 23 725 C 432.597 1245.42 t 0 r /Helvetica findfont 29.6502 sf 0 0 m (RC) show NC gr  3 lw /w 22 def /w2 {w 2 div} def /w3 {w 3 div} def 399 1239 m20 6 lw
 gsave  710 682 23 725 C 450.811 1136.14 t 0 r /Helvetica findfont 29.6502 sf 0 0 m (=1.31 GeV/c) show NC gr 
 gsave  710 682 23 725 C 432.597 1136.14 t 0 r /Symbol findfont 29.6502 sf 0 0 m (s) show NC gr 
 gsave  710 682 23 725 C 432.597 1172.56 t 0 r /Helvetica findfont 29.6502 sf 0 0 m (RC w/o lead. jet) show NC gr  0 0 1 c 3 lw /w 18 def /w2 {w 2 div} def /w3 {w 3 div} def 399 1164 m21 6 lw black
 gsave  710 682 23 725 C 450.811 1061 t 0 r /Helvetica findfont 29.6502 sf 0 0 m (=1.60 GeV/c) show NC gr 
 gsave  710 682 23 725 C 432.597 1061 t 0 r /Symbol findfont 29.6502 sf 0 0 m (s) show NC gr 
 gsave  710 682 23 725 C 432.597 1097.43 t 0 r /Helvetica findfont 29.6502 sf 0 0 m (RC partial) show NC gr  1 0 0 c 3 lw 399 1089 m22 6 lw black 3 lw 0.999 0.999 0.999 c 710 682 779 725 bf black 1 1 1 c 533 511 885 827 bf black 533 511 885 827 bl 1
 1 1 c 533 511 885 827 bf black 533 511 885 827 bl 0 0 0.6 c 1 1 1 c black 0 0 0.6 c 885 827 m 533 X s black 885 827 m 533 X s
 gsave  710 682 779 725 C 1404.8 765.013 t 0 r /Helvetica findfont 38.7733 sf 0 0 m (\)) show NC gr 
 gsave  710 682 779 725 C 1382.03 765.013 t 0 r /Helvetica-Oblique findfont 38.7733 sf 0 0 m (c) show NC gr 
 gsave  710 682 779 725 C 1268.19 765.013 t 0 r /Helvetica findfont 38.7733 sf 0 0 m ( \(GeV/) show NC gr 
 gsave  710 682 779 725 C 1252.25 742.245 t 0 r /Helvetica findfont 25.0886 sf 0 0 m (T) show NC gr 
 gsave  710 682 779 725 C 1227.21 765.013 t 0 r /Helvetica-Oblique findfont 38.7733 sf 0 0 m (p) show NC gr 
 gsave  710 682 779 725 C 1213.55 765.013 t 0 r /Helvetica findfont 38.7733 sf 0 0 m ( ) show NC gr 
 gsave  710 682 779 725 C 1193.06 765.013 t 0 r /Symbol findfont 38.7733 sf 0 0 m (d) show NC gr  885 842 m -15 Y s 903 835 m -8 Y s 921 835 m -8 Y s 938 835 m -8 Y s 956 835 m -8 Y s 974 842 m -15 Y s 992 835 m -8 Y s 1010 835 m -8 Y s 1027 835 m -8
 Y s 1045 835 m -8 Y s 1063 842 m -15 Y s 1081 835 m -8 Y s 1098 835 m -8 Y s 1116 835 m -8 Y s 1134 835 m -8 Y s 1152 842 m -15 Y s 1169 835 m -8 Y s 1187 835 m -8 Y s 1205 835 m -8 Y s 1223 835 m -8 Y s 1240 842 m -15 Y s 1258 835 m -8 Y s 1276 835
 m -8 Y s 1294 835 m -8 Y s 1311 835 m -8 Y s 1329 842 m -15 Y s 1347 835 m -8 Y s 1365 835 m -8 Y s 1383 835 m -8 Y s 1400 835 m -8 Y s 1418 842 m -15 Y s
 gsave  710 682 779 725 C 860.639 796.888 t 0 r /Helvetica findfont 31.931 sf 0 0 m (\25510) show NC gr 
 gsave  710 682 779 725 C 963.096 796.888 t 0 r /Helvetica findfont 31.931 sf 0 0 m (0) show NC gr 
 gsave  710 682 779 725 C 1042.79 796.888 t 0 r /Helvetica findfont 31.931 sf 0 0 m (10) show NC gr 
 gsave  710 682 779 725 C 1131.58 796.888 t 0 r /Helvetica findfont 31.931 sf 0 0 m (20) show NC gr 
 gsave  710 682 779 725 C 1220.38 796.888 t 0 r /Helvetica findfont 31.931 sf 0 0 m (30) show NC gr 
 gsave  710 682 779 725 C 1309.17 796.888 t 0 r /Helvetica findfont 31.931 sf 0 0 m (40) show NC gr 
 gsave  710 682 779 725 C 1397.97 796.888 t 0 r /Helvetica findfont 31.931 sf 0 0 m (50) show NC gr  885 827 m 511 Y s
 gsave  710 682 779 725 C 819.657 1101.98 t 90 r /Helvetica findfont 38.7733 sf 0 0 m (probability/bin) show NC gr  901 827 m -16 X s
 gsave  710 682 779 725 C 858.363 828.764 t 0 r /Helvetica findfont 20.5271 sf 0 0 m (\2558) show NC gr 
 gsave  710 682 779 725 C 824.21 812.826 t 0 r /Helvetica findfont 31.931 sf 0 0 m (10) show NC gr  893 846 m -8 X s 893 857 m -8 X s 893 865 m -8 X s 893 872 m -8 X s 893 877 m -8 X s 893 881 m -8 X s 893 885 m -8 X s 893 888 m -8 X s 901 891 m -16
 X s
 gsave  710 682 779 725 C 858.363 890.238 t 0 r /Helvetica findfont 20.5271 sf 0 0 m (\2557) show NC gr 
 gsave  710 682 779 725 C 824.21 876.577 t 0 r /Helvetica findfont 31.931 sf 0 0 m (10) show NC gr  893 910 m -8 X s 893 921 m -8 X s 893 929 m -8 X s 893 935 m -8 X s 893 941 m -8 X s 893 945 m -8 X s 893 949 m -8 X s 893 952 m -8 X s 901 955 m -16
 X s
 gsave  710 682 779 725 C 858.363 956.266 t 0 r /Helvetica findfont 20.5271 sf 0 0 m (\2556) show NC gr 
 gsave  710 682 779 725 C 824.21 940.328 t 0 r /Helvetica findfont 31.931 sf 0 0 m (10) show NC gr  893 974 m -8 X s 893 985 m -8 X s 893 993 m -8 X s 893 999 m -8 X s 893 1004 m -8 X s 893 1009 m -8 X s 893 1012 m -8 X s 893 1016 m -8 X s 901 1019 m
 -16 X s
 gsave  710 682 779 725 C 858.363 1020.02 t 0 r /Helvetica findfont 20.5271 sf 0 0 m (\2555) show NC gr 
 gsave  710 682 779 725 C 824.21 1004.08 t 0 r /Helvetica findfont 31.931 sf 0 0 m (10) show NC gr  893 1038 m -8 X s 893 1049 m -8 X s 893 1057 m -8 X s 893 1063 m -8 X s 893 1068 m -8 X s 893 1073 m -8 X s 893 1076 m -8 X s 893 1080 m -8 X s 901
 1083 m -16 X s
 gsave  710 682 779 725 C 858.363 1081.49 t 0 r /Helvetica findfont 20.5271 sf 0 0 m (\2554) show NC gr 
 gsave  710 682 779 725 C 824.21 1067.83 t 0 r /Helvetica findfont 31.931 sf 0 0 m (10) show NC gr  893 1102 m -8 X s 893 1113 m -8 X s 893 1121 m -8 X s 893 1127 m -8 X s 893 1132 m -8 X s 893 1137 m -8 X s 893 1140 m -8 X s 893 1144 m -8 X s 901
 1147 m -16 X s
 gsave  710 682 779 725 C 858.363 1147.52 t 0 r /Helvetica findfont 20.5271 sf 0 0 m (\2553) show NC gr 
 gsave  710 682 779 725 C 824.21 1131.58 t 0 r /Helvetica findfont 31.931 sf 0 0 m (10) show NC gr  893 1166 m -8 X s 893 1177 m -8 X s 893 1185 m -8 X s 893 1191 m -8 X s 893 1196 m -8 X s 893 1201 m -8 X s 893 1204 m -8 X s 893 1208 m -8 X s 901
 1210 m -16 X s
 gsave  710 682 779 725 C 858.363 1208.99 t 0 r /Helvetica findfont 20.5271 sf 0 0 m (\2552) show NC gr 
 gsave  710 682 779 725 C 824.21 1195.33 t 0 r /Helvetica findfont 31.931 sf 0 0 m (10) show NC gr  893 1230 m -8 X s 893 1241 m -8 X s 893 1249 m -8 X s 893 1255 m -8 X s 893 1260 m -8 X s 893 1264 m -8 X s 893 1268 m -8 X s 893 1271 m -8 X s 901
 1274 m -16 X s
 gsave  710 682 779 725 C 860.639 1272.74 t 0 r /Helvetica findfont 20.5271 sf 0 0 m (\2551) show NC gr 
 gsave  710 682 779 725 C 826.487 1259.08 t 0 r /Helvetica findfont 31.931 sf 0 0 m (10) show NC gr  893 1294 m -8 X s 893 1305 m -8 X s 893 1313 m -8 X s 893 1319 m -8 X s 893 1324 m -8 X s 893 1328 m -8 X s 893 1332 m -8 X s 893 1335 m -8 X s 901
 1338 m -16 X s
 gsave  710 682 779 725 C 878.77 1325.59 t 0 r  -17 0 t /Helvetica findfont 31.931 sf 0 0 m (1) show NC gr  6 lw 1 1 1 c black 932 829 m 5 Y s 3 lw /w 21 def /w2 {w 2 div} def /w3 {w 3 div} def 932 843 m20 6 lw 3 lw 936 898 m20 6 lw 3 lw 941 940 m20
 6 lw 3 lw 945 990 m20 6 lw 3 lw 950 1049 m20 6 lw 3 lw 954 1108 m20 6 lw 3 lw 958 1168 m20 6 lw 3 lw 963 1222 m20 6 lw 3 lw 967 1268 m20 6 lw 3 lw 972 1298 m20 6 lw 3 lw 976 1300 m20 6 lw 3 lw 981 1286 m20 6 lw 3 lw 985 1273 m20 6 lw 3 lw 990 1260
 m20 6 lw 3 lw 994 1247 m20 6 lw 3 lw 998 1235 m20 6 lw 3 lw 1003 1223 m20 6 lw 3 lw 1007 1211 m20 6 lw 3 lw 1012 1200 m20 6 lw 3 lw 1016 1190 m20 6 lw 3 lw 1021 1180 m20 6 lw 3 lw 1025 1170 m20 6 lw 3 lw 1029 1161 m20 6 lw 3 lw 1034 1152 m20 6 lw 3
 lw 1038 1143 m20 6 lw 3 lw 1043 1135 m20 6 lw 3 lw 1047 1126 m20 6 lw 3 lw 1052 1118 m20 6 lw 3 lw 1056 1111 m20 6 lw 3 lw 1061 1104 m20 6 lw 3 lw 1065 1097 m20 6 lw 3 lw 1069 1091 m20 6 lw 3 lw 1074 1084 m20 6 lw 3 lw 1078 1079 m20 6 lw 3 lw 1083
 1073 m20 6 lw 3 lw 1087 1067 m20 6 lw 3 lw 1092 1062 m20 6 lw 3 lw 1096 1057 m20 6 lw 3 lw 1101 1052 m20 6 lw 3 lw 1105 1048 m20 6 lw 3 lw 1109 1043 m20 6 lw 3 lw 1114 1039 m20 6 lw 3 lw 1118 1034 m20 6 lw 3 lw 1123 1029 m20 6 lw 3 lw 1127 1027 m20
 6 lw 3 lw 1132 1022 m20 6 lw 3 lw 1136 1018 m20 6 lw 3 lw 1141 1014 m20 6 lw 3 lw 1145 1011 m20 6 lw 3 lw 1149 1008 m20 6 lw 3 lw 1154 1005 m20 6 lw 3 lw 1158 1002 m20 6 lw 3 lw 1163 998 m20 6 lw 3 lw 1167 996 m20 6 lw 3 lw 1172 992 m20 6 lw 3 lw
 1176 989 m20 6 lw 3 lw 1180 986 m20 6 lw 3 lw 1185 984 m20 6 lw 3 lw 1189 980 m20 6 lw 3 lw 1194 977 m20 6 lw 3 lw 1198 976 m20 6 lw 3 lw 1203 971 m20 6 lw 3 lw 1207 971 m20 6 lw 3 lw 1212 969 m20 6 lw 3 lw 1216 964 m20 6 lw 3 lw 1220 962 m20 6 lw 3
 lw 1225 961 m20 6 lw 3 lw 1229 957 m20 6 lw 3 lw 1234 955 m20 6 lw 3 lw 1238 953 m20 6 lw 3 lw 1243 947 m20 6 lw 3 lw 1247 951 m20 6 lw 3 lw 1252 947 m20 6 lw 3 lw 1256 945 m20 6 lw 3 lw 1260 942 m20 6 lw 3 lw 1265 939 m20 6 lw 3 lw 1269 934 m20 6
 lw 3 lw 1274 934 m20 6 lw 3 lw 1278 934 m20 6 lw 3 lw 1283 934 m20 6 lw 3 lw 1287 927 m20 6 lw 3 lw 1292 926 m20 6 lw 3 lw 1296 928 m20 6 lw 3 lw 1300 928 m20 6 lw 3 lw 1305 920 m20 6 lw 3 lw 1309 918 m20 6 lw 3 lw 1314 918 m20 6 lw 3 lw 1318 913
 m20 6 lw 3 lw 1323 920 m20 6 lw 3 lw 1327 912 m20 6 lw 3 lw 1331 907 m20 6 lw 3 lw 1336 910 m20 6 lw 3 lw 1340 909 m20 6 lw 3 lw 1345 904 m20 6 lw 3 lw 1349 905 m20 6 lw 3 lw 1354 902 m20 6 lw 3 lw 1358 894 m20 6 lw 3 lw 1363 897 m20 6 lw 3 lw 1367
 895 m20 6 lw 3 lw 1371 895 m20 6 lw 3 lw 1376 893 m20 6 lw 3 lw 1380 892 m20 6 lw 3 lw 1385 895 m20 6 lw 3 lw 1389 888 m20 6 lw 3 lw 1394 889 m20 6 lw 3 lw 1398 879 m20 6 lw 3 lw 1403 884 m20 6 lw 3 lw 1407 887 m20 6 lw 3 lw 1411 878 m20 6 lw 3 lw
 1416 882 m20 6 lw 0 0 1 c 1 1 1 c 0 0 1 c 932 839 m 3 Y s 3 lw /w 18 def /w2 {w 2 div} def /w3 {w 3 div} def 932 851 m21 6 lw 3 lw 936 902 m21 6 lw 3 lw 941 944 m21 6 lw 3 lw 945 993 m21 6 lw 3 lw 950 1052 m21 6 lw 3 lw 954 1112 m21 6 lw 3 lw 958
 1171 m21 6 lw 3 lw 963 1225 m21 6 lw 3 lw 967 1271 m21 6 lw 3 lw 972 1301 m21 6 lw 3 lw 976 1302 m21 6 lw 3 lw 981 1287 m21 6 lw 3 lw 985 1270 m21 6 lw 3 lw 990 1254 m21 6 lw 3 lw 994 1238 m21 6 lw 3 lw 998 1222 m21 6 lw 3 lw 1003 1207 m21 6 lw 3 lw
 1007 1193 m21 6 lw 3 lw 1012 1179 m21 6 lw 3 lw 1016 1167 m21 6 lw 3 lw 1021 1154 m21 6 lw 3 lw 1025 1142 m21 6 lw 3 lw 1029 1131 m21 6 lw 3 lw 1034 1120 m21 6 lw 3 lw 1038 1110 m21 6 lw 3 lw 1043 1100 m21 6 lw 3 lw 1047 1091 m21 6 lw 3 lw 1052 1082
 m21 6 lw 3 lw 1056 1074 m21 6 lw 3 lw 1061 1066 m21 6 lw 3 lw 1065 1059 m21 6 lw 3 lw 1069 1051 m21 6 lw 3 lw 1074 1045 m21 6 lw 3 lw 1078 1039 m21 6 lw 3 lw 1083 1033 m21 6 lw 3 lw 1087 1027 m21 6 lw 3 lw 1092 1022 m21 6 lw 3 lw 1096 1015 m21 6 lw
 3 lw 1101 1011 m21 6 lw 3 lw 1105 1006 m21 6 lw 3 lw 1109 1002 m21 6 lw 3 lw 1114 999 m21 6 lw 3 lw 1118 994 m21 6 lw 3 lw 1123 989 m21 6 lw 3 lw 1127 985 m21 6 lw 3 lw 1132 982 m21 6 lw 3 lw 1136 978 m21 6 lw 3 lw 1141 972 m21 6 lw 3 lw 1145 970
 m21 6 lw 3 lw 1149 967 m21 6 lw 3 lw 1154 965 m21 6 lw 3 lw 1158 962 m21 6 lw 3 lw 1163 958 m21 6 lw 3 lw 1167 954 m21 6 lw 3 lw 1172 953 m21 6 lw 3 lw 1176 947 m21 6 lw 3 lw 1180 940 m21 6 lw 3 lw 1185 942 m21 6 lw 3 lw 1189 938 m21 6 lw 3 lw 1194
 937 m21 6 lw 3 lw 1198 938 m21 6 lw 3 lw 1203 931 m21 6 lw 3 lw 1207 932 m21 6 lw 3 lw 1212 930 m21 6 lw 3 lw 1216 917 m21 6 lw 3 lw 1220 924 m21 6 lw 3 lw 1225 918 m21 6 lw 3 lw 1229 919 m21 6 lw 3 lw 1234 914 m21 6 lw 3 lw 1238 914 m21 6 lw 3 lw
 1243 904 m21 6 lw 3 lw 1247 908 m21 6 lw 3 lw 1252 902 m21 6 lw 3 lw 1256 905 m21 6 lw 3 lw 1260 897 m21 6 lw 3 lw 1265 895 m21 6 lw 3 lw 1269 882 m21 6 lw 3 lw 1274 888 m21 6 lw 3 lw 1278 889 m21 6 lw 3 lw 1283 883 m21 6 lw 3 lw 1287 887 m21 6 lw 3
 lw 1292 878 m21 6 lw 3 lw 1296 888 m21 6 lw 3 lw 1300 890 m21 6 lw 3 lw 1305 881 m21 6 lw 3 lw 1309 881 m21 6 lw 3 lw 1314 868 m21 6 lw 3 lw 1318 873 m21 6 lw 3 lw 1323 880 m21 6 lw 3 lw 1327 877 m21 6 lw 3 lw 1331 877 m21 6 lw 3 lw 1336 875 m21 6
 lw 3 lw 1340 875 m21 6 lw 3 lw 1345 871 m21 6 lw 3 lw 1349 861 m21 6 lw 3 lw 1354 868 m21 6 lw 3 lw 1358 861 m21 6 lw 1363 843 m 1 Y s 3 lw 1363 854 m21 6 lw 3 lw 1367 865 m21 6 lw 3 lw 1371 863 m21 6 lw 3 lw 1376 865 m21 6 lw 1380 849 m 1 Y s 3 lw
 1380 859 m21 6 lw 3 lw 1385 867 m21 6 lw 1389 849 m 1 Y s 3 lw 1389 859 m21 6 lw 1394 831 m 4 Y s 3 lw 1394 844 m21 6 lw 1403 837 m 2 Y s 3 lw 1403 828 m21 6 lw 1416 835 m 3 Y s 3 lw 1416 847 m21 6 lw 1 0 0 c 1 1 1 c 1 0 0 c 932 848 m 1 Y s 3 lw 932
 858 m22 6 lw 3 lw 936 899 m22 6 lw 3 lw 941 941 m22 6 lw 3 lw 945 991 m22 6 lw 3 lw 950 1048 m22 6 lw 3 lw 954 1109 m22 6 lw 3 lw 958 1168 m22 6 lw 3 lw 963 1222 m22 6 lw 3 lw 967 1268 m22 6 lw 3 lw 972 1298 m22 6 lw 3 lw 976 1300 m22 6 lw 3 lw 981
 1286 m22 6 lw 3 lw 985 1273 m22 6 lw 3 lw 990 1259 m22 6 lw 3 lw 994 1247 m22 6 lw 3 lw 998 1234 m22 6 lw 3 lw 1003 1222 m22 6 lw 3 lw 1007 1210 m22 6 lw 3 lw 1012 1199 m22 6 lw 3 lw 1016 1189 m22 6 lw 3 lw 1021 1179 m22 6 lw 3 lw 1025 1169 m22 6 lw
 3 lw 1029 1159 m22 6 lw 3 lw 1034 1150 m22 6 lw 3 lw 1038 1141 m22 6 lw 3 lw 1043 1133 m22 6 lw 3 lw 1047 1124 m22 6 lw 3 lw 1052 1117 m22 6 lw 3 lw 1056 1109 m22 6 lw 3 lw 1061 1102 m22 6 lw 3 lw 1065 1095 m22 6 lw 3 lw 1069 1089 m22 6 lw 3 lw 1074
 1083 m22 6 lw 3 lw 1078 1077 m22 6 lw 3 lw 1083 1071 m22 6 lw 3 lw 1087 1065 m22 6 lw 3 lw 1092 1061 m22 6 lw 3 lw 1096 1055 m22 6 lw 3 lw 1101 1050 m22 6 lw 3 lw 1105 1045 m22 6 lw 3 lw 1109 1041 m22 6 lw 3 lw 1114 1036 m22 6 lw 3 lw 1118 1032 m22
 6 lw 3 lw 1123 1028 m22 6 lw 3 lw 1127 1024 m22 6 lw 3 lw 1132 1021 m22 6 lw 3 lw 1136 1017 m22 6 lw 3 lw 1141 1012 m22 6 lw 3 lw 1145 1010 m22 6 lw 3 lw 1149 1006 m22 6 lw 3 lw 1154 1003 m22 6 lw 3 lw 1158 1000 m22 6 lw 3 lw 1163 996 m22 6 lw 3 lw
 1167 993 m22 6 lw 3 lw 1172 991 m22 6 lw 3 lw 1176 987 m22 6 lw 3 lw 1180 984 m22 6 lw 3 lw 1185 982 m22 6 lw 3 lw 1189 979 m22 6 lw 3 lw 1194 975 m22 6 lw 3 lw 1198 971 m22 6 lw 3 lw 1203 969 m22 6 lw 3 lw 1207 968 m22 6 lw 3 lw 1212 964 m22 6 lw 3
 lw 1216 963 m22 6 lw 3 lw 1220 960 m22 6 lw 3 lw 1225 955 m22 6 lw 3 lw 1229 956 m22 6 lw 3 lw 1234 954 m22 6 lw 3 lw 1238 949 m22 6 lw 3 lw 1243 947 m22 6 lw 3 lw 1247 946 m22 6 lw 3 lw 1252 945 m22 6 lw 3 lw 1256 944 m22 6 lw 3 lw 1260 943 m22 6
 lw 3 lw 1265 939 m22 6 lw 3 lw 1269 936 m22 6 lw 3 lw 1274 934 m22 6 lw 3 lw 1278 933 m22 6 lw 3 lw 1283 927 m22 6 lw 3 lw 1287 925 m22 6 lw 3 lw 1292 927 m22 6 lw 3 lw 1296 923 m22 6 lw 3 lw 1300 922 m22 6 lw 3 lw 1305 919 m22 6 lw 3 lw 1309 919
 m22 6 lw 3 lw 1314 917 m22 6 lw 3 lw 1318 915 m22 6 lw 3 lw 1323 918 m22 6 lw 3 lw 1327 909 m22 6 lw 3 lw 1331 911 m22 6 lw 3 lw 1336 897 m22 6 lw 3 lw 1340 907 m22 6 lw 3 lw 1345 905 m22 6 lw 3 lw 1349 899 m22 6 lw 3 lw 1354 897 m22 6 lw 3 lw 1358
 898 m22 6 lw 3 lw 1363 896 m22 6 lw 3 lw 1367 893 m22 6 lw 3 lw 1371 896 m22 6 lw 3 lw 1376 899 m22 6 lw 3 lw 1380 899 m22 6 lw 3 lw 1385 891 m22 6 lw 3 lw 1389 877 m22 6 lw 3 lw 1394 876 m22 6 lw 3 lw 1398 878 m22 6 lw 3 lw 1403 887 m22 6 lw 3 lw
 1407 873 m22 6 lw 3 lw 1411 878 m22 6 lw 3 lw 1416 885 m22 6 lw black
 gsave  710 682 779 725 C 1124.75 1306.9 t 0 r /Helvetica findfont 29.6502 sf 0 0 m (Centrality: 20 \255 40%) show NC gr 
 gsave  710 682 779 725 C 1206.72 1213.55 t 0 r /Helvetica findfont 29.6502 sf 0 0 m (=1.30 GeV/c) show NC gr 
 gsave  710 682 779 725 C 1188.5 1213.55 t 0 r /Symbol findfont 29.6502 sf 0 0 m (s) show NC gr 
 gsave  710 682 779 725 C 1188.5 1245.42 t 0 r /Helvetica findfont 29.6502 sf 0 0 m (RC) show NC gr  3 lw /w 21 def /w2 {w 2 div} def /w3 {w 3 div} def 1155 1239 m20 6 lw
 gsave  710 682 779 725 C 1206.72 1136.14 t 0 r /Helvetica findfont 29.6502 sf 0 0 m (=1.01 GeV/c) show NC gr 
 gsave  710 682 779 725 C 1188.5 1136.14 t 0 r /Symbol findfont 29.6502 sf 0 0 m (s) show NC gr 
 gsave  710 682 779 725 C 1188.5 1172.56 t 0 r /Helvetica findfont 29.6502 sf 0 0 m (RC w/o lead. jet) show NC gr  0 0 1 c 3 lw /w 18 def /w2 {w 2 div} def /w3 {w 3 div} def 1155 1164 m21 6 lw black
 gsave  710 682 779 725 C 1206.72 1061 t 0 r /Helvetica findfont 29.6502 sf 0 0 m (=1.28 GeV/c) show NC gr 
 gsave  710 682 779 725 C 1188.5 1061 t 0 r /Symbol findfont 29.6502 sf 0 0 m (s) show NC gr 
 gsave  710 682 779 725 C 1188.5 1097.43 t 0 r /Helvetica findfont 29.6502 sf 0 0 m (RC partial) show NC gr  1 0 0 c 3 lw 1155 1089 m22 6 lw black 3 lw 0.999 0.999 0.999 c 711 682 1534 725 bf black 1 1 1 c 533 511 1641 827 bf black 533 511 1641 827
 bl 1 1 1 c 533 511 1641 827 bf black 533 511 1641 827 bl 0 0 0.6 c 1 1 1 c black 0 0 0.6 c 1641 827 m 533 X s black 1641 827 m 533 X s
 gsave  711 682 1534 725 C 2160.71 765.013 t 0 r /Helvetica findfont 38.7733 sf 0 0 m (\)) show NC gr 
 gsave  711 682 1534 725 C 2137.94 765.013 t 0 r /Helvetica-Oblique findfont 38.7733 sf 0 0 m (c) show NC gr 
 gsave  711 682 1534 725 C 2024.1 765.013 t 0 r /Helvetica findfont 38.7733 sf 0 0 m ( \(GeV/) show NC gr 
 gsave  711 682 1534 725 C 2008.16 742.245 t 0 r /Helvetica findfont 25.0886 sf 0 0 m (T) show NC gr 
 gsave  711 682 1534 725 C 1983.11 765.013 t 0 r /Helvetica-Oblique findfont 38.7733 sf 0 0 m (p) show NC gr 
 gsave  711 682 1534 725 C 1969.45 765.013 t 0 r /Helvetica findfont 38.7733 sf 0 0 m ( ) show NC gr 
 gsave  711 682 1534 725 C 1948.96 765.013 t 0 r /Symbol findfont 38.7733 sf 0 0 m (d) show NC gr  1641 842 m -15 Y s 1659 835 m -8 Y s 1677 835 m -8 Y s 1694 835 m -8 Y s 1712 835 m -8 Y s 1730 842 m -15 Y s 1748 835 m -8 Y s 1765 835 m -8 Y s 1783
 835 m -8 Y s 1801 835 m -8 Y s 1819 842 m -15 Y s 1836 835 m -8 Y s 1854 835 m -8 Y s 1872 835 m -8 Y s 1890 835 m -8 Y s 1908 842 m -15 Y s 1925 835 m -8 Y s 1943 835 m -8 Y s 1961 835 m -8 Y s 1979 835 m -8 Y s 1996 842 m -15 Y s 2014 835 m -8 Y s
 2032 835 m -8 Y s 2050 835 m -8 Y s 2067 835 m -8 Y s 2085 842 m -15 Y s 2103 835 m -8 Y s 2121 835 m -8 Y s 2138 835 m -8 Y s 2156 835 m -8 Y s 2174 842 m -15 Y s
 gsave  711 682 1534 725 C 1616.54 796.888 t 0 r /Helvetica findfont 31.931 sf 0 0 m (\25510) show NC gr 
 gsave  711 682 1534 725 C 1719 796.888 t 0 r /Helvetica findfont 31.931 sf 0 0 m (0) show NC gr 
 gsave  711 682 1534 725 C 1798.69 796.888 t 0 r /Helvetica findfont 31.931 sf 0 0 m (10) show NC gr 
 gsave  711 682 1534 725 C 1887.49 796.888 t 0 r /Helvetica findfont 31.931 sf 0 0 m (20) show NC gr 
 gsave  711 682 1534 725 C 1976.28 796.888 t 0 r /Helvetica findfont 31.931 sf 0 0 m (30) show NC gr 
 gsave  711 682 1534 725 C 2065.08 796.888 t 0 r /Helvetica findfont 31.931 sf 0 0 m (40) show NC gr 
 gsave  711 682 1534 725 C 2153.88 796.888 t 0 r /Helvetica findfont 31.931 sf 0 0 m (50) show NC gr  1641 827 m 511 Y s
 gsave  711 682 1534 725 C 1575.56 1101.98 t 90 r /Helvetica findfont 38.7733 sf 0 0 m (probability/bin) show NC gr  1657 827 m -16 X s
 gsave  711 682 1534 725 C 1614.27 828.764 t 0 r /Helvetica findfont 20.5271 sf 0 0 m (\2558) show NC gr 
 gsave  711 682 1534 725 C 1580.12 812.826 t 0 r /Helvetica findfont 31.931 sf 0 0 m (10) show NC gr  1649 846 m -8 X s 1649 857 m -8 X s 1649 865 m -8 X s 1649 872 m -8 X s 1649 877 m -8 X s 1649 881 m -8 X s 1649 885 m -8 X s 1649 888 m -8 X s 1657
 891 m -16 X s
 gsave  711 682 1534 725 C 1614.27 890.238 t 0 r /Helvetica findfont 20.5271 sf 0 0 m (\2557) show NC gr 
 gsave  711 682 1534 725 C 1580.12 876.577 t 0 r /Helvetica findfont 31.931 sf 0 0 m (10) show NC gr  1649 910 m -8 X s 1649 921 m -8 X s 1649 929 m -8 X s 1649 935 m -8 X s 1649 941 m -8 X s 1649 945 m -8 X s 1649 949 m -8 X s 1649 952 m -8 X s 1657
 955 m -16 X s
 gsave  711 682 1534 725 C 1614.27 956.266 t 0 r /Helvetica findfont 20.5271 sf 0 0 m (\2556) show NC gr 
 gsave  711 682 1534 725 C 1580.12 940.328 t 0 r /Helvetica findfont 31.931 sf 0 0 m (10) show NC gr  1649 974 m -8 X s 1649 985 m -8 X s 1649 993 m -8 X s 1649 999 m -8 X s 1649 1004 m -8 X s 1649 1009 m -8 X s 1649 1012 m -8 X s 1649 1016 m -8 X s
 1657 1019 m -16 X s
 gsave  711 682 1534 725 C 1614.27 1020.02 t 0 r /Helvetica findfont 20.5271 sf 0 0 m (\2555) show NC gr 
 gsave  711 682 1534 725 C 1580.12 1004.08 t 0 r /Helvetica findfont 31.931 sf 0 0 m (10) show NC gr  1649 1038 m -8 X s 1649 1049 m -8 X s 1649 1057 m -8 X s 1649 1063 m -8 X s 1649 1068 m -8 X s 1649 1073 m -8 X s 1649 1076 m -8 X s 1649 1080 m -8
 X s 1657 1083 m -16 X s
 gsave  711 682 1534 725 C 1614.27 1081.49 t 0 r /Helvetica findfont 20.5271 sf 0 0 m (\2554) show NC gr 
 gsave  711 682 1534 725 C 1580.12 1067.83 t 0 r /Helvetica findfont 31.931 sf 0 0 m (10) show NC gr  1649 1102 m -8 X s 1649 1113 m -8 X s 1649 1121 m -8 X s 1649 1127 m -8 X s 1649 1132 m -8 X s 1649 1137 m -8 X s 1649 1140 m -8 X s 1649 1144 m -8
 X s 1657 1147 m -16 X s
 gsave  711 682 1534 725 C 1614.27 1147.52 t 0 r /Helvetica findfont 20.5271 sf 0 0 m (\2553) show NC gr 
 gsave  711 682 1534 725 C 1580.12 1131.58 t 0 r /Helvetica findfont 31.931 sf 0 0 m (10) show NC gr  1649 1166 m -8 X s 1649 1177 m -8 X s 1649 1185 m -8 X s 1649 1191 m -8 X s 1649 1196 m -8 X s 1649 1201 m -8 X s 1649 1204 m -8 X s 1649 1208 m -8
 X s 1657 1210 m -16 X s
 gsave  711 682 1534 725 C 1614.27 1208.99 t 0 r /Helvetica findfont 20.5271 sf 0 0 m (\2552) show NC gr 
 gsave  711 682 1534 725 C 1580.12 1195.33 t 0 r /Helvetica findfont 31.931 sf 0 0 m (10) show NC gr  1649 1230 m -8 X s 1649 1241 m -8 X s 1649 1249 m -8 X s 1649 1255 m -8 X s 1649 1260 m -8 X s 1649 1264 m -8 X s 1649 1268 m -8 X s 1649 1271 m -8
 X s 1657 1274 m -16 X s
 gsave  711 682 1534 725 C 1616.54 1272.74 t 0 r /Helvetica findfont 20.5271 sf 0 0 m (\2551) show NC gr 
 gsave  711 682 1534 725 C 1582.39 1259.08 t 0 r /Helvetica findfont 31.931 sf 0 0 m (10) show NC gr  1649 1294 m -8 X s 1649 1305 m -8 X s 1649 1313 m -8 X s 1649 1319 m -8 X s 1649 1324 m -8 X s 1649 1328 m -8 X s 1649 1332 m -8 X s 1649 1335 m -8
 X s 1657 1338 m -16 X s
 gsave  711 682 1534 725 C 1634.68 1325.59 t 0 r  -17 0 t /Helvetica findfont 31.931 sf 0 0 m (1) show NC gr  6 lw 1 1 1 c black 3 lw /w 22 def /w2 {w 2 div} def /w3 {w 3 div} def 1688 866 m20 6 lw 3 lw 1692 892 m20 6 lw 3 lw 1697 893 m20 6 lw 3 lw
 1701 939 m20 6 lw 3 lw 1705 992 m20 6 lw 3 lw 1710 1056 m20 6 lw 3 lw 1714 1123 m20 6 lw 3 lw 1719 1188 m20 6 lw 3 lw 1723 1248 m20 6 lw 3 lw 1728 1297 m20 6 lw 3 lw 1732 1307 m20 6 lw 3 lw 1737 1290 m20 6 lw 3 lw 1741 1273 m20 6 lw 3 lw 1745 1257
 m20 6 lw 3 lw 1750 1242 m20 6 lw 3 lw 1754 1228 m20 6 lw 3 lw 1759 1215 m20 6 lw 3 lw 1763 1202 m20 6 lw 3 lw 1768 1189 m20 6 lw 3 lw 1772 1179 m20 6 lw 3 lw 1777 1168 m20 6 lw 3 lw 1781 1158 m20 6 lw 3 lw 1785 1148 m20 6 lw 3 lw 1790 1139 m20 6 lw
 3 lw 1794 1130 m20 6 lw 3 lw 1799 1122 m20 6 lw 3 lw 1803 1114 m20 6 lw 3 lw 1808 1107 m20 6 lw 3 lw 1812 1099 m20 6 lw 3 lw 1816 1092 m20 6 lw 3 lw 1821 1086 m20 6 lw 3 lw 1825 1079 m20 6 lw 3 lw 1830 1074 m20 6 lw 3 lw 1834 1068 m20 6 lw 3 lw 1839
 1062 m20 6 lw 3 lw 1843 1057 m20 6 lw 3 lw 1848 1053 m20 6 lw 3 lw 1852 1047 m20 6 lw 3 lw 1856 1043 m20 6 lw 3 lw 1861 1038 m20 6 lw 3 lw 1865 1034 m20 6 lw 3 lw 1870 1030 m20 6 lw 3 lw 1874 1026 m20 6 lw 3 lw 1879 1021 m20 6 lw 3 lw 1883 1017 m20
 6 lw 3 lw 1888 1014 m20 6 lw 3 lw 1892 1010 m20 6 lw 3 lw 1896 1008 m20 6 lw 3 lw 1901 1004 m20 6 lw 3 lw 1905 1001 m20 6 lw 3 lw 1910 999 m20 6 lw 3 lw 1914 995 m20 6 lw 3 lw 1919 991 m20 6 lw 3 lw 1923 989 m20 6 lw 3 lw 1928 984 m20 6 lw 3 lw 1932
 982 m20 6 lw 3 lw 1936 979 m20 6 lw 3 lw 1941 977 m20 6 lw 3 lw 1945 972 m20 6 lw 3 lw 1950 971 m20 6 lw 3 lw 1954 966 m20 6 lw 3 lw 1959 969 m20 6 lw 3 lw 1963 962 m20 6 lw 3 lw 1967 960 m20 6 lw 3 lw 1972 955 m20 6 lw 3 lw 1976 957 m20 6 lw 3 lw
 1981 952 m20 6 lw 3 lw 1985 948 m20 6 lw 3 lw 1990 947 m20 6 lw 3 lw 1994 947 m20 6 lw 3 lw 1999 947 m20 6 lw 3 lw 2003 944 m20 6 lw 3 lw 2007 942 m20 6 lw 3 lw 2012 939 m20 6 lw 3 lw 2016 934 m20 6 lw 3 lw 2021 935 m20 6 lw 3 lw 2025 932 m20 6 lw 3
 lw 2030 929 m20 6 lw 3 lw 2034 926 m20 6 lw 3 lw 2039 920 m20 6 lw 3 lw 2043 927 m20 6 lw 3 lw 2047 919 m20 6 lw 3 lw 2052 924 m20 6 lw 3 lw 2056 917 m20 6 lw 3 lw 2061 918 m20 6 lw 3 lw 2065 912 m20 6 lw 3 lw 2070 906 m20 6 lw 3 lw 2074 906 m20 6
 lw 3 lw 2079 909 m20 6 lw 3 lw 2083 902 m20 6 lw 3 lw 2087 896 m20 6 lw 3 lw 2092 905 m20 6 lw 3 lw 2096 905 m20 6 lw 3 lw 2101 906 m20 6 lw 3 lw 2105 898 m20 6 lw 3 lw 2110 887 m20 6 lw 3 lw 2114 902 m20 6 lw 3 lw 2118 888 m20 6 lw 3 lw 2123 892
 m20 6 lw 3 lw 2127 890 m20 6 lw 3 lw 2132 889 m20 6 lw 3 lw 2136 889 m20 6 lw 3 lw 2141 886 m20 6 lw 3 lw 2145 885 m20 6 lw 3 lw 2150 885 m20 6 lw 3 lw 2154 878 m20 6 lw 3 lw 2158 876 m20 6 lw 3 lw 2163 885 m20 6 lw 3 lw 2167 879 m20 6 lw 3 lw 2172
 878 m20 6 lw 0 0 1 c 1 1 1 c 0 0 1 c 1679 827 m 5 Y s 1679 850 m 1 Y s 3 lw /w 19 def /w2 {w 2 div} def /w3 {w 3 div} def 1679 841 m21 6 lw 1683 827 m 5 Y s 1683 850 m 1 Y s 3 lw 1683 841 m21 6 lw 1688 853 m 1 Y s 3 lw 1688 863 m21 6 lw 3 lw 1692
 878 m21 6 lw 3 lw 1697 897 m21 6 lw 3 lw 1701 944 m21 6 lw 3 lw 1705 996 m21 6 lw 3 lw 1710 1060 m21 6 lw 3 lw 1714 1127 m21 6 lw 3 lw 1719 1192 m21 6 lw 3 lw 1723 1252 m21 6 lw 3 lw 1728 1300 m21 6 lw 3 lw 1732 1310 m21 6 lw 3 lw 1737 1290 m21 6 lw
 3 lw 1741 1268 m21 6 lw 3 lw 1745 1248 m21 6 lw 3 lw 1750 1229 m21 6 lw 3 lw 1754 1211 m21 6 lw 3 lw 1759 1195 m21 6 lw 3 lw 1763 1179 m21 6 lw 3 lw 1768 1164 m21 6 lw 3 lw 1772 1151 m21 6 lw 3 lw 1777 1139 m21 6 lw 3 lw 1781 1127 m21 6 lw 3 lw 1785
 1115 m21 6 lw 3 lw 1790 1105 m21 6 lw 3 lw 1794 1095 m21 6 lw 3 lw 1799 1085 m21 6 lw 3 lw 1803 1077 m21 6 lw 3 lw 1808 1069 m21 6 lw 3 lw 1812 1061 m21 6 lw 3 lw 1816 1053 m21 6 lw 3 lw 1821 1047 m21 6 lw 3 lw 1825 1040 m21 6 lw 3 lw 1830 1034 m21
 6 lw 3 lw 1834 1028 m21 6 lw 3 lw 1839 1022 m21 6 lw 3 lw 1843 1017 m21 6 lw 3 lw 1848 1012 m21 6 lw 3 lw 1852 1007 m21 6 lw 3 lw 1856 1003 m21 6 lw 3 lw 1861 998 m21 6 lw 3 lw 1865 993 m21 6 lw 3 lw 1870 990 m21 6 lw 3 lw 1874 986 m21 6 lw 3 lw
 1879 982 m21 6 lw 3 lw 1883 978 m21 6 lw 3 lw 1888 974 m21 6 lw 3 lw 1892 972 m21 6 lw 3 lw 1896 971 m21 6 lw 3 lw 1901 963 m21 6 lw 3 lw 1905 963 m21 6 lw 3 lw 1910 959 m21 6 lw 3 lw 1914 956 m21 6 lw 3 lw 1919 956 m21 6 lw 3 lw 1923 951 m21 6 lw 3
 lw 1928 944 m21 6 lw 3 lw 1932 939 m21 6 lw 3 lw 1936 940 m21 6 lw 3 lw 1941 935 m21 6 lw 3 lw 1945 936 m21 6 lw 3 lw 1950 930 m21 6 lw 3 lw 1954 928 m21 6 lw 3 lw 1959 926 m21 6 lw 3 lw 1963 926 m21 6 lw 3 lw 1967 920 m21 6 lw 3 lw 1972 920 m21 6
 lw 3 lw 1976 920 m21 6 lw 3 lw 1981 910 m21 6 lw 3 lw 1985 910 m21 6 lw 3 lw 1990 907 m21 6 lw 3 lw 1994 904 m21 6 lw 3 lw 1999 901 m21 6 lw 3 lw 2003 899 m21 6 lw 3 lw 2007 902 m21 6 lw 3 lw 2012 900 m21 6 lw 3 lw 2016 901 m21 6 lw 3 lw 2021 899
 m21 6 lw 3 lw 2025 893 m21 6 lw 3 lw 2030 896 m21 6 lw 3 lw 2034 884 m21 6 lw 3 lw 2039 885 m21 6 lw 3 lw 2043 884 m21 6 lw 3 lw 2047 894 m21 6 lw 3 lw 2052 879 m21 6 lw 3 lw 2056 882 m21 6 lw 3 lw 2061 867 m21 6 lw 3 lw 2065 869 m21 6 lw 2070 853 m
 1 Y s 3 lw 2070 863 m21 6 lw 2074 837 m 4 Y s 3 lw 2074 850 m21 6 lw 2079 842 m 3 Y s 3 lw 2079 854 m21 6 lw 2083 831 m 6 Y s 2083 855 m s 3 lw 2083 846 m21 6 lw 2087 856 m s 3 lw 2087 865 m21 6 lw 2092 853 m 1 Y s 3 lw 2092 863 m21 6 lw 3 lw 2096
 867 m21 6 lw 2101 849 m 2 Y s 3 lw 2101 860 m21 6 lw 2105 846 m 2 Y s 3 lw 2105 857 m21 6 lw 2110 831 m 6 Y s 2110 855 m s 3 lw 2110 846 m21 6 lw 2114 856 m s 3 lw 2114 865 m21 6 lw 2118 837 m 4 Y s 3 lw 2118 850 m21 6 lw 2123 844 m 2 Y s 3 lw 2123
 835 m21 6 lw 2132 831 m 6 Y s 2132 855 m s 3 lw 2132 846 m21 6 lw 2136 842 m 3 Y s 3 lw 2136 854 m21 6 lw 2145 844 m 2 Y s 3 lw 2145 835 m21 6 lw 2154 837 m 4 Y s 3 lw 2154 850 m21 6 lw 2158 842 m 3 Y s 3 lw 2158 854 m21 6 lw 2163 844 m 2 Y s 3 lw
 2163 835 m21 6 lw 1 0 0 c 1 1 1 c 1 0 0 c 1679 830 m 5 Y s 1679 854 m s 3 lw 1679 844 m22 6 lw 3 lw 1688 868 m22 6 lw 3 lw 1692 868 m22 6 lw 3 lw 1697 891 m22 6 lw 3 lw 1701 937 m22 6 lw 3 lw 1705 993 m22 6 lw 3 lw 1710 1056 m22 6 lw 3 lw 1714 1124
 m22 6 lw 3 lw 1719 1188 m22 6 lw 3 lw 1723 1249 m22 6 lw 3 lw 1728 1297 m22 6 lw 3 lw 1732 1308 m22 6 lw 3 lw 1737 1290 m22 6 lw 3 lw 1741 1272 m22 6 lw 3 lw 1745 1256 m22 6 lw 3 lw 1750 1241 m22 6 lw 3 lw 1754 1226 m22 6 lw 3 lw 1759 1213 m22 6 lw
 3 lw 1763 1200 m22 6 lw 3 lw 1768 1187 m22 6 lw 3 lw 1772 1176 m22 6 lw 3 lw 1777 1166 m22 6 lw 3 lw 1781 1156 m22 6 lw 3 lw 1785 1146 m22 6 lw 3 lw 1790 1137 m22 6 lw 3 lw 1794 1128 m22 6 lw 3 lw 1799 1119 m22 6 lw 3 lw 1803 1111 m22 6 lw 3 lw 1808
 1104 m22 6 lw 3 lw 1812 1096 m22 6 lw 3 lw 1816 1090 m22 6 lw 3 lw 1821 1083 m22 6 lw 3 lw 1825 1076 m22 6 lw 3 lw 1830 1071 m22 6 lw 3 lw 1834 1065 m22 6 lw 3 lw 1839 1059 m22 6 lw 3 lw 1843 1054 m22 6 lw 3 lw 1848 1050 m22 6 lw 3 lw 1852 1045 m22
 6 lw 3 lw 1856 1040 m22 6 lw 3 lw 1861 1036 m22 6 lw 3 lw 1865 1032 m22 6 lw 3 lw 1870 1027 m22 6 lw 3 lw 1874 1023 m22 6 lw 3 lw 1879 1019 m22 6 lw 3 lw 1883 1015 m22 6 lw 3 lw 1888 1012 m22 6 lw 3 lw 1892 1008 m22 6 lw 3 lw 1896 1005 m22 6 lw 3 lw
 1901 1001 m22 6 lw 3 lw 1905 999 m22 6 lw 3 lw 1910 994 m22 6 lw 3 lw 1914 992 m22 6 lw 3 lw 1919 989 m22 6 lw 3 lw 1923 986 m22 6 lw 3 lw 1928 982 m22 6 lw 3 lw 1932 981 m22 6 lw 3 lw 1936 977 m22 6 lw 3 lw 1941 972 m22 6 lw 3 lw 1945 970 m22 6 lw
 3 lw 1950 967 m22 6 lw 3 lw 1954 962 m22 6 lw 3 lw 1959 962 m22 6 lw 3 lw 1963 960 m22 6 lw 3 lw 1967 955 m22 6 lw 3 lw 1972 952 m22 6 lw 3 lw 1976 953 m22 6 lw 3 lw 1981 952 m22 6 lw 3 lw 1985 948 m22 6 lw 3 lw 1990 946 m22 6 lw 3 lw 1994 944 m22 6
 lw 3 lw 1999 942 m22 6 lw 3 lw 2003 943 m22 6 lw 3 lw 2007 943 m22 6 lw 3 lw 2012 935 m22 6 lw 3 lw 2016 936 m22 6 lw 3 lw 2021 930 m22 6 lw 3 lw 2025 923 m22 6 lw 3 lw 2030 925 m22 6 lw 3 lw 2034 925 m22 6 lw 3 lw 2039 920 m22 6 lw 3 lw 2043 921
 m22 6 lw 3 lw 2047 919 m22 6 lw 3 lw 2052 914 m22 6 lw 3 lw 2056 920 m22 6 lw 3 lw 2061 909 m22 6 lw 3 lw 2065 907 m22 6 lw 3 lw 2070 896 m22 6 lw 3 lw 2074 908 m22 6 lw 3 lw 2079 908 m22 6 lw 3 lw 2083 899 m22 6 lw 3 lw 2087 896 m22 6 lw 3 lw 2092
 897 m22 6 lw 3 lw 2096 895 m22 6 lw 3 lw 2101 901 m22 6 lw 3 lw 2105 882 m22 6 lw 3 lw 2110 896 m22 6 lw 3 lw 2114 896 m22 6 lw 3 lw 2118 893 m22 6 lw 3 lw 2123 897 m22 6 lw 3 lw 2127 898 m22 6 lw 3 lw 2132 890 m22 6 lw 3 lw 2136 883 m22 6 lw 3 lw
 2141 885 m22 6 lw 3 lw 2145 881 m22 6 lw 3 lw 2150 884 m22 6 lw 3 lw 2154 878 m22 6 lw 3 lw 2158 884 m22 6 lw 3 lw 2163 879 m22 6 lw 3 lw 2167 870 m22 6 lw 3 lw 2172 875 m22 6 lw black
 gsave  711 682 1534 725 C 1880.66 1306.9 t 0 r /Helvetica findfont 29.6502 sf 0 0 m (Centrality: 40 \255 60%) show NC gr 
 gsave  711 682 1534 725 C 1962.62 1213.55 t 0 r /Helvetica findfont 29.6502 sf 0 0 m (=1.10 GeV/c) show NC gr 
 gsave  711 682 1534 725 C 1944.41 1213.55 t 0 r /Symbol findfont 29.6502 sf 0 0 m (s) show NC gr 
 gsave  711 682 1534 725 C 1944.41 1245.42 t 0 r /Helvetica findfont 29.6502 sf 0 0 m (RC) show NC gr  3 lw /w 22 def /w2 {w 2 div} def /w3 {w 3 div} def 1911 1239 m20 6 lw
 gsave  711 682 1534 725 C 1962.62 1136.14 t 0 r /Helvetica findfont 29.6502 sf 0 0 m (=0.83 GeV/c) show NC gr 
 gsave  711 682 1534 725 C 1944.41 1136.14 t 0 r /Symbol findfont 29.6502 sf 0 0 m (s) show NC gr 
 gsave  711 682 1534 725 C 1944.41 1172.56 t 0 r /Helvetica findfont 29.6502 sf 0 0 m (RC w/o lead. jet) show NC gr  0 0 1 c 3 lw /w 19 def /w2 {w 2 div} def /w3 {w 3 div} def 1911 1164 m21 6 lw black
 gsave  711 682 1534 725 C 1962.62 1061 t 0 r /Helvetica findfont 29.6502 sf 0 0 m (=1.07 GeV/c) show NC gr 
 gsave  711 682 1534 725 C 1944.41 1061 t 0 r /Symbol findfont 29.6502 sf 0 0 m (s) show NC gr 
 gsave  711 682 1534 725 C 1944.41 1097.43 t 0 r /Helvetica findfont 29.6502 sf 0 0 m (RC partial) show NC gr  1 0 0 c 3 lw 1911 1089 m22 6 lw black 3 lw 0.999 0.999 0.999 c 710 682 23 14 bf black 1 1 1 c 533 511 129 117 bf black 533 511 129 117 bl 1
 1 1 c 533 511 129 117 bf black 533 511 129 117 bl 0 0 0.6 c 1 1 1 c black 0 0 0.6 c 129 117 m 533 X s black 129 117 m 533 X s
 gsave  710 682 23 14 C 648.895 54.6438 t 0 r /Helvetica findfont 38.7733 sf 0 0 m (\)) show NC gr 
 gsave  710 682 23 14 C 626.127 54.6438 t 0 r /Helvetica-Oblique findfont 38.7733 sf 0 0 m (c) show NC gr 
 gsave  710 682 23 14 C 512.285 54.6438 t 0 r /Helvetica findfont 38.7733 sf 0 0 m ( \(GeV/) show NC gr 
 gsave  710 682 23 14 C 496.348 31.8755 t 0 r /Helvetica findfont 25.0886 sf 0 0 m (T) show NC gr 
 gsave  710 682 23 14 C 471.303 54.6438 t 0 r /Helvetica-Oblique findfont 38.7733 sf 0 0 m (p) show NC gr 
 gsave  710 682 23 14 C 457.642 54.6438 t 0 r /Helvetica findfont 38.7733 sf 0 0 m ( ) show NC gr 
 gsave  710 682 23 14 C 437.15 54.6438 t 0 r /Symbol findfont 38.7733 sf 0 0 m (d) show NC gr  129 132 m -15 Y s 147 124 m -7 Y s 165 124 m -7 Y s 183 124 m -7 Y s 200 124 m -7 Y s 218 132 m -15 Y s 236 124 m -7 Y s 254 124 m -7 Y s 271 124 m -7 Y s
 289 124 m -7 Y s 307 132 m -15 Y s 325 124 m -7 Y s 342 124 m -7 Y s 360 124 m -7 Y s 378 124 m -7 Y s 396 132 m -15 Y s 413 124 m -7 Y s 431 124 m -7 Y s 449 124 m -7 Y s 467 124 m -7 Y s 485 132 m -15 Y s 502 124 m -7 Y s 520 124 m -7 Y s 538 124
 m -7 Y s 556 124 m -7 Y s 573 132 m -15 Y s 591 124 m -7 Y s 609 124 m -7 Y s 627 124 m -7 Y s 644 124 m -7 Y s 662 132 m -15 Y s
 gsave  710 682 23 14 C 104.734 86.5193 t 0 r /Helvetica findfont 31.931 sf 0 0 m (\25510) show NC gr 
 gsave  710 682 23 14 C 207.191 86.5193 t 0 r /Helvetica findfont 31.931 sf 0 0 m (0) show NC gr 
 gsave  710 682 23 14 C 286.88 86.5193 t 0 r /Helvetica findfont 31.931 sf 0 0 m (10) show NC gr 
 gsave  710 682 23 14 C 375.676 86.5193 t 0 r /Helvetica findfont 31.931 sf 0 0 m (20) show NC gr 
 gsave  710 682 23 14 C 464.472 86.5193 t 0 r /Helvetica findfont 31.931 sf 0 0 m (30) show NC gr 
 gsave  710 682 23 14 C 553.268 86.5193 t 0 r /Helvetica findfont 31.931 sf 0 0 m (40) show NC gr 
 gsave  710 682 23 14 C 642.064 86.5193 t 0 r /Helvetica findfont 31.931 sf 0 0 m (50) show NC gr  129 117 m 511 Y s
 gsave  710 682 23 14 C 63.7511 391.614 t 90 r /Helvetica findfont 38.7733 sf 0 0 m (probability/bin) show NC gr  145 117 m -16 X s
 gsave  710 682 23 14 C 102.457 118.395 t 0 r /Helvetica findfont 20.5271 sf 0 0 m (\2558) show NC gr 
 gsave  710 682 23 14 C 68.3047 102.457 t 0 r /Helvetica findfont 31.931 sf 0 0 m (10) show NC gr  137 136 m -8 X s 137 147 m -8 X s 137 155 m -8 X s 137 161 m -8 X s 137 166 m -8 X s 137 171 m -8 X s 137 174 m -8 X s 137 178 m -8 X s 145 180 m -16 X
 s
 gsave  710 682 23 14 C 102.457 179.869 t 0 r /Helvetica findfont 20.5271 sf 0 0 m (\2557) show NC gr 
 gsave  710 682 23 14 C 68.3047 166.208 t 0 r /Helvetica findfont 31.931 sf 0 0 m (10) show NC gr  137 200 m -8 X s 137 211 m -8 X s 137 219 m -8 X s 137 225 m -8 X s 137 230 m -8 X s 137 234 m -8 X s 137 238 m -8 X s 137 241 m -8 X s 145 244 m -16 X
 s
 gsave  710 682 23 14 C 102.457 245.897 t 0 r /Helvetica findfont 20.5271 sf 0 0 m (\2556) show NC gr 
 gsave  710 682 23 14 C 68.3047 229.959 t 0 r /Helvetica findfont 31.931 sf 0 0 m (10) show NC gr  137 264 m -8 X s 137 275 m -8 X s 137 283 m -8 X s 137 289 m -8 X s 137 294 m -8 X s 137 298 m -8 X s 137 302 m -8 X s 137 305 m -8 X s 145 308 m -16 X
 s
 gsave  710 682 23 14 C 102.457 309.648 t 0 r /Helvetica findfont 20.5271 sf 0 0 m (\2555) show NC gr 
 gsave  710 682 23 14 C 68.3047 293.71 t 0 r /Helvetica findfont 31.931 sf 0 0 m (10) show NC gr  137 328 m -8 X s 137 339 m -8 X s 137 347 m -8 X s 137 353 m -8 X s 137 358 m -8 X s 137 362 m -8 X s 137 366 m -8 X s 137 369 m -8 X s 145 372 m -16 X
 s
 gsave  710 682 23 14 C 102.457 371.122 t 0 r /Helvetica findfont 20.5271 sf 0 0 m (\2554) show NC gr 
 gsave  710 682 23 14 C 68.3047 357.461 t 0 r /Helvetica findfont 31.931 sf 0 0 m (10) show NC gr  137 391 m -8 X s 137 403 m -8 X s 137 411 m -8 X s 137 417 m -8 X s 137 422 m -8 X s 137 426 m -8 X s 137 430 m -8 X s 137 433 m -8 X s 145 436 m -16 X
 s
 gsave  710 682 23 14 C 102.457 437.15 t 0 r /Helvetica findfont 20.5271 sf 0 0 m (\2553) show NC gr 
 gsave  710 682 23 14 C 68.3047 421.212 t 0 r /Helvetica findfont 31.931 sf 0 0 m (10) show NC gr  137 455 m -8 X s 137 467 m -8 X s 137 475 m -8 X s 137 481 m -8 X s 137 486 m -8 X s 137 490 m -8 X s 137 494 m -8 X s 137 497 m -8 X s 145 500 m -16 X
 s
 gsave  710 682 23 14 C 102.457 498.624 t 0 r /Helvetica findfont 20.5271 sf 0 0 m (\2552) show NC gr 
 gsave  710 682 23 14 C 68.3047 484.964 t 0 r /Helvetica findfont 31.931 sf 0 0 m (10) show NC gr  137 519 m -8 X s 137 531 m -8 X s 137 539 m -8 X s 137 545 m -8 X s 137 550 m -8 X s 137 554 m -8 X s 137 558 m -8 X s 137 561 m -8 X s 145 564 m -16 X
 s
 gsave  710 682 23 14 C 104.734 562.375 t 0 r /Helvetica findfont 20.5271 sf 0 0 m (\2551) show NC gr 
 gsave  710 682 23 14 C 70.5815 548.715 t 0 r /Helvetica findfont 31.931 sf 0 0 m (10) show NC gr  137 583 m -8 X s 137 595 m -8 X s 137 603 m -8 X s 137 609 m -8 X s 137 614 m -8 X s 137 618 m -8 X s 137 622 m -8 X s 137 625 m -8 X s 145 628 m -16 X
 s
 gsave  710 682 23 14 C 122.865 615.216 t 0 r  -17 0 t /Helvetica findfont 31.931 sf 0 0 m (1) show NC gr  6 lw 1 1 1 c black 176 133 m 3 Y s 3 lw /w 22 def /w2 {w 2 div} def /w3 {w 3 div} def 176 123 m20 6 lw 3 lw 185 188 m20 6 lw 3 lw 189 200 m20 6
 lw 3 lw 194 239 m20 6 lw 3 lw 198 292 m20 6 lw 3 lw 203 359 m20 6 lw 3 lw 207 433 m20 6 lw 3 lw 211 507 m20 6 lw 3 lw 216 577 m20 6 lw 3 lw 220 604 m20 6 lw 3 lw 225 583 m20 6 lw 3 lw 229 561 m20 6 lw 3 lw 234 542 m20 6 lw 3 lw 238 524 m20 6 lw 3 lw
 243 508 m20 6 lw 3 lw 247 493 m20 6 lw 3 lw 251 479 m20 6 lw 3 lw 256 466 m20 6 lw 3 lw 260 454 m20 6 lw 3 lw 265 444 m20 6 lw 3 lw 269 434 m20 6 lw 3 lw 274 424 m20 6 lw 3 lw 278 415 m20 6 lw 3 lw 282 406 m20 6 lw 3 lw 287 398 m20 6 lw 3 lw 291 390
 m20 6 lw 3 lw 296 383 m20 6 lw 3 lw 300 376 m20 6 lw 3 lw 305 369 m20 6 lw 3 lw 309 364 m20 6 lw 3 lw 314 357 m20 6 lw 3 lw 318 351 m20 6 lw 3 lw 322 346 m20 6 lw 3 lw 327 342 m20 6 lw 3 lw 331 335 m20 6 lw 3 lw 336 331 m20 6 lw 3 lw 340 327 m20 6
 lw 3 lw 345 322 m20 6 lw 3 lw 349 317 m20 6 lw 3 lw 354 313 m20 6 lw 3 lw 358 310 m20 6 lw 3 lw 362 305 m20 6 lw 3 lw 367 302 m20 6 lw 3 lw 371 297 m20 6 lw 3 lw 376 294 m20 6 lw 3 lw 380 292 m20 6 lw 3 lw 385 289 m20 6 lw 3 lw 389 283 m20 6 lw 3 lw
 393 283 m20 6 lw 3 lw 398 278 m20 6 lw 3 lw 402 275 m20 6 lw 3 lw 407 272 m20 6 lw 3 lw 411 272 m20 6 lw 3 lw 416 264 m20 6 lw 3 lw 420 262 m20 6 lw 3 lw 425 258 m20 6 lw 3 lw 429 259 m20 6 lw 3 lw 433 253 m20 6 lw 3 lw 438 251 m20 6 lw 3 lw 442 251
 m20 6 lw 3 lw 447 248 m20 6 lw 3 lw 451 248 m20 6 lw 3 lw 456 244 m20 6 lw 3 lw 460 237 m20 6 lw 3 lw 465 238 m20 6 lw 3 lw 469 237 m20 6 lw 3 lw 473 235 m20 6 lw 3 lw 478 232 m20 6 lw 3 lw 482 233 m20 6 lw 3 lw 487 228 m20 6 lw 3 lw 491 216 m20 6
 lw 3 lw 496 222 m20 6 lw 3 lw 500 222 m20 6 lw 3 lw 505 222 m20 6 lw 3 lw 509 211 m20 6 lw 3 lw 513 218 m20 6 lw 3 lw 518 210 m20 6 lw 3 lw 522 210 m20 6 lw 3 lw 527 199 m20 6 lw 3 lw 531 205 m20 6 lw 3 lw 536 205 m20 6 lw 3 lw 540 205 m20 6 lw 3 lw
 544 207 m20 6 lw 3 lw 549 200 m20 6 lw 3 lw 553 194 m20 6 lw 3 lw 558 191 m20 6 lw 3 lw 562 201 m20 6 lw 3 lw 567 198 m20 6 lw 3 lw 571 192 m20 6 lw 3 lw 576 185 m20 6 lw 3 lw 580 183 m20 6 lw 3 lw 584 182 m20 6 lw 3 lw 589 185 m20 6 lw 3 lw 593 180
 m20 6 lw 3 lw 598 185 m20 6 lw 3 lw 602 164 m20 6 lw 3 lw 607 164 m20 6 lw 3 lw 611 177 m20 6 lw 3 lw 616 175 m20 6 lw 620 152 m 1 Y s 3 lw 620 162 m20 6 lw 3 lw 624 170 m20 6 lw 629 152 m 1 Y s 3 lw 629 162 m20 6 lw 633 150 m s 3 lw 633 160 m20 6
 lw 638 150 m s 3 lw 638 160 m20 6 lw 3 lw 642 166 m20 6 lw 647 134 m 4 Y s 3 lw 647 147 m20 6 lw 651 139 m 3 Y s 3 lw 651 151 m20 6 lw 656 143 m 2 Y s 3 lw 656 154 m20 6 lw 660 139 m 3 Y s 3 lw 660 151 m20 6 lw 0 0 1 c 1 1 1 c 0 0 1 c 176 117 m 8 Y
 s 176 143 m 2 Y s 3 lw /w 18 def /w2 {w 2 div} def /w3 {w 3 div} def 176 134 m21 6 lw 180 117 m 8 Y s 180 143 m 2 Y s 3 lw 180 134 m21 6 lw 3 lw 185 174 m21 6 lw 3 lw 189 195 m21 6 lw 3 lw 194 245 m21 6 lw 3 lw 198 294 m21 6 lw 3 lw 203 364 m21 6 lw
 3 lw 207 437 m21 6 lw 3 lw 211 512 m21 6 lw 3 lw 216 582 m21 6 lw 3 lw 220 607 m21 6 lw 3 lw 225 583 m21 6 lw 3 lw 229 553 m21 6 lw 3 lw 234 528 m21 6 lw 3 lw 238 506 m21 6 lw 3 lw 243 486 m21 6 lw 3 lw 247 468 m21 6 lw 3 lw 251 452 m21 6 lw 3 lw
 256 437 m21 6 lw 3 lw 260 423 m21 6 lw 3 lw 265 411 m21 6 lw 3 lw 269 399 m21 6 lw 3 lw 274 389 m21 6 lw 3 lw 278 378 m21 6 lw 3 lw 282 369 m21 6 lw 3 lw 287 361 m21 6 lw 3 lw 291 351 m21 6 lw 3 lw 296 344 m21 6 lw 3 lw 300 337 m21 6 lw 3 lw 305 331
 m21 6 lw 3 lw 309 324 m21 6 lw 3 lw 314 317 m21 6 lw 3 lw 318 312 m21 6 lw 3 lw 322 307 m21 6 lw 3 lw 327 302 m21 6 lw 3 lw 331 295 m21 6 lw 3 lw 336 290 m21 6 lw 3 lw 340 286 m21 6 lw 3 lw 345 283 m21 6 lw 3 lw 349 277 m21 6 lw 3 lw 354 274 m21 6
 lw 3 lw 358 269 m21 6 lw 3 lw 362 268 m21 6 lw 3 lw 367 261 m21 6 lw 3 lw 371 257 m21 6 lw 3 lw 376 252 m21 6 lw 3 lw 380 252 m21 6 lw 3 lw 385 248 m21 6 lw 3 lw 389 243 m21 6 lw 3 lw 393 238 m21 6 lw 3 lw 398 241 m21 6 lw 3 lw 402 239 m21 6 lw 3 lw
 407 233 m21 6 lw 3 lw 411 231 m21 6 lw 3 lw 416 220 m21 6 lw 3 lw 420 216 m21 6 lw 3 lw 425 225 m21 6 lw 3 lw 429 217 m21 6 lw 3 lw 433 217 m21 6 lw 3 lw 438 214 m21 6 lw 3 lw 442 215 m21 6 lw 3 lw 447 207 m21 6 lw 3 lw 451 207 m21 6 lw 3 lw 456 210
 m21 6 lw 3 lw 460 193 m21 6 lw 3 lw 465 200 m21 6 lw 3 lw 469 202 m21 6 lw 3 lw 473 195 m21 6 lw 3 lw 478 203 m21 6 lw 3 lw 482 183 m21 6 lw 3 lw 487 182 m21 6 lw 3 lw 491 198 m21 6 lw 3 lw 496 189 m21 6 lw 3 lw 500 177 m21 6 lw 3 lw 505 180 m21 6
 lw 3 lw 509 181 m21 6 lw 3 lw 513 166 m21 6 lw 3 lw 518 175 m21 6 lw 522 155 m s 3 lw 522 164 m21 6 lw 3 lw 527 168 m21 6 lw 3 lw 531 174 m21 6 lw 3 lw 536 177 m21 6 lw 3 lw 540 182 m21 6 lw 544 155 m s 3 lw 544 164 m21 6 lw 549 148 m 2 Y s 3 lw 549
 159 m21 6 lw 553 141 m 3 Y s 3 lw 553 153 m21 6 lw 558 145 m 2 Y s 3 lw 558 156 m21 6 lw 562 145 m 2 Y s 3 lw 562 156 m21 6 lw 3 lw 567 172 m21 6 lw 571 148 m 2 Y s 3 lw 571 159 m21 6 lw 576 145 m 2 Y s 3 lw 576 156 m21 6 lw 580 117 m s 580 135 m 3
 Y s 3 lw 580 126 m21 6 lw 584 117 m 8 Y s 584 143 m 2 Y s 3 lw 584 134 m21 6 lw 589 152 m 1 Y s 3 lw 589 162 m21 6 lw 593 152 m 1 Y s 3 lw 593 162 m21 6 lw 598 117 m s 598 135 m 3 Y s 3 lw 598 126 m21 6 lw 602 141 m 3 Y s 3 lw 602 153 m21 6 lw 607
 130 m 6 Y s 607 154 m s 3 lw 607 145 m21 6 lw 616 117 m s 616 135 m 3 Y s 3 lw 616 126 m21 6 lw 620 117 m s 620 135 m 3 Y s 3 lw 620 126 m21 6 lw 629 117 m 8 Y s 629 143 m 2 Y s 3 lw 629 134 m21 6 lw 647 117 m 8 Y s 647 143 m 2 Y s 3 lw 647 134 m21
 6 lw 656 117 m s 656 135 m 3 Y s 3 lw 656 126 m21 6 lw 660 123 m 8 Y s 660 149 m 1 Y s 3 lw 660 140 m21 6 lw 1 0 0 c 1 1 1 c 1 0 0 c 3 lw 185 190 m22 6 lw 3 lw 189 197 m22 6 lw 3 lw 194 239 m22 6 lw 3 lw 198 292 m22 6 lw 3 lw 203 360 m22 6 lw 3 lw
 207 434 m22 6 lw 3 lw 211 508 m22 6 lw 3 lw 216 578 m22 6 lw 3 lw 220 605 m22 6 lw 3 lw 225 583 m22 6 lw 3 lw 229 560 m22 6 lw 3 lw 234 540 m22 6 lw 3 lw 238 521 m22 6 lw 3 lw 243 505 m22 6 lw 3 lw 247 490 m22 6 lw 3 lw 251 475 m22 6 lw 3 lw 256 462
 m22 6 lw 3 lw 260 450 m22 6 lw 3 lw 265 440 m22 6 lw 3 lw 269 429 m22 6 lw 3 lw 274 419 m22 6 lw 3 lw 278 410 m22 6 lw 3 lw 282 401 m22 6 lw 3 lw 287 393 m22 6 lw 3 lw 291 386 m22 6 lw 3 lw 296 378 m22 6 lw 3 lw 300 371 m22 6 lw 3 lw 305 365 m22 6
 lw 3 lw 309 359 m22 6 lw 3 lw 314 353 m22 6 lw 3 lw 318 347 m22 6 lw 3 lw 322 341 m22 6 lw 3 lw 327 337 m22 6 lw 3 lw 331 331 m22 6 lw 3 lw 336 326 m22 6 lw 3 lw 340 321 m22 6 lw 3 lw 345 317 m22 6 lw 3 lw 349 313 m22 6 lw 3 lw 354 307 m22 6 lw 3 lw
 358 305 m22 6 lw 3 lw 362 301 m22 6 lw 3 lw 367 299 m22 6 lw 3 lw 371 292 m22 6 lw 3 lw 376 289 m22 6 lw 3 lw 380 286 m22 6 lw 3 lw 385 282 m22 6 lw 3 lw 389 279 m22 6 lw 3 lw 393 276 m22 6 lw 3 lw 398 272 m22 6 lw 3 lw 402 269 m22 6 lw 3 lw 407 268
 m22 6 lw 3 lw 411 266 m22 6 lw 3 lw 416 262 m22 6 lw 3 lw 420 260 m22 6 lw 3 lw 425 254 m22 6 lw 3 lw 429 252 m22 6 lw 3 lw 433 249 m22 6 lw 3 lw 438 246 m22 6 lw 3 lw 442 241 m22 6 lw 3 lw 447 244 m22 6 lw 3 lw 451 243 m22 6 lw 3 lw 456 238 m22 6
 lw 3 lw 460 235 m22 6 lw 3 lw 465 236 m22 6 lw 3 lw 469 229 m22 6 lw 3 lw 473 229 m22 6 lw 3 lw 478 223 m22 6 lw 3 lw 482 225 m22 6 lw 3 lw 487 212 m22 6 lw 3 lw 491 218 m22 6 lw 3 lw 496 221 m22 6 lw 3 lw 500 215 m22 6 lw 3 lw 505 205 m22 6 lw 3 lw
 509 208 m22 6 lw 3 lw 513 215 m22 6 lw 3 lw 518 197 m22 6 lw 3 lw 522 206 m22 6 lw 3 lw 527 203 m22 6 lw 3 lw 531 204 m22 6 lw 3 lw 536 194 m22 6 lw 3 lw 540 206 m22 6 lw 3 lw 544 200 m22 6 lw 3 lw 549 195 m22 6 lw 3 lw 553 191 m22 6 lw 3 lw 558 182
 m22 6 lw 3 lw 562 190 m22 6 lw 3 lw 567 194 m22 6 lw 3 lw 571 185 m22 6 lw 3 lw 576 186 m22 6 lw 3 lw 580 172 m22 6 lw 3 lw 584 175 m22 6 lw 3 lw 589 184 m22 6 lw 3 lw 593 165 m22 6 lw 3 lw 598 169 m22 6 lw 3 lw 602 170 m22 6 lw 607 150 m 1 Y s 3 lw
 607 160 m22 6 lw 3 lw 611 177 m22 6 lw 3 lw 616 182 m22 6 lw 620 147 m 1 Y s 3 lw 620 157 m22 6 lw 624 143 m 2 Y s 3 lw 624 154 m22 6 lw 3 lw 629 170 m22 6 lw 633 129 m 5 Y s 633 152 m 1 Y s 3 lw 633 143 m22 6 lw 638 143 m 2 Y s 3 lw 638 154 m22 6
 lw 3 lw 642 170 m22 6 lw 647 134 m 4 Y s 3 lw 647 147 m22 6 lw 651 117 m 6 Y s 651 141 m 2 Y s 3 lw 651 132 m22 6 lw 656 150 m 1 Y s 3 lw 656 160 m22 6 lw 660 122 m 7 Y s 660 147 m 1 Y s 3 lw 660 138 m22 6 lw black
 gsave  710 682 23 14 C 368.845 596.528 t 0 r /Helvetica findfont 29.6502 sf 0 0 m (Centrality: 60 \255 80%) show NC gr 
 gsave  710 682 23 14 C 450.811 503.178 t 0 r /Helvetica findfont 29.6502 sf 0 0 m (=0.91 GeV/c) show NC gr 
 gsave  710 682 23 14 C 432.597 503.178 t 0 r /Symbol findfont 29.6502 sf 0 0 m (s) show NC gr 
 gsave  710 682 23 14 C 432.597 535.054 t 0 r /Helvetica findfont 29.6502 sf 0 0 m (RC) show NC gr  3 lw /w 22 def /w2 {w 2 div} def /w3 {w 3 div} def 399 529 m20 6 lw
 gsave  710 682 23 14 C 450.811 425.766 t 0 r /Helvetica findfont 29.6502 sf 0 0 m (=0.66 GeV/c) show NC gr 
 gsave  710 682 23 14 C 432.597 425.766 t 0 r /Symbol findfont 29.6502 sf 0 0 m (s) show NC gr 
 gsave  710 682 23 14 C 432.597 462.195 t 0 r /Helvetica findfont 29.6502 sf 0 0 m (RC w/o lead. jet) show NC gr  0 0 1 c 3 lw /w 18 def /w2 {w 2 div} def /w3 {w 3 div} def 399 454 m21 6 lw black
 gsave  710 682 23 14 C 450.811 350.631 t 0 r /Helvetica findfont 29.6502 sf 0 0 m (=0.87 GeV/c) show NC gr 
 gsave  710 682 23 14 C 432.597 350.631 t 0 r /Symbol findfont 29.6502 sf 0 0 m (s) show NC gr 
 gsave  710 682 23 14 C 432.597 387.06 t 0 r /Helvetica findfont 29.6502 sf 0 0 m (RC partial) show NC gr  1 0 0 c 3 lw 399 379 m22 6 lw black 3 lw 0.999 0.999 0.999 c 710 682 779 14 bf black 1 1 1 c 533 511 885 117 bf black 533 511 885 117 bl 1 1 1
 c 533 511 885 117 bf black 533 511 885 117 bl 0 0 0.6 c 1 1 1 c black 0 0 0.6 c 885 117 m 533 X s black 885 117 m 533 X s
 gsave  710 682 779 14 C 1404.8 54.6438 t 0 r /Helvetica findfont 38.7733 sf 0 0 m (\)) show NC gr 
 gsave  710 682 779 14 C 1382.03 54.6438 t 0 r /Helvetica-Oblique findfont 38.7733 sf 0 0 m (c) show NC gr 
 gsave  710 682 779 14 C 1268.19 54.6438 t 0 r /Helvetica findfont 38.7733 sf 0 0 m ( \(GeV/) show NC gr 
 gsave  710 682 779 14 C 1252.25 31.8755 t 0 r /Helvetica findfont 25.0886 sf 0 0 m (T) show NC gr 
 gsave  710 682 779 14 C 1227.21 54.6438 t 0 r /Helvetica-Oblique findfont 38.7733 sf 0 0 m (p) show NC gr 
 gsave  710 682 779 14 C 1213.55 54.6438 t 0 r /Helvetica findfont 38.7733 sf 0 0 m ( ) show NC gr 
 gsave  710 682 779 14 C 1193.06 54.6438 t 0 r /Symbol findfont 38.7733 sf 0 0 m (d) show NC gr  885 132 m -15 Y s 903 124 m -7 Y s 921 124 m -7 Y s 938 124 m -7 Y s 956 124 m -7 Y s 974 132 m -15 Y s 992 124 m -7 Y s 1010 124 m -7 Y s 1027 124 m -7
 Y s 1045 124 m -7 Y s 1063 132 m -15 Y s 1081 124 m -7 Y s 1098 124 m -7 Y s 1116 124 m -7 Y s 1134 124 m -7 Y s 1152 132 m -15 Y s 1169 124 m -7 Y s 1187 124 m -7 Y s 1205 124 m -7 Y s 1223 124 m -7 Y s 1240 132 m -15 Y s 1258 124 m -7 Y s 1276 124
 m -7 Y s 1294 124 m -7 Y s 1311 124 m -7 Y s 1329 132 m -15 Y s 1347 124 m -7 Y s 1365 124 m -7 Y s 1383 124 m -7 Y s 1400 124 m -7 Y s 1418 132 m -15 Y s
 gsave  710 682 779 14 C 860.639 86.5193 t 0 r /Helvetica findfont 31.931 sf 0 0 m (\25510) show NC gr 
 gsave  710 682 779 14 C 963.096 86.5193 t 0 r /Helvetica findfont 31.931 sf 0 0 m (0) show NC gr 
 gsave  710 682 779 14 C 1042.79 86.5193 t 0 r /Helvetica findfont 31.931 sf 0 0 m (10) show NC gr 
 gsave  710 682 779 14 C 1131.58 86.5193 t 0 r /Helvetica findfont 31.931 sf 0 0 m (20) show NC gr 
 gsave  710 682 779 14 C 1220.38 86.5193 t 0 r /Helvetica findfont 31.931 sf 0 0 m (30) show NC gr 
 gsave  710 682 779 14 C 1309.17 86.5193 t 0 r /Helvetica findfont 31.931 sf 0 0 m (40) show NC gr 
 gsave  710 682 779 14 C 1397.97 86.5193 t 0 r /Helvetica findfont 31.931 sf 0 0 m (50) show NC gr  885 117 m 511 Y s
 gsave  710 682 779 14 C 819.657 391.614 t 90 r /Helvetica findfont 38.7733 sf 0 0 m (probability/bin) show NC gr  901 117 m -16 X s
 gsave  710 682 779 14 C 858.363 118.395 t 0 r /Helvetica findfont 20.5271 sf 0 0 m (\2558) show NC gr 
 gsave  710 682 779 14 C 824.21 102.457 t 0 r /Helvetica findfont 31.931 sf 0 0 m (10) show NC gr  893 136 m -8 X s 893 147 m -8 X s 893 155 m -8 X s 893 161 m -8 X s 893 166 m -8 X s 893 171 m -8 X s 893 174 m -8 X s 893 178 m -8 X s 901 180 m -16 X
 s
 gsave  710 682 779 14 C 858.363 179.869 t 0 r /Helvetica findfont 20.5271 sf 0 0 m (\2557) show NC gr 
 gsave  710 682 779 14 C 824.21 166.208 t 0 r /Helvetica findfont 31.931 sf 0 0 m (10) show NC gr  893 200 m -8 X s 893 211 m -8 X s 893 219 m -8 X s 893 225 m -8 X s 893 230 m -8 X s 893 234 m -8 X s 893 238 m -8 X s 893 241 m -8 X s 901 244 m -16 X
 s
 gsave  710 682 779 14 C 858.363 245.897 t 0 r /Helvetica findfont 20.5271 sf 0 0 m (\2556) show NC gr 
 gsave  710 682 779 14 C 824.21 229.959 t 0 r /Helvetica findfont 31.931 sf 0 0 m (10) show NC gr  893 264 m -8 X s 893 275 m -8 X s 893 283 m -8 X s 893 289 m -8 X s 893 294 m -8 X s 893 298 m -8 X s 893 302 m -8 X s 893 305 m -8 X s 901 308 m -16 X
 s
 gsave  710 682 779 14 C 858.363 309.648 t 0 r /Helvetica findfont 20.5271 sf 0 0 m (\2555) show NC gr 
 gsave  710 682 779 14 C 824.21 293.71 t 0 r /Helvetica findfont 31.931 sf 0 0 m (10) show NC gr  893 328 m -8 X s 893 339 m -8 X s 893 347 m -8 X s 893 353 m -8 X s 893 358 m -8 X s 893 362 m -8 X s 893 366 m -8 X s 893 369 m -8 X s 901 372 m -16 X
 s
 gsave  710 682 779 14 C 858.363 371.122 t 0 r /Helvetica findfont 20.5271 sf 0 0 m (\2554) show NC gr 
 gsave  710 682 779 14 C 824.21 357.461 t 0 r /Helvetica findfont 31.931 sf 0 0 m (10) show NC gr  893 391 m -8 X s 893 403 m -8 X s 893 411 m -8 X s 893 417 m -8 X s 893 422 m -8 X s 893 426 m -8 X s 893 430 m -8 X s 893 433 m -8 X s 901 436 m -16 X
 s
 gsave  710 682 779 14 C 858.363 437.15 t 0 r /Helvetica findfont 20.5271 sf 0 0 m (\2553) show NC gr 
 gsave  710 682 779 14 C 824.21 421.212 t 0 r /Helvetica findfont 31.931 sf 0 0 m (10) show NC gr  893 455 m -8 X s 893 467 m -8 X s 893 475 m -8 X s 893 481 m -8 X s 893 486 m -8 X s 893 490 m -8 X s 893 494 m -8 X s 893 497 m -8 X s 901 500 m -16 X
 s
 gsave  710 682 779 14 C 858.363 498.624 t 0 r /Helvetica findfont 20.5271 sf 0 0 m (\2552) show NC gr 
 gsave  710 682 779 14 C 824.21 484.964 t 0 r /Helvetica findfont 31.931 sf 0 0 m (10) show NC gr  893 519 m -8 X s 893 531 m -8 X s 893 539 m -8 X s 893 545 m -8 X s 893 550 m -8 X s 893 554 m -8 X s 893 558 m -8 X s 893 561 m -8 X s 901 564 m -16 X
 s
 gsave  710 682 779 14 C 860.639 562.375 t 0 r /Helvetica findfont 20.5271 sf 0 0 m (\2551) show NC gr 
 gsave  710 682 779 14 C 826.487 548.715 t 0 r /Helvetica findfont 31.931 sf 0 0 m (10) show NC gr  893 583 m -8 X s 893 595 m -8 X s 893 603 m -8 X s 893 609 m -8 X s 893 614 m -8 X s 893 618 m -8 X s 893 622 m -8 X s 893 625 m -8 X s 901 628 m -16
 X s
 gsave  710 682 779 14 C 878.77 615.216 t 0 r  -17 0 t /Helvetica findfont 31.931 sf 0 0 m (1) show NC gr  6 lw 1 1 1 c black 941 156 m 4 Y s 3 lw /w 21 def /w2 {w 2 div} def /w3 {w 3 div} def 941 169 m20 6 lw 3 lw 945 196 m20 6 lw 3 lw 950 223 m20 6
 lw 3 lw 954 253 m20 6 lw 3 lw 958 298 m20 6 lw 3 lw 963 371 m20 6 lw 3 lw 967 457 m20 6 lw 3 lw 972 555 m20 6 lw 3 lw 976 612 m20 6 lw 3 lw 981 587 m20 6 lw 3 lw 985 557 m20 6 lw 3 lw 990 533 m20 6 lw 3 lw 994 511 m20 6 lw 3 lw 998 493 m20 6 lw 3 lw
 1003 476 m20 6 lw 3 lw 1007 461 m20 6 lw 3 lw 1012 447 m20 6 lw 3 lw 1016 433 m20 6 lw 3 lw 1021 424 m20 6 lw 3 lw 1025 413 m20 6 lw 3 lw 1029 404 m20 6 lw 3 lw 1034 394 m20 6 lw 3 lw 1038 386 m20 6 lw 3 lw 1043 377 m20 6 lw 3 lw 1047 370 m20 6 lw 3
 lw 1052 364 m20 6 lw 3 lw 1056 356 m20 6 lw 3 lw 1061 351 m20 6 lw 3 lw 1065 344 m20 6 lw 3 lw 1069 338 m20 6 lw 3 lw 1074 333 m20 6 lw 3 lw 1078 327 m20 6 lw 3 lw 1083 322 m20 6 lw 3 lw 1087 317 m20 6 lw 3 lw 1092 313 m20 6 lw 3 lw 1096 308 m20 6
 lw 3 lw 1101 304 m20 6 lw 3 lw 1105 301 m20 6 lw 3 lw 1109 295 m20 6 lw 3 lw 1114 293 m20 6 lw 3 lw 1118 289 m20 6 lw 3 lw 1123 284 m20 6 lw 3 lw 1127 280 m20 6 lw 3 lw 1132 279 m20 6 lw 3 lw 1136 271 m20 6 lw 3 lw 1141 270 m20 6 lw 3 lw 1145 271
 m20 6 lw 3 lw 1149 267 m20 6 lw 3 lw 1154 256 m20 6 lw 3 lw 1158 254 m20 6 lw 3 lw 1163 256 m20 6 lw 3 lw 1167 254 m20 6 lw 3 lw 1172 240 m20 6 lw 3 lw 1176 246 m20 6 lw 3 lw 1180 240 m20 6 lw 3 lw 1185 238 m20 6 lw 3 lw 1189 235 m20 6 lw 3 lw 1194
 231 m20 6 lw 3 lw 1198 237 m20 6 lw 3 lw 1203 228 m20 6 lw 3 lw 1207 219 m20 6 lw 3 lw 1212 224 m20 6 lw 3 lw 1216 231 m20 6 lw 3 lw 1220 218 m20 6 lw 3 lw 1225 227 m20 6 lw 3 lw 1229 217 m20 6 lw 3 lw 1234 213 m20 6 lw 3 lw 1238 215 m20 6 lw 3 lw
 1243 209 m20 6 lw 3 lw 1247 206 m20 6 lw 3 lw 1252 202 m20 6 lw 3 lw 1256 192 m20 6 lw 3 lw 1260 196 m20 6 lw 3 lw 1265 190 m20 6 lw 3 lw 1269 199 m20 6 lw 3 lw 1274 205 m20 6 lw 3 lw 1278 199 m20 6 lw 3 lw 1283 192 m20 6 lw 3 lw 1287 199 m20 6 lw 3
 lw 1292 190 m20 6 lw 3 lw 1296 188 m20 6 lw 1300 174 m 1 Y s 3 lw 1300 184 m20 6 lw 1305 160 m 3 Y s 3 lw 1305 172 m20 6 lw 3 lw 1309 186 m20 6 lw 1314 171 m 1 Y s 3 lw 1314 181 m20 6 lw 3 lw 1318 192 m20 6 lw 1323 168 m 1 Y s 3 lw 1323 179 m20 6 lw
 3 lw 1327 196 m20 6 lw 1331 156 m 4 Y s 3 lw 1331 169 m20 6 lw 3 lw 1336 186 m20 6 lw 1340 150 m 5 Y s 1340 174 m s 3 lw 1340 164 m20 6 lw 1345 160 m 3 Y s 3 lw 1345 172 m20 6 lw 1349 143 m 7 Y s 1349 168 m 2 Y s 3 lw 1349 159 m20 6 lw 1354 168 m 1
 Y s 3 lw 1354 179 m20 6 lw 1358 171 m 1 Y s 3 lw 1358 181 m20 6 lw 1363 171 m 1 Y s 3 lw 1363 181 m20 6 lw 1371 150 m 5 Y s 1371 174 m s 3 lw 1371 164 m20 6 lw 1380 117 m 8 Y s 1380 143 m 6 Y s 3 lw 1380 134 m20 6 lw 1389 134 m 10 Y s 1389 162 m 2 Y
 s 3 lw 1389 153 m20 6 lw 1398 143 m 7 Y s 1398 168 m 2 Y s 3 lw 1398 159 m20 6 lw 1403 117 m 8 Y s 1403 143 m 6 Y s 3 lw 1403 134 m20 6 lw 0 0 1 c 1 1 1 c 0 0 1 c 941 145 m 8 Y s 941 171 m 1 Y s 3 lw /w 18 def /w2 {w 2 div} def /w3 {w 3 div} def 941
 162 m21 6 lw 3 lw 945 188 m21 6 lw 3 lw 950 223 m21 6 lw 3 lw 954 256 m21 6 lw 3 lw 958 304 m21 6 lw 3 lw 963 375 m21 6 lw 3 lw 967 462 m21 6 lw 3 lw 972 559 m21 6 lw 3 lw 976 615 m21 6 lw 3 lw 981 586 m21 6 lw 3 lw 985 542 m21 6 lw 3 lw 990 512 m21
 6 lw 3 lw 994 486 m21 6 lw 3 lw 998 465 m21 6 lw 3 lw 1003 445 m21 6 lw 3 lw 1007 429 m21 6 lw 3 lw 1012 413 m21 6 lw 3 lw 1016 400 m21 6 lw 3 lw 1021 387 m21 6 lw 3 lw 1025 377 m21 6 lw 3 lw 1029 366 m21 6 lw 3 lw 1034 357 m21 6 lw 3 lw 1038 347
 m21 6 lw 3 lw 1043 339 m21 6 lw 3 lw 1047 331 m21 6 lw 3 lw 1052 325 m21 6 lw 3 lw 1056 318 m21 6 lw 3 lw 1061 310 m21 6 lw 3 lw 1065 304 m21 6 lw 3 lw 1069 297 m21 6 lw 3 lw 1074 293 m21 6 lw 3 lw 1078 287 m21 6 lw 3 lw 1083 280 m21 6 lw 3 lw 1087
 278 m21 6 lw 3 lw 1092 275 m21 6 lw 3 lw 1096 267 m21 6 lw 3 lw 1101 266 m21 6 lw 3 lw 1105 260 m21 6 lw 3 lw 1109 257 m21 6 lw 3 lw 1114 251 m21 6 lw 3 lw 1118 243 m21 6 lw 3 lw 1123 239 m21 6 lw 3 lw 1127 243 m21 6 lw 3 lw 1132 234 m21 6 lw 3 lw
 1136 231 m21 6 lw 3 lw 1141 232 m21 6 lw 3 lw 1145 223 m21 6 lw 3 lw 1149 226 m21 6 lw 3 lw 1154 217 m21 6 lw 3 lw 1158 218 m21 6 lw 3 lw 1163 207 m21 6 lw 3 lw 1167 215 m21 6 lw 3 lw 1172 213 m21 6 lw 3 lw 1176 210 m21 6 lw 3 lw 1180 200 m21 6 lw 3
 lw 1185 194 m21 6 lw 3 lw 1189 199 m21 6 lw 3 lw 1194 200 m21 6 lw 1198 177 m s 3 lw 1198 186 m21 6 lw 1203 177 m s 3 lw 1203 186 m21 6 lw 1207 167 m 2 Y s 3 lw 1207 178 m21 6 lw 1212 124 m 15 Y s 1212 157 m 3 Y s 3 lw 1212 148 m21 6 lw 1216 177 m s
 3 lw 1216 186 m21 6 lw 1220 158 m 4 Y s 3 lw 1220 171 m21 6 lw 3 lw 1225 188 m21 6 lw 1229 117 m 10 Y s 1229 146 m 5 Y s 3 lw 1229 136 m21 6 lw 1234 117 m 10 Y s 1234 146 m 5 Y s 3 lw 1234 136 m21 6 lw 1238 145 m 8 Y s 1238 171 m 1 Y s 3 lw 1238 162
 m21 6 lw 3 lw 1243 192 m21 6 lw 1247 124 m 15 Y s 1247 157 m 3 Y s 3 lw 1247 148 m21 6 lw 1252 117 m 10 Y s 1252 146 m 5 Y s 3 lw 1252 136 m21 6 lw 1256 117 m 10 Y s 1256 146 m 5 Y s 3 lw 1256 136 m21 6 lw 1260 152 m 6 Y s 1260 176 m s 3 lw 1260 167
 m21 6 lw 1274 124 m 15 Y s 1274 157 m 3 Y s 3 lw 1274 148 m21 6 lw 1278 145 m 8 Y s 1278 171 m 1 Y s 3 lw 1278 162 m21 6 lw 1283 145 m 8 Y s 1283 171 m 1 Y s 3 lw 1283 162 m21 6 lw 1287 158 m 4 Y s 3 lw 1287 171 m21 6 lw 1292 126 m 10 Y s 3 lw 1292
 117 m21 6 lw 1300 136 m 11 Y s 1300 165 m 2 Y s 3 lw 1300 156 m21 6 lw 1305 152 m 6 Y s 1305 176 m s 3 lw 1305 167 m21 6 lw 1309 145 m 8 Y s 1309 171 m 1 Y s 3 lw 1309 162 m21 6 lw 1314 117 m 10 Y s 1314 146 m 5 Y s 3 lw 1314 136 m21 6 lw 1318 124 m
 15 Y s 1318 157 m 3 Y s 3 lw 1318 148 m21 6 lw 1323 117 m 10 Y s 1323 146 m 5 Y s 3 lw 1323 136 m21 6 lw 1327 145 m 8 Y s 1327 171 m 1 Y s 3 lw 1327 162 m21 6 lw 1331 117 m 10 Y s 1331 146 m 5 Y s 3 lw 1331 136 m21 6 lw 1336 117 m 10 Y s 1336 146 m
 5 Y s 3 lw 1336 136 m21 6 lw 1345 126 m 10 Y s 3 lw 1345 117 m21 6 lw 1349 117 m 10 Y s 1349 146 m 5 Y s 3 lw 1349 136 m21 6 lw 1358 126 m 10 Y s 3 lw 1358 117 m21 6 lw 1363 145 m 8 Y s 1363 171 m 1 Y s 3 lw 1363 162 m21 6 lw 1367 126 m 10 Y s 3 lw
 1367 117 m21 6 lw 1376 126 m 10 Y s 3 lw 1376 117 m21 6 lw 1380 117 m 10 Y s 1380 146 m 5 Y s 3 lw 1380 136 m21 6 lw 1394 126 m 10 Y s 3 lw 1394 117 m21 6 lw 1403 126 m 10 Y s 3 lw 1403 117 m21 6 lw 1 0 0 c 1 1 1 c 1 0 0 c 941 144 m 8 Y s 941 170 m
 1 Y s 3 lw 941 161 m22 6 lw 3 lw 945 198 m22 6 lw 3 lw 950 221 m22 6 lw 3 lw 954 252 m22 6 lw 3 lw 958 302 m22 6 lw 3 lw 963 374 m22 6 lw 3 lw 967 460 m22 6 lw 3 lw 972 558 m22 6 lw 3 lw 976 613 m22 6 lw 3 lw 981 586 m22 6 lw 3 lw 985 549 m22 6 lw 3
 lw 990 522 m22 6 lw 3 lw 994 499 m22 6 lw 3 lw 998 479 m22 6 lw 3 lw 1003 462 m22 6 lw 3 lw 1007 446 m22 6 lw 3 lw 1012 431 m22 6 lw 3 lw 1016 418 m22 6 lw 3 lw 1021 408 m22 6 lw 3 lw 1025 397 m22 6 lw 3 lw 1029 388 m22 6 lw 3 lw 1034 378 m22 6 lw 3
 lw 1038 369 m22 6 lw 3 lw 1043 361 m22 6 lw 3 lw 1047 354 m22 6 lw 3 lw 1052 346 m22 6 lw 3 lw 1056 340 m22 6 lw 3 lw 1061 333 m22 6 lw 3 lw 1065 325 m22 6 lw 3 lw 1069 322 m22 6 lw 3 lw 1074 316 m22 6 lw 3 lw 1078 311 m22 6 lw 3 lw 1083 306 m22 6
 lw 3 lw 1087 298 m22 6 lw 3 lw 1092 296 m22 6 lw 3 lw 1096 292 m22 6 lw 3 lw 1101 289 m22 6 lw 3 lw 1105 281 m22 6 lw 3 lw 1109 278 m22 6 lw 3 lw 1114 274 m22 6 lw 3 lw 1118 275 m22 6 lw 3 lw 1123 266 m22 6 lw 3 lw 1127 260 m22 6 lw 3 lw 1132 259
 m22 6 lw 3 lw 1136 258 m22 6 lw 3 lw 1141 254 m22 6 lw 3 lw 1145 254 m22 6 lw 3 lw 1149 244 m22 6 lw 3 lw 1154 243 m22 6 lw 3 lw 1158 241 m22 6 lw 3 lw 1163 233 m22 6 lw 3 lw 1167 234 m22 6 lw 3 lw 1172 230 m22 6 lw 3 lw 1176 217 m22 6 lw 3 lw 1180
 221 m22 6 lw 3 lw 1185 226 m22 6 lw 3 lw 1189 218 m22 6 lw 3 lw 1194 218 m22 6 lw 3 lw 1198 217 m22 6 lw 3 lw 1203 208 m22 6 lw 3 lw 1207 209 m22 6 lw 3 lw 1212 208 m22 6 lw 3 lw 1216 207 m22 6 lw 3 lw 1220 203 m22 6 lw 3 lw 1225 201 m22 6 lw 3 lw
 1229 195 m22 6 lw 3 lw 1234 195 m22 6 lw 3 lw 1238 198 m22 6 lw 3 lw 1243 196 m22 6 lw 3 lw 1247 187 m22 6 lw 1252 170 m 1 Y s 3 lw 1252 180 m22 6 lw 1256 170 m 1 Y s 3 lw 1256 180 m22 6 lw 1260 166 m 2 Y s 3 lw 1260 177 m22 6 lw 1265 151 m 6 Y s
 1265 175 m s 3 lw 1265 166 m22 6 lw 1269 162 m 3 Y s 3 lw 1269 174 m22 6 lw 3 lw 1274 195 m22 6 lw 3 lw 1278 189 m22 6 lw 1283 157 m 4 Y s 3 lw 1283 170 m22 6 lw 1287 176 m s 3 lw 1287 185 m22 6 lw 1292 151 m 6 Y s 1292 175 m s 3 lw 1292 166 m22 6
 lw 1296 151 m 6 Y s 1296 175 m s 3 lw 1296 166 m22 6 lw 1300 117 m 9 Y s 1300 145 m 5 Y s 3 lw 1300 135 m22 6 lw 1305 162 m 3 Y s 3 lw 1305 174 m22 6 lw 1309 144 m 8 Y s 1309 170 m 1 Y s 3 lw 1309 161 m22 6 lw 1314 135 m 11 Y s 1314 164 m 2 Y s 3 lw
 1314 155 m22 6 lw 1318 144 m 8 Y s 1318 170 m 1 Y s 3 lw 1318 161 m22 6 lw 1323 157 m 4 Y s 3 lw 1323 170 m22 6 lw 1327 151 m 6 Y s 1327 175 m s 3 lw 1327 166 m22 6 lw 1331 123 m 15 Y s 1331 156 m 3 Y s 3 lw 1331 147 m22 6 lw 1340 135 m 11 Y s 1340
 164 m 2 Y s 3 lw 1340 155 m22 6 lw 1349 123 m 15 Y s 1349 156 m 3 Y s 3 lw 1349 147 m22 6 lw 1354 144 m 8 Y s 1354 170 m 1 Y s 3 lw 1354 161 m22 6 lw 1358 144 m 8 Y s 1358 170 m 1 Y s 3 lw 1358 161 m22 6 lw 1363 135 m 11 Y s 1363 164 m 2 Y s 3 lw
 1363 155 m22 6 lw 1367 117 m 9 Y s 1367 145 m 5 Y s 3 lw 1367 135 m22 6 lw 1371 135 m 11 Y s 1371 164 m 2 Y s 3 lw 1371 155 m22 6 lw 1376 144 m 8 Y s 1376 170 m 1 Y s 3 lw 1376 161 m22 6 lw 1380 135 m 11 Y s 1380 164 m 2 Y s 3 lw 1380 155 m22 6 lw
 1394 123 m 15 Y s 1394 156 m 3 Y s 3 lw 1394 147 m22 6 lw 1398 117 m 9 Y s 1398 145 m 5 Y s 3 lw 1398 135 m22 6 lw black
 gsave  710 682 779 14 C 1124.75 596.528 t 0 r /Helvetica findfont 29.6502 sf 0 0 m (Centrality: 80 \255 100%) show NC gr 
 gsave  710 682 779 14 C 1206.72 503.178 t 0 r /Helvetica findfont 29.6502 sf 0 0 m (=0.69 GeV/c) show NC gr 
 gsave  710 682 779 14 C 1188.5 503.178 t 0 r /Symbol findfont 29.6502 sf 0 0 m (s) show NC gr 
 gsave  710 682 779 14 C 1188.5 535.054 t 0 r /Helvetica findfont 29.6502 sf 0 0 m (RC) show NC gr  3 lw /w 21 def /w2 {w 2 div} def /w3 {w 3 div} def 1155 529 m20 6 lw
 gsave  710 682 779 14 C 1206.72 425.766 t 0 r /Helvetica findfont 29.6502 sf 0 0 m (=0.48 GeV/c) show NC gr 
 gsave  710 682 779 14 C 1188.5 425.766 t 0 r /Symbol findfont 29.6502 sf 0 0 m (s) show NC gr 
 gsave  710 682 779 14 C 1188.5 462.195 t 0 r /Helvetica findfont 29.6502 sf 0 0 m (RC w/o lead. jet) show NC gr  0 0 1 c 3 lw /w 18 def /w2 {w 2 div} def /w3 {w 3 div} def 1155 454 m21 6 lw black
 gsave  710 682 779 14 C 1206.72 350.631 t 0 r /Helvetica findfont 29.6502 sf 0 0 m (=0.58 GeV/c) show NC gr 
 gsave  710 682 779 14 C 1188.5 350.631 t 0 r /Symbol findfont 29.6502 sf 0 0 m (s) show NC gr 
 gsave  710 682 779 14 C 1188.5 387.06 t 0 r /Helvetica findfont 29.6502 sf 0 0 m (RC partial) show NC gr  1 0 0 c 3 lw 1155 379 m22 6 lw black 3 lw 0.999 0.999 0.999 c 711 682 1534 14 bf
 gr  gr showpage
end
%%EOF
