RampRate 10 
Slot Channel Voltages Protect
1	1	0, 100, 200, 300, 400, 460, 460, 460, 460, 460,  465,  470,   475,  480,  485, 485, 485, 485	 *
1	2	0, 140, 240, 340, 440, 495, 495, 495, 495, 495,  500,  505,   510,  515,  520, 520, 520, 520	 *
1	3	0, 140, 240, 340, 440, 495, 590, 590, 705, 705,  710,  715,   720,  725,  730, 730, 730, 730	 *
1	4	0, 140, 240, 340, 440, 540, 590, 590, 890, 1190, 1305, 1315, 1320, 1325, 1330, 1330, 1330, 1330	 *
1	5	0, 140, 240, 340, 440, 540, 590, 590, 890, 1190, 1305, 1400, 1450, 1535, 1545, 1550, 1550, 1550	 *
1	6	0, 140, 240, 340, 440, 540, 590, 590, 890, 1190, 1490, 1600, 1650, 1700, 1730, 1750, 1850, 1950	 *
1	7	0, 140, 240, 340, 440, 540, 590, 590, 890, 1190, 1490, 1600, 1650, 2050, 2350, 2650, 2850, 3150	 *
1	8	0, 140, 240, 340, 440, 540, 590, 590, 890, 1190, 1490, 1600, 1650, 2050, 2350, 2650, 2850, 3150	 *
Wait	-, -, -, -, -, -, -, -, -, -, -, -, -, -, -, -, -, -, -, -
