%!PS-Adobe-2.0 EPSF-2.0
%%BoundingBox:  0 0 567 398
%%Title: : 
%%Creator: ROOT Version 5.34/09
%%CreationDate: Fri Mar 28 16:22:34 2014
%%EndComments
%%BeginProlog
80 dict begin
/s {stroke} def /l {lineto} def /m {moveto} def /t {translate} def
/r {rotate} def /rl {roll}  def /R {repeat} def
/d {rlineto} def /rm {rmoveto} def /gr {grestore} def /f {eofill} def
/c {setrgbcolor} def /black {0 setgray} def /sd {setdash} def
/cl {closepath} def /sf {scalefont setfont} def /lw {setlinewidth} def
/box {m dup 0 exch d exch 0 d 0 exch neg d cl} def
/NC{systemdict begin initclip end}def/C{NC box clip newpath}def
/bl {box s} def /bf {box f} def /Y { 0 exch d} def /X { 0 d} def 
/K {{pop pop 0 moveto} exch kshow} bind def
/ita {/ang 15 def gsave [1 0 ang dup sin exch cos div 1 0 0] concat} def 
/mp {newpath /y exch def /x exch def} def
/side {[w .77 mul w .23 mul] .385 w mul sd w 0 l currentpoint t -144 r} def
/mr {mp x y w2 0 360 arc} def /m24 {mr s} def /m20 {mr f} def
/mb {mp x y w2 add m w2 neg 0 d 0 w neg d w 0 d 0 w d cl} def
/mt {mp x y w2 add m w2 neg w neg d w 0 d cl} def
/m21 {mb f} def /m25 {mb s} def /m22 {mt f} def /m26{mt s} def
/m23 {mp x y w2 sub m w2 w d w neg 0 d cl f} def
/m27 {mp x y w2 add m w3 neg w2 neg d w3 w2 neg d w3 w2 d cl s} def
/m28 {mp x w2 sub y w2 sub w3 add m w3 0 d  0 w3 neg d w3 0 d 0 w3 d w3 0 d  0 w3 d w3 neg 0 d 0 w3 d w3 neg 0 d 0 w3 neg d w3 neg 0 d cl s } def
/m29 {mp gsave x w2 sub y w2 add w3 sub m currentpoint t 4 {side} repeat cl fill gr} def
/m30 {mp gsave x w2 sub y w2 add w3 sub m currentpoint t 4 {side} repeat cl s gr} def
/m31 {mp x y w2 sub m 0 w d x w2 sub y m w 0 d x w2 sub y w2 add m w w neg d x w2 sub y w2 sub m w w d s} def
/m32 {mp x y w2 sub m w2 w d w neg 0 d cl s} def
/m33 {mp x y w2 add m w3 neg w2 neg d w3 w2 neg d w3 w2 d cl f} def
/m34 {mp x w2 sub y w2 sub w3 add m w3 0 d  0 w3 neg d w3 0 d 0 w3 d w3 0 d  0 w3 d w3 neg 0 d 0 w3 d w3 neg 0 d 0 w3 neg d w3 neg 0 d cl f } def
/m2 {mp x y w2 sub m 0 w d x w2 sub y m w 0 d s} def
/m5 {mp x w2 sub y w2 sub m w w d x w2 sub y w2 add m w w neg d s} def
/reEncode {exch findfont dup length dict begin {1 index /FID eq  {pop pop} {def} ifelse } forall /Encoding exch def currentdict end dup /FontName get exch definefont pop } def [/Times-Bold /Times-Italic /Times-BoldItalic /Helvetica /Helvetica-Oblique
 /Helvetica-Bold /Helvetica-BoldOblique /Courier /Courier-Oblique /Courier-Bold /Courier-BoldOblique /Times-Roman /AvantGarde-Book /AvantGarde-BookOblique /AvantGarde-Demi /AvantGarde-DemiOblique /Bookman-Demi /Bookman-DemiItalic /Bookman-Light
 /Bookman-LightItalic /Helvetica-Narrow /Helvetica-Narrow-Bold /Helvetica-Narrow-BoldOblique /Helvetica-Narrow-Oblique /NewCenturySchlbk-Roman /NewCenturySchlbk-Bold /NewCenturySchlbk-BoldItalic /NewCenturySchlbk-Italic /Palatino-Bold
 /Palatino-BoldItalic /Palatino-Italic /Palatino-Roman ] {ISOLatin1Encoding reEncode } forall
%%EndProlog
%%BeginSetup
%%EndSetup
newpath  gsave  .25 .25 scale  gsave  0 0 t black[  ] 0 sd 3 lw 0.999 0.999 0.999 c 2268 1594 0 0 bf black 0.999 0.999 0.999 c 1814 1276 227 159 bf black 1814 1276 227 159 bl 0 0 1 c 1 1 1 c 0 0 1 c 227 343 m 10 X s 253 343 m 10 X s /w 16 def /w2 {w
 2 div} def /w3 {w 3 div} def 245 343 m20 281 894 m 14 Y s 281 925 m 14 Y s 263 917 m 10 X s 289 917 m 10 X s 281 917 m20 317 967 m 34 Y s 317 1017 m 35 Y s 299 1009 m 10 X s 326 1009 m 10 X s 317 1009 m20 354 956 m 48 Y s 354 1020 m 48 Y s 336 1012
 m 10 X s 362 1012 m 10 X s 354 1012 m20 390 960 m 59 Y s 390 1036 m 58 Y s 372 1027 m 10 X s 398 1027 m 10 X s 390 1027 m20 426 941 m 67 Y s 426 1025 m 67 Y s 408 1016 m 10 X s 435 1016 m 9 X s 426 1016 m20 463 975 m 58 Y s 463 1050 m 58 Y s 444
 1041 m 10 X s 471 1041 m 10 X s 463 1041 m20 499 941 m 71 Y s 499 1028 m 71 Y s 481 1020 m 10 X s 507 1020 m 10 X s 499 1020 m20 535 973 m 55 Y s 535 1044 m 55 Y s 517 1036 m 10 X s 543 1036 m 10 X s 535 1036 m20 571 979 m 54 Y s 571 1050 m 54 Y s
 553 1041 m 10 X s 580 1041 m 10 X s 571 1041 m20 608 993 m 59 Y s 608 1068 m 59 Y s 590 1060 m 10 X s 616 1060 m 10 X s 608 1060 m20 644 958 m 61 Y s 644 1035 m 61 Y s 626 1027 m 10 X s 652 1027 m 10 X s 644 1027 m20 680 995 m 58 Y s 680 1069 m 58 Y
 s 662 1061 m 10 X s 689 1061 m 9 X s 680 1061 m20 717 997 m 53 Y s 717 1067 m 53 Y s 698 1058 m 10 X s 725 1058 m 10 X s 717 1058 m20 753 991 m 60 Y s 753 1067 m 60 Y s 735 1059 m 10 X s 761 1059 m 10 X s 753 1059 m20 789 948 m 56 Y s 789 1021 m 55
 Y s 771 1012 m 10 X s 797 1012 m 10 X s 789 1012 m20 825 979 m 59 Y s 825 1055 m 59 Y s 807 1047 m 10 X s 834 1047 m 10 X s 825 1047 m20 862 979 m 57 Y s 862 1052 m 57 Y s 844 1044 m 10 X s 870 1044 m 10 X s 862 1044 m20 898 975 m 59 Y s 898 1050 m
 59 Y s 880 1042 m 10 X s 906 1042 m 10 X s 898 1042 m20 934 996 m 52 Y s 934 1064 m 52 Y s 916 1056 m 10 X s 943 1056 m 9 X s 934 1056 m20 971 918 m 69 Y s 971 1003 m 70 Y s 952 995 m 10 X s 979 995 m 10 X s 971 995 m20 1007 981 m 56 Y s 1007 1053 m
 56 Y s 989 1045 m 10 X s 1015 1045 m 10 X s 1007 1045 m20 1043 980 m 53 Y s 1043 1050 m 53 Y s 1025 1042 m 10 X s 1051 1042 m 10 X s 1043 1042 m20 1079 977 m 54 Y s 1079 1047 m 54 Y s 1061 1039 m 10 X s 1088 1039 m 10 X s 1079 1039 m20 1116 953 m 57
 Y s 1116 1027 m 57 Y s 1098 1018 m 10 X s 1124 1018 m 10 X s 1116 1018 m20 1152 992 m 52 Y s 1152 1061 m 52 Y s 1134 1053 m 10 X s 1160 1053 m 10 X s 1152 1053 m20 1188 1005 m 63 Y s 1188 1085 m 63 Y s 1170 1076 m 10 X s 1196 1076 m 10 X s 1188 1076
 m20 1225 956 m 65 Y s 1225 1038 m 66 Y s 1206 1030 m 10 X s 1233 1030 m 10 X s 1225 1030 m20 1261 983 m 51 Y s 1261 1051 m 51 Y s 1243 1043 m 10 X s 1269 1043 m 10 X s 1261 1043 m20 1297 977 m 55 Y s 1297 1049 m 55 Y s 1279 1041 m 10 X s 1305 1041 m
 10 X s 1297 1041 m20 1333 989 m 53 Y s 1333 1058 m 54 Y s 1315 1050 m 10 X s 1342 1050 m 10 X s 1333 1050 m20 1370 924 m 60 Y s 1370 1000 m 61 Y s 1352 992 m 9 X s 1378 992 m 10 X s 1370 992 m20 1406 965 m 56 Y s 1406 1037 m 56 Y s 1388 1029 m 10 X
 s 1414 1029 m 10 X s 1406 1029 m20 1442 997 m 56 Y s 1442 1070 m 56 Y s 1424 1061 m 10 X s 1450 1061 m 10 X s 1442 1061 m20 1479 974 m 58 Y s 1479 1048 m 58 Y s 1460 1040 m 10 X s 1487 1040 m 10 X s 1479 1040 m20 1515 971 m 54 Y s 1515 1042 m 54 Y s
 1497 1034 m 10 X s 1523 1034 m 10 X s 1515 1034 m20 1551 941 m 60 Y s 1551 1018 m 60 Y s 1533 1010 m 10 X s 1559 1010 m 10 X s 1551 1010 m20 1587 985 m 57 Y s 1587 1059 m 56 Y s 1569 1050 m 10 X s 1596 1050 m 10 X s 1587 1050 m20 1624 1005 m 50 Y s
 1624 1072 m 50 Y s 1606 1064 m 9 X s 1632 1064 m 10 X s 1624 1064 m20 1660 983 m 53 Y s 1660 1052 m 52 Y s 1642 1044 m 10 X s 1668 1044 m 10 X s 1660 1044 m20 1696 1007 m 53 Y s 1696 1077 m 53 Y s 1678 1069 m 10 X s 1704 1069 m 10 X s 1696 1069 m20
 1733 982 m 52 Y s 1733 1051 m 51 Y s 1714 1042 m 10 X s 1741 1042 m 10 X s 1733 1042 m20 1769 999 m 57 Y s 1769 1073 m 57 Y s 1751 1064 m 10 X s 1777 1064 m 10 X s 1769 1064 m20 1805 981 m 60 Y s 1805 1057 m 60 Y s 1787 1049 m 10 X s 1813 1049 m 10
 X s 1805 1049 m20 1841 1021 m 59 Y s 1841 1096 m 59 Y s 1823 1088 m 10 X s 1850 1088 m 10 X s 1841 1088 m20 1878 1006 m 61 Y s 1878 1084 m 61 Y s 1860 1075 m 9 X s 1886 1075 m 10 X s 1878 1075 m20 1914 1048 m 60 Y s 1914 1125 m 60 Y s 1896 1116 m 10
 X s 1922 1116 m 10 X s 1914 1116 m20 1950 983 m 60 Y s 1950 1059 m 60 Y s 1932 1051 m 10 X s 1958 1051 m 10 X s 1950 1051 m20 1987 1005 m 64 Y s 1987 1086 m 64 Y s 1968 1077 m 10 X s 1995 1077 m 10 X s 1987 1077 m20 2023 1014 m 69 Y s 2023 1099 m 69
 Y s 2005 1091 m 10 X s 2031 1091 m 10 X s 2023 1091 m20 black 227 159 m 1814 X s
 gsave  2268 1594 0 0 C 1850.74 49.2982 t 0 r /Helvetica findfont 51.3523 sf 0 0 m ( \(GeV/c\)) show NC gr 
 gsave  2268 1594 0 0 C 1782.95 76.0014 t 0 r /Helvetica findfont 34.9195 sf 0 0 m (part) show NC gr 
 gsave  2268 1594 0 0 C 1782.95 20.5409 t 0 r /Helvetica findfont 34.9195 sf 0 0 m (T,jet) show NC gr 
 gsave  2268 1594 0 0 C 1754.19 49.2982 t 0 r /Helvetica findfont 51.3523 sf 0 0 m (p) show NC gr  227 198 m -39 Y s 299 179 m -20 Y s 372 179 m -20 Y s 444 179 m -20 Y s 517 179 m -20 Y s 590 198 m -39 Y s 662 179 m -20 Y s 735 179 m -20 Y s 807 179
 m -20 Y s 880 179 m -20 Y s 952 198 m -39 Y s 1025 179 m -20 Y s 1098 179 m -20 Y s 1170 179 m -20 Y s 1243 179 m -20 Y s 1315 198 m -39 Y s 1388 179 m -20 Y s 1460 179 m -20 Y s 1533 179 m -20 Y s 1606 179 m -20 Y s 1678 198 m -39 Y s 1751 179 m
 -20 Y s 1823 179 m -20 Y s 1896 179 m -20 Y s 1968 179 m -20 Y s 2041 198 m -39 Y s
 gsave  2268 1594 0 0 C 211.571 106.813 t 0 r /Helvetica findfont 51.3523 sf 0 0 m (0) show NC gr 
 gsave  2268 1594 0 0 C 560.767 106.813 t 0 r /Helvetica findfont 51.3523 sf 0 0 m (50) show NC gr 
 gsave  2268 1594 0 0 C 907.908 106.813 t 0 r /Helvetica findfont 51.3523 sf 0 0 m (100) show NC gr 
 gsave  2268 1594 0 0 C 1271.48 106.813 t 0 r /Helvetica findfont 51.3523 sf 0 0 m (150) show NC gr 
 gsave  2268 1594 0 0 C 1633 106.813 t 0 r /Helvetica findfont 51.3523 sf 0 0 m (200) show NC gr 
 gsave  2268 1594 0 0 C 1996.58 106.813 t 0 r /Helvetica findfont 51.3523 sf 0 0 m (250) show NC gr  227 159 m 1276 Y s
 gsave  2268 1594 0 0 C 82.1636 1216.02 t 90 r /Helvetica findfont 51.3523 sf 0 0 m (Efficiency) show NC gr  281 159 m -54 X s 254 196 m -27 X s 254 232 m -27 X s 254 269 m -27 X s 254 305 m -27 X s 281 342 m -54 X s 254 378 m -27 X s 254 414 m -27 X
 s 254 451 m -27 X s 254 487 m -27 X s 281 524 m -54 X s 254 560 m -27 X s 254 597 m -27 X s 254 633 m -27 X s 254 669 m -27 X s 281 706 m -54 X s 254 742 m -27 X s 254 779 m -27 X s 254 815 m -27 X s 254 852 m -27 X s 281 888 m -54 X s 254 925 m -27
 X s 254 961 m -27 X s 254 997 m -27 X s 254 1034 m -27 X s 281 1070 m -54 X s 254 1107 m -27 X s 254 1143 m -27 X s 254 1180 m -27 X s 254 1216 m -27 X s 281 1252 m -54 X s 254 1289 m -27 X s 254 1325 m -27 X s 254 1362 m -27 X s 254 1398 m -27 X s
 281 1435 m -54 X s
 gsave  2268 1594 0 0 C 143.786 141.732 t 0 r /Helvetica findfont 51.3523 sf 0 0 m (0.5) show NC gr 
 gsave  2268 1594 0 0 C 143.786 324.546 t 0 r /Helvetica findfont 51.3523 sf 0 0 m (0.6) show NC gr 
 gsave  2268 1594 0 0 C 143.786 505.306 t 0 r /Helvetica findfont 51.3523 sf 0 0 m (0.7) show NC gr 
 gsave  2268 1594 0 0 C 143.786 688.12 t 0 r /Helvetica findfont 51.3523 sf 0 0 m (0.8) show NC gr 
 gsave  2268 1594 0 0 C 143.786 870.935 t 0 r /Helvetica findfont 51.3523 sf 0 0 m (0.9) show NC gr 
 gsave  2268 1594 0 0 C 195.139 1051.69 t 0 r /Helvetica findfont 51.3523 sf 0 0 m (1) show NC gr 
 gsave  2268 1594 0 0 C 152.003 1232.45 t 0 r /Helvetica findfont 51.3523 sf 0 0 m (1.1) show NC gr 
 gsave  2268 1594 0 0 C 143.786 1415.27 t 0 r /Helvetica findfont 51.3523 sf 0 0 m (1.2) show NC gr  1 1 1 c black 227 308 m 10 X s 253 308 m 10 X s 245 308 m21 281 938 m 15 Y s 281 970 m 15 Y s 263 961 m 10 X s 289 961 m 10 X s 281 961 m21 317 994 m
 37 Y s 317 1047 m 37 Y s 299 1039 m 10 X s 326 1039 m 10 X s 317 1039 m21 354 970 m 55 Y s 354 1042 m 54 Y s 336 1033 m 10 X s 362 1033 m 10 X s 354 1033 m21 390 998 m 76 Y s 390 1090 m 76 Y s 372 1082 m 10 X s 398 1082 m 10 X s 390 1082 m21 426 911
 m 78 Y s 426 1005 m 78 Y s 408 997 m 10 X s 435 997 m 9 X s 426 997 m21 463 907 m 83 Y s 463 1006 m 82 Y s 444 998 m 10 X s 471 998 m 10 X s 463 998 m21 499 960 m 78 Y s 499 1054 m 77 Y s 481 1046 m 10 X s 507 1046 m 10 X s 499 1046 m21 535 999 m 74
 Y s 535 1089 m 75 Y s 517 1081 m 10 X s 543 1081 m 10 X s 535 1081 m21 571 930 m 80 Y s 571 1027 m 79 Y s 553 1018 m 10 X s 580 1018 m 10 X s 571 1018 m21 608 923 m 74 Y s 608 1014 m 74 Y s 590 1006 m 10 X s 616 1006 m 10 X s 608 1006 m21 644 960 m
 83 Y s 644 1060 m 83 Y s 626 1052 m 10 X s 652 1052 m 10 X s 644 1052 m21 680 926 m 80 Y s 680 1023 m 80 Y s 662 1015 m 10 X s 689 1015 m 9 X s 680 1015 m21 717 947 m 77 Y s 717 1040 m 78 Y s 698 1032 m 10 X s 725 1032 m 10 X s 717 1032 m21 753 978
 m 81 Y s 753 1076 m 81 Y s 735 1068 m 10 X s 761 1068 m 10 X s 753 1068 m21 789 954 m 78 Y s 789 1049 m 78 Y s 771 1040 m 10 X s 797 1040 m 10 X s 789 1040 m21 825 909 m 81 Y s 825 1007 m 81 Y s 807 998 m 10 X s 834 998 m 10 X s 825 998 m21 862 931
 m 82 Y s 862 1030 m 82 Y s 844 1021 m 10 X s 870 1021 m 10 X s 862 1021 m21 898 968 m 74 Y s 898 1059 m 74 Y s 880 1050 m 10 X s 906 1050 m 10 X s 898 1050 m21 934 975 m 87 Y s 934 1079 m 88 Y s 916 1071 m 10 X s 943 1071 m 9 X s 934 1071 m21 971
 981 m 77 Y s 971 1074 m 77 Y s 952 1066 m 10 X s 979 1066 m 10 X s 971 1066 m21 1007 952 m 83 Y s 1007 1051 m 83 Y s 989 1043 m 10 X s 1015 1043 m 10 X s 1007 1043 m21 1043 909 m 87 Y s 1043 1013 m 87 Y s 1025 1004 m 10 X s 1051 1004 m 10 X s 1043
 1004 m21 1079 959 m 77 Y s 1079 1052 m 76 Y s 1061 1044 m 10 X s 1088 1044 m 10 X s 1079 1044 m21 1116 966 m 86 Y s 1116 1069 m 86 Y s 1098 1060 m 10 X s 1124 1060 m 10 X s 1116 1060 m21 1152 931 m 70 Y s 1152 1017 m 70 Y s 1134 1009 m 10 X s 1160
 1009 m 10 X s 1152 1009 m21 1188 937 m 82 Y s 1188 1036 m 83 Y s 1170 1028 m 10 X s 1196 1028 m 10 X s 1188 1028 m21 1225 1001 m 71 Y s 1225 1088 m 71 Y s 1206 1080 m 10 X s 1233 1080 m 10 X s 1225 1080 m21 1261 973 m 90 Y s 1261 1080 m 89 Y s 1243
 1071 m 10 X s 1269 1071 m 10 X s 1261 1071 m21 1297 909 m 79 Y s 1297 1004 m 78 Y s 1279 996 m 10 X s 1305 996 m 10 X s 1297 996 m21 1333 960 m 83 Y s 1333 1059 m 83 Y s 1315 1051 m 10 X s 1342 1051 m 10 X s 1333 1051 m21 1370 954 m 77 Y s 1370 1047
 m 78 Y s 1352 1039 m 9 X s 1378 1039 m 10 X s 1370 1039 m21 1406 873 m 86 Y s 1406 975 m 86 Y s 1388 967 m 10 X s 1414 967 m 10 X s 1406 967 m21 1442 914 m 83 Y s 1442 1013 m 82 Y s 1424 1005 m 10 X s 1450 1005 m 10 X s 1442 1005 m21 1479 902 m 80 Y
 s 1479 998 m 80 Y s 1460 990 m 10 X s 1487 990 m 10 X s 1479 990 m21 1515 932 m 88 Y s 1515 1036 m 88 Y s 1497 1028 m 10 X s 1523 1028 m 10 X s 1515 1028 m21 1551 965 m 84 Y s 1551 1066 m 84 Y s 1533 1057 m 10 X s 1559 1057 m 10 X s 1551 1057 m21
 1587 846 m 77 Y s 1587 939 m 77 Y s 1569 931 m 10 X s 1596 931 m 10 X s 1587 931 m21 1624 974 m 87 Y s 1624 1077 m 87 Y s 1606 1069 m 9 X s 1632 1069 m 10 X s 1624 1069 m21 1660 971 m 72 Y s 1660 1060 m 73 Y s 1642 1052 m 10 X s 1668 1052 m 10 X s
 1660 1052 m21 1696 983 m 74 Y s 1696 1074 m 74 Y s 1678 1065 m 10 X s 1704 1065 m 10 X s 1696 1065 m21 1733 940 m 79 Y s 1733 1035 m 78 Y s 1714 1027 m 10 X s 1741 1027 m 10 X s 1733 1027 m21 1769 914 m 76 Y s 1769 1006 m 76 Y s 1751 998 m 10 X s
 1777 998 m 10 X s 1769 998 m21 1805 917 m 83 Y s 1805 1016 m 83 Y s 1787 1008 m 10 X s 1813 1008 m 10 X s 1805 1008 m21 1841 976 m 88 Y s 1841 1081 m 88 Y s 1823 1073 m 10 X s 1850 1073 m 10 X s 1841 1073 m21 1878 953 m 83 Y s 1878 1052 m 83 Y s
 1860 1044 m 9 X s 1886 1044 m 10 X s 1878 1044 m21 1914 922 m 91 Y s 1914 1030 m 91 Y s 1896 1021 m 10 X s 1922 1021 m 10 X s 1914 1021 m21 1950 980 m 85 Y s 1950 1081 m 85 Y s 1932 1073 m 10 X s 1958 1073 m 10 X s 1950 1073 m21 1987 957 m 80 Y s
 1987 1054 m 79 Y s 1968 1045 m 10 X s 1995 1045 m 10 X s 1987 1045 m21 2023 938 m 94 Y s 2023 1049 m 94 Y s 2005 1041 m 10 X s 2031 1041 m 10 X s 2023 1041 m21 1 1 1 c 454 319 1474 558 bf black
 gsave  2268 1594 0 0 C 1585.76 764.122 t 0 r /Helvetica-Bold findfont 90.38 sf 0 0 m (R=0.2) show NC gr  0 0 1 c 1531 797 m20 black
 gsave  2268 1594 0 0 C 1585.76 605.957 t 0 r /Helvetica-Bold findfont 90.38 sf 0 0 m (R=0.4) show NC gr  1531 638 m21
 gsave  2268 1594 0 0 C 1468.68 1378.3 t 0 r /Helvetica-Bold findfont 36.9736 sf 0 0 m (part) show NC gr 
 gsave  2268 1594 0 0 C 1468.68 1316.67 t 0 r /Helvetica-Bold findfont 36.9736 sf 0 0 m (T,jet) show NC gr 
 gsave  2268 1594 0 0 C 770.284 1345.43 t 0 r /Helvetica-Bold findfont 55.4605 sf 0 0 m (Jet Finding Efficiency vs p) show NC gr 
 gsave  2268 1594 0 0 C 809.312 583.362 t 0 r /Helvetica-Bold findfont 55.4605 sf 0 0 m (All particle level jets) show NC gr 
 gsave  2268 1594 0 0 C 733.31 651.147 t 0 r /Helvetica-Bold findfont 55.4605 sf 0 0 m (Matched particle level jets) show NC gr  6 lw 733 633 m 686 X s
 gsave  2268 1594 0 0 C 589.524 616.227 t 0 r /Helvetica-Bold findfont 55.4605 sf 0 0 m (Eff = ) show NC gr [ 12 12] 0 sd 227 1070 m 1814 X s
 gr  gr showpage
end
%%EOF
