%!PS-Adobe-2.0 EPSF-2.0
%%BoundingBox:  0 0 567 398
%%Title: : 
%%Creator: ROOT Version 5.34/09
%%CreationDate: Fri Mar 28 16:17:05 2014
%%EndComments
%%BeginProlog
80 dict begin
/s {stroke} def /l {lineto} def /m {moveto} def /t {translate} def
/r {rotate} def /rl {roll}  def /R {repeat} def
/d {rlineto} def /rm {rmoveto} def /gr {grestore} def /f {eofill} def
/c {setrgbcolor} def /black {0 setgray} def /sd {setdash} def
/cl {closepath} def /sf {scalefont setfont} def /lw {setlinewidth} def
/box {m dup 0 exch d exch 0 d 0 exch neg d cl} def
/NC{systemdict begin initclip end}def/C{NC box clip newpath}def
/bl {box s} def /bf {box f} def /Y { 0 exch d} def /X { 0 d} def 
/K {{pop pop 0 moveto} exch kshow} bind def
/ita {/ang 15 def gsave [1 0 ang dup sin exch cos div 1 0 0] concat} def 
/mp {newpath /y exch def /x exch def} def
/side {[w .77 mul w .23 mul] .385 w mul sd w 0 l currentpoint t -144 r} def
/mr {mp x y w2 0 360 arc} def /m24 {mr s} def /m20 {mr f} def
/mb {mp x y w2 add m w2 neg 0 d 0 w neg d w 0 d 0 w d cl} def
/mt {mp x y w2 add m w2 neg w neg d w 0 d cl} def
/m21 {mb f} def /m25 {mb s} def /m22 {mt f} def /m26{mt s} def
/m23 {mp x y w2 sub m w2 w d w neg 0 d cl f} def
/m27 {mp x y w2 add m w3 neg w2 neg d w3 w2 neg d w3 w2 d cl s} def
/m28 {mp x w2 sub y w2 sub w3 add m w3 0 d  0 w3 neg d w3 0 d 0 w3 d w3 0 d  0 w3 d w3 neg 0 d 0 w3 d w3 neg 0 d 0 w3 neg d w3 neg 0 d cl s } def
/m29 {mp gsave x w2 sub y w2 add w3 sub m currentpoint t 4 {side} repeat cl fill gr} def
/m30 {mp gsave x w2 sub y w2 add w3 sub m currentpoint t 4 {side} repeat cl s gr} def
/m31 {mp x y w2 sub m 0 w d x w2 sub y m w 0 d x w2 sub y w2 add m w w neg d x w2 sub y w2 sub m w w d s} def
/m32 {mp x y w2 sub m w2 w d w neg 0 d cl s} def
/m33 {mp x y w2 add m w3 neg w2 neg d w3 w2 neg d w3 w2 d cl f} def
/m34 {mp x w2 sub y w2 sub w3 add m w3 0 d  0 w3 neg d w3 0 d 0 w3 d w3 0 d  0 w3 d w3 neg 0 d 0 w3 d w3 neg 0 d 0 w3 neg d w3 neg 0 d cl f } def
/m2 {mp x y w2 sub m 0 w d x w2 sub y m w 0 d s} def
/m5 {mp x w2 sub y w2 sub m w w d x w2 sub y w2 add m w w neg d s} def
/reEncode {exch findfont dup length dict begin {1 index /FID eq  {pop pop} {def} ifelse } forall /Encoding exch def currentdict end dup /FontName get exch definefont pop } def [/Times-Bold /Times-Italic /Times-BoldItalic /Helvetica /Helvetica-Oblique
 /Helvetica-Bold /Helvetica-BoldOblique /Courier /Courier-Oblique /Courier-Bold /Courier-BoldOblique /Times-Roman /AvantGarde-Book /AvantGarde-BookOblique /AvantGarde-Demi /AvantGarde-DemiOblique /Bookman-Demi /Bookman-DemiItalic /Bookman-Light
 /Bookman-LightItalic /Helvetica-Narrow /Helvetica-Narrow-Bold /Helvetica-Narrow-BoldOblique /Helvetica-Narrow-Oblique /NewCenturySchlbk-Roman /NewCenturySchlbk-Bold /NewCenturySchlbk-BoldItalic /NewCenturySchlbk-Italic /Palatino-Bold
 /Palatino-BoldItalic /Palatino-Italic /Palatino-Roman ] {ISOLatin1Encoding reEncode } forall
%%EndProlog
%%BeginSetup
%%EndSetup
newpath  gsave  .25 .25 scale  gsave  0 0 t black[  ] 0 sd 3 lw 0.999 0.999 0.999 c 2268 1594 0 0 bf black 0.999 0.999 0.999 c 1814 1276 227 159 bf black 1814 1276 227 159 bl 0 0 1 c 1 1 1 c 0 0 1 c 287 446 m 22 X s 326 446 m 22 X s /w 16 def /w2 {w
 2 div} def /w3 {w 3 div} def 317 446 m20 348 497 m 22 X s 386 497 m 22 X s 378 497 m20 408 522 m 22 X s 447 522 m 22 X s 438 522 m20 469 540 m 22 X s 507 540 m 22 X s 499 540 m20 529 563 m 22 X s 568 563 m 22 X s 559 563 m20 590 549 m 22 X s 628 549
 m 22 X s 620 549 m20 680 568 m 3 Y s 680 587 m 3 Y s 650 579 m 22 X s 689 579 m 22 X s 680 579 m20 741 553 m 6 Y s 741 575 m 6 Y s 711 567 m 22 X s 749 567 m 22 X s 741 567 m20 801 561 m 9 Y s 801 587 m 9 Y s 771 578 m 22 X s 809 578 m 22 X s 801
 578 m20 862 554 m 12 Y s 862 582 m 12 Y s 831 574 m 23 X s 870 574 m 22 X s 862 574 m20 922 533 m 20 Y s 922 570 m 20 Y s 892 562 m 22 X s 930 562 m 22 X s 922 562 m20 983 555 m 26 Y s 983 597 m 26 Y s 952 589 m 22 X s 991 589 m 22 X s 983 589 m20
 1043 597 m 41 Y s 1043 655 m 41 Y s 1013 647 m 22 X s 1051 647 m 22 X s 1043 647 m20 1104 602 m 45 Y s 1104 664 m 45 Y s 1073 655 m 22 X s 1112 655 m 22 X s 1104 655 m20 1164 522 m 57 Y s 1164 596 m 57 Y s 1134 587 m 22 X s 1172 587 m 22 X s 1164
 587 m20 1225 536 m 66 Y s 1225 618 m 66 Y s 1194 610 m 22 X s 1233 610 m 22 X s 1225 610 m20 1285 498 m 73 Y s 1285 588 m 73 Y s 1255 579 m 22 X s 1293 579 m 22 X s 1285 579 m20 1346 590 m 82 Y s 1346 688 m 82 Y s 1315 680 m 22 X s 1354 680 m 22 X s
 1346 680 m20 1406 611 m 49 Y s 1406 677 m 49 Y s 1376 669 m 22 X s 1414 669 m 22 X s 1406 669 m20 1466 576 m 185 Y s 1466 778 m 184 Y s 1436 769 m 22 X s 1475 769 m 22 X s 1466 769 m20 1527 321 m 219 Y s 1527 557 m 219 Y s 1497 548 m 22 X s 1535 548
 m 22 X s 1527 548 m20 1587 629 m 143 Y s 1587 789 m 143 Y s 1557 780 m 22 X s 1596 780 m 22 X s 1587 780 m20 1648 662 m 18 Y s 1648 697 m 19 Y s 1618 689 m 22 X s 1656 689 m 22 X s 1648 689 m20 1708 371 m 86 Y s 1708 474 m 86 Y s 1678 465 m 22 X s
 1717 465 m 22 X s 1708 465 m20 1769 373 m 205 Y s 1769 595 m 206 Y s 1739 587 m 22 X s 1777 587 m 22 X s 1769 587 m20 1799 293 m 22 X s 1838 293 m 22 X s 1829 293 m20 1890 381 m 421 Y s 1890 818 m 420 Y s 1860 810 m 22 X s 1898 810 m 22 X s 1890 810
 m20 1920 599 m 22 X s 1958 599 m 22 X s 1950 599 m20 black 227 159 m 1814 X s
 gsave  2268 1594 0 0 C 1891.82 65.7309 t 0 r /Helvetica findfont 51.3523 sf 0 0 m ( \(GeV\)) show NC gr 
 gsave  2268 1594 0 0 C 1787.06 86.2718 t 0 r /Helvetica findfont 34.9195 sf 0 0 m (ch+em) show NC gr 
 gsave  2268 1594 0 0 C 1787.06 36.9736 t 0 r /Helvetica findfont 34.9195 sf 0 0 m (T,jet) show NC gr 
 gsave  2268 1594 0 0 C 1758.3 65.7309 t 0 r /Helvetica findfont 51.3523 sf 0 0 m (p) show NC gr  227 198 m -39 Y s 287 179 m -20 Y s 348 179 m -20 Y s 408 179 m -20 Y s 469 198 m -39 Y s 529 179 m -20 Y s 590 179 m -20 Y s 650 179 m -20 Y s 711 198
 m -39 Y s 771 179 m -20 Y s 831 179 m -20 Y s 892 179 m -20 Y s 952 198 m -39 Y s 1013 179 m -20 Y s 1073 179 m -20 Y s 1134 179 m -20 Y s 1194 198 m -39 Y s 1255 179 m -20 Y s 1315 179 m -20 Y s 1376 179 m -20 Y s 1436 198 m -39 Y s 1497 179 m -20
 Y s 1557 179 m -20 Y s 1618 179 m -20 Y s 1678 198 m -39 Y s 1739 179 m -20 Y s 1799 179 m -20 Y s 1860 179 m -20 Y s 1920 198 m -39 Y s 1920 198 m -39 Y s 1980 179 m -20 Y s 2041 179 m -20 Y s
 gsave  2268 1594 0 0 C 211.571 106.813 t 0 r /Helvetica findfont 51.3523 sf 0 0 m (0) show NC gr 
 gsave  2268 1594 0 0 C 439.576 106.813 t 0 r /Helvetica findfont 51.3523 sf 0 0 m (20) show NC gr 
 gsave  2268 1594 0 0 C 679.904 106.813 t 0 r /Helvetica findfont 51.3523 sf 0 0 m (40) show NC gr 
 gsave  2268 1594 0 0 C 922.287 106.813 t 0 r /Helvetica findfont 51.3523 sf 0 0 m (60) show NC gr 
 gsave  2268 1594 0 0 C 1164.67 106.813 t 0 r /Helvetica findfont 51.3523 sf 0 0 m (80) show NC gr 
 gsave  2268 1594 0 0 C 1392.67 106.813 t 0 r /Helvetica findfont 51.3523 sf 0 0 m (100) show NC gr 
 gsave  2268 1594 0 0 C 1633 106.813 t 0 r /Helvetica findfont 51.3523 sf 0 0 m (120) show NC gr 
 gsave  2268 1594 0 0 C 1875.39 106.813 t 0 r /Helvetica findfont 51.3523 sf 0 0 m (140) show NC gr  227 159 m 1276 Y s
 gsave  2268 1594 0 0 C 117.083 1273.54 t 90 r /Helvetica findfont 51.3523 sf 0 0 m (<NEF>) show NC gr  281 159 m -54 X s 254 185 m -27 X s 254 210 m -27 X s 254 236 m -27 X s 254 261 m -27 X s 281 287 m -54 X s 254 312 m -27 X s 254 338 m -27 X s
 254 363 m -27 X s 254 389 m -27 X s 281 414 m -54 X s 254 440 m -27 X s 254 465 m -27 X s 254 491 m -27 X s 254 516 m -27 X s 281 542 m -54 X s 254 567 m -27 X s 254 593 m -27 X s 254 618 m -27 X s 254 644 m -27 X s 281 669 m -54 X s 254 695 m -27 X
 s 254 720 m -27 X s 254 746 m -27 X s 254 771 m -27 X s 281 797 m -54 X s 254 822 m -27 X s 254 848 m -27 X s 254 873 m -27 X s 254 899 m -27 X s 281 925 m -54 X s 254 950 m -27 X s 254 976 m -27 X s 254 1001 m -27 X s 254 1027 m -27 X s 281 1052 m
 -54 X s 254 1078 m -27 X s 254 1103 m -27 X s 254 1129 m -27 X s 254 1154 m -27 X s 281 1180 m -54 X s 254 1205 m -27 X s 254 1231 m -27 X s 254 1256 m -27 X s 254 1282 m -27 X s 281 1307 m -54 X s 254 1333 m -27 X s 254 1358 m -27 X s 254 1384 m
 -27 X s 254 1409 m -27 X s 281 1435 m -54 X s
 gsave  2268 1594 0 0 C 186.922 141.732 t 0 r /Helvetica findfont 51.3523 sf 0 0 m (0) show NC gr 
 gsave  2268 1594 0 0 C 152.003 269.086 t 0 r /Helvetica findfont 51.3523 sf 0 0 m (0.1) show NC gr 
 gsave  2268 1594 0 0 C 143.786 396.44 t 0 r /Helvetica findfont 51.3523 sf 0 0 m (0.2) show NC gr 
 gsave  2268 1594 0 0 C 143.786 523.793 t 0 r /Helvetica findfont 51.3523 sf 0 0 m (0.3) show NC gr 
 gsave  2268 1594 0 0 C 143.786 651.147 t 0 r /Helvetica findfont 51.3523 sf 0 0 m (0.4) show NC gr 
 gsave  2268 1594 0 0 C 143.786 778.5 t 0 r /Helvetica findfont 51.3523 sf 0 0 m (0.5) show NC gr 
 gsave  2268 1594 0 0 C 143.786 907.908 t 0 r /Helvetica findfont 51.3523 sf 0 0 m (0.6) show NC gr 
 gsave  2268 1594 0 0 C 143.786 1035.26 t 0 r /Helvetica findfont 51.3523 sf 0 0 m (0.7) show NC gr 
 gsave  2268 1594 0 0 C 143.786 1162.62 t 0 r /Helvetica findfont 51.3523 sf 0 0 m (0.8) show NC gr 
 gsave  2268 1594 0 0 C 143.786 1289.97 t 0 r /Helvetica findfont 51.3523 sf 0 0 m (0.9) show NC gr 
 gsave  2268 1594 0 0 C 195.139 1415.27 t 0 r /Helvetica findfont 51.3523 sf 0 0 m (1) show NC gr  1 1 1 c black 287 485 m 22 X s 326 485 m 22 X s 317 485 m21 348 499 m 22 X s 386 499 m 22 X s 378 499 m21 408 516 m 22 X s 447 516 m 22 X s 438 516 m21
 469 536 m 22 X s 507 536 m 22 X s 499 536 m21 529 548 m 22 X s 568 548 m 22 X s 559 548 m21 590 551 m 22 X s 628 551 m 22 X s 620 551 m21 680 543 m 2 Y s 680 561 m 2 Y s 650 553 m 22 X s 689 553 m 22 X s 680 553 m21 741 543 m 5 Y s 741 565 m 5 Y s
 711 556 m 22 X s 749 556 m 22 X s 741 556 m21 801 547 m 9 Y s 801 573 m 10 Y s 771 565 m 22 X s 809 565 m 22 X s 801 565 m21 862 596 m 16 Y s 862 628 m 16 Y s 831 620 m 23 X s 870 620 m 22 X s 862 620 m21 922 562 m 16 Y s 922 594 m 15 Y s 892 586 m
 22 X s 930 586 m 22 X s 922 586 m21 983 514 m 29 Y s 983 560 m 29 Y s 952 551 m 22 X s 991 551 m 22 X s 983 551 m21 1043 547 m 42 Y s 1043 606 m 42 Y s 1013 598 m 22 X s 1051 598 m 22 X s 1043 598 m21 1104 526 m 45 Y s 1104 588 m 44 Y s 1073 579 m
 22 X s 1112 579 m 22 X s 1104 579 m21 1164 581 m 49 Y s 1164 647 m 49 Y s 1134 639 m 22 X s 1172 639 m 22 X s 1164 639 m21 1225 482 m 115 Y s 1225 614 m 116 Y s 1194 606 m 22 X s 1233 606 m 22 X s 1225 606 m21 1285 571 m 75 Y s 1285 662 m 75 Y s
 1255 654 m 22 X s 1293 654 m 22 X s 1285 654 m21 1346 419 m 86 Y s 1346 521 m 86 Y s 1315 513 m 22 X s 1354 513 m 22 X s 1346 513 m21 1406 537 m 86 Y s 1406 639 m 87 Y s 1376 631 m 22 X s 1414 631 m 22 X s 1406 631 m21 1466 424 m 82 Y s 1466 523 m
 82 Y s 1436 514 m 22 X s 1475 514 m 22 X s 1466 514 m21 1527 567 m 37 Y s 1527 620 m 37 Y s 1497 612 m 22 X s 1535 612 m 22 X s 1527 612 m21 1587 735 m 194 Y s 1587 945 m 195 Y s 1557 937 m 22 X s 1596 937 m 22 X s 1587 937 m21 1618 676 m 22 X s
 1656 676 m 22 X s 1648 676 m21 1708 888 m 73 Y s 1708 977 m 73 Y s 1678 969 m 22 X s 1717 969 m 22 X s 1708 969 m21 1769 557 m 157 Y s 1769 731 m 157 Y s 1739 723 m 22 X s 1777 723 m 22 X s 1769 723 m21 1829 339 m 10 Y s 1829 365 m 10 Y s 1799 357 m
 22 X s 1838 357 m 22 X s 1829 357 m21 1920 217 m 22 X s 1958 217 m 22 X s 1950 217 m21
 gsave  2268 1594 0 0 C 589.524 1308.46 t 0 r /Helvetica-Bold findfont 55.4605 sf 0 0 m (Mean Jet NEF for lhc13c merged output) show NC gr  1 1 1 c 453 239 454 797 bf black
 gsave  2268 1594 0 0 C 566.929 951.044 t 0 r /Helvetica-Bold findfont 71.8932 sf 0 0 m (R=0.2) show NC gr  0 0 1 c 510 976 m20 black
 gsave  2268 1594 0 0 C 566.929 831.907 t 0 r /Helvetica-Bold findfont 71.8932 sf 0 0 m (R=0.4) show NC gr  510 857 m21
 gr  gr showpage
end
%%EOF
