\relax 
\providecommand\hyper@newdestlabel[2]{}
\providecommand\HyperFirstAtBeginDocument{\AtBeginDocument}
\HyperFirstAtBeginDocument{\ifx\hyper@anchor\@undefined
\global\let\oldcontentsline\contentsline
\gdef\contentsline#1#2#3#4{\oldcontentsline{#1}{#2}{#3}}
\global\let\oldnewlabel\newlabel
\gdef\newlabel#1#2{\newlabelxx{#1}#2}
\gdef\newlabelxx#1#2#3#4#5#6{\oldnewlabel{#1}{{#2}{#3}}}
\AtEndDocument{\ifx\hyper@anchor\@undefined
\let\contentsline\oldcontentsline
\let\newlabel\oldnewlabel
\fi}
\fi}
\global\let\hyper@last\relax 
\gdef\HyperFirstAtBeginDocument#1{#1}
\providecommand\HyField@AuxAddToFields[1]{}
\providecommand\HyField@AuxAddToCoFields[2]{}
\citation{basenote}
\citation{basenote}
\citation{basenote}
\@writefile{toc}{\contentsline {section}{\numberline {1}Introduction}{2}{section.1}}
\@writefile{toc}{\contentsline {section}{\numberline {2}Event, Track, cluster and Jet Selections}{2}{section.2}}
\citation{basenote}
\@writefile{toc}{\contentsline {subsection}{\numberline {2.1}Event Selection}{3}{subsection.2.1}}
\@writefile{toc}{\contentsline {subsection}{\numberline {2.2}Jet Selection}{3}{subsection.2.2}}
\@writefile{toc}{\contentsline {section}{\numberline {3}Unfolding}{3}{section.3}}
\@writefile{lof}{\contentsline {figure}{\numberline {1}{\ignorespaces R=0.4 spectrum unfolded for detector effects via the SVD unfolding algorithm compared to the bin by bin corrected spectrum. TODO: This plot needs updating to the latest version with the Bayesian method also included.\relax }}{4}{figure.caption.2}}
\providecommand*\caption@xref[2]{\@setref\relax\@undefined{#1}}
\newlabel{fig:R4allmethods}{{1}{4}{R=0.4 spectrum unfolded for detector effects via the SVD unfolding algorithm compared to the bin by bin corrected spectrum. TODO: This plot needs updating to the latest version with the Bayesian method also included.\relax }{figure.caption.2}{}}
\citation{ppnote}
\@writefile{lof}{\contentsline {figure}{\numberline {2}{\ignorespaces R=0.4 spectrum unfolded using the svd method and then refolded compared to the measured. The pink band represents the size of the statistical uncertainty.\relax }}{5}{figure.caption.3}}
\newlabel{fig:refoldtest}{{2}{5}{R=0.4 spectrum unfolded using the svd method and then refolded compared to the measured. The pink band represents the size of the statistical uncertainty.\relax }{figure.caption.3}{}}
\@writefile{toc}{\contentsline {section}{\numberline {4}Normalization}{6}{section.4}}
\newlabel{eqn:acc}{{1}{6}{Normalization}{equation.4.1}{}}
\@writefile{toc}{\contentsline {section}{\numberline {5}Results}{6}{section.5}}
\@writefile{toc}{\contentsline {subsection}{\numberline {5.1}Unfolded Spectra}{6}{subsection.5.1}}
\@writefile{toc}{\contentsline {subsection}{\numberline {5.2}Jet Shape Ratio}{6}{subsection.5.2}}
\@writefile{toc}{\contentsline {subsection}{\numberline {5.3}$R_{pPb}^{PYTHIA}$}{6}{subsection.5.3}}
\@writefile{lof}{\contentsline {figure}{\numberline {3}{\ignorespaces R=0.4 spectrum unfolded for detector effects via the SVD unfolding algorithm\relax }}{7}{figure.caption.4}}
\newlabel{fig:ufR4svd}{{3}{7}{R=0.4 spectrum unfolded for detector effects via the SVD unfolding algorithm\relax }{figure.caption.4}{}}
\@writefile{lof}{\contentsline {figure}{\numberline {4}{\ignorespaces R=0.2 spectrum unfolded for detector effects via the SVD unfolding algorithm\relax }}{8}{figure.caption.5}}
\newlabel{fig:ufR2svd}{{4}{8}{R=0.2 spectrum unfolded for detector effects via the SVD unfolding algorithm\relax }{figure.caption.5}{}}
\@writefile{lof}{\contentsline {figure}{\numberline {5}{\ignorespaces Ratio of the R=0.2 unfolded spectrum to the R=0.4 unfolded spectrum.\relax }}{9}{figure.caption.6}}
\newlabel{fig:radratio}{{5}{9}{Ratio of the R=0.2 unfolded spectrum to the R=0.4 unfolded spectrum.\relax }{figure.caption.6}{}}
\@writefile{toc}{\contentsline {subsubsection}{\numberline {5.3.1}pp Reference spectrum}{9}{subsubsection.5.3.1}}
\@writefile{toc}{\contentsline {subsubsection}{\numberline {5.3.2}Scaled ATLAS as a Reference}{9}{subsubsection.5.3.2}}
\@writefile{toc}{\contentsline {subsection}{\numberline {5.4}Derived Plot}{9}{subsection.5.4}}
\@writefile{lof}{\contentsline {figure}{\numberline {6}{\ignorespaces R=0.4 $R_{pPb}$ with PYTHIA6 Perguia 2011 as a reference\relax }}{10}{figure.caption.7}}
\newlabel{fig:RpPbR04}{{6}{10}{R=0.4 $R_{pPb}$ with PYTHIA6 Perguia 2011 as a reference\relax }{figure.caption.7}{}}
\@writefile{lof}{\contentsline {figure}{\numberline {7}{\ignorespaces R=0.2 $R_{pPb}$ with PYTHIA6 Perguia 2011 as a reference\relax }}{11}{figure.caption.8}}
\newlabel{fig:RpPbR02}{{7}{11}{R=0.2 $R_{pPb}$ with PYTHIA6 Perguia 2011 as a reference\relax }{figure.caption.8}{}}
\@writefile{lof}{\contentsline {figure}{\numberline {8}{\ignorespaces RpPb with various references for R=0.4.\relax }}{12}{figure.caption.9}}
\newlabel{fig:refratio4}{{8}{12}{RpPb with various references for R=0.4.\relax }{figure.caption.9}{}}
\@writefile{lof}{\contentsline {figure}{\numberline {9}{\ignorespaces RpPb with the various reference spectra for R=0.2.\relax }}{12}{figure.caption.10}}
\newlabel{fig:refratio2}{{9}{12}{RpPb with the various reference spectra for R=0.2.\relax }{figure.caption.10}{}}
\@writefile{lof}{\contentsline {figure}{\numberline {10}{\ignorespaces $R_{pPb}$ calculated using the scaled Atlas 7 TeV jet spectrum for R=0.4. \relax }}{13}{figure.caption.11}}
\newlabel{fig:Atlasref}{{10}{13}{$R_{pPb}$ calculated using the scaled Atlas 7 TeV jet spectrum for R=0.4. \relax }{figure.caption.11}{}}
\citation{basenote}
\@writefile{lof}{\contentsline {figure}{\numberline {11}{\ignorespaces The gallery of full jet spectra measaured at ALICE.\relax }}{14}{figure.caption.12}}
\newlabel{fig:derivedplot}{{11}{14}{The gallery of full jet spectra measaured at ALICE.\relax }{figure.caption.12}{}}
\@writefile{toc}{\contentsline {section}{\numberline {6}Systematic Uncertainties}{14}{section.6}}
\@writefile{toc}{\contentsline {subsection}{\numberline {6.1}Tracking Efficiency Uncertainty}{14}{subsection.6.1}}
\@writefile{toc}{\contentsline {subsection}{\numberline {6.2}Hadronic Correction Uncertainty}{14}{subsection.6.2}}
\@writefile{lof}{\contentsline {figure}{\numberline {12}{\ignorespaces Effect of varying the tracking efficiency for R=0.2. Since only one variation was done, we apply this difference as a symmetric error.\relax }}{15}{figure.caption.13}}
\newlabel{fig:sysTrackEff}{{12}{15}{Effect of varying the tracking efficiency for R=0.2. Since only one variation was done, we apply this difference as a symmetric error.\relax }{figure.caption.13}{}}
\@writefile{lof}{\contentsline {figure}{\numberline {13}{\ignorespaces Effect of varying the tracking efficiency for R=0.4. Since only one variation was done, we apply this difference as a symmetric error.\relax }}{15}{figure.caption.14}}
\newlabel{fig:sysTrackEffR4}{{13}{15}{Effect of varying the tracking efficiency for R=0.4. Since only one variation was done, we apply this difference as a symmetric error.\relax }{figure.caption.14}{}}
\@writefile{lof}{\contentsline {figure}{\numberline {14}{\ignorespaces Effect of varying the tracking efficiency for R=0.4. Since only one variation was done, we apply this difference as a symmetric error.\relax }}{16}{figure.caption.15}}
\newlabel{fig:sysTrackEffjsr}{{14}{16}{Effect of varying the tracking efficiency for R=0.4. Since only one variation was done, we apply this difference as a symmetric error.\relax }{figure.caption.15}{}}
\@writefile{lof}{\contentsline {figure}{\numberline {15}{\ignorespaces Effect of varying the hadronic correction for R=0.2. Since only one variation was done, we apply this difference as a symmetric error.\relax }}{16}{figure.caption.16}}
\newlabel{fig:sysHadCorr}{{15}{16}{Effect of varying the hadronic correction for R=0.2. Since only one variation was done, we apply this difference as a symmetric error.\relax }{figure.caption.16}{}}
\@writefile{lof}{\contentsline {figure}{\numberline {16}{\ignorespaces Effect of varying the hadronic correction for the JSR. Since only one variation was done, we apply this difference as a symmetric error.\relax }}{17}{figure.caption.17}}
\newlabel{fig:sysHadCorrR4}{{16}{17}{Effect of varying the hadronic correction for the JSR. Since only one variation was done, we apply this difference as a symmetric error.\relax }{figure.caption.17}{}}
\@writefile{lof}{\contentsline {figure}{\numberline {17}{\ignorespaces Effect of varying the hadronic correction for the JSR. Since only one variation was done, we apply this difference as a symmetric error.\relax }}{17}{figure.caption.18}}
\newlabel{fig:sysHadCorrjsr}{{17}{17}{Effect of varying the hadronic correction for the JSR. Since only one variation was done, we apply this difference as a symmetric error.\relax }{figure.caption.18}{}}
\citation{basenote}
\citation{ppnote}
\@writefile{toc}{\contentsline {subsection}{\numberline {6.3}Uncertainty in the Background Estimation}{18}{subsection.6.3}}
\@writefile{lof}{\contentsline {figure}{\numberline {18}{\ignorespaces Effect of using a different method to estimate the underlying event the R=0.2.\relax }}{18}{figure.caption.19}}
\newlabel{fig:sysUE}{{18}{18}{Effect of using a different method to estimate the underlying event the R=0.2.\relax }{figure.caption.19}{}}
\@writefile{toc}{\contentsline {subsection}{\numberline {6.4}Unfolding Uncertainties}{18}{subsection.6.4}}
\@writefile{lof}{\contentsline {figure}{\numberline {19}{\ignorespaces Effect of varying the scale factor in the unfolding algorthim for R=0.2. Since only one variation was done, we apply this difference as a symmetric error.\relax }}{19}{figure.caption.20}}
\newlabel{fig:sysSF}{{19}{19}{Effect of varying the scale factor in the unfolding algorthim for R=0.2. Since only one variation was done, we apply this difference as a symmetric error.\relax }{figure.caption.20}{}}
\@writefile{lof}{\contentsline {figure}{\numberline {20}{\ignorespaces Effect of using a different method to estimate the underlying event the R=0.4.\relax }}{19}{figure.caption.21}}
\newlabel{fig:sysUER4}{{20}{19}{Effect of using a different method to estimate the underlying event the R=0.4.\relax }{figure.caption.21}{}}
\@writefile{lof}{\contentsline {figure}{\numberline {21}{\ignorespaces Effect of varying the scale factor in the unfolding algorthim for R=0.4. Since only one variation was done, we apply this difference as a symmetric error.\relax }}{20}{figure.caption.22}}
\newlabel{fig:sysSFR4}{{21}{20}{Effect of varying the scale factor in the unfolding algorthim for R=0.4. Since only one variation was done, we apply this difference as a symmetric error.\relax }{figure.caption.22}{}}
\@writefile{lof}{\contentsline {figure}{\numberline {22}{\ignorespaces Effect of using a different method to estimate the underlying event the JSR.\relax }}{20}{figure.caption.23}}
\newlabel{fig:sysUER4}{{22}{20}{Effect of using a different method to estimate the underlying event the JSR.\relax }{figure.caption.23}{}}
\@writefile{lof}{\contentsline {figure}{\numberline {23}{\ignorespaces Effect of varying the scale factor in the unfolding algorthim the JSR. Since only one variation was done, we apply this difference as a symmetric error.\relax }}{21}{figure.caption.24}}
\newlabel{fig:sysSFR4}{{23}{21}{Effect of varying the scale factor in the unfolding algorthim the JSR. Since only one variation was done, we apply this difference as a symmetric error.\relax }{figure.caption.24}{}}
\@writefile{lof}{\contentsline {figure}{\numberline {24}{\ignorespaces Effect of varying the mininum $p_{T}$ in the unfolding algorthim for R=0.2.\relax }}{21}{figure.caption.25}}
\newlabel{fig:sysminPt}{{24}{21}{Effect of varying the mininum $p_{T}$ in the unfolding algorthim for R=0.2.\relax }{figure.caption.25}{}}
\@writefile{lof}{\contentsline {figure}{\numberline {25}{\ignorespaces Effect of varying the regularization strength for the SVD unfolding algorthim for R=0.2. The points on the plot show the ratio of the Bayesian method to the SVD method. The shaded bands show the uncertainty used based on the maximum deviation.\relax }}{22}{figure.caption.26}}
\newlabel{fig:sysReg}{{25}{22}{Effect of varying the regularization strength for the SVD unfolding algorthim for R=0.2. The points on the plot show the ratio of the Bayesian method to the SVD method. The shaded bands show the uncertainty used based on the maximum deviation.\relax }{figure.caption.26}{}}
\@writefile{lof}{\contentsline {figure}{\numberline {26}{\ignorespaces Effect of varying the prior used in unfolding the R=0.2 spectrum. The default unfolding uses a fit to the measured spectrum. As an alternate choice the truth spectrum was used. Since only one variation was done, we apply the difference as a symmetric error.\relax }}{23}{figure.caption.27}}
\newlabel{fig:sysPrior}{{26}{23}{Effect of varying the prior used in unfolding the R=0.2 spectrum. The default unfolding uses a fit to the measured spectrum. As an alternate choice the truth spectrum was used. Since only one variation was done, we apply the difference as a symmetric error.\relax }{figure.caption.27}{}}
\@writefile{lof}{\contentsline {figure}{\numberline {27}{\ignorespaces Effect of varying the mininum $p_{T}$ in the unfolding algorthim for R=0.4.\relax }}{23}{figure.caption.28}}
\newlabel{fig:sysminPtR4}{{27}{23}{Effect of varying the mininum $p_{T}$ in the unfolding algorthim for R=0.4.\relax }{figure.caption.28}{}}
\@writefile{lof}{\contentsline {figure}{\numberline {28}{\ignorespaces Effect of varying the regularization strength for the SVD unfolding algorthim for R=0.4. The points on the plot show the ratio of the Bayesian method to the SVD method. The shaded bands show the uncertainty used based on the maximum deviation.\relax }}{24}{figure.caption.29}}
\newlabel{fig:sysRegR4}{{28}{24}{Effect of varying the regularization strength for the SVD unfolding algorthim for R=0.4. The points on the plot show the ratio of the Bayesian method to the SVD method. The shaded bands show the uncertainty used based on the maximum deviation.\relax }{figure.caption.29}{}}
\@writefile{lof}{\contentsline {figure}{\numberline {29}{\ignorespaces Effect of varying the prior used in unfolding the R=0.4 spectrum. The default unfolding uses a fit to the measured spectrum. As an alternate choice the truth spectrum was used. Since only one variation was done, we apply the difference as a symmetric error.\relax }}{25}{figure.caption.30}}
\newlabel{fig:syspriorR4}{{29}{25}{Effect of varying the prior used in unfolding the R=0.4 spectrum. The default unfolding uses a fit to the measured spectrum. As an alternate choice the truth spectrum was used. Since only one variation was done, we apply the difference as a symmetric error.\relax }{figure.caption.30}{}}
\@writefile{lof}{\contentsline {figure}{\numberline {30}{\ignorespaces Effect of varying the mininum $p_{T}$ in the unfolding algorthim for the JSR.\relax }}{25}{figure.caption.31}}
\newlabel{fig:sysminPtjsr}{{30}{25}{Effect of varying the mininum $p_{T}$ in the unfolding algorthim for the JSR.\relax }{figure.caption.31}{}}
\@writefile{lof}{\contentsline {figure}{\numberline {31}{\ignorespaces Effect of varying the regularization strength for the SVD unfolding algorthim for the JSR. The points on the plot show the ratio of the Bayesian method to the SVD method. The shaded bands show the uncertainty used based on the maximum deviation.\relax }}{26}{figure.caption.32}}
\newlabel{fig:sysRegjsr}{{31}{26}{Effect of varying the regularization strength for the SVD unfolding algorthim for the JSR. The points on the plot show the ratio of the Bayesian method to the SVD method. The shaded bands show the uncertainty used based on the maximum deviation.\relax }{figure.caption.32}{}}
\@writefile{lof}{\contentsline {figure}{\numberline {32}{\ignorespaces Effect of varying the prior used in unfolding the JSR spectrum. The default unfolding uses a fit to the measured spectrum. As an alternate choice the truth spectrum was used. Since only one variation was done, we apply the difference as a symmetric error.\relax }}{27}{figure.caption.33}}
\newlabel{fig:syspriorjsr}{{32}{27}{Effect of varying the prior used in unfolding the JSR spectrum. The default unfolding uses a fit to the measured spectrum. As an alternate choice the truth spectrum was used. Since only one variation was done, we apply the difference as a symmetric error.\relax }{figure.caption.33}{}}
\@writefile{lof}{\contentsline {figure}{\numberline {33}{\ignorespaces Effect of varying the RM period on the R=0.4 Spectrum.\relax }}{27}{figure.caption.34}}
\newlabel{fig:sysRMR4}{{33}{27}{Effect of varying the RM period on the R=0.4 Spectrum.\relax }{figure.caption.34}{}}
\@writefile{lof}{\contentsline {figure}{\numberline {34}{\ignorespaces Effect of varying the RM period on the JSR.\relax }}{28}{figure.caption.35}}
\newlabel{fig:sysRMjsr}{{34}{28}{Effect of varying the RM period on the JSR.\relax }{figure.caption.35}{}}
\@writefile{toc}{\contentsline {subsection}{\numberline {6.5}Emcal Related Uncertainties}{28}{subsection.6.5}}
\@writefile{lot}{\contentsline {table}{\numberline {1}{\ignorespaces Summary of systematic uncertainties due to the EMCal based on the studies in pp collisions at 2.76 TeV for the R=0.2 and R=0.4 jet spectra as well as the jet structure ratio.\relax }}{28}{table.caption.36}}
\newlabel{tab:sysunc}{{1}{28}{Summary of systematic uncertainties due to the EMCal based on the studies in pp collisions at 2.76 TeV for the R=0.2 and R=0.4 jet spectra as well as the jet structure ratio.\relax }{table.caption.36}{}}
\@writefile{toc}{\contentsline {subsection}{\numberline {6.6}Summary of Systematic Uncertainties}{29}{subsection.6.6}}
\@writefile{lof}{\contentsline {figure}{\numberline {35}{\ignorespaces Total systematic uncertainty on the R=0.2 Jet Spectrum.\relax }}{29}{figure.caption.37}}
\newlabel{fig:totsyserrR2}{{35}{29}{Total systematic uncertainty on the R=0.2 Jet Spectrum.\relax }{figure.caption.37}{}}
\@writefile{toc}{\contentsline {section}{\numberline {7}Requested Plots}{29}{section.7}}
\@writefile{toc}{\contentsline {subsection}{\numberline {7.1}Technical Preliminary}{29}{subsection.7.1}}
\@writefile{lof}{\contentsline {figure}{\numberline {36}{\ignorespaces Total systematic uncertainty on the R=0.4 Jet Spectrum.\relax }}{30}{figure.caption.38}}
\newlabel{fig:totsyserrR4}{{36}{30}{Total systematic uncertainty on the R=0.4 Jet Spectrum.\relax }{figure.caption.38}{}}
\@writefile{lot}{\contentsline {table}{\numberline {2}{\ignorespaces Summary of systematic uncertainties on the R=0.2 and R=0.4 jet spectra as well as the jet structure ratio (JSR).\relax }}{30}{table.caption.39}}
\newlabel{tab:sysunc}{{2}{30}{Summary of systematic uncertainties on the R=0.2 and R=0.4 jet spectra as well as the jet structure ratio (JSR).\relax }{table.caption.39}{}}
\@writefile{lof}{\contentsline {figure}{\numberline {37}{\ignorespaces Raw jet spectrum for R=0.2\relax }}{31}{figure.caption.40}}
\newlabel{fig:techprel1}{{37}{31}{Raw jet spectrum for R=0.2\relax }{figure.caption.40}{}}
\@writefile{lof}{\contentsline {figure}{\numberline {38}{\ignorespaces $\delta p_{T}$ for R=0.2\relax }}{32}{figure.caption.41}}
\newlabel{fig:techprel1}{{38}{32}{$\delta p_{T}$ for R=0.2\relax }{figure.caption.41}{}}
\@writefile{lof}{\contentsline {figure}{\numberline {39}{\ignorespaces Background density, $\rho $, for R=0.2\relax }}{33}{figure.caption.42}}
\newlabel{fig:techprel1}{{39}{33}{Background density, $\rho $, for R=0.2\relax }{figure.caption.42}{}}
\@writefile{lof}{\contentsline {figure}{\numberline {40}{\ignorespaces Background density, $\rho $, for R=0.2\relax }}{34}{figure.caption.43}}
\newlabel{fig:techprel1}{{40}{34}{Background density, $\rho $, for R=0.2\relax }{figure.caption.43}{}}
\@writefile{lof}{\contentsline {figure}{\numberline {41}{\ignorespaces raw jet spectrum for R=0.4\relax }}{35}{figure.caption.44}}
\newlabel{fig:techprel1}{{41}{35}{raw jet spectrum for R=0.4\relax }{figure.caption.44}{}}
\@writefile{lof}{\contentsline {figure}{\numberline {42}{\ignorespaces $\delta p_{T}$ for R=0.4\relax }}{36}{figure.caption.45}}
\newlabel{fig:techprel1}{{42}{36}{$\delta p_{T}$ for R=0.4\relax }{figure.caption.45}{}}
\@writefile{lof}{\contentsline {figure}{\numberline {43}{\ignorespaces Momentum shift for R=0.4\relax }}{37}{figure.caption.46}}
\newlabel{fig:techprel1}{{43}{37}{Momentum shift for R=0.4\relax }{figure.caption.46}{}}
\@writefile{lof}{\contentsline {figure}{\numberline {44}{\ignorespaces Momentum shift for R=0.4\relax }}{37}{figure.caption.47}}
\newlabel{fig:techprel1}{{44}{37}{Momentum shift for R=0.4\relax }{figure.caption.47}{}}
\@writefile{lof}{\contentsline {figure}{\numberline {45}{\ignorespaces Backgroung density $\rho $ for R=0.4\relax }}{38}{figure.caption.48}}
\newlabel{fig:techprel1}{{45}{38}{Backgroung density $\rho $ for R=0.4\relax }{figure.caption.48}{}}
\@writefile{lof}{\contentsline {figure}{\numberline {46}{\ignorespaces Backgroung density $\rho $ for R=0.4\relax }}{39}{figure.caption.49}}
\newlabel{fig:techprel1}{{46}{39}{Backgroung density $\rho $ for R=0.4\relax }{figure.caption.49}{}}
\@writefile{lof}{\contentsline {figure}{\numberline {47}{\ignorespaces Jet energy resolution for R=0.4\relax }}{39}{figure.caption.50}}
\newlabel{fig:techprel1}{{47}{39}{Jet energy resolution for R=0.4\relax }{figure.caption.50}{}}
\@writefile{toc}{\contentsline {subsection}{\numberline {7.2}Physics Preliminary}{40}{subsection.7.2}}
\@writefile{lof}{\contentsline {figure}{\numberline {48}{\ignorespaces Fully corrected p-Pb spectrum for R=0.2.\relax }}{40}{figure.caption.51}}
\newlabel{fig:physprel1}{{48}{40}{Fully corrected p-Pb spectrum for R=0.2.\relax }{figure.caption.51}{}}
\@writefile{lof}{\contentsline {figure}{\numberline {49}{\ignorespaces Fully corrected pPb spectrum for R=0.4.\relax }}{41}{figure.caption.52}}
\newlabel{fig:physprel2}{{49}{41}{Fully corrected pPb spectrum for R=0.4.\relax }{figure.caption.52}{}}
\@writefile{lof}{\contentsline {figure}{\numberline {50}{\ignorespaces Fully corrected p-Pb spectrum for R=0.2 scaled by $N_{coll}$ compared to Pythia and Powheg MC simulations at 5 TeV.\relax }}{42}{figure.caption.53}}
\newlabel{fig:physprel3}{{50}{42}{Fully corrected p-Pb spectrum for R=0.2 scaled by $N_{coll}$ compared to Pythia and Powheg MC simulations at 5 TeV.\relax }{figure.caption.53}{}}
\@writefile{lof}{\contentsline {figure}{\numberline {51}{\ignorespaces Fully corrected pPb spectrum for R=0.4 scaled by $N_{coll}$ compared to Pythia and Powheg MC simulations at 5 TeV.\relax }}{43}{figure.caption.54}}
\newlabel{fig:physprel4}{{51}{43}{Fully corrected pPb spectrum for R=0.4 scaled by $N_{coll}$ compared to Pythia and Powheg MC simulations at 5 TeV.\relax }{figure.caption.54}{}}
\@writefile{lof}{\contentsline {figure}{\numberline {52}{\ignorespaces Ratio of the spectra for R=0.2 over R=0.4 for at 5 TeV p-Pb collisions in red compared to the same ratio for 2.76 pp data.\relax }}{44}{figure.caption.55}}
\newlabel{fig:physprel5}{{52}{44}{Ratio of the spectra for R=0.2 over R=0.4 for at 5 TeV p-Pb collisions in red compared to the same ratio for 2.76 pp data.\relax }{figure.caption.55}{}}
\bibstyle{plain}
\bibdata{biblio}
