%!PS-Adobe-2.0 EPSF-2.0
%%BoundingBox:  0 0 567 366
%%Title: : 
%%Creator: ROOT Version 5.34/09
%%CreationDate: Wed Apr  9 20:25:52 2014
%%EndComments
%%BeginProlog
80 dict begin
/s {stroke} def /l {lineto} def /m {moveto} def /t {translate} def
/r {rotate} def /rl {roll}  def /R {repeat} def
/d {rlineto} def /rm {rmoveto} def /gr {grestore} def /f {eofill} def
/c {setrgbcolor} def /black {0 setgray} def /sd {setdash} def
/cl {closepath} def /sf {scalefont setfont} def /lw {setlinewidth} def
/box {m dup 0 exch d exch 0 d 0 exch neg d cl} def
/NC{systemdict begin initclip end}def/C{NC box clip newpath}def
/bl {box s} def /bf {box f} def /Y { 0 exch d} def /X { 0 d} def 
/K {{pop pop 0 moveto} exch kshow} bind def
/ita {/ang 15 def gsave [1 0 ang dup sin exch cos div 1 0 0] concat} def 
/mp {newpath /y exch def /x exch def} def
/side {[w .77 mul w .23 mul] .385 w mul sd w 0 l currentpoint t -144 r} def
/mr {mp x y w2 0 360 arc} def /m24 {mr s} def /m20 {mr f} def
/mb {mp x y w2 add m w2 neg 0 d 0 w neg d w 0 d 0 w d cl} def
/mt {mp x y w2 add m w2 neg w neg d w 0 d cl} def
/m21 {mb f} def /m25 {mb s} def /m22 {mt f} def /m26{mt s} def
/m23 {mp x y w2 sub m w2 w d w neg 0 d cl f} def
/m27 {mp x y w2 add m w3 neg w2 neg d w3 w2 neg d w3 w2 d cl s} def
/m28 {mp x w2 sub y w2 sub w3 add m w3 0 d  0 w3 neg d w3 0 d 0 w3 d w3 0 d  0 w3 d w3 neg 0 d 0 w3 d w3 neg 0 d 0 w3 neg d w3 neg 0 d cl s } def
/m29 {mp gsave x w2 sub y w2 add w3 sub m currentpoint t 4 {side} repeat cl fill gr} def
/m30 {mp gsave x w2 sub y w2 add w3 sub m currentpoint t 4 {side} repeat cl s gr} def
/m31 {mp x y w2 sub m 0 w d x w2 sub y m w 0 d x w2 sub y w2 add m w w neg d x w2 sub y w2 sub m w w d s} def
/m32 {mp x y w2 sub m w2 w d w neg 0 d cl s} def
/m33 {mp x y w2 add m w3 neg w2 neg d w3 w2 neg d w3 w2 d cl f} def
/m34 {mp x w2 sub y w2 sub w3 add m w3 0 d  0 w3 neg d w3 0 d 0 w3 d w3 0 d  0 w3 d w3 neg 0 d 0 w3 d w3 neg 0 d 0 w3 neg d w3 neg 0 d cl f } def
/m2 {mp x y w2 sub m 0 w d x w2 sub y m w 0 d s} def
/m5 {mp x w2 sub y w2 sub m w w d x w2 sub y w2 add m w w neg d s} def
/reEncode {exch findfont dup length dict begin {1 index /FID eq  {pop pop} {def} ifelse } forall /Encoding exch def currentdict end dup /FontName get exch definefont pop } def [/Times-Bold /Times-Italic /Times-BoldItalic /Helvetica /Helvetica-Oblique
 /Helvetica-Bold /Helvetica-BoldOblique /Courier /Courier-Oblique /Courier-Bold /Courier-BoldOblique /Times-Roman /AvantGarde-Book /AvantGarde-BookOblique /AvantGarde-Demi /AvantGarde-DemiOblique /Bookman-Demi /Bookman-DemiItalic /Bookman-Light
 /Bookman-LightItalic /Helvetica-Narrow /Helvetica-Narrow-Bold /Helvetica-Narrow-BoldOblique /Helvetica-Narrow-Oblique /NewCenturySchlbk-Roman /NewCenturySchlbk-Bold /NewCenturySchlbk-BoldItalic /NewCenturySchlbk-Italic /Palatino-Bold
 /Palatino-BoldItalic /Palatino-Italic /Palatino-Roman ] {ISOLatin1Encoding reEncode } forall
%%EndProlog
%%BeginSetup
%%EndSetup
newpath  gsave  .25 .25 scale  gsave  0 0 t black[  ] 0 sd 3 lw 0.999 0.999 0.999 c 2268 1464 0 0 bf black 0.999 0.999 0.999 c 1814 1171 227 146 bf black 1814 1171 227 146 bl 0 0 1 c 1 1 1 c 0 0 1 c 317 1014 m 8 Y s 317 1037 m 5 Y s 227 1029 m 83 X s
 325 1029 m 83 X s /w 15 def /w2 {w 2 div} def /w3 {w 3 div} def 317 1029 m20 499 891 m 6 Y s 499 913 m 4 Y s 408 905 m 83 X s 506 905 m 84 X s 499 905 m20 680 798 m 9 Y s 680 822 m 6 Y s 590 814 m 83 X s 688 814 m 83 X s 680 814 m20 862 730 m 8 Y s
 862 753 m 5 Y s 771 745 m 83 X s 869 745 m 83 X s 862 745 m20 1043 669 m 6 Y s 1043 690 m 4 Y s 952 683 m 84 X s 1051 683 m 83 X s 1043 683 m20 1225 616 m 6 Y s 1225 637 m 4 Y s 1134 630 m 83 X s 1232 630 m 83 X s 1225 630 m20 1406 572 m 5 Y s 1406
 592 m 4 Y s 1315 585 m 83 X s 1414 585 m 83 X s 1406 585 m20 1587 529 m 7 Y s 1587 551 m 4 Y s 1497 543 m 83 X s 1595 543 m 83 X s 1587 543 m20 1769 489 m 9 Y s 1769 514 m 5 Y s 1678 506 m 83 X s 1776 506 m 84 X s 1769 506 m20 1950 453 m 12 Y s 1950
 480 m 9 Y s 1860 473 m 83 X s 1958 473 m 83 X s 1950 473 m20 black 227 146 m 1814 X s
 gsave  2268 1464 0 0 C 1903.67 43.6099 t 0 r /Helvetica findfont 47.4021 sf 0 0 m ( \(GeV\)) show NC gr 
 gsave  2268 1464 0 0 C 1806.97 62.5708 t 0 r /Helvetica findfont 32.2334 sf 0 0 m (ch+em) show NC gr 
 gsave  2268 1464 0 0 C 1806.97 17.0648 t 0 r /Helvetica findfont 32.2334 sf 0 0 m (T,jet) show NC gr 
 gsave  2268 1464 0 0 C 1780.42 43.6099 t 0 r /Helvetica findfont 47.4021 sf 0 0 m (p) show NC gr  227 182 m -36 Y s 263 164 m -18 Y s 299 164 m -18 Y s 336 164 m -18 Y s 372 164 m -18 Y s 408 182 m -36 Y s 444 164 m -18 Y s 481 164 m -18 Y s 517 164
 m -18 Y s 553 164 m -18 Y s 590 182 m -36 Y s 626 164 m -18 Y s 662 164 m -18 Y s 698 164 m -18 Y s 735 164 m -18 Y s 771 182 m -36 Y s 807 164 m -18 Y s 844 164 m -18 Y s 880 164 m -18 Y s 916 164 m -18 Y s 952 182 m -36 Y s 989 164 m -18 Y s 1025
 164 m -18 Y s 1061 164 m -18 Y s 1098 164 m -18 Y s 1134 182 m -36 Y s 1170 164 m -18 Y s 1206 164 m -18 Y s 1243 164 m -18 Y s 1279 164 m -18 Y s 1315 182 m -36 Y s 1352 164 m -18 Y s 1388 164 m -18 Y s 1424 164 m -18 Y s 1460 164 m -18 Y s 1497
 182 m -36 Y s 1533 164 m -18 Y s 1569 164 m -18 Y s 1606 164 m -18 Y s 1642 164 m -18 Y s 1678 182 m -36 Y s 1714 164 m -18 Y s 1751 164 m -18 Y s 1787 164 m -18 Y s 1823 164 m -18 Y s 1860 182 m -36 Y s 1896 164 m -18 Y s 1932 164 m -18 Y s 1968
 164 m -18 Y s 2005 164 m -18 Y s 2041 182 m -36 Y s
 gsave  2268 1464 0 0 C 199.089 98.5964 t 0 r /Helvetica findfont 47.4021 sf 0 0 m (20) show NC gr 
 gsave  2268 1464 0 0 C 381.113 98.5964 t 0 r /Helvetica findfont 47.4021 sf 0 0 m (30) show NC gr 
 gsave  2268 1464 0 0 C 561.241 98.5964 t 0 r /Helvetica findfont 47.4021 sf 0 0 m (40) show NC gr 
 gsave  2268 1464 0 0 C 743.265 98.5964 t 0 r /Helvetica findfont 47.4021 sf 0 0 m (50) show NC gr 
 gsave  2268 1464 0 0 C 925.289 98.5964 t 0 r /Helvetica findfont 47.4021 sf 0 0 m (60) show NC gr 
 gsave  2268 1464 0 0 C 1107.31 98.5964 t 0 r /Helvetica findfont 47.4021 sf 0 0 m (70) show NC gr 
 gsave  2268 1464 0 0 C 1287.44 98.5964 t 0 r /Helvetica findfont 47.4021 sf 0 0 m (80) show NC gr 
 gsave  2268 1464 0 0 C 1469.47 98.5964 t 0 r /Helvetica findfont 47.4021 sf 0 0 m (90) show NC gr 
 gsave  2268 1464 0 0 C 1638.22 98.5964 t 0 r /Helvetica findfont 47.4021 sf 0 0 m (100) show NC gr 
 gsave  2268 1464 0 0 C 1818.34 98.5964 t 0 r /Helvetica findfont 47.4021 sf 0 0 m (110) show NC gr 
 gsave  2268 1464 0 0 C 2000.37 98.5964 t 0 r /Helvetica findfont 47.4021 sf 0 0 m (120) show NC gr  227 1317 m 1814 X s 227 1282 m 35 Y s 263 1300 m 17 Y s 299 1300 m 17 Y s 336 1300 m 17 Y s 372 1300 m 17 Y s 408 1282 m 35 Y s 444 1300 m 17 Y s 481
 1300 m 17 Y s 517 1300 m 17 Y s 553 1300 m 17 Y s 590 1282 m 35 Y s 626 1300 m 17 Y s 662 1300 m 17 Y s 698 1300 m 17 Y s 735 1300 m 17 Y s 771 1282 m 35 Y s 807 1300 m 17 Y s 844 1300 m 17 Y s 880 1300 m 17 Y s 916 1300 m 17 Y s 952 1282 m 35 Y s
 989 1300 m 17 Y s 1025 1300 m 17 Y s 1061 1300 m 17 Y s 1098 1300 m 17 Y s 1134 1282 m 35 Y s 1170 1300 m 17 Y s 1206 1300 m 17 Y s 1243 1300 m 17 Y s 1279 1300 m 17 Y s 1315 1282 m 35 Y s 1352 1300 m 17 Y s 1388 1300 m 17 Y s 1424 1300 m 17 Y s
 1460 1300 m 17 Y s 1497 1282 m 35 Y s 1533 1300 m 17 Y s 1569 1300 m 17 Y s 1606 1300 m 17 Y s 1642 1300 m 17 Y s 1678 1282 m 35 Y s 1714 1300 m 17 Y s 1751 1300 m 17 Y s 1787 1300 m 17 Y s 1823 1300 m 17 Y s 1860 1282 m 35 Y s 1896 1300 m 17 Y s
 1932 1300 m 17 Y s 1968 1300 m 17 Y s 2005 1300 m 17 Y s 2041 1282 m 35 Y s 227 146 m 1171 Y s
 gsave  2268 1464 0 0 C 79.6355 1289.34 t 90 r /Symbol findfont 47.4021 sf 0 0 m (j) show NC gr 
 gsave  2268 1464 0 0 C 79.6355 1264.69 t 90 r /Helvetica findfont 47.4021 sf 0 0 m (d) show NC gr 
 gsave  2268 1464 0 0 C 79.6355 1238.14 t 90 r /Symbol findfont 47.4021 sf 0 0 m (h) show NC gr 
 gsave  2268 1464 0 0 C 79.6355 1213.49 t 90 r /Helvetica findfont 47.4021 sf 0 0 m (d) show NC gr 
 gsave  2268 1464 0 0 C 106.181 1192.64 t 90 r /Helvetica findfont 32.2334 sf 0 0 m (T) show NC gr 
 gsave  2268 1464 0 0 C 79.6355 1124.38 t 90 r /Helvetica findfont 47.4021 sf 0 0 m (/dp) show NC gr 
 gsave  2268 1464 0 0 C 79.6355 1095.94 t 90 r /Symbol findfont 47.4021 sf 0 0 m (s) show NC gr 
 gsave  2268 1464 0 0 C 79.6355 1058.01 t 90 r /Helvetica findfont 47.4021 sf 0 0 m ( d) show NC gr 
 gsave  2268 1464 0 0 C 96.7003 1003.03 t 90 r /Helvetica findfont 32.2334 sf 0 0 m (Coll) show NC gr 
 gsave  2268 1464 0 0 C 79.6355 919.601 t 90 r /Helvetica findfont 47.4021 sf 0 0 m ( 1/N) show NC gr 
 gsave  2268 1464 0 0 C 94.8042 839.965 t 90 r /Helvetica findfont 32.2334 sf 0 0 m (event) show NC gr 
 gsave  2268 1464 0 0 C 79.6355 767.914 t 90 r /Helvetica findfont 47.4021 sf 0 0 m (1/N) show NC gr  281 146 m -54 X s
 gsave  2268 1464 0 0 C 180.128 147.895 t 0 r /Helvetica findfont 32.2334 sf 0 0 m (\2559) show NC gr 
 gsave  2268 1464 0 0 C 128.934 125.142 t 0 r /Helvetica findfont 47.4021 sf 0 0 m (10) show NC gr  254 197 m -27 X s 254 226 m -27 X s 254 247 m -27 X s 254 263 m -27 X s 254 277 m -27 X s 254 288 m -27 X s 254 297 m -27 X s 254 306 m -27 X s 281
 314 m -54 X s
 gsave  2268 1464 0 0 C 180.128 314.75 t 0 r /Helvetica findfont 32.2334 sf 0 0 m (\2558) show NC gr 
 gsave  2268 1464 0 0 C 128.934 291.997 t 0 r /Helvetica findfont 47.4021 sf 0 0 m (10) show NC gr  254 364 m -27 X s 254 393 m -27 X s 254 414 m -27 X s 254 431 m -27 X s 254 444 m -27 X s 254 455 m -27 X s 254 465 m -27 X s 254 473 m -27 X s 281
 481 m -54 X s
 gsave  2268 1464 0 0 C 180.128 479.709 t 0 r /Helvetica findfont 32.2334 sf 0 0 m (\2557) show NC gr 
 gsave  2268 1464 0 0 C 128.934 458.852 t 0 r /Helvetica findfont 47.4021 sf 0 0 m (10) show NC gr  254 531 m -27 X s 254 561 m -27 X s 254 582 m -27 X s 254 598 m -27 X s 254 611 m -27 X s 254 622 m -27 X s 254 632 m -27 X s 254 641 m -27 X s 281
 648 m -54 X s
 gsave  2268 1464 0 0 C 180.128 648.461 t 0 r /Helvetica findfont 32.2334 sf 0 0 m (\2556) show NC gr 
 gsave  2268 1464 0 0 C 128.934 625.708 t 0 r /Helvetica findfont 47.4021 sf 0 0 m (10) show NC gr  254 699 m -27 X s 254 728 m -27 X s 254 749 m -27 X s 254 765 m -27 X s 254 778 m -27 X s 254 790 m -27 X s 254 799 m -27 X s 254 808 m -27 X s 281
 816 m -54 X s
 gsave  2268 1464 0 0 C 180.128 817.212 t 0 r /Helvetica findfont 32.2334 sf 0 0 m (\2555) show NC gr 
 gsave  2268 1464 0 0 C 128.934 794.459 t 0 r /Helvetica findfont 47.4021 sf 0 0 m (10) show NC gr  254 866 m -27 X s 254 895 m -27 X s 254 916 m -27 X s 254 932 m -27 X s 254 946 m -27 X s 254 957 m -27 X s 254 967 m -27 X s 254 975 m -27 X s 281
 983 m -54 X s
 gsave  2268 1464 0 0 C 180.128 982.172 t 0 r /Helvetica findfont 32.2334 sf 0 0 m (\2554) show NC gr 
 gsave  2268 1464 0 0 C 128.934 961.315 t 0 r /Helvetica findfont 47.4021 sf 0 0 m (10) show NC gr  254 1033 m -27 X s 254 1063 m -27 X s 254 1084 m -27 X s 254 1100 m -27 X s 254 1113 m -27 X s 254 1124 m -27 X s 254 1134 m -27 X s 254 1142 m -27 X
 s 281 1150 m -54 X s
 gsave  2268 1464 0 0 C 180.128 1150.92 t 0 r /Helvetica findfont 32.2334 sf 0 0 m (\2553) show NC gr 
 gsave  2268 1464 0 0 C 128.934 1128.17 t 0 r /Helvetica findfont 47.4021 sf 0 0 m (10) show NC gr  254 1200 m -27 X s 254 1230 m -27 X s 254 1251 m -27 X s 254 1267 m -27 X s 254 1280 m -27 X s 254 1291 m -27 X s 254 1301 m -27 X s 254 1310 m -27 X
 s 281 1317 m -54 X s
 gsave  2268 1464 0 0 C 180.128 1315.88 t 0 r /Helvetica findfont 32.2334 sf 0 0 m (\2552) show NC gr 
 gsave  2268 1464 0 0 C 128.934 1295.03 t 0 r /Helvetica findfont 47.4021 sf 0 0 m (10) show NC gr  2041 146 m 1171 Y s 1987 146 m 54 X s 2014 197 m 27 X s 2014 226 m 27 X s 2014 247 m 27 X s 2014 263 m 27 X s 2014 277 m 27 X s 2014 288 m 27 X s 2014
 297 m 27 X s 2014 306 m 27 X s 1987 314 m 54 X s 2014 364 m 27 X s 2014 393 m 27 X s 2014 414 m 27 X s 2014 431 m 27 X s 2014 444 m 27 X s 2014 455 m 27 X s 2014 465 m 27 X s 2014 473 m 27 X s 1987 481 m 54 X s 2014 531 m 27 X s 2014 561 m 27 X s
 2014 582 m 27 X s 2014 598 m 27 X s 2014 611 m 27 X s 2014 622 m 27 X s 2014 632 m 27 X s 2014 641 m 27 X s 1987 648 m 54 X s 2014 699 m 27 X s 2014 728 m 27 X s 2014 749 m 27 X s 2014 765 m 27 X s 2014 778 m 27 X s 2014 790 m 27 X s 2014 799 m 27 X
 s 2014 808 m 27 X s 1987 816 m 54 X s 2014 866 m 27 X s 2014 895 m 27 X s 2014 916 m 27 X s 2014 932 m 27 X s 2014 946 m 27 X s 2014 957 m 27 X s 2014 967 m 27 X s 2014 975 m 27 X s 1987 983 m 54 X s 2014 1033 m 27 X s 2014 1063 m 27 X s 2014 1084 m
 27 X s 2014 1100 m 27 X s 2014 1113 m 27 X s 2014 1124 m 27 X s 2014 1134 m 27 X s 2014 1142 m 27 X s 1987 1150 m 54 X s 2014 1200 m 27 X s 2014 1230 m 27 X s 2014 1251 m 27 X s 2014 1267 m 27 X s 2014 1280 m 27 X s 2014 1291 m 27 X s 2014 1301 m 27
 X s 2014 1310 m 27 X s 1987 1317 m 54 X s
 gsave  2268 1464 0 0 C 498.67 1202.12 t 0 r /Helvetica-Bold findfont 68.259 sf 0 0 m (X\255Section Total Systematic Uncertainty) show NC gr  1 1 1 c 567 366 340 220 bf black
 gsave  2268 1464 0 0 C 481.605 388.697 t 0 r /Helvetica-Bold findfont 54.9864 sf 0 0 m (Systematic Uncertainty) show NC gr  0 0 1 c 411 403 m20
 gr  gr showpage
end
%%EOF
