RampRate 10 
Slot Channel Voltages Protect
1	1	0, 100, 200, 300, 400, 420, 490   * 
1	2	0, 140, 240, 340, 440, 490, 590   *
1	3	0, 140, 240, 340, 440, 588, 590   *
1	4	0, 140, 240, 340, 440, 590, 590   *
1	5	0, 140, 240, 340, 440, 590, 590   *
1	6	0, 140, 240, 340, 440, 590, 590   *
1	7	0, 140, 240, 340, 440, 590, 590   *
1	8	0, 140, 240, 340, 440, 590, 590   *
Wait	-, -, -, -, -, -, -, -
