%!PS-Adobe-2.0 EPSF-2.0
%%BoundingBox:  0 0 567 398
%%Title: : 
%%Creator: ROOT Version 5.34/09
%%CreationDate: Fri Mar 28 18:31:57 2014
%%EndComments
%%BeginProlog
80 dict begin
/s {stroke} def /l {lineto} def /m {moveto} def /t {translate} def
/r {rotate} def /rl {roll}  def /R {repeat} def
/d {rlineto} def /rm {rmoveto} def /gr {grestore} def /f {eofill} def
/c {setrgbcolor} def /black {0 setgray} def /sd {setdash} def
/cl {closepath} def /sf {scalefont setfont} def /lw {setlinewidth} def
/box {m dup 0 exch d exch 0 d 0 exch neg d cl} def
/NC{systemdict begin initclip end}def/C{NC box clip newpath}def
/bl {box s} def /bf {box f} def /Y { 0 exch d} def /X { 0 d} def 
/K {{pop pop 0 moveto} exch kshow} bind def
/ita {/ang 15 def gsave [1 0 ang dup sin exch cos div 1 0 0] concat} def 
/mp {newpath /y exch def /x exch def} def
/side {[w .77 mul w .23 mul] .385 w mul sd w 0 l currentpoint t -144 r} def
/mr {mp x y w2 0 360 arc} def /m24 {mr s} def /m20 {mr f} def
/mb {mp x y w2 add m w2 neg 0 d 0 w neg d w 0 d 0 w d cl} def
/mt {mp x y w2 add m w2 neg w neg d w 0 d cl} def
/m21 {mb f} def /m25 {mb s} def /m22 {mt f} def /m26{mt s} def
/m23 {mp x y w2 sub m w2 w d w neg 0 d cl f} def
/m27 {mp x y w2 add m w3 neg w2 neg d w3 w2 neg d w3 w2 d cl s} def
/m28 {mp x w2 sub y w2 sub w3 add m w3 0 d  0 w3 neg d w3 0 d 0 w3 d w3 0 d  0 w3 d w3 neg 0 d 0 w3 d w3 neg 0 d 0 w3 neg d w3 neg 0 d cl s } def
/m29 {mp gsave x w2 sub y w2 add w3 sub m currentpoint t 4 {side} repeat cl fill gr} def
/m30 {mp gsave x w2 sub y w2 add w3 sub m currentpoint t 4 {side} repeat cl s gr} def
/m31 {mp x y w2 sub m 0 w d x w2 sub y m w 0 d x w2 sub y w2 add m w w neg d x w2 sub y w2 sub m w w d s} def
/m32 {mp x y w2 sub m w2 w d w neg 0 d cl s} def
/m33 {mp x y w2 add m w3 neg w2 neg d w3 w2 neg d w3 w2 d cl f} def
/m34 {mp x w2 sub y w2 sub w3 add m w3 0 d  0 w3 neg d w3 0 d 0 w3 d w3 0 d  0 w3 d w3 neg 0 d 0 w3 d w3 neg 0 d 0 w3 neg d w3 neg 0 d cl f } def
/m2 {mp x y w2 sub m 0 w d x w2 sub y m w 0 d s} def
/m5 {mp x w2 sub y w2 sub m w w d x w2 sub y w2 add m w w neg d s} def
/reEncode {exch findfont dup length dict begin {1 index /FID eq  {pop pop} {def} ifelse } forall /Encoding exch def currentdict end dup /FontName get exch definefont pop } def [/Times-Bold /Times-Italic /Times-BoldItalic /Helvetica /Helvetica-Oblique
 /Helvetica-Bold /Helvetica-BoldOblique /Courier /Courier-Oblique /Courier-Bold /Courier-BoldOblique /Times-Roman /AvantGarde-Book /AvantGarde-BookOblique /AvantGarde-Demi /AvantGarde-DemiOblique /Bookman-Demi /Bookman-DemiItalic /Bookman-Light
 /Bookman-LightItalic /Helvetica-Narrow /Helvetica-Narrow-Bold /Helvetica-Narrow-BoldOblique /Helvetica-Narrow-Oblique /NewCenturySchlbk-Roman /NewCenturySchlbk-Bold /NewCenturySchlbk-BoldItalic /NewCenturySchlbk-Italic /Palatino-Bold
 /Palatino-BoldItalic /Palatino-Italic /Palatino-Roman ] {ISOLatin1Encoding reEncode } forall
%%EndProlog
%%BeginSetup
%%EndSetup
newpath  gsave  .25 .25 scale  gsave  0 0 t black[  ] 0 sd 3 lw 0.999 0.999 0.999 c 2268 1594 0 0 bf black 0.999 0.999 0.999 c 1814 1276 227 159 bf black 1814 1276 227 159 bl 1 0 0 c 1 1 1 c 1 0 0 c 227 861 m 37 X s 280 861 m 37 X s /w 16 def /w2 {w
 2 div} def /w3 {w 3 div} def 272 861 m20 317 870 m 38 X s 371 870 m 37 X s 363 870 m20 408 878 m 37 X s 462 878 m 37 X s 454 878 m20 499 878 m 37 X s 552 878 m 38 X s 544 878 m20 590 879 m 37 X s 643 879 m 37 X s 635 879 m20 680 872 m 37 X s 734 872
 m 37 X s 726 872 m20 771 861 m 37 X s 825 861 m 37 X s 816 861 m20 862 847 m 37 X s 915 847 m 37 X s 907 847 m20 952 829 m 38 X s 1006 829 m 37 X s 998 829 m20 1043 800 m 37 X s 1097 800 m 37 X s 1089 800 m20 1134 776 m 37 X s 1187 776 m 38 X s 1179
 776 m20 1225 764 m 37 X s 1278 764 m 37 X s 1270 764 m20 1315 740 m 37 X s 1369 740 m 37 X s 1361 740 m20 1406 713 m 37 X s 1460 713 m 37 X s 1451 713 m20 1497 672 m 37 X s 1550 672 m 37 X s 1542 672 m20 1587 639 m 38 X s 1641 639 m 37 X s 1633 639
 m20 1678 643 m 37 X s 1732 643 m 37 X s 1723 643 m20 1769 509 m 37 X s 1822 509 m 38 X s 1814 509 m20 1860 510 m 37 X s 1913 510 m 37 X s 1905 510 m20 1950 471 m 37 X s 2004 471 m 37 X s 1996 471 m20 black 227 159 m 1814 X s
 gsave  2268 1594 0 0 C 1937.01 41.0818 t 0 r /Helvetica findfont 51.3523 sf 0 0 m (NEF) show NC gr  227 198 m -39 Y s 263 179 m -20 Y s 299 179 m -20 Y s 336 179 m -20 Y s 372 179 m -20 Y s 408 198 m -39 Y s 444 179 m -20 Y s 481 179 m -20 Y s 517
 179 m -20 Y s 553 179 m -20 Y s 590 198 m -39 Y s 626 179 m -20 Y s 662 179 m -20 Y s 698 179 m -20 Y s 735 179 m -20 Y s 771 198 m -39 Y s 807 179 m -20 Y s 844 179 m -20 Y s 880 179 m -20 Y s 916 179 m -20 Y s 952 198 m -39 Y s 989 179 m -20 Y s
 1025 179 m -20 Y s 1061 179 m -20 Y s 1098 179 m -20 Y s 1134 198 m -39 Y s 1170 179 m -20 Y s 1206 179 m -20 Y s 1243 179 m -20 Y s 1279 179 m -20 Y s 1315 198 m -39 Y s 1352 179 m -20 Y s 1388 179 m -20 Y s 1424 179 m -20 Y s 1460 179 m -20 Y s
 1497 198 m -39 Y s 1533 179 m -20 Y s 1569 179 m -20 Y s 1606 179 m -20 Y s 1642 179 m -20 Y s 1678 198 m -39 Y s 1714 179 m -20 Y s 1751 179 m -20 Y s 1787 179 m -20 Y s 1823 179 m -20 Y s 1860 198 m -39 Y s 1896 179 m -20 Y s 1932 179 m -20 Y s
 1968 179 m -20 Y s 2005 179 m -20 Y s 2041 198 m -39 Y s
 gsave  2268 1594 0 0 C 211.571 106.813 t 0 r /Helvetica findfont 51.3523 sf 0 0 m (0) show NC gr 
 gsave  2268 1594 0 0 C 375.899 106.813 t 0 r /Helvetica findfont 51.3523 sf 0 0 m (0.1) show NC gr 
 gsave  2268 1594 0 0 C 554.605 106.813 t 0 r /Helvetica findfont 51.3523 sf 0 0 m (0.2) show NC gr 
 gsave  2268 1594 0 0 C 735.365 106.813 t 0 r /Helvetica findfont 51.3523 sf 0 0 m (0.3) show NC gr 
 gsave  2268 1594 0 0 C 916.125 106.813 t 0 r /Helvetica findfont 51.3523 sf 0 0 m (0.4) show NC gr 
 gsave  2268 1594 0 0 C 1098.94 106.813 t 0 r /Helvetica findfont 51.3523 sf 0 0 m (0.5) show NC gr 
 gsave  2268 1594 0 0 C 1279.7 106.813 t 0 r /Helvetica findfont 51.3523 sf 0 0 m (0.6) show NC gr 
 gsave  2268 1594 0 0 C 1460.46 106.813 t 0 r /Helvetica findfont 51.3523 sf 0 0 m (0.7) show NC gr 
 gsave  2268 1594 0 0 C 1641.22 106.813 t 0 r /Helvetica findfont 51.3523 sf 0 0 m (0.8) show NC gr 
 gsave  2268 1594 0 0 C 1824.03 106.813 t 0 r /Helvetica findfont 51.3523 sf 0 0 m (0.9) show NC gr 
 gsave  2268 1594 0 0 C 2029.44 106.813 t 0 r /Helvetica findfont 51.3523 sf 0 0 m (1) show NC gr  227 159 m 1276 Y s
 gsave  2268 1594 0 0 C 82.1636 1010.61 t 90 r /Helvetica findfont 51.3523 sf 0 0 m (Probability Density) show NC gr  281 159 m -54 X s
 gsave  2268 1594 0 0 C 176.652 158.165 t 0 r /Helvetica findfont 34.9195 sf 0 0 m (\2554) show NC gr 
 gsave  2268 1594 0 0 C 121.191 135.57 t 0 r /Helvetica findfont 51.3523 sf 0 0 m (10) show NC gr  254 255 m -27 X s 254 312 m -27 X s 254 351 m -27 X s 254 382 m -27 X s 254 407 m -27 X s 254 429 m -27 X s 254 447 m -27 X s 254 464 m -27 X s 281 478
 m -54 X s
 gsave  2268 1594 0 0 C 176.652 478.603 t 0 r /Helvetica findfont 34.9195 sf 0 0 m (\2553) show NC gr 
 gsave  2268 1594 0 0 C 121.191 453.954 t 0 r /Helvetica findfont 51.3523 sf 0 0 m (10) show NC gr  254 574 m -27 X s 254 630 m -27 X s 254 670 m -27 X s 254 701 m -27 X s 254 726 m -27 X s 254 748 m -27 X s 254 766 m -27 X s 254 782 m -27 X s 281
 797 m -54 X s
 gsave  2268 1594 0 0 C 176.652 796.987 t 0 r /Helvetica findfont 34.9195 sf 0 0 m (\2552) show NC gr 
 gsave  2268 1594 0 0 C 121.191 774.392 t 0 r /Helvetica findfont 51.3523 sf 0 0 m (10) show NC gr  254 893 m -27 X s 254 949 m -27 X s 254 989 m -27 X s 254 1020 m -27 X s 254 1045 m -27 X s 254 1066 m -27 X s 254 1085 m -27 X s 254 1101 m -27 X s
 281 1116 m -54 X s
 gsave  2268 1594 0 0 C 182.814 1115.37 t 0 r /Helvetica findfont 34.9195 sf 0 0 m (\2551) show NC gr 
 gsave  2268 1594 0 0 C 127.354 1092.78 t 0 r /Helvetica findfont 51.3523 sf 0 0 m (10) show NC gr  254 1212 m -27 X s 254 1268 m -27 X s 254 1308 m -27 X s 254 1339 m -27 X s 254 1364 m -27 X s 254 1385 m -27 X s 254 1404 m -27 X s 254 1420 m -27 X
 s 281 1435 m -54 X s
 gsave  2268 1594 0 0 C 209.083 1412.39 t 0 r  -28 0 t /Helvetica findfont 51.3523 sf 0 0 m (1) show NC gr  0 0 1 c 1 1 1 c 0 0 1 c 272 710 m 162 Y s 272 888 m 66 Y s 227 880 m 37 X s 280 880 m 37 X s 272 880 m21 363 710 m 162 Y s 363 888 m 66 Y s
 317 880 m 38 X s 371 880 m 37 X s 363 880 m21 454 159 m 617 Y s 454 792 m 88 Y s 408 784 m 37 X s 462 784 m 37 X s 454 784 m21 635 159 m 617 Y s 635 792 m 88 Y s 590 784 m 37 X s 643 784 m 37 X s 635 784 m21 726 817 m 111 Y s 726 944 m 55 Y s 680
 936 m 37 X s 734 936 m 37 X s 726 936 m21 907 159 m 617 Y s 907 792 m 88 Y s 862 784 m 37 X s 915 784 m 37 X s 907 784 m21 998 880 m 88 Y s 998 984 m 48 Y s 952 976 m 38 X s 1006 976 m 37 X s 998 976 m21 1089 159 m 617 Y s 1089 792 m 88 Y s 1043 784
 m 37 X s 1097 784 m 37 X s 1089 784 m21 1179 710 m 162 Y s 1179 888 m 66 Y s 1134 880 m 37 X s 1187 880 m 38 X s 1179 880 m21 1270 159 m 617 Y s 1270 792 m 88 Y s 1225 784 m 37 X s 1278 784 m 37 X s 1270 784 m21 1361 710 m 162 Y s 1361 888 m 66 Y s
 1315 880 m 37 X s 1369 880 m 37 X s 1361 880 m21 1542 159 m 617 Y s 1542 792 m 88 Y s 1497 784 m 37 X s 1550 784 m 37 X s 1542 784 m21 1633 159 m 617 Y s 1633 792 m 88 Y s 1587 784 m 38 X s 1641 784 m 37 X s 1633 784 m21 black 1 1 1 c 680 319 454
 319 bf black
 gsave  2268 1594 0 0 C 622.39 546.388 t 0 r /Helvetica-Bold findfont 36.9736 sf 0 0 m (Simulation \(Detector\255level\)) show NC gr  1 0 0 c 539 558 m20 black
 gsave  2268 1594 0 0 C 622.39 384.115 t 0 r /Helvetica-Bold findfont 36.9736 sf 0 0 m (Data) show NC gr  0 0 1 c 539 398 m21 black
 gsave  2268 1594 0 0 C 316.33 1308.46 t 0 r /Helvetica-Bold findfont 55.4605 sf 0 0 m (Jet NEF comparison between lhc13b and lhc13b4_fix_good) show NC gr 
 gsave  2268 1594 0 0 C 1770.63 1172.89 t 0 r /Helvetica-Bold findfont 55.4605 sf 0 0 m ( < 100 GeV) show NC gr 
 gsave  2268 1594 0 0 C 1653.54 1199.59 t 0 r /Helvetica-Bold findfont 36.9736 sf 0 0 m (uncorr) show NC gr 
 gsave  2268 1594 0 0 C 1653.54 1144.13 t 0 r /Helvetica-Bold findfont 36.9736 sf 0 0 m (T,jet) show NC gr 
 gsave  2268 1594 0 0 C 1495.38 1172.89 t 0 r /Helvetica-Bold findfont 55.4605 sf 0 0 m (80 < p) show NC gr 
 gsave  2268 1594 0 0 C 1665.87 1068.13 t 0 r /Helvetica-Bold findfont 55.4605 sf 0 0 m ( R=0.2) show NC gr 
 gsave  2268 1594 0 0 C 1643.27 1049.64 t 0 r /Helvetica-Bold findfont 36.9736 sf 0 0 m (T) show NC gr 
 gsave  2268 1594 0 0 C 1495.38 1068.13 t 0 r /Helvetica-Bold findfont 55.4605 sf 0 0 m (anti\255k) show NC gr 
 gr  gr showpage
end
%%EOF
