%!PS-Adobe-2.0 EPSF-2.0
%%BoundingBox:  0 0 567 398
%%Title: : 
%%Creator: ROOT Version 5.34/09
%%CreationDate: Fri Mar 28 18:31:57 2014
%%EndComments
%%BeginProlog
80 dict begin
/s {stroke} def /l {lineto} def /m {moveto} def /t {translate} def
/r {rotate} def /rl {roll}  def /R {repeat} def
/d {rlineto} def /rm {rmoveto} def /gr {grestore} def /f {eofill} def
/c {setrgbcolor} def /black {0 setgray} def /sd {setdash} def
/cl {closepath} def /sf {scalefont setfont} def /lw {setlinewidth} def
/box {m dup 0 exch d exch 0 d 0 exch neg d cl} def
/NC{systemdict begin initclip end}def/C{NC box clip newpath}def
/bl {box s} def /bf {box f} def /Y { 0 exch d} def /X { 0 d} def 
/K {{pop pop 0 moveto} exch kshow} bind def
/ita {/ang 15 def gsave [1 0 ang dup sin exch cos div 1 0 0] concat} def 
/mp {newpath /y exch def /x exch def} def
/side {[w .77 mul w .23 mul] .385 w mul sd w 0 l currentpoint t -144 r} def
/mr {mp x y w2 0 360 arc} def /m24 {mr s} def /m20 {mr f} def
/mb {mp x y w2 add m w2 neg 0 d 0 w neg d w 0 d 0 w d cl} def
/mt {mp x y w2 add m w2 neg w neg d w 0 d cl} def
/m21 {mb f} def /m25 {mb s} def /m22 {mt f} def /m26{mt s} def
/m23 {mp x y w2 sub m w2 w d w neg 0 d cl f} def
/m27 {mp x y w2 add m w3 neg w2 neg d w3 w2 neg d w3 w2 d cl s} def
/m28 {mp x w2 sub y w2 sub w3 add m w3 0 d  0 w3 neg d w3 0 d 0 w3 d w3 0 d  0 w3 d w3 neg 0 d 0 w3 d w3 neg 0 d 0 w3 neg d w3 neg 0 d cl s } def
/m29 {mp gsave x w2 sub y w2 add w3 sub m currentpoint t 4 {side} repeat cl fill gr} def
/m30 {mp gsave x w2 sub y w2 add w3 sub m currentpoint t 4 {side} repeat cl s gr} def
/m31 {mp x y w2 sub m 0 w d x w2 sub y m w 0 d x w2 sub y w2 add m w w neg d x w2 sub y w2 sub m w w d s} def
/m32 {mp x y w2 sub m w2 w d w neg 0 d cl s} def
/m33 {mp x y w2 add m w3 neg w2 neg d w3 w2 neg d w3 w2 d cl f} def
/m34 {mp x w2 sub y w2 sub w3 add m w3 0 d  0 w3 neg d w3 0 d 0 w3 d w3 0 d  0 w3 d w3 neg 0 d 0 w3 d w3 neg 0 d 0 w3 neg d w3 neg 0 d cl f } def
/m2 {mp x y w2 sub m 0 w d x w2 sub y m w 0 d s} def
/m5 {mp x w2 sub y w2 sub m w w d x w2 sub y w2 add m w w neg d s} def
/reEncode {exch findfont dup length dict begin {1 index /FID eq  {pop pop} {def} ifelse } forall /Encoding exch def currentdict end dup /FontName get exch definefont pop } def [/Times-Bold /Times-Italic /Times-BoldItalic /Helvetica /Helvetica-Oblique
 /Helvetica-Bold /Helvetica-BoldOblique /Courier /Courier-Oblique /Courier-Bold /Courier-BoldOblique /Times-Roman /AvantGarde-Book /AvantGarde-BookOblique /AvantGarde-Demi /AvantGarde-DemiOblique /Bookman-Demi /Bookman-DemiItalic /Bookman-Light
 /Bookman-LightItalic /Helvetica-Narrow /Helvetica-Narrow-Bold /Helvetica-Narrow-BoldOblique /Helvetica-Narrow-Oblique /NewCenturySchlbk-Roman /NewCenturySchlbk-Bold /NewCenturySchlbk-BoldItalic /NewCenturySchlbk-Italic /Palatino-Bold
 /Palatino-BoldItalic /Palatino-Italic /Palatino-Roman ] {ISOLatin1Encoding reEncode } forall
%%EndProlog
%%BeginSetup
%%EndSetup
newpath  gsave  .25 .25 scale  gsave  0 0 t black[  ] 0 sd 3 lw 0.999 0.999 0.999 c 2268 1594 0 0 bf black 0.999 0.999 0.999 c 1814 1276 227 159 bf black 1814 1276 227 159 bl 1 0 0 c 1 1 1 c 1 0 0 c 227 677 m 37 X s 280 677 m 37 X s /w 16 def /w2 {w
 2 div} def /w3 {w 3 div} def 272 677 m20 317 726 m 38 X s 371 726 m 37 X s 363 726 m20 408 761 m 37 X s 462 761 m 37 X s 454 761 m20 499 792 m 37 X s 552 792 m 38 X s 544 792 m20 590 836 m 37 X s 643 836 m 37 X s 635 836 m20 680 817 m 37 X s 734 817
 m 37 X s 726 817 m20 771 795 m 37 X s 825 795 m 37 X s 816 795 m20 862 838 m 37 X s 915 838 m 37 X s 907 838 m20 952 821 m 38 X s 1006 821 m 37 X s 998 821 m20 1043 837 m 37 X s 1097 837 m 37 X s 1089 837 m20 1134 845 m 37 X s 1187 845 m 38 X s 1179
 845 m20 1225 847 m 37 X s 1278 847 m 37 X s 1270 847 m20 1315 856 m 37 X s 1369 856 m 37 X s 1361 856 m20 1406 840 m 37 X s 1460 840 m 37 X s 1451 840 m20 1497 830 m 37 X s 1550 830 m 37 X s 1542 830 m20 1587 855 m 38 X s 1641 855 m 37 X s 1633 855
 m20 1678 850 m 37 X s 1732 850 m 37 X s 1723 850 m20 1769 867 m 37 X s 1822 867 m 38 X s 1814 867 m20 1860 855 m 37 X s 1913 855 m 37 X s 1905 855 m20 1950 839 m 37 X s 2004 839 m 37 X s 1996 839 m20 black 227 159 m 1814 X s
 gsave  2268 1594 0 0 C 1891.82 51.3523 t 0 r /Helvetica findfont 51.3523 sf 0 0 m ( \(GeV\)) show NC gr 
 gsave  2268 1594 0 0 C 1824.03 22.595 t 0 r /Helvetica findfont 34.9195 sf 0 0 m (T,jet) show NC gr 
 gsave  2268 1594 0 0 C 1795.28 51.3523 t 0 r /Helvetica findfont 51.3523 sf 0 0 m (p) show NC gr  227 198 m -39 Y s 263 179 m -20 Y s 299 179 m -20 Y s 336 179 m -20 Y s 372 179 m -20 Y s 408 198 m -39 Y s 444 179 m -20 Y s 481 179 m -20 Y s 517 179
 m -20 Y s 553 179 m -20 Y s 590 198 m -39 Y s 626 179 m -20 Y s 662 179 m -20 Y s 698 179 m -20 Y s 735 179 m -20 Y s 771 198 m -39 Y s 807 179 m -20 Y s 844 179 m -20 Y s 880 179 m -20 Y s 916 179 m -20 Y s 952 198 m -39 Y s 989 179 m -20 Y s 1025
 179 m -20 Y s 1061 179 m -20 Y s 1098 179 m -20 Y s 1134 198 m -39 Y s 1170 179 m -20 Y s 1206 179 m -20 Y s 1243 179 m -20 Y s 1279 179 m -20 Y s 1315 198 m -39 Y s 1352 179 m -20 Y s 1388 179 m -20 Y s 1424 179 m -20 Y s 1460 179 m -20 Y s 1497
 198 m -39 Y s 1533 179 m -20 Y s 1569 179 m -20 Y s 1606 179 m -20 Y s 1642 179 m -20 Y s 1678 198 m -39 Y s 1714 179 m -20 Y s 1751 179 m -20 Y s 1787 179 m -20 Y s 1823 179 m -20 Y s 1860 198 m -39 Y s 1896 179 m -20 Y s 1932 179 m -20 Y s 1968
 179 m -20 Y s 2005 179 m -20 Y s 2041 198 m -39 Y s
 gsave  2268 1594 0 0 C 211.571 106.813 t 0 r /Helvetica findfont 51.3523 sf 0 0 m (0) show NC gr 
 gsave  2268 1594 0 0 C 377.953 106.813 t 0 r /Helvetica findfont 51.3523 sf 0 0 m (10) show NC gr 
 gsave  2268 1594 0 0 C 560.767 106.813 t 0 r /Helvetica findfont 51.3523 sf 0 0 m (20) show NC gr 
 gsave  2268 1594 0 0 C 741.527 106.813 t 0 r /Helvetica findfont 51.3523 sf 0 0 m (30) show NC gr 
 gsave  2268 1594 0 0 C 922.287 106.813 t 0 r /Helvetica findfont 51.3523 sf 0 0 m (40) show NC gr 
 gsave  2268 1594 0 0 C 1105.1 106.813 t 0 r /Helvetica findfont 51.3523 sf 0 0 m (50) show NC gr 
 gsave  2268 1594 0 0 C 1285.86 106.813 t 0 r /Helvetica findfont 51.3523 sf 0 0 m (60) show NC gr 
 gsave  2268 1594 0 0 C 1466.62 106.813 t 0 r /Helvetica findfont 51.3523 sf 0 0 m (70) show NC gr 
 gsave  2268 1594 0 0 C 1647.38 106.813 t 0 r /Helvetica findfont 51.3523 sf 0 0 m (80) show NC gr 
 gsave  2268 1594 0 0 C 1830.2 106.813 t 0 r /Helvetica findfont 51.3523 sf 0 0 m (90) show NC gr 
 gsave  2268 1594 0 0 C 1996.58 106.813 t 0 r /Helvetica findfont 51.3523 sf 0 0 m (100) show NC gr  227 159 m 1276 Y s
 gsave  2268 1594 0 0 C 92.4341 1273.54 t 90 r /Helvetica findfont 51.3523 sf 0 0 m (<NEF>) show NC gr  281 159 m -54 X s 254 202 m -27 X s 254 244 m -27 X s 254 287 m -27 X s 254 329 m -27 X s 281 372 m -54 X s 254 414 m -27 X s 254 457 m -27 X s
 254 499 m -27 X s 254 542 m -27 X s 281 584 m -54 X s 254 627 m -27 X s 254 669 m -27 X s 254 712 m -27 X s 254 754 m -27 X s 281 797 m -54 X s 254 839 m -27 X s 254 882 m -27 X s 254 925 m -27 X s 254 967 m -27 X s 281 1010 m -54 X s 254 1052 m -27
 X s 254 1095 m -27 X s 254 1137 m -27 X s 254 1180 m -27 X s 281 1222 m -54 X s 254 1265 m -27 X s 254 1307 m -27 X s 254 1350 m -27 X s 254 1392 m -27 X s 281 1435 m -54 X s 281 1435 m -54 X s
 gsave  2268 1594 0 0 C 186.922 141.732 t 0 r /Helvetica findfont 51.3523 sf 0 0 m (0) show NC gr 
 gsave  2268 1594 0 0 C 152.003 355.358 t 0 r /Helvetica findfont 51.3523 sf 0 0 m (0.1) show NC gr 
 gsave  2268 1594 0 0 C 143.786 566.929 t 0 r /Helvetica findfont 51.3523 sf 0 0 m (0.2) show NC gr 
 gsave  2268 1594 0 0 C 143.786 778.5 t 0 r /Helvetica findfont 51.3523 sf 0 0 m (0.3) show NC gr 
 gsave  2268 1594 0 0 C 143.786 992.126 t 0 r /Helvetica findfont 51.3523 sf 0 0 m (0.4) show NC gr 
 gsave  2268 1594 0 0 C 143.786 1203.7 t 0 r /Helvetica findfont 51.3523 sf 0 0 m (0.5) show NC gr 
 gsave  2268 1594 0 0 C 143.786 1417.32 t 0 r /Helvetica findfont 51.3523 sf 0 0 m (0.6) show NC gr  0 0 1 c 1 1 1 c 0 0 1 c 317 637 m 38 X s 371 637 m 37 X s 363 637 m21 408 723 m 37 X s 462 723 m 37 X s 454 723 m21 499 772 m 37 X s 552 772 m 38 X s
 544 772 m21 635 784 m 3 Y s 635 803 m 3 Y s 590 795 m 37 X s 643 795 m 37 X s 635 795 m21 726 788 m 7 Y s 726 812 m 8 Y s 680 804 m 37 X s 734 804 m 37 X s 726 804 m21 816 808 m 15 Y s 816 839 m 16 Y s 771 831 m 37 X s 825 831 m 37 X s 816 831 m21
 907 805 m 25 Y s 907 846 m 25 Y s 862 838 m 37 X s 915 838 m 37 X s 907 838 m21 998 796 m 36 Y s 998 849 m 35 Y s 952 840 m 38 X s 1006 840 m 37 X s 998 840 m21 1089 858 m 45 Y s 1089 920 m 46 Y s 1043 912 m 37 X s 1097 912 m 37 X s 1089 912 m21
 1179 748 m 72 Y s 1179 837 m 72 Y s 1134 828 m 37 X s 1187 828 m 38 X s 1179 828 m21 1270 647 m 65 Y s 1270 728 m 65 Y s 1225 720 m 37 X s 1278 720 m 37 X s 1270 720 m21 1361 795 m 75 Y s 1361 886 m 75 Y s 1315 878 m 37 X s 1369 878 m 37 X s 1361
 878 m21 1451 798 m 150 Y s 1451 965 m 150 Y s 1406 956 m 37 X s 1460 956 m 37 X s 1451 956 m21 1542 914 m 160 Y s 1542 1090 m 160 Y s 1497 1082 m 37 X s 1550 1082 m 37 X s 1542 1082 m21 1633 676 m 203 Y s 1633 896 m 203 Y s 1587 887 m 38 X s 1641
 887 m 37 X s 1633 887 m21 1723 878 m 100 Y s 1723 995 m 100 Y s 1678 986 m 37 X s 1732 986 m 37 X s 1723 986 m21 1814 715 m 236 Y s 1814 968 m 235 Y s 1769 959 m 37 X s 1822 959 m 38 X s 1814 959 m21 1860 786 m 37 X s 1913 786 m 37 X s 1905 786 m21
 1950 744 m 37 X s 2004 744 m 37 X s 1996 744 m21 black 1 1 1 c 680 239 454 239 bf black
 gsave  2268 1594 0 0 C 622.39 406.71 t 0 r /Helvetica-Bold findfont 36.9736 sf 0 0 m (Simulation \(Detector\255level\)) show NC gr  1 0 0 c 539 418 m20 black
 gsave  2268 1594 0 0 C 622.39 285.519 t 0 r /Helvetica-Bold findfont 36.9736 sf 0 0 m (Data) show NC gr  0 0 1 c 539 299 m21 black
 gsave  2268 1594 0 0 C 760.014 521.739 t 0 r /Helvetica-Bold findfont 55.4605 sf 0 0 m ( R = 0.2) show NC gr 
 gsave  2268 1594 0 0 C 737.419 503.252 t 0 r /Helvetica-Bold findfont 36.9736 sf 0 0 m (T) show NC gr 
 gsave  2268 1594 0 0 C 589.524 521.739 t 0 r /Helvetica-Bold findfont 55.4605 sf 0 0 m (anti\255k) show NC gr 
 gsave  2268 1594 0 0 C 316.33 1329 t 0 r /Helvetica-Bold findfont 45.19 sf 0 0 m (Jet <NEF> comparison between lhc13b and lhc13b4_fix_good) show NC gr 
 gr  gr showpage
end
%%EOF
