runNb	Beam	IB(1/0)	Gain[%]	TF2 [V/cm]
680  	-1	0	69	3730   # something wrong in the merging most probably
681  	-1	0	69	3730
682  	-1	0	70	3730
683  	-1	0	71	3730
684  	-1	0	72	3730
685  	-1	0	73	3730
686  	-1	1	100	200
687  	-1	1	100	400
688  	-1	1	100	600
690  	-1	1	100	800
691  	-1	1	103	200
692  	-1	1	103	400
693  	-1	1	103	600
694  	-1	1	103	800
698  	-1	1	105	200
699  	-1	1	105	400
700  	-1	1	105	600	
702  	-1	1	105	800
703  	-1	1	107	200
704  	-1	1	107	400
705  	-1	1	107	600	# G1T tripped, problem with merged file
706	-1	1	107	600	# G1T G1B G2T G2B tripped
709	-1	1	107	600	# G1T G1B tripped
713	-2	1	100	200
714	-2	1	100	400
715	-2	1	100	600
716	-2	1	100	800
717	-2	1	103	200
718	-2	1	103	400
719	-2	1	103	600
720	-2	1	103	800	# Daq stuck at the end
723	-2	1	103	800
724	-2	1	105	200	# Stuck after 12 min
726	-2	1	105	200	
727     -2      1	103	800     # go back to recheck
731	-2	1	105	400
733	-2	1	105	600
734	-2	1	105	800	# G1T G1B trip after 30 minutes
735	-2	1	105	800
736	-2	1	107	200
737     -2      1       107     400     # G1T G1B trip after 32 minutes
739     -2      1       107     400     # busy error after 40 minutes and 40k events
740     -2      1       107     400     # busy error after 15 minutes
768	-2	0	69	3730
769	-2	0	70	3730
770	-2	0	71	3730
771	-2	0	72	3730
773	-2	0	73	3730
777	-2	0	73	3730
783	-2	0	73	3730
795	-3	0	69	3730
816	-3	0	70	3730
817	-3	0	71	3730
818	-3	1	100	400
820	-3	1	100	600	# G1T G1B tripped after 15 minutes
829	-3	1	100	600
830	-3	1	103	200
831	-3	1	103	400
832	-3	1	105	200
834	-3	1	107	200
838	-3	1	105	400
841	-3	1	103	600
842	-3	1	100	800
851	1	0	69	3730
856	1	0	69	3730
858	1	0	69	3730
859	1	0	70	3730
860	1	0	71	3730
861	1	0	72	3730
862	1	0	73	3730
867	6	0	69	3730
868	6	0	70	3730
869	6	0	71	3730
870	6	0	72	3730   	# DAQ stuck. 43k.
871	6	0	72	3730  
872	6	0	73	3730
873	6	1	100	400
876	6	1	103	200	
879	6	1	105	200
881	6	1	107	200
882	6	1	103	400
883	6	1	105	400
884	6	1	100	600
886	6	1	103	600
887	6	1	100	800    
889	-1	1	100	200
891	-1	1	103	200               
892     -1      1       105     200
893     -1      1       100     400  # busy error after 10 min.
896     -1      1       100     400  
897     -1      1       107     200
898     -1      1       103     400   
899     -1      1       105     400  
900     -1      1       100     200
904	-1	1	103	400 # 90ns shaping
905	-1	1	103	400 # 90ns shaping
909	-1	1	103	400 # 60ns shaping
912	-1	1	103	400 # 30ns shaping
913	-1	1	103	400 # 30ns shaping
914	-1	1	103	400 # 30ns shaping
917	-1	1	107	200 # 90ns shaping
922	-1	1	100	200 # 120ns shaping and gain 27mV/fC
923	-1	1	100	400 # 120ns shaping and gain 27mV/fC
