256
383
0	0	29
1	0	30
2	0	31
3	0	32
4	0	33
5	0	34
6	0	35
7	0	36
8	4	36
9	4	35
10	4	34
11	4	33
12	4	32
13	4	31
14	4	30
15	4	29
16	5	36
17	5	35
18	5	34
19	5	33
20	5	32
21	5	31
22	5	30
23	5	29
24	1	29
25	1	30
26	1	31
27	1	32
28	1	33
29	1	34
30	1	35
31	1	36
32	8	29
33	8	30
34	8	31
35	8	32
36	8	33
37	8	34
38	8	35
39	8	36
40	12	36
41	12	35
42	12	34
43	12	33
44	12	32
45	12	31
46	12	30
47	12	29
48	13	36
49	13	35
50	13	34
51	13	33
52	13	32
53	13	31
54	13	30
55	13	29
56	9	29
57	9	30
58	9	31
59	9	32
60	9	33
61	9	34
62	9	35
63	9	36
64	16	29
65	16	30
66	16	31
67	16	32
68	16	33
69	16	34
70	16	35
71	16	36
72	20	36
73	20	35
74	20	34
75	20	33
76	20	32
77	20	31
78	20	30
79	20	29
80	21	29
81	21	30
82	21	31
83	21	32
84	21	33
85	21	34
86	21	35
87	21	36
88	17	29
89	17	30
90	17	31
91	17	32
92	17	33
93	17	34
94	17	35
95	17	36
96	24	29
97	24	30
98	24	31
99	24	32
100	24	33
101	24	34
102	24	35
103	24	36
104	28	36
105	28	35
106	28	34
107	28	33
108	28	32
109	28	31
110	28	30
111	28	29
112	29	36
113	29	35
114	29	34
115	29	33
116	29	32
117	29	31
118	29	30
119	29	29
120	25	29
121	25	30
122	25	31
123	25	32
124	25	33
125	25	34
126	25	35
127	25	36
256	3	29
257	3	30
258	3	31
259	3	32
260	3	33
261	3	34
262	3	35
263	3	36
264	6	36
265	6	35
266	6	34
267	6	33
268	6	32
269	6	31
270	6	30
271	6	29
272	7	36
273	7	35
274	7	34
275	7	33
276	7	32
277	7	31
278	7	30
279	7	29
280	2	29
281	2	30
282	2	31
283	2	32
284	2	33
285	2	34
286	2	35
287	2	36
288	10	29
289	10	30
290	10	31
291	10	32
292	10	33
293	10	34
294	10	35
295	10	36
296	14	36
297	14	35
298	14	34
299	14	33
300	14	32
301	14	31
302	14	30
303	14	29
304	15	36
305	15	35
306	15	34
307	15	33
308	15	32
309	15	31
310	15	30
311	15	29
312	11	29
313	11	30
314	11	31
315	11	32
316	11	33
317	11	34
318	11	35
319	11	36
320	18	29
321	18	30
322	18	31
323	18	32
324	18	33
325	18	34
326	18	35
327	18	36
328	22	36
329	22	35
330	22	34
331	22	33
332	22	32
333	22	31
334	22	30
335	22	29
336	23	36
337	23	35
338	23	34
339	23	33
340	23	32
341	23	31
342	23	30
343	23	29
344	19	29
345	19	30
346	19	31
347	19	32
348	19	33
349	19	34
350	19	35
351	19	36
352	26	29
353	26	30
354	26	31
355	26	32
356	26	33
357	26	34
358	26	35
359	26	36
360	30	36
361	30	35
362	30	34
363	30	33
364	30	32
365	30	31
366	30	30
367	30	29
368	31	36
369	31	35
370	31	34
371	31	33
372	31	32
373	31	31
374	31	30
375	31	29
376	27	29
377	27	30
378	27	31
379	27	32
380	27	33
381	27	34
382	27	35
383	27	36
