%!PS-Adobe-2.0 EPSF-2.0
%%BoundingBox:  0 0 567 398
%%Title: : 
%%Creator: ROOT Version 5.34/09
%%CreationDate: Fri Mar 28 18:31:52 2014
%%EndComments
%%BeginProlog
80 dict begin
/s {stroke} def /l {lineto} def /m {moveto} def /t {translate} def
/r {rotate} def /rl {roll}  def /R {repeat} def
/d {rlineto} def /rm {rmoveto} def /gr {grestore} def /f {eofill} def
/c {setrgbcolor} def /black {0 setgray} def /sd {setdash} def
/cl {closepath} def /sf {scalefont setfont} def /lw {setlinewidth} def
/box {m dup 0 exch d exch 0 d 0 exch neg d cl} def
/NC{systemdict begin initclip end}def/C{NC box clip newpath}def
/bl {box s} def /bf {box f} def /Y { 0 exch d} def /X { 0 d} def 
/K {{pop pop 0 moveto} exch kshow} bind def
/ita {/ang 15 def gsave [1 0 ang dup sin exch cos div 1 0 0] concat} def 
/mp {newpath /y exch def /x exch def} def
/side {[w .77 mul w .23 mul] .385 w mul sd w 0 l currentpoint t -144 r} def
/mr {mp x y w2 0 360 arc} def /m24 {mr s} def /m20 {mr f} def
/mb {mp x y w2 add m w2 neg 0 d 0 w neg d w 0 d 0 w d cl} def
/mt {mp x y w2 add m w2 neg w neg d w 0 d cl} def
/m21 {mb f} def /m25 {mb s} def /m22 {mt f} def /m26{mt s} def
/m23 {mp x y w2 sub m w2 w d w neg 0 d cl f} def
/m27 {mp x y w2 add m w3 neg w2 neg d w3 w2 neg d w3 w2 d cl s} def
/m28 {mp x w2 sub y w2 sub w3 add m w3 0 d  0 w3 neg d w3 0 d 0 w3 d w3 0 d  0 w3 d w3 neg 0 d 0 w3 d w3 neg 0 d 0 w3 neg d w3 neg 0 d cl s } def
/m29 {mp gsave x w2 sub y w2 add w3 sub m currentpoint t 4 {side} repeat cl fill gr} def
/m30 {mp gsave x w2 sub y w2 add w3 sub m currentpoint t 4 {side} repeat cl s gr} def
/m31 {mp x y w2 sub m 0 w d x w2 sub y m w 0 d x w2 sub y w2 add m w w neg d x w2 sub y w2 sub m w w d s} def
/m32 {mp x y w2 sub m w2 w d w neg 0 d cl s} def
/m33 {mp x y w2 add m w3 neg w2 neg d w3 w2 neg d w3 w2 d cl f} def
/m34 {mp x w2 sub y w2 sub w3 add m w3 0 d  0 w3 neg d w3 0 d 0 w3 d w3 0 d  0 w3 d w3 neg 0 d 0 w3 d w3 neg 0 d 0 w3 neg d w3 neg 0 d cl f } def
/m2 {mp x y w2 sub m 0 w d x w2 sub y m w 0 d s} def
/m5 {mp x w2 sub y w2 sub m w w d x w2 sub y w2 add m w w neg d s} def
/reEncode {exch findfont dup length dict begin {1 index /FID eq  {pop pop} {def} ifelse } forall /Encoding exch def currentdict end dup /FontName get exch definefont pop } def [/Times-Bold /Times-Italic /Times-BoldItalic /Helvetica /Helvetica-Oblique
 /Helvetica-Bold /Helvetica-BoldOblique /Courier /Courier-Oblique /Courier-Bold /Courier-BoldOblique /Times-Roman /AvantGarde-Book /AvantGarde-BookOblique /AvantGarde-Demi /AvantGarde-DemiOblique /Bookman-Demi /Bookman-DemiItalic /Bookman-Light
 /Bookman-LightItalic /Helvetica-Narrow /Helvetica-Narrow-Bold /Helvetica-Narrow-BoldOblique /Helvetica-Narrow-Oblique /NewCenturySchlbk-Roman /NewCenturySchlbk-Bold /NewCenturySchlbk-BoldItalic /NewCenturySchlbk-Italic /Palatino-Bold
 /Palatino-BoldItalic /Palatino-Italic /Palatino-Roman ] {ISOLatin1Encoding reEncode } forall
%%EndProlog
%%BeginSetup
%%EndSetup
newpath  gsave  .25 .25 scale  gsave  0 0 t black[  ] 0 sd 3 lw 0.999 0.999 0.999 c 2268 1594 0 0 bf black 0.999 0.999 0.999 c 1814 1276 227 159 bf black 1814 1276 227 159 bl 1 0 0 c 1 1 1 c 1 0 0 c 227 1234 m 37 X s 280 1234 m 37 X s /w 16 def /w2
 {w 2 div} def /w3 {w 3 div} def 272 1234 m20 317 961 m 38 X s 371 961 m 37 X s 363 961 m20 408 831 m 37 X s 462 831 m 37 X s 454 831 m20 499 753 m 37 X s 552 753 m 38 X s 544 753 m20 590 710 m 37 X s 643 710 m 37 X s 635 710 m20 680 687 m 37 X s 734
 687 m 37 X s 726 687 m20 771 664 m 37 X s 825 664 m 37 X s 816 664 m20 862 649 m 37 X s 915 649 m 37 X s 907 649 m20 952 642 m 38 X s 1006 642 m 37 X s 998 642 m20 1043 625 m 37 X s 1097 625 m 37 X s 1089 625 m20 1134 632 m 37 X s 1187 632 m 38 X s
 1179 632 m20 1225 619 m 37 X s 1278 619 m 37 X s 1270 619 m20 1315 613 m 37 X s 1369 613 m 37 X s 1361 613 m20 1406 613 m 37 X s 1460 613 m 37 X s 1451 613 m20 1497 616 m 37 X s 1550 616 m 37 X s 1542 616 m20 1587 609 m 38 X s 1641 609 m 37 X s 1633
 609 m20 1678 601 m 37 X s 1732 601 m 37 X s 1723 601 m20 1769 615 m 37 X s 1822 615 m 38 X s 1814 615 m20 1860 611 m 37 X s 1913 611 m 37 X s 1905 611 m20 1950 602 m 37 X s 2004 602 m 37 X s 1996 602 m20 black 227 159 m 1814 X s
 gsave  2268 1594 0 0 C 1891.82 47.2441 t 0 r /Helvetica findfont 51.3523 sf 0 0 m ( \(GeV\)) show NC gr 
 gsave  2268 1594 0 0 C 1787.06 67.785 t 0 r /Helvetica findfont 34.9195 sf 0 0 m (ch+em) show NC gr 
 gsave  2268 1594 0 0 C 1787.06 18.4868 t 0 r /Helvetica findfont 34.9195 sf 0 0 m (T,jet) show NC gr 
 gsave  2268 1594 0 0 C 1758.3 47.2441 t 0 r /Helvetica findfont 51.3523 sf 0 0 m (p) show NC gr  227 198 m -39 Y s 263 179 m -20 Y s 299 179 m -20 Y s 336 179 m -20 Y s 372 179 m -20 Y s 408 198 m -39 Y s 444 179 m -20 Y s 481 179 m -20 Y s 517 179
 m -20 Y s 553 179 m -20 Y s 590 198 m -39 Y s 626 179 m -20 Y s 662 179 m -20 Y s 698 179 m -20 Y s 735 179 m -20 Y s 771 198 m -39 Y s 807 179 m -20 Y s 844 179 m -20 Y s 880 179 m -20 Y s 916 179 m -20 Y s 952 198 m -39 Y s 989 179 m -20 Y s 1025
 179 m -20 Y s 1061 179 m -20 Y s 1098 179 m -20 Y s 1134 198 m -39 Y s 1170 179 m -20 Y s 1206 179 m -20 Y s 1243 179 m -20 Y s 1279 179 m -20 Y s 1315 198 m -39 Y s 1352 179 m -20 Y s 1388 179 m -20 Y s 1424 179 m -20 Y s 1460 179 m -20 Y s 1497
 198 m -39 Y s 1533 179 m -20 Y s 1569 179 m -20 Y s 1606 179 m -20 Y s 1642 179 m -20 Y s 1678 198 m -39 Y s 1714 179 m -20 Y s 1751 179 m -20 Y s 1787 179 m -20 Y s 1823 179 m -20 Y s 1860 198 m -39 Y s 1896 179 m -20 Y s 1932 179 m -20 Y s 1968
 179 m -20 Y s 2005 179 m -20 Y s 2041 198 m -39 Y s
 gsave  2268 1594 0 0 C 211.571 106.813 t 0 r /Helvetica findfont 51.3523 sf 0 0 m (0) show NC gr 
 gsave  2268 1594 0 0 C 377.953 106.813 t 0 r /Helvetica findfont 51.3523 sf 0 0 m (10) show NC gr 
 gsave  2268 1594 0 0 C 560.767 106.813 t 0 r /Helvetica findfont 51.3523 sf 0 0 m (20) show NC gr 
 gsave  2268 1594 0 0 C 741.527 106.813 t 0 r /Helvetica findfont 51.3523 sf 0 0 m (30) show NC gr 
 gsave  2268 1594 0 0 C 922.287 106.813 t 0 r /Helvetica findfont 51.3523 sf 0 0 m (40) show NC gr 
 gsave  2268 1594 0 0 C 1105.1 106.813 t 0 r /Helvetica findfont 51.3523 sf 0 0 m (50) show NC gr 
 gsave  2268 1594 0 0 C 1285.86 106.813 t 0 r /Helvetica findfont 51.3523 sf 0 0 m (60) show NC gr 
 gsave  2268 1594 0 0 C 1466.62 106.813 t 0 r /Helvetica findfont 51.3523 sf 0 0 m (70) show NC gr 
 gsave  2268 1594 0 0 C 1647.38 106.813 t 0 r /Helvetica findfont 51.3523 sf 0 0 m (80) show NC gr 
 gsave  2268 1594 0 0 C 1830.2 106.813 t 0 r /Helvetica findfont 51.3523 sf 0 0 m (90) show NC gr 
 gsave  2268 1594 0 0 C 1996.58 106.813 t 0 r /Helvetica findfont 51.3523 sf 0 0 m (100) show NC gr  227 159 m 1276 Y s
 gsave  2268 1594 0 0 C 100.65 1407.05 t 90 r /Helvetica findfont 51.3523 sf 0 0 m (>) show NC gr 
 gsave  2268 1594 0 0 C 119.137 1296.13 t 90 r /Helvetica findfont 34.9195 sf 0 0 m (leading) show NC gr 
 gsave  2268 1594 0 0 C 100.65 1240.67 t 90 r /Helvetica findfont 51.3523 sf 0 0 m (<z) show NC gr  281 159 m -54 X s 254 185 m -27 X s 254 210 m -27 X s 254 236 m -27 X s 254 261 m -27 X s 281 287 m -54 X s 254 312 m -27 X s 254 338 m -27 X s 254
 363 m -27 X s 254 389 m -27 X s 281 414 m -54 X s 254 440 m -27 X s 254 465 m -27 X s 254 491 m -27 X s 254 516 m -27 X s 281 542 m -54 X s 254 567 m -27 X s 254 593 m -27 X s 254 618 m -27 X s 254 644 m -27 X s 281 669 m -54 X s 254 695 m -27 X s
 254 720 m -27 X s 254 746 m -27 X s 254 771 m -27 X s 281 797 m -54 X s 254 822 m -27 X s 254 848 m -27 X s 254 873 m -27 X s 254 899 m -27 X s 281 925 m -54 X s 254 950 m -27 X s 254 976 m -27 X s 254 1001 m -27 X s 254 1027 m -27 X s 281 1052 m
 -54 X s 254 1078 m -27 X s 254 1103 m -27 X s 254 1129 m -27 X s 254 1154 m -27 X s 281 1180 m -54 X s 254 1205 m -27 X s 254 1231 m -27 X s 254 1256 m -27 X s 254 1282 m -27 X s 281 1307 m -54 X s 254 1333 m -27 X s 254 1358 m -27 X s 254 1384 m
 -27 X s 254 1409 m -27 X s 281 1435 m -54 X s
 gsave  2268 1594 0 0 C 186.922 141.732 t 0 r /Helvetica findfont 51.3523 sf 0 0 m (0) show NC gr 
 gsave  2268 1594 0 0 C 152.003 269.086 t 0 r /Helvetica findfont 51.3523 sf 0 0 m (0.1) show NC gr 
 gsave  2268 1594 0 0 C 143.786 396.44 t 0 r /Helvetica findfont 51.3523 sf 0 0 m (0.2) show NC gr 
 gsave  2268 1594 0 0 C 143.786 523.793 t 0 r /Helvetica findfont 51.3523 sf 0 0 m (0.3) show NC gr 
 gsave  2268 1594 0 0 C 143.786 651.147 t 0 r /Helvetica findfont 51.3523 sf 0 0 m (0.4) show NC gr 
 gsave  2268 1594 0 0 C 143.786 778.5 t 0 r /Helvetica findfont 51.3523 sf 0 0 m (0.5) show NC gr 
 gsave  2268 1594 0 0 C 143.786 907.908 t 0 r /Helvetica findfont 51.3523 sf 0 0 m (0.6) show NC gr 
 gsave  2268 1594 0 0 C 143.786 1035.26 t 0 r /Helvetica findfont 51.3523 sf 0 0 m (0.7) show NC gr 
 gsave  2268 1594 0 0 C 143.786 1162.62 t 0 r /Helvetica findfont 51.3523 sf 0 0 m (0.8) show NC gr 
 gsave  2268 1594 0 0 C 143.786 1289.97 t 0 r /Helvetica findfont 51.3523 sf 0 0 m (0.9) show NC gr 
 gsave  2268 1594 0 0 C 195.139 1415.27 t 0 r /Helvetica findfont 51.3523 sf 0 0 m (1) show NC gr  0 0 1 c 1 1 1 c 0 0 1 c 317 864 m 38 X s 371 864 m 37 X s 363 864 m21 408 793 m 37 X s 462 793 m 37 X s 454 793 m21 499 737 m 37 X s 552 737 m 38 X s
 544 737 m21 590 703 m 37 X s 643 703 m 37 X s 635 703 m21 680 678 m 37 X s 734 678 m 37 X s 726 678 m21 771 664 m 37 X s 825 664 m 37 X s 816 664 m21 862 654 m 37 X s 915 654 m 37 X s 907 654 m21 998 626 m 1 Y s 998 644 m 1 Y s 952 635 m 38 X s 1006
 635 m 37 X s 998 635 m21 1089 621 m 5 Y s 1089 642 m 5 Y s 1043 634 m 37 X s 1097 634 m 37 X s 1089 634 m21 1179 617 m 7 Y s 1179 640 m 7 Y s 1134 632 m 37 X s 1187 632 m 38 X s 1179 632 m21 1270 636 m 12 Y s 1270 664 m 12 Y s 1225 656 m 37 X s 1278
 656 m 37 X s 1270 656 m21 1361 614 m 17 Y s 1361 648 m 17 Y s 1315 639 m 37 X s 1369 639 m 37 X s 1361 639 m21 1451 621 m 28 Y s 1451 666 m 28 Y s 1406 658 m 37 X s 1460 658 m 37 X s 1451 658 m21 1542 537 m 17 Y s 1542 570 m 17 Y s 1497 562 m 37 X s
 1550 562 m 37 X s 1542 562 m21 1633 618 m 47 Y s 1633 682 m 47 Y s 1587 674 m 38 X s 1641 674 m 37 X s 1633 674 m21 1723 580 m 35 Y s 1723 631 m 35 Y s 1678 623 m 37 X s 1732 623 m 37 X s 1723 623 m21 1814 524 m 51 Y s 1814 591 m 51 Y s 1769 583 m
 37 X s 1822 583 m 38 X s 1814 583 m21 1905 577 m 38 Y s 1905 632 m 38 Y s 1860 623 m 37 X s 1913 623 m 37 X s 1905 623 m21 1996 427 m 55 Y s 1996 498 m 55 Y s 1950 490 m 37 X s 2004 490 m 37 X s 1996 490 m21 black 1 1 1 c 907 319 907 829 bf black
 gsave  2268 1594 0 0 C 1133.86 1053.75 t 0 r /Helvetica-Bold findfont 49.2982 sf 0 0 m (Simulation \(Detector\255level\)) show NC gr  1 0 0 c 1020 1068 m20 black
 gsave  2268 1594 0 0 C 1133.86 891.476 t 0 r /Helvetica-Bold findfont 49.2982 sf 0 0 m (Data) show NC gr  0 0 1 c 1020 909 m21 black
 gsave  2268 1594 0 0 C 1211.91 1181.1 t 0 r /Helvetica-Bold findfont 55.4605 sf 0 0 m ( R = 0.2) show NC gr 
 gsave  2268 1594 0 0 C 1189.32 1162.62 t 0 r /Helvetica-Bold findfont 36.9736 sf 0 0 m (T) show NC gr 
 gsave  2268 1594 0 0 C 1041.42 1181.1 t 0 r /Helvetica-Bold findfont 55.4605 sf 0 0 m (anti\255k) show NC gr 
 gsave  2268 1594 0 0 C 560.767 1308.46 t 0 r /Helvetica-Bold findfont 45.19 sf 0 0 m (> comparison between lhc13c and lhc13b4_fix_semigood) show NC gr 
 gsave  2268 1594 0 0 C 443.684 1294.08 t 0 r /Helvetica-Bold findfont 28.7573 sf 0 0 m (leanding) show NC gr 
 gsave  2268 1594 0 0 C 316.33 1308.46 t 0 r /Helvetica-Bold findfont 45.19 sf 0 0 m (Jet <z) show NC gr 
 gr  gr showpage
end
%%EOF
