%!PS-Adobe-2.0 EPSF-2.0
%%BoundingBox:  0 0 567 398
%%Title: : 
%%Creator: ROOT Version 5.34/09
%%CreationDate: Fri Mar 28 18:31:52 2014
%%EndComments
%%BeginProlog
80 dict begin
/s {stroke} def /l {lineto} def /m {moveto} def /t {translate} def
/r {rotate} def /rl {roll}  def /R {repeat} def
/d {rlineto} def /rm {rmoveto} def /gr {grestore} def /f {eofill} def
/c {setrgbcolor} def /black {0 setgray} def /sd {setdash} def
/cl {closepath} def /sf {scalefont setfont} def /lw {setlinewidth} def
/box {m dup 0 exch d exch 0 d 0 exch neg d cl} def
/NC{systemdict begin initclip end}def/C{NC box clip newpath}def
/bl {box s} def /bf {box f} def /Y { 0 exch d} def /X { 0 d} def 
/K {{pop pop 0 moveto} exch kshow} bind def
/ita {/ang 15 def gsave [1 0 ang dup sin exch cos div 1 0 0] concat} def 
/mp {newpath /y exch def /x exch def} def
/side {[w .77 mul w .23 mul] .385 w mul sd w 0 l currentpoint t -144 r} def
/mr {mp x y w2 0 360 arc} def /m24 {mr s} def /m20 {mr f} def
/mb {mp x y w2 add m w2 neg 0 d 0 w neg d w 0 d 0 w d cl} def
/mt {mp x y w2 add m w2 neg w neg d w 0 d cl} def
/m21 {mb f} def /m25 {mb s} def /m22 {mt f} def /m26{mt s} def
/m23 {mp x y w2 sub m w2 w d w neg 0 d cl f} def
/m27 {mp x y w2 add m w3 neg w2 neg d w3 w2 neg d w3 w2 d cl s} def
/m28 {mp x w2 sub y w2 sub w3 add m w3 0 d  0 w3 neg d w3 0 d 0 w3 d w3 0 d  0 w3 d w3 neg 0 d 0 w3 d w3 neg 0 d 0 w3 neg d w3 neg 0 d cl s } def
/m29 {mp gsave x w2 sub y w2 add w3 sub m currentpoint t 4 {side} repeat cl fill gr} def
/m30 {mp gsave x w2 sub y w2 add w3 sub m currentpoint t 4 {side} repeat cl s gr} def
/m31 {mp x y w2 sub m 0 w d x w2 sub y m w 0 d x w2 sub y w2 add m w w neg d x w2 sub y w2 sub m w w d s} def
/m32 {mp x y w2 sub m w2 w d w neg 0 d cl s} def
/m33 {mp x y w2 add m w3 neg w2 neg d w3 w2 neg d w3 w2 d cl f} def
/m34 {mp x w2 sub y w2 sub w3 add m w3 0 d  0 w3 neg d w3 0 d 0 w3 d w3 0 d  0 w3 d w3 neg 0 d 0 w3 d w3 neg 0 d 0 w3 neg d w3 neg 0 d cl f } def
/m2 {mp x y w2 sub m 0 w d x w2 sub y m w 0 d s} def
/m5 {mp x w2 sub y w2 sub m w w d x w2 sub y w2 add m w w neg d s} def
/reEncode {exch findfont dup length dict begin {1 index /FID eq  {pop pop} {def} ifelse } forall /Encoding exch def currentdict end dup /FontName get exch definefont pop } def [/Times-Bold /Times-Italic /Times-BoldItalic /Helvetica /Helvetica-Oblique
 /Helvetica-Bold /Helvetica-BoldOblique /Courier /Courier-Oblique /Courier-Bold /Courier-BoldOblique /Times-Roman /AvantGarde-Book /AvantGarde-BookOblique /AvantGarde-Demi /AvantGarde-DemiOblique /Bookman-Demi /Bookman-DemiItalic /Bookman-Light
 /Bookman-LightItalic /Helvetica-Narrow /Helvetica-Narrow-Bold /Helvetica-Narrow-BoldOblique /Helvetica-Narrow-Oblique /NewCenturySchlbk-Roman /NewCenturySchlbk-Bold /NewCenturySchlbk-BoldItalic /NewCenturySchlbk-Italic /Palatino-Bold
 /Palatino-BoldItalic /Palatino-Italic /Palatino-Roman ] {ISOLatin1Encoding reEncode } forall
%%EndProlog
%%BeginSetup
%%EndSetup
newpath  gsave  .25 .25 scale  gsave  0 0 t black[  ] 0 sd 3 lw 0.999 0.999 0.999 c 2268 1594 0 0 bf black 0.999 0.999 0.999 c 1814 1276 227 159 bf black 1814 1276 227 159 bl 1 0 0 c 1 1 1 c 1 0 0 c 454 634 m 20 Y s 454 671 m 14 Y s 408 663 m 37 X s
 462 663 m 37 X s /w 16 def /w2 {w 2 div} def /w3 {w 3 div} def 454 663 m20 544 955 m 5 Y s 544 977 m 4 Y s 499 969 m 37 X s 552 969 m 38 X s 544 969 m20 590 1052 m 37 X s 643 1052 m 37 X s 635 1052 m20 680 1096 m 37 X s 734 1096 m 37 X s 726 1096
 m20 771 1110 m 37 X s 825 1110 m 37 X s 816 1110 m20 862 1109 m 37 X s 915 1109 m 37 X s 907 1109 m20 952 1082 m 38 X s 1006 1082 m 37 X s 998 1082 m20 1043 1058 m 37 X s 1097 1058 m 37 X s 1089 1058 m20 1134 1034 m 37 X s 1187 1034 m 38 X s 1179
 1034 m20 1270 1003 m 3 Y s 1270 1022 m 1 Y s 1225 1014 m 37 X s 1278 1014 m 37 X s 1270 1014 m20 1361 980 m 7 Y s 1361 1003 m 5 Y s 1315 995 m 37 X s 1369 995 m 37 X s 1361 995 m20 1451 956 m 9 Y s 1451 981 m 6 Y s 1406 973 m 37 X s 1460 973 m 37 X
 s 1451 973 m20 1542 896 m 1 Y s 1542 913 m 1 Y s 1497 905 m 37 X s 1550 905 m 37 X s 1542 905 m20 1633 883 m 2 Y s 1633 902 m 1 Y s 1587 893 m 38 X s 1641 893 m 37 X s 1633 893 m20 1723 869 m 3 Y s 1723 889 m 1 Y s 1678 880 m 37 X s 1732 880 m 37 X
 s 1723 880 m20 1814 856 m 19 Y s 1814 891 m 13 Y s 1769 883 m 37 X s 1822 883 m 38 X s 1814 883 m20 1905 824 m 27 Y s 1905 867 m 18 Y s 1860 859 m 37 X s 1913 859 m 37 X s 1905 859 m20 1996 756 m 53 Y s 1996 825 m 28 Y s 1950 817 m 37 X s 2004 817 m
 37 X s 1996 817 m20 black 227 159 m 1814 X s
 gsave  2268 1594 0 0 C 1971.93 16.4327 t 0 r /Helvetica findfont 34.9195 sf 0 0 m (T,jet) show NC gr 
 gsave  2268 1594 0 0 C 1926.74 45.19 t 0 r /Helvetica findfont 51.3523 sf 0 0 m (/p) show NC gr 
 gsave  2268 1594 0 0 C 1785.01 63.6768 t 0 r /Helvetica findfont 34.9195 sf 0 0 m (const.) show NC gr 
 gsave  2268 1594 0 0 C 1785.01 16.4327 t 0 r /Helvetica findfont 34.9195 sf 0 0 m (T,leading) show NC gr 
 gsave  2268 1594 0 0 C 1698.73 45.19 t 0 r /Helvetica findfont 51.3523 sf 0 0 m ( = p) show NC gr 
 gsave  2268 1594 0 0 C 1587.81 63.6768 t 0 r /Helvetica findfont 34.9195 sf 0 0 m (const.) show NC gr 
 gsave  2268 1594 0 0 C 1587.81 28.7573 t 0 r /Helvetica findfont 34.9195 sf 0 0 m (leading) show NC gr 
 gsave  2268 1594 0 0 C 1563.16 45.19 t 0 r /Helvetica findfont 51.3523 sf 0 0 m (z) show NC gr  227 198 m -39 Y s 263 179 m -20 Y s 299 179 m -20 Y s 336 179 m -20 Y s 372 179 m -20 Y s 408 198 m -39 Y s 444 179 m -20 Y s 481 179 m -20 Y s 517 179 m
 -20 Y s 553 179 m -20 Y s 590 198 m -39 Y s 626 179 m -20 Y s 662 179 m -20 Y s 698 179 m -20 Y s 735 179 m -20 Y s 771 198 m -39 Y s 807 179 m -20 Y s 844 179 m -20 Y s 880 179 m -20 Y s 916 179 m -20 Y s 952 198 m -39 Y s 989 179 m -20 Y s 1025
 179 m -20 Y s 1061 179 m -20 Y s 1098 179 m -20 Y s 1134 198 m -39 Y s 1170 179 m -20 Y s 1206 179 m -20 Y s 1243 179 m -20 Y s 1279 179 m -20 Y s 1315 198 m -39 Y s 1352 179 m -20 Y s 1388 179 m -20 Y s 1424 179 m -20 Y s 1460 179 m -20 Y s 1497
 198 m -39 Y s 1533 179 m -20 Y s 1569 179 m -20 Y s 1606 179 m -20 Y s 1642 179 m -20 Y s 1678 198 m -39 Y s 1714 179 m -20 Y s 1751 179 m -20 Y s 1787 179 m -20 Y s 1823 179 m -20 Y s 1860 198 m -39 Y s 1896 179 m -20 Y s 1932 179 m -20 Y s 1968
 179 m -20 Y s 2005 179 m -20 Y s 2041 198 m -39 Y s
 gsave  2268 1594 0 0 C 211.571 106.813 t 0 r /Helvetica findfont 51.3523 sf 0 0 m (0) show NC gr 
 gsave  2268 1594 0 0 C 375.899 106.813 t 0 r /Helvetica findfont 51.3523 sf 0 0 m (0.1) show NC gr 
 gsave  2268 1594 0 0 C 554.605 106.813 t 0 r /Helvetica findfont 51.3523 sf 0 0 m (0.2) show NC gr 
 gsave  2268 1594 0 0 C 735.365 106.813 t 0 r /Helvetica findfont 51.3523 sf 0 0 m (0.3) show NC gr 
 gsave  2268 1594 0 0 C 916.125 106.813 t 0 r /Helvetica findfont 51.3523 sf 0 0 m (0.4) show NC gr 
 gsave  2268 1594 0 0 C 1098.94 106.813 t 0 r /Helvetica findfont 51.3523 sf 0 0 m (0.5) show NC gr 
 gsave  2268 1594 0 0 C 1279.7 106.813 t 0 r /Helvetica findfont 51.3523 sf 0 0 m (0.6) show NC gr 
 gsave  2268 1594 0 0 C 1460.46 106.813 t 0 r /Helvetica findfont 51.3523 sf 0 0 m (0.7) show NC gr 
 gsave  2268 1594 0 0 C 1641.22 106.813 t 0 r /Helvetica findfont 51.3523 sf 0 0 m (0.8) show NC gr 
 gsave  2268 1594 0 0 C 1824.03 106.813 t 0 r /Helvetica findfont 51.3523 sf 0 0 m (0.9) show NC gr 
 gsave  2268 1594 0 0 C 2029.44 106.813 t 0 r /Helvetica findfont 51.3523 sf 0 0 m (1) show NC gr  227 159 m 1276 Y s
 gsave  2268 1594 0 0 C 88.3259 1365.97 t 90 r /Helvetica findfont 51.3523 sf 0 0 m (/dz) show NC gr 
 gsave  2268 1594 0 0 C 104.759 1326.94 t 90 r /Helvetica findfont 34.9195 sf 0 0 m (jet) show NC gr 
 gsave  2268 1594 0 0 C 88.3259 1248.89 t 90 r /Helvetica findfont 51.3523 sf 0 0 m ( dN) show NC gr 
 gsave  2268 1594 0 0 C 104.759 1209.86 t 90 r /Helvetica findfont 34.9195 sf 0 0 m (jet) show NC gr 
 gsave  2268 1594 0 0 C 88.3259 1131.8 t 90 r /Helvetica findfont 51.3523 sf 0 0 m (1/N) show NC gr  281 159 m -54 X s
 gsave  2268 1594 0 0 C 176.652 158.165 t 0 r /Helvetica findfont 34.9195 sf 0 0 m (\2554) show NC gr 
 gsave  2268 1594 0 0 C 121.191 135.57 t 0 r /Helvetica findfont 51.3523 sf 0 0 m (10) show NC gr  254 223 m -27 X s 254 261 m -27 X s 254 287 m -27 X s 254 308 m -27 X s 254 325 m -27 X s 254 339 m -27 X s 254 351 m -27 X s 254 362 m -27 X s 281 372
 m -54 X s
 gsave  2268 1594 0 0 C 176.652 373.845 t 0 r /Helvetica findfont 34.9195 sf 0 0 m (\2553) show NC gr 
 gsave  2268 1594 0 0 C 121.191 349.195 t 0 r /Helvetica findfont 51.3523 sf 0 0 m (10) show NC gr  254 436 m -27 X s 254 473 m -27 X s 254 500 m -27 X s 254 520 m -27 X s 254 537 m -27 X s 254 552 m -27 X s 254 564 m -27 X s 254 575 m -27 X s 281
 584 m -54 X s
 gsave  2268 1594 0 0 C 176.652 583.362 t 0 r /Helvetica findfont 34.9195 sf 0 0 m (\2552) show NC gr 
 gsave  2268 1594 0 0 C 121.191 560.767 t 0 r /Helvetica findfont 51.3523 sf 0 0 m (10) show NC gr  254 648 m -27 X s 254 686 m -27 X s 254 712 m -27 X s 254 733 m -27 X s 254 750 m -27 X s 254 764 m -27 X s 254 776 m -27 X s 254 787 m -27 X s 281
 797 m -54 X s
 gsave  2268 1594 0 0 C 182.814 796.987 t 0 r /Helvetica findfont 34.9195 sf 0 0 m (\2551) show NC gr 
 gsave  2268 1594 0 0 C 127.354 774.392 t 0 r /Helvetica findfont 51.3523 sf 0 0 m (10) show NC gr  254 861 m -27 X s 254 898 m -27 X s 254 925 m -27 X s 254 946 m -27 X s 254 962 m -27 X s 254 977 m -27 X s 254 989 m -27 X s 254 1000 m -27 X s 281
 1010 m -54 X s
 gsave  2268 1594 0 0 C 209.083 987.333 t 0 r  -28 0 t /Helvetica findfont 51.3523 sf 0 0 m (1) show NC gr  254 1073 m -27 X s 254 1111 m -27 X s 254 1137 m -27 X s 254 1158 m -27 X s 254 1175 m -27 X s 254 1189 m -27 X s 254 1201 m -27 X s 254 1212
 m -27 X s 281 1222 m -54 X s
 gsave  2268 1594 0 0 C 209.083 1199.86 t 0 r  -57 0 t /Helvetica findfont 51.3523 sf 0 0 m (10) show NC gr  254 1286 m -27 X s 254 1323 m -27 X s 254 1350 m -27 X s 254 1371 m -27 X s 254 1387 m -27 X s 254 1402 m -27 X s 254 1414 m -27 X s 254 1425
 m -27 X s 281 1435 m -54 X s
 gsave  2268 1594 0 0 C 188.976 1433.76 t 0 r /Helvetica findfont 34.9195 sf 0 0 m (2) show NC gr 
 gsave  2268 1594 0 0 C 133.516 1411.16 t 0 r /Helvetica findfont 51.3523 sf 0 0 m (10) show NC gr  0 0 1 c 1 1 1 c 0 0 1 c 454 746 m 8 Y s 454 770 m 6 Y s 408 762 m 37 X s 462 762 m 37 X s 454 762 m21 499 976 m 37 X s 552 976 m 38 X s 544 976 m21
 590 1066 m 37 X s 643 1066 m 37 X s 635 1066 m21 680 1102 m 37 X s 734 1102 m 37 X s 726 1102 m21 771 1106 m 37 X s 825 1106 m 37 X s 816 1106 m21 862 1097 m 37 X s 915 1097 m 37 X s 907 1097 m21 952 1084 m 38 X s 1006 1084 m 37 X s 998 1084 m21
 1043 1061 m 37 X s 1097 1061 m 37 X s 1089 1061 m21 1134 1038 m 37 X s 1187 1038 m 38 X s 1179 1038 m21 1225 1018 m 37 X s 1278 1018 m 37 X s 1270 1018 m21 1315 984 m 37 X s 1369 984 m 37 X s 1361 984 m21 1406 949 m 37 X s 1460 949 m 37 X s 1451 949
 m21 1497 924 m 37 X s 1550 924 m 37 X s 1542 924 m21 1587 909 m 38 X s 1641 909 m 37 X s 1633 909 m21 1678 896 m 37 X s 1732 896 m 37 X s 1723 896 m21 1814 859 m s 1769 868 m 37 X s 1822 868 m 38 X s 1814 868 m21 1905 835 m 2 Y s 1905 853 m 1 Y s
 1860 845 m 37 X s 1913 845 m 37 X s 1905 845 m21 1996 802 m 4 Y s 1996 822 m 3 Y s 1950 814 m 37 X s 2004 814 m 37 X s 1996 814 m21 black 1 1 1 c 681 319 680 319 bf black
 gsave  2268 1594 0 0 C 850.394 546.388 t 0 r /Helvetica-Bold findfont 36.9736 sf 0 0 m (Simulation \(Detector\255level\)) show NC gr  1 0 0 c 765 558 m20 black
 gsave  2268 1594 0 0 C 850.394 384.115 t 0 r /Helvetica-Bold findfont 36.9736 sf 0 0 m (Data) show NC gr  0 0 1 c 765 398 m21 black
 gsave  2268 1594 0 0 C 316.33 1324.89 t 0 r /Helvetica-Bold findfont 55.4605 sf 0 0 m (Jet Z comparison between lhc13c and lhc13b4_fix_semigood) show NC gr 
 gsave  2268 1594 0 0 C 1770.63 1222.18 t 0 r /Helvetica-Bold findfont 55.4605 sf 0 0 m ( < 30 GeV) show NC gr 
 gsave  2268 1594 0 0 C 1653.54 1248.89 t 0 r /Helvetica-Bold findfont 36.9736 sf 0 0 m (uncorr) show NC gr 
 gsave  2268 1594 0 0 C 1653.54 1193.43 t 0 r /Helvetica-Bold findfont 36.9736 sf 0 0 m (T,jet) show NC gr 
 gsave  2268 1594 0 0 C 1495.38 1222.18 t 0 r /Helvetica-Bold findfont 55.4605 sf 0 0 m (20 < p) show NC gr 
 gsave  2268 1594 0 0 C 1665.87 1094.83 t 0 r /Helvetica-Bold findfont 55.4605 sf 0 0 m ( R=0.2) show NC gr 
 gsave  2268 1594 0 0 C 1643.27 1076.34 t 0 r /Helvetica-Bold findfont 36.9736 sf 0 0 m (T) show NC gr 
 gsave  2268 1594 0 0 C 1495.38 1094.83 t 0 r /Helvetica-Bold findfont 55.4605 sf 0 0 m (anti\255k) show NC gr 
 gr  gr showpage
end
%%EOF
