%!PS-Adobe-2.0 EPSF-2.0
%%BoundingBox:  0 0 567 398
%%Title: : 
%%Creator: ROOT Version 5.34/09
%%CreationDate: Fri Mar 28 16:17:05 2014
%%EndComments
%%BeginProlog
80 dict begin
/s {stroke} def /l {lineto} def /m {moveto} def /t {translate} def
/r {rotate} def /rl {roll}  def /R {repeat} def
/d {rlineto} def /rm {rmoveto} def /gr {grestore} def /f {eofill} def
/c {setrgbcolor} def /black {0 setgray} def /sd {setdash} def
/cl {closepath} def /sf {scalefont setfont} def /lw {setlinewidth} def
/box {m dup 0 exch d exch 0 d 0 exch neg d cl} def
/NC{systemdict begin initclip end}def/C{NC box clip newpath}def
/bl {box s} def /bf {box f} def /Y { 0 exch d} def /X { 0 d} def 
/K {{pop pop 0 moveto} exch kshow} bind def
/ita {/ang 15 def gsave [1 0 ang dup sin exch cos div 1 0 0] concat} def 
/mp {newpath /y exch def /x exch def} def
/side {[w .77 mul w .23 mul] .385 w mul sd w 0 l currentpoint t -144 r} def
/mr {mp x y w2 0 360 arc} def /m24 {mr s} def /m20 {mr f} def
/mb {mp x y w2 add m w2 neg 0 d 0 w neg d w 0 d 0 w d cl} def
/mt {mp x y w2 add m w2 neg w neg d w 0 d cl} def
/m21 {mb f} def /m25 {mb s} def /m22 {mt f} def /m26{mt s} def
/m23 {mp x y w2 sub m w2 w d w neg 0 d cl f} def
/m27 {mp x y w2 add m w3 neg w2 neg d w3 w2 neg d w3 w2 d cl s} def
/m28 {mp x w2 sub y w2 sub w3 add m w3 0 d  0 w3 neg d w3 0 d 0 w3 d w3 0 d  0 w3 d w3 neg 0 d 0 w3 d w3 neg 0 d 0 w3 neg d w3 neg 0 d cl s } def
/m29 {mp gsave x w2 sub y w2 add w3 sub m currentpoint t 4 {side} repeat cl fill gr} def
/m30 {mp gsave x w2 sub y w2 add w3 sub m currentpoint t 4 {side} repeat cl s gr} def
/m31 {mp x y w2 sub m 0 w d x w2 sub y m w 0 d x w2 sub y w2 add m w w neg d x w2 sub y w2 sub m w w d s} def
/m32 {mp x y w2 sub m w2 w d w neg 0 d cl s} def
/m33 {mp x y w2 add m w3 neg w2 neg d w3 w2 neg d w3 w2 d cl f} def
/m34 {mp x w2 sub y w2 sub w3 add m w3 0 d  0 w3 neg d w3 0 d 0 w3 d w3 0 d  0 w3 d w3 neg 0 d 0 w3 d w3 neg 0 d 0 w3 neg d w3 neg 0 d cl f } def
/m2 {mp x y w2 sub m 0 w d x w2 sub y m w 0 d s} def
/m5 {mp x w2 sub y w2 sub m w w d x w2 sub y w2 add m w w neg d s} def
/reEncode {exch findfont dup length dict begin {1 index /FID eq  {pop pop} {def} ifelse } forall /Encoding exch def currentdict end dup /FontName get exch definefont pop } def [/Times-Bold /Times-Italic /Times-BoldItalic /Helvetica /Helvetica-Oblique
 /Helvetica-Bold /Helvetica-BoldOblique /Courier /Courier-Oblique /Courier-Bold /Courier-BoldOblique /Times-Roman /AvantGarde-Book /AvantGarde-BookOblique /AvantGarde-Demi /AvantGarde-DemiOblique /Bookman-Demi /Bookman-DemiItalic /Bookman-Light
 /Bookman-LightItalic /Helvetica-Narrow /Helvetica-Narrow-Bold /Helvetica-Narrow-BoldOblique /Helvetica-Narrow-Oblique /NewCenturySchlbk-Roman /NewCenturySchlbk-Bold /NewCenturySchlbk-BoldItalic /NewCenturySchlbk-Italic /Palatino-Bold
 /Palatino-BoldItalic /Palatino-Italic /Palatino-Roman ] {ISOLatin1Encoding reEncode } forall
%%EndProlog
%%BeginSetup
%%EndSetup
newpath  gsave  .25 .25 scale  gsave  0 0 t black[  ] 0 sd 3 lw 0.999 0.999 0.999 c 2268 1594 0 0 bf black 0.999 0.999 0.999 c 1814 1276 227 159 bf black 1814 1276 227 159 bl 0 0 1 c 1 1 1 c 0 0 1 c 272 729 m 6 Y s 272 751 m 4 Y s 227 743 m 37 X s
 280 743 m 37 X s /w 16 def /w2 {w 2 div} def /w3 {w 3 div} def 272 743 m20 363 721 m 6 Y s 363 743 m 5 Y s 317 735 m 38 X s 371 735 m 37 X s 363 735 m20 454 726 m 6 Y s 454 748 m 4 Y s 408 740 m 37 X s 462 740 m 37 X s 454 740 m20 544 716 m 6 Y s
 544 739 m 4 Y s 499 730 m 37 X s 552 730 m 38 X s 544 730 m20 635 719 m 6 Y s 635 742 m 4 Y s 590 734 m 37 X s 643 734 m 37 X s 635 734 m20 726 683 m 9 Y s 726 708 m 7 Y s 680 700 m 37 X s 734 700 m 37 X s 726 700 m20 816 703 m 7 Y s 816 726 m 6 Y s
 771 718 m 37 X s 825 718 m 37 X s 816 718 m20 907 663 m 10 Y s 907 689 m 8 Y s 862 681 m 37 X s 915 681 m 37 X s 907 681 m20 998 686 m 8 Y s 998 711 m 6 Y s 952 702 m 38 X s 1006 702 m 37 X s 998 702 m20 1089 654 m 11 Y s 1089 681 m 9 Y s 1043 673 m
 37 X s 1097 673 m 37 X s 1089 673 m20 1179 601 m 16 Y s 1179 634 m 11 Y s 1134 626 m 37 X s 1187 626 m 38 X s 1179 626 m20 1270 619 m 14 Y s 1270 650 m 10 Y s 1225 641 m 37 X s 1278 641 m 37 X s 1270 641 m20 1361 631 m 13 Y s 1361 660 m 10 Y s 1315
 652 m 37 X s 1369 652 m 37 X s 1361 652 m20 1451 586 m 18 Y s 1451 620 m 13 Y s 1406 612 m 37 X s 1460 612 m 37 X s 1451 612 m20 1542 580 m 19 Y s 1542 615 m 13 Y s 1497 607 m 37 X s 1550 607 m 37 X s 1542 607 m20 1633 491 m 31 Y s 1633 538 m 21 Y s
 1587 530 m 38 X s 1641 530 m 37 X s 1633 530 m20 1723 447 m 40 Y s 1723 503 m 26 Y s 1678 495 m 37 X s 1732 495 m 37 X s 1723 495 m20 1814 463 m 37 Y s 1814 516 m 24 Y s 1769 508 m 37 X s 1822 508 m 38 X s 1814 508 m20 1905 428 m 44 Y s 1905 488 m
 28 Y s 1860 480 m 37 X s 1913 480 m 37 X s 1905 480 m20 1996 341 m 69 Y s 1996 426 m 37 Y s 1950 418 m 37 X s 2004 418 m 37 X s 1996 418 m20 black 227 159 m 1814 X s
 gsave  2268 1594 0 0 C 1937.01 51.3523 t 0 r /Helvetica findfont 51.3523 sf 0 0 m (NEF) show NC gr  227 198 m -39 Y s 263 179 m -20 Y s 299 179 m -20 Y s 336 179 m -20 Y s 372 179 m -20 Y s 408 198 m -39 Y s 444 179 m -20 Y s 481 179 m -20 Y s 517
 179 m -20 Y s 553 179 m -20 Y s 590 198 m -39 Y s 626 179 m -20 Y s 662 179 m -20 Y s 698 179 m -20 Y s 735 179 m -20 Y s 771 198 m -39 Y s 807 179 m -20 Y s 844 179 m -20 Y s 880 179 m -20 Y s 916 179 m -20 Y s 952 198 m -39 Y s 989 179 m -20 Y s
 1025 179 m -20 Y s 1061 179 m -20 Y s 1098 179 m -20 Y s 1134 198 m -39 Y s 1170 179 m -20 Y s 1206 179 m -20 Y s 1243 179 m -20 Y s 1279 179 m -20 Y s 1315 198 m -39 Y s 1352 179 m -20 Y s 1388 179 m -20 Y s 1424 179 m -20 Y s 1460 179 m -20 Y s
 1497 198 m -39 Y s 1533 179 m -20 Y s 1569 179 m -20 Y s 1606 179 m -20 Y s 1642 179 m -20 Y s 1678 198 m -39 Y s 1714 179 m -20 Y s 1751 179 m -20 Y s 1787 179 m -20 Y s 1823 179 m -20 Y s 1860 198 m -39 Y s 1896 179 m -20 Y s 1932 179 m -20 Y s
 1968 179 m -20 Y s 2005 179 m -20 Y s 2041 198 m -39 Y s
 gsave  2268 1594 0 0 C 211.571 106.813 t 0 r /Helvetica findfont 51.3523 sf 0 0 m (0) show NC gr 
 gsave  2268 1594 0 0 C 375.899 106.813 t 0 r /Helvetica findfont 51.3523 sf 0 0 m (0.1) show NC gr 
 gsave  2268 1594 0 0 C 554.605 106.813 t 0 r /Helvetica findfont 51.3523 sf 0 0 m (0.2) show NC gr 
 gsave  2268 1594 0 0 C 735.365 106.813 t 0 r /Helvetica findfont 51.3523 sf 0 0 m (0.3) show NC gr 
 gsave  2268 1594 0 0 C 916.125 106.813 t 0 r /Helvetica findfont 51.3523 sf 0 0 m (0.4) show NC gr 
 gsave  2268 1594 0 0 C 1098.94 106.813 t 0 r /Helvetica findfont 51.3523 sf 0 0 m (0.5) show NC gr 
 gsave  2268 1594 0 0 C 1279.7 106.813 t 0 r /Helvetica findfont 51.3523 sf 0 0 m (0.6) show NC gr 
 gsave  2268 1594 0 0 C 1460.46 106.813 t 0 r /Helvetica findfont 51.3523 sf 0 0 m (0.7) show NC gr 
 gsave  2268 1594 0 0 C 1641.22 106.813 t 0 r /Helvetica findfont 51.3523 sf 0 0 m (0.8) show NC gr 
 gsave  2268 1594 0 0 C 1824.03 106.813 t 0 r /Helvetica findfont 51.3523 sf 0 0 m (0.9) show NC gr 
 gsave  2268 1594 0 0 C 2029.44 106.813 t 0 r /Helvetica findfont 51.3523 sf 0 0 m (1) show NC gr  227 159 m 1276 Y s
 gsave  2268 1594 0 0 C 112.975 1010.61 t 90 r /Helvetica findfont 51.3523 sf 0 0 m (Probability Density) show NC gr  281 159 m -54 X s
 gsave  2268 1594 0 0 C 176.652 158.165 t 0 r /Helvetica findfont 34.9195 sf 0 0 m (\2554) show NC gr 
 gsave  2268 1594 0 0 C 121.191 135.57 t 0 r /Helvetica findfont 51.3523 sf 0 0 m (10) show NC gr  254 236 m -27 X s 254 281 m -27 X s 254 313 m -27 X s 254 338 m -27 X s 254 358 m -27 X s 254 375 m -27 X s 254 390 m -27 X s 254 403 m -27 X s 281 414
 m -54 X s
 gsave  2268 1594 0 0 C 176.652 414.926 t 0 r /Helvetica findfont 34.9195 sf 0 0 m (\2553) show NC gr 
 gsave  2268 1594 0 0 C 121.191 390.277 t 0 r /Helvetica findfont 51.3523 sf 0 0 m (10) show NC gr  254 491 m -27 X s 254 536 m -27 X s 254 568 m -27 X s 254 593 m -27 X s 254 613 m -27 X s 254 630 m -27 X s 254 645 m -27 X s 254 658 m -27 X s 281
 669 m -54 X s
 gsave  2268 1594 0 0 C 176.652 667.58 t 0 r /Helvetica findfont 34.9195 sf 0 0 m (\2552) show NC gr 
 gsave  2268 1594 0 0 C 121.191 644.985 t 0 r /Helvetica findfont 51.3523 sf 0 0 m (10) show NC gr  254 746 m -27 X s 254 791 m -27 X s 254 823 m -27 X s 254 848 m -27 X s 254 868 m -27 X s 254 885 m -27 X s 254 900 m -27 X s 254 913 m -27 X s 281
 925 m -54 X s
 gsave  2268 1594 0 0 C 182.814 924.341 t 0 r /Helvetica findfont 34.9195 sf 0 0 m (\2551) show NC gr 
 gsave  2268 1594 0 0 C 127.354 901.746 t 0 r /Helvetica findfont 51.3523 sf 0 0 m (10) show NC gr  254 1001 m -27 X s 254 1046 m -27 X s 254 1078 m -27 X s 254 1103 m -27 X s 254 1123 m -27 X s 254 1140 m -27 X s 254 1155 m -27 X s 254 1168 m -27 X
 s 281 1180 m -54 X s
 gsave  2268 1594 0 0 C 209.083 1157.36 t 0 r  -28 0 t /Helvetica findfont 51.3523 sf 0 0 m (1) show NC gr  254 1256 m -27 X s 254 1301 m -27 X s 254 1333 m -27 X s 254 1358 m -27 X s 254 1378 m -27 X s 254 1395 m -27 X s 254 1410 m -27 X s 254 1423
 m -27 X s 281 1435 m -54 X s
 gsave  2268 1594 0 0 C 209.083 1412.39 t 0 r  -57 0 t /Helvetica findfont 51.3523 sf 0 0 m (10) show NC gr 
 gsave  2268 1594 0 0 C 497.09 1359.81 t 0 r /Helvetica-Bold findfont 55.4605 sf 0 0 m (Jet NEF projection for lhc13c merged output) show NC gr 
 gsave  2268 1594 0 0 C 1665.87 926.395 t 0 r /Helvetica-Bold findfont 55.4605 sf 0 0 m ( R = 0.2) show NC gr 
 gsave  2268 1594 0 0 C 1643.27 907.908 t 0 r /Helvetica-Bold findfont 36.9736 sf 0 0 m (T) show NC gr 
 gsave  2268 1594 0 0 C 1495.38 926.395 t 0 r /Helvetica-Bold findfont 55.4605 sf 0 0 m (anti\255k) show NC gr  1 1 1 c 681 239 1247 1036 bf black
 gsave  2268 1594 0 0 C 1770.63 1146.18 t 0 r /Helvetica-Bold findfont 71.8932 sf 0 0 m ( < 50) show NC gr 
 gsave  2268 1594 0 0 C 1620.68 1179.05 t 0 r /Helvetica-Bold findfont 47.2441 sf 0 0 m (ch+em) show NC gr 
 gsave  2268 1594 0 0 C 1620.68 1109.21 t 0 r /Helvetica-Bold findfont 47.2441 sf 0 0 m (T,jet) show NC gr 
 gsave  2268 1594 0 0 C 1417.32 1146.18 t 0 r /Helvetica-Bold findfont 71.8932 sf 0 0 m (40 < p) show NC gr  0 0 1 c 1332 1156 m20
 gr  gr showpage
end
%%EOF
