RampRate 10
Slot Channel Voltages												Protect
2	1	 485, 485, 485, 485, 485, 485, 485, 485, 485, 485, 485, 485, 485, 485, 485, 485, 400, 300, 200, 100, 0	 *
2	2	 525, 525, 525, 525, 525, 525, 525, 525, 525, 525, 525, 525, 525, 525, 525, 485, 400, 300, 200, 100, 0 	*
2	3	 720, 720, 720, 720, 720, 720, 720, 720, 720, 720, 720, 720, 720, 600, 525, 485, 400, 300, 200, 100, 0 	*
2	4	 1445, 1333, 1220, 945, 833, 833, 833, 833, 833, 833, 833, 833, 720, 600, 525, 485, 400, 300, 200, 100, 0	 *
2	5	 1670, 1558, 1445, 1170, 1058, 1058, 1058, 1058, 1058, 1000, 900, 833, 720, 600, 525, 485, 400, 300, 200, 100, 0	 *
2	6	 1990, 1878, 1765, 1490, 1378, 1300, 1200, 1100, 1058, 1000, 900, 833, 720, 600, 525, 485, 400, 300, 200, 100, 0 	*
2	7	 1990, 1878, 1765, 1490, 1378, 1300, 1200, 1100, 1058, 1000, 900, 833, 720, 600, 525, 485, 400, 300, 200, 100, 0 	*
Wait 		 -, -, -, -, -, -, -, -, -, -, -, -, -, -, -, -, -, -, -, -, -
