RampRate 10
Slot Channel Voltages 								Protect
2 	 1 		 0, 100, 200, 300, 400, 477, 477, 477 	*
2 	 2 		 0, 100, 200, 300, 400, 477, 500, 600 	*
2 	 3 		 0, 100, 200, 300, 400, 477, 500, 600 	*
2 	 4 		 0, 100, 200, 300, 400, 477, 500, 600 	*
2 	 5 		 0, 100, 200, 300, 400, 477, 500, 600 	*
2 	 6 		 0, 100, 200, 300, 400, 477, 500, 600 	*
2 	 7 		 0, 100, 200, 300, 400, 477, 500, 600 	*
Wait 		 -, -, -, -, -, -, -, -
