RampRate 10
Slot Channel Voltages 								Protect
2 	 1 		 477, 477, 477, 400, 300, 200, 100, 0 	*
2 	 2 		 600, 500, 477, 400, 300, 200, 100, 0 	*
2 	 3 		 600, 500, 477, 400, 300, 200, 100, 0 	*
2 	 4 		 600, 500, 477, 400, 300, 200, 100, 0 	*
2 	 5 		 600, 500, 477, 400, 300, 200, 100, 0 	*
2 	 6 		 600, 500, 477, 400, 300, 200, 100, 0 	*
2 	 7 		 600, 500, 477, 400, 300, 200, 100, 0 	*
Wait 		 -, -, -, -, -, -, -, -
