%!PS-Adobe-2.0 EPSF-2.0
%%BoundingBox:  0 0 567 398
%%Title: : 
%%Creator: ROOT Version 5.34/09
%%CreationDate: Fri Mar 28 16:22:34 2014
%%EndComments
%%BeginProlog
80 dict begin
/s {stroke} def /l {lineto} def /m {moveto} def /t {translate} def
/r {rotate} def /rl {roll}  def /R {repeat} def
/d {rlineto} def /rm {rmoveto} def /gr {grestore} def /f {eofill} def
/c {setrgbcolor} def /black {0 setgray} def /sd {setdash} def
/cl {closepath} def /sf {scalefont setfont} def /lw {setlinewidth} def
/box {m dup 0 exch d exch 0 d 0 exch neg d cl} def
/NC{systemdict begin initclip end}def/C{NC box clip newpath}def
/bl {box s} def /bf {box f} def /Y { 0 exch d} def /X { 0 d} def 
/K {{pop pop 0 moveto} exch kshow} bind def
/ita {/ang 15 def gsave [1 0 ang dup sin exch cos div 1 0 0] concat} def 
/mp {newpath /y exch def /x exch def} def
/side {[w .77 mul w .23 mul] .385 w mul sd w 0 l currentpoint t -144 r} def
/mr {mp x y w2 0 360 arc} def /m24 {mr s} def /m20 {mr f} def
/mb {mp x y w2 add m w2 neg 0 d 0 w neg d w 0 d 0 w d cl} def
/mt {mp x y w2 add m w2 neg w neg d w 0 d cl} def
/m21 {mb f} def /m25 {mb s} def /m22 {mt f} def /m26{mt s} def
/m23 {mp x y w2 sub m w2 w d w neg 0 d cl f} def
/m27 {mp x y w2 add m w3 neg w2 neg d w3 w2 neg d w3 w2 d cl s} def
/m28 {mp x w2 sub y w2 sub w3 add m w3 0 d  0 w3 neg d w3 0 d 0 w3 d w3 0 d  0 w3 d w3 neg 0 d 0 w3 d w3 neg 0 d 0 w3 neg d w3 neg 0 d cl s } def
/m29 {mp gsave x w2 sub y w2 add w3 sub m currentpoint t 4 {side} repeat cl fill gr} def
/m30 {mp gsave x w2 sub y w2 add w3 sub m currentpoint t 4 {side} repeat cl s gr} def
/m31 {mp x y w2 sub m 0 w d x w2 sub y m w 0 d x w2 sub y w2 add m w w neg d x w2 sub y w2 sub m w w d s} def
/m32 {mp x y w2 sub m w2 w d w neg 0 d cl s} def
/m33 {mp x y w2 add m w3 neg w2 neg d w3 w2 neg d w3 w2 d cl f} def
/m34 {mp x w2 sub y w2 sub w3 add m w3 0 d  0 w3 neg d w3 0 d 0 w3 d w3 0 d  0 w3 d w3 neg 0 d 0 w3 d w3 neg 0 d 0 w3 neg d w3 neg 0 d cl f } def
/m2 {mp x y w2 sub m 0 w d x w2 sub y m w 0 d s} def
/m5 {mp x w2 sub y w2 sub m w w d x w2 sub y w2 add m w w neg d s} def
/reEncode {exch findfont dup length dict begin {1 index /FID eq  {pop pop} {def} ifelse } forall /Encoding exch def currentdict end dup /FontName get exch definefont pop } def [/Times-Bold /Times-Italic /Times-BoldItalic /Helvetica /Helvetica-Oblique
 /Helvetica-Bold /Helvetica-BoldOblique /Courier /Courier-Oblique /Courier-Bold /Courier-BoldOblique /Times-Roman /AvantGarde-Book /AvantGarde-BookOblique /AvantGarde-Demi /AvantGarde-DemiOblique /Bookman-Demi /Bookman-DemiItalic /Bookman-Light
 /Bookman-LightItalic /Helvetica-Narrow /Helvetica-Narrow-Bold /Helvetica-Narrow-BoldOblique /Helvetica-Narrow-Oblique /NewCenturySchlbk-Roman /NewCenturySchlbk-Bold /NewCenturySchlbk-BoldItalic /NewCenturySchlbk-Italic /Palatino-Bold
 /Palatino-BoldItalic /Palatino-Italic /Palatino-Roman ] {ISOLatin1Encoding reEncode } forall
%%EndProlog
%%BeginSetup
%%EndSetup
newpath  gsave  .25 .25 scale  gsave  0 0 t black[  ] 0 sd 3 lw 0.999 0.999 0.999 c 2268 1594 0 0 bf black 0.999 0.999 0.999 c 1814 1276 227 159 bf black 1814 1276 227 159 bl 0 0 1 c 1 1 1 c 0 0 1 c 227 169 m 37 X s 280 169 m 37 X s /w 16 def /w2 {w
 2 div} def /w3 {w 3 div} def 272 169 m20 363 198 m 8 Y s 363 223 m 8 Y s 317 215 m 38 X s 371 215 m 37 X s 363 215 m20 454 285 m 21 Y s 454 322 m 21 Y s 408 314 m 37 X s 462 314 m 37 X s 454 314 m20 544 423 m 43 Y s 544 482 m 44 Y s 499 474 m 37 X s
 552 474 m 38 X s 544 474 m20 635 530 m 39 Y s 635 585 m 38 Y s 590 577 m 37 X s 643 577 m 37 X s 635 577 m20 726 666 m 41 Y s 726 724 m 41 Y s 680 716 m 37 X s 734 716 m 37 X s 726 716 m20 816 918 m 64 Y s 816 998 m 65 Y s 771 990 m 37 X s 825 990 m
 37 X s 816 990 m20 907 1020 m 66 Y s 907 1102 m 66 Y s 862 1094 m 37 X s 915 1094 m 37 X s 907 1094 m20 998 902 m 49 Y s 998 967 m 49 Y s 952 959 m 38 X s 1006 959 m 37 X s 998 959 m20 1089 925 m 53 Y s 1089 994 m 53 Y s 1043 986 m 37 X s 1097 986 m
 37 X s 1089 986 m20 1179 299 m 18 Y s 1179 333 m 18 Y s 1134 325 m 37 X s 1187 325 m 38 X s 1179 325 m20 1270 172 m 3 Y s 1270 192 m 3 Y s 1225 184 m 37 X s 1278 184 m 37 X s 1270 184 m20 1315 170 m 37 X s 1369 170 m 37 X s 1361 170 m20 1406 161 m
 37 X s 1460 161 m 37 X s 1451 161 m20 1497 160 m 37 X s 1550 160 m 37 X s 1542 160 m20 1587 160 m 38 X s 1641 160 m 37 X s 1633 160 m20 1678 159 m 37 X s 1732 159 m 37 X s 1723 159 m20 1769 159 m 37 X s 1822 159 m 38 X s 1814 159 m20 1860 159 m 37 X
 s 1913 159 m 37 X s 1905 159 m20 1950 159 m 37 X s 2004 159 m 37 X s 1996 159 m20 black 227 159 m 1814 X s
 gsave  2268 1594 0 0 C 1980.14 69.8391 t 0 r /Helvetica findfont 34.9195 sf 0 0 m (part) show NC gr 
 gsave  2268 1594 0 0 C 1980.14 10.2705 t 0 r /Helvetica findfont 34.9195 sf 0 0 m (T) show NC gr 
 gsave  2268 1594 0 0 C 1934.95 39.0277 t 0 r /Helvetica findfont 51.3523 sf 0 0 m (/p) show NC gr 
 gsave  2268 1594 0 0 C 1875.39 63.6768 t 0 r /Helvetica findfont 34.9195 sf 0 0 m (part) show NC gr 
 gsave  2268 1594 0 0 C 1875.39 10.2705 t 0 r /Helvetica findfont 34.9195 sf 0 0 m (T) show NC gr 
 gsave  2268 1594 0 0 C 1830.2 39.0277 t 0 r /Helvetica findfont 51.3523 sf 0 0 m (\255p) show NC gr 
 gsave  2268 1594 0 0 C 1780.9 57.5145 t 0 r /Helvetica findfont 34.9195 sf 0 0 m (det) show NC gr 
 gsave  2268 1594 0 0 C 1780.9 10.2705 t 0 r /Helvetica findfont 34.9195 sf 0 0 m (T) show NC gr 
 gsave  2268 1594 0 0 C 1752.14 39.0277 t 0 r /Helvetica findfont 51.3523 sf 0 0 m (p) show NC gr  227 198 m -39 Y s 272 179 m -20 Y s 317 179 m -20 Y s 363 179 m -20 Y s 408 198 m -39 Y s 454 179 m -20 Y s 499 179 m -20 Y s 544 179 m -20 Y s 590 198
 m -39 Y s 635 179 m -20 Y s 680 179 m -20 Y s 726 179 m -20 Y s 771 198 m -39 Y s 816 179 m -20 Y s 862 179 m -20 Y s 907 179 m -20 Y s 952 198 m -39 Y s 998 179 m -20 Y s 1043 179 m -20 Y s 1089 179 m -20 Y s 1134 198 m -39 Y s 1179 179 m -20 Y s
 1225 179 m -20 Y s 1270 179 m -20 Y s 1315 198 m -39 Y s 1361 179 m -20 Y s 1406 179 m -20 Y s 1451 179 m -20 Y s 1497 198 m -39 Y s 1542 179 m -20 Y s 1587 179 m -20 Y s 1633 179 m -20 Y s 1678 198 m -39 Y s 1723 179 m -20 Y s 1769 179 m -20 Y s
 1814 179 m -20 Y s 1860 198 m -39 Y s 1905 179 m -20 Y s 1950 179 m -20 Y s 1996 179 m -20 Y s 2041 198 m -39 Y s 227 198 m -39 Y s 2041 198 m -39 Y s
 gsave  2268 1594 0 0 C 207.463 106.813 t 0 r /Helvetica findfont 51.3523 sf 0 0 m (\2551) show NC gr 
 gsave  2268 1594 0 0 C 361.52 106.813 t 0 r /Helvetica findfont 51.3523 sf 0 0 m (\2550.8) show NC gr 
 gsave  2268 1594 0 0 C 544.334 106.813 t 0 r /Helvetica findfont 51.3523 sf 0 0 m (\2550.6) show NC gr 
 gsave  2268 1594 0 0 C 725.094 106.813 t 0 r /Helvetica findfont 51.3523 sf 0 0 m (\2550.4) show NC gr 
 gsave  2268 1594 0 0 C 907.908 106.813 t 0 r /Helvetica findfont 51.3523 sf 0 0 m (\2550.2) show NC gr 
 gsave  2268 1594 0 0 C 1119.48 106.813 t 0 r /Helvetica findfont 51.3523 sf 0 0 m (0) show NC gr 
 gsave  2268 1594 0 0 C 1279.7 106.813 t 0 r /Helvetica findfont 51.3523 sf 0 0 m (0.2) show NC gr 
 gsave  2268 1594 0 0 C 1460.46 106.813 t 0 r /Helvetica findfont 51.3523 sf 0 0 m (0.4) show NC gr 
 gsave  2268 1594 0 0 C 1641.22 106.813 t 0 r /Helvetica findfont 51.3523 sf 0 0 m (0.6) show NC gr 
 gsave  2268 1594 0 0 C 1824.03 106.813 t 0 r /Helvetica findfont 51.3523 sf 0 0 m (0.8) show NC gr 
 gsave  2268 1594 0 0 C 2029.44 106.813 t 0 r /Helvetica findfont 51.3523 sf 0 0 m (1) show NC gr  227 159 m 1276 Y s
 gsave  2268 1594 0 0 C 82.1636 1010.61 t 90 r /Helvetica findfont 51.3523 sf 0 0 m (Probability Density) show NC gr  281 159 m -54 X s 254 210 m -27 X s 254 261 m -27 X s 254 312 m -27 X s 254 363 m -27 X s 281 414 m -54 X s 254 465 m -27 X s 254
 516 m -27 X s 254 567 m -27 X s 254 618 m -27 X s 281 669 m -54 X s 254 720 m -27 X s 254 771 m -27 X s 254 822 m -27 X s 254 873 m -27 X s 281 925 m -54 X s 254 976 m -27 X s 254 1027 m -27 X s 254 1078 m -27 X s 254 1129 m -27 X s 281 1180 m -54 X
 s 254 1231 m -27 X s 254 1282 m -27 X s 254 1333 m -27 X s 254 1384 m -27 X s 281 1435 m -54 X s 281 1435 m -54 X s
 gsave  2268 1594 0 0 C 186.922 141.732 t 0 r /Helvetica findfont 51.3523 sf 0 0 m (0) show NC gr 
 gsave  2268 1594 0 0 C 115.029 396.44 t 0 r /Helvetica findfont 51.3523 sf 0 0 m (0.05) show NC gr 
 gsave  2268 1594 0 0 C 152.003 651.147 t 0 r /Helvetica findfont 51.3523 sf 0 0 m (0.1) show NC gr 
 gsave  2268 1594 0 0 C 115.029 907.908 t 0 r /Helvetica findfont 51.3523 sf 0 0 m (0.15) show NC gr 
 gsave  2268 1594 0 0 C 143.786 1162.62 t 0 r /Helvetica findfont 51.3523 sf 0 0 m (0.2) show NC gr 
 gsave  2268 1594 0 0 C 115.029 1417.32 t 0 r /Helvetica findfont 51.3523 sf 0 0 m (0.25) show NC gr [ 12 12] 0 sd 6 lw 1134 159 m 1276 Y s
 gsave  2268 1594 0 0 C 1867.17 1281.75 t 0 r /Helvetica-Bold findfont 55.4605 sf 0 0 m ( shift) show NC gr 
 gsave  2268 1594 0 0 C 1791.17 1253 t 0 r /Helvetica-Bold findfont 36.9736 sf 0 0 m (T,jet) show NC gr 
 gsave  2268 1594 0 0 C 1160.56 1281.75 t 0 r /Helvetica-Bold findfont 55.4605 sf 0 0 m (Particle\255Detector level p) show NC gr 
 gsave  2268 1594 0 0 C 1723.38 1181.1 t 0 r /Helvetica-Bold findfont 55.4605 sf 0 0 m ( < 25) show NC gr 
 gsave  2268 1594 0 0 C 1653.54 1213.97 t 0 r /Helvetica-Bold findfont 36.9736 sf 0 0 m (part) show NC gr 
 gsave  2268 1594 0 0 C 1653.54 1152.35 t 0 r /Helvetica-Bold findfont 36.9736 sf 0 0 m (T) show NC gr 
 gsave  2268 1594 0 0 C 1495.38 1181.1 t 0 r /Helvetica-Bold findfont 55.4605 sf 0 0 m (20 < p) show NC gr 
 gsave  2268 1594 0 0 C 1665.87 1078.4 t 0 r /Helvetica-Bold findfont 55.4605 sf 0 0 m ( R = 0.4) show NC gr 
 gsave  2268 1594 0 0 C 1643.27 1059.91 t 0 r /Helvetica-Bold findfont 36.9736 sf 0 0 m (T) show NC gr 
 gsave  2268 1594 0 0 C 1495.38 1078.4 t 0 r /Helvetica-Bold findfont 55.4605 sf 0 0 m (anti\255k) show NC gr 
 gr  gr showpage
end
%%EOF
