%!PS-Adobe-2.0 EPSF-2.0
%%BoundingBox:  0 0 567 366
%%Title: /Users/cgy606/Documents/Train/LEGOTrain/Unfolding/lhc13b_good_DetectorRMR2.eps: 
%%Creator: ROOT Version 5.34/09
%%CreationDate: Mon Mar 31 01:00:51 2014
%%EndComments
%%BeginProlog
80 dict begin
/s {stroke} def /l {lineto} def /m {moveto} def /t {translate} def
/r {rotate} def /rl {roll}  def /R {repeat} def
/d {rlineto} def /rm {rmoveto} def /gr {grestore} def /f {eofill} def
/c {setrgbcolor} def /black {0 setgray} def /sd {setdash} def
/cl {closepath} def /sf {scalefont setfont} def /lw {setlinewidth} def
/box {m dup 0 exch d exch 0 d 0 exch neg d cl} def
/NC{systemdict begin initclip end}def/C{NC box clip newpath}def
/bl {box s} def /bf {box f} def /Y { 0 exch d} def /X { 0 d} def 
/K {{pop pop 0 moveto} exch kshow} bind def
/ita {/ang 15 def gsave [1 0 ang dup sin exch cos div 1 0 0] concat} def 
/mp {newpath /y exch def /x exch def} def
/side {[w .77 mul w .23 mul] .385 w mul sd w 0 l currentpoint t -144 r} def
/mr {mp x y w2 0 360 arc} def /m24 {mr s} def /m20 {mr f} def
/mb {mp x y w2 add m w2 neg 0 d 0 w neg d w 0 d 0 w d cl} def
/mt {mp x y w2 add m w2 neg w neg d w 0 d cl} def
/m21 {mb f} def /m25 {mb s} def /m22 {mt f} def /m26{mt s} def
/m23 {mp x y w2 sub m w2 w d w neg 0 d cl f} def
/m27 {mp x y w2 add m w3 neg w2 neg d w3 w2 neg d w3 w2 d cl s} def
/m28 {mp x w2 sub y w2 sub w3 add m w3 0 d  0 w3 neg d w3 0 d 0 w3 d w3 0 d  0 w3 d w3 neg 0 d 0 w3 d w3 neg 0 d 0 w3 neg d w3 neg 0 d cl s } def
/m29 {mp gsave x w2 sub y w2 add w3 sub m currentpoint t 4 {side} repeat cl fill gr} def
/m30 {mp gsave x w2 sub y w2 add w3 sub m currentpoint t 4 {side} repeat cl s gr} def
/m31 {mp x y w2 sub m 0 w d x w2 sub y m w 0 d x w2 sub y w2 add m w w neg d x w2 sub y w2 sub m w w d s} def
/m32 {mp x y w2 sub m w2 w d w neg 0 d cl s} def
/m33 {mp x y w2 add m w3 neg w2 neg d w3 w2 neg d w3 w2 d cl f} def
/m34 {mp x w2 sub y w2 sub w3 add m w3 0 d  0 w3 neg d w3 0 d 0 w3 d w3 0 d  0 w3 d w3 neg 0 d 0 w3 d w3 neg 0 d 0 w3 neg d w3 neg 0 d cl f } def
/m2 {mp x y w2 sub m 0 w d x w2 sub y m w 0 d s} def
/m5 {mp x w2 sub y w2 sub m w w d x w2 sub y w2 add m w w neg d s} def
/reEncode {exch findfont dup length dict begin {1 index /FID eq  {pop pop} {def} ifelse } forall /Encoding exch def currentdict end dup /FontName get exch definefont pop } def [/Times-Bold /Times-Italic /Times-BoldItalic /Helvetica /Helvetica-Oblique
 /Helvetica-Bold /Helvetica-BoldOblique /Courier /Courier-Oblique /Courier-Bold /Courier-BoldOblique /Times-Roman /AvantGarde-Book /AvantGarde-BookOblique /AvantGarde-Demi /AvantGarde-DemiOblique /Bookman-Demi /Bookman-DemiItalic /Bookman-Light
 /Bookman-LightItalic /Helvetica-Narrow /Helvetica-Narrow-Bold /Helvetica-Narrow-BoldOblique /Helvetica-Narrow-Oblique /NewCenturySchlbk-Roman /NewCenturySchlbk-Bold /NewCenturySchlbk-BoldItalic /NewCenturySchlbk-Italic /Palatino-Bold
 /Palatino-BoldItalic /Palatino-Italic /Palatino-Roman ] {ISOLatin1Encoding reEncode } forall
%%EndProlog
%%BeginSetup
%%EndSetup
newpath  gsave  .25 .25 scale  gsave  0 0 t black[  ] 0 sd 3 lw 0.999 0.999 0.999 c 2268 1464 0 0 bf black 0.999 0.999 0.999 c 1814 1171 227 146 bf black 1814 1171 227 146 bl 1 1 1 c 0.413333 1 0 c 82 59 227 146 bf 0 1 0.333333 c 83 59 309 146 bf 0 1
 0.8 c 82 59 392 146 bf 0 0.733333 1 c 83 59 474 146 bf 0 0.0800001 1 c 82 59 557 146 bf 0.2 0 1 c 83 59 639 146 bf 82 59 722 146 bf 0.386667 0 1 c 82 59 804 146 bf 0.2 0 1 c 82 59 969 146 bf 83 59 1051 146 bf 1 0 0 c 82 58 227 205 bf 1 0.466667 0 c
 83 58 309 205 bf 1 0.933333 0 c 82 58 392 205 bf 0.413333 1 0 c 83 58 474 205 bf 0 1 0.0533333 c 82 58 557 205 bf 0 1 0.52 c 83 58 639 205 bf 82 58 722 205 bf 0 1 0.986667 c 82 58 804 205 bf 83 58 886 205 bf 0 0.546666 1 c 82 58 969 205 bf 0
 0.266667 1 c 83 58 1051 205 bf 82 58 1134 205 bf 0 0.0800001 1 c 83 58 1216 205 bf 0 0.546666 1 c 82 58 1299 205 bf 0.2 0 1 c 83 58 1381 205 bf 0.386667 0 1 c 82 58 1464 205 bf 0.2 0 1 c 83 58 1546 205 bf 1 0.186667 0 c 82 59 227 263 bf 83 59 309
 263 bf 82 59 392 263 bf 1 0.466667 0 c 83 59 474 263 bf 1 0.933333 0 c 82 59 557 263 bf 0.6 1 0 c 83 59 639 263 bf 0.133333 1 0 c 82 59 722 263 bf 0 1 0.333333 c 82 59 804 263 bf 0 1 0.52 c 83 59 886 263 bf 0 1 0.8 c 82 59 969 263 bf 83 59 1051 263
 bf 0 0.733333 1 c 82 59 1134 263 bf 83 59 1216 263 bf 0 0.266667 1 c 82 59 1299 263 bf 83 59 1381 263 bf 82 59 1464 263 bf 83 59 1546 263 bf 82 59 1629 263 bf 82 59 1876 263 bf 1 0.466667 0 c 82 59 227 322 bf 1 0.186667 0 c 83 59 309 322 bf 82 59
 392 322 bf 83 59 474 322 bf 82 59 557 322 bf 1 0.466667 0 c 83 59 639 322 bf 1 0.933333 0 c 82 59 722 322 bf 0.6 1 0 c 82 59 804 322 bf 0.413333 1 0 c 83 59 886 322 bf 0 1 0.333333 c 82 59 969 322 bf 83 59 1051 322 bf 0 1 0.52 c 82 59 1134 322 bf 0
 0.733333 1 c 83 59 1216 322 bf 0 1 0.986667 c 82 59 1299 322 bf 0 0.733333 1 c 83 59 1381 322 bf 0 0.546666 1 c 82 59 1464 322 bf 0 0.733333 1 c 83 59 1546 322 bf 0 0.546666 1 c 83 59 1711 322 bf 0 0.266667 1 c 83 59 1958 322 bf 1 0.466667 0 c 82 58
 227 381 bf 83 58 309 381 bf 1 0.186667 0 c 82 58 392 381 bf 83 58 474 381 bf 82 58 557 381 bf 83 58 639 381 bf 82 58 722 381 bf 1 0.466667 0 c 82 58 804 381 bf 1 0.933333 0 c 83 58 886 381 bf 0.6 1 0 c 82 58 969 381 bf 0 1 0.0533333 c 83 58 1051 381
 bf 0.133333 1 0 c 82 58 1134 381 bf 0 1 0.333333 c 83 58 1216 381 bf 0 1 0.0533333 c 82 58 1299 381 bf 0 1 0.333333 c 83 58 1381 381 bf 82 58 1464 381 bf 0 1 0.8 c 83 58 1546 381 bf 0 1 0.0533333 c 82 58 1629 381 bf 0 1 0.8 c 82 58 1794 381 bf 0
 0.546666 1 c 82 58 1876 381 bf 1 0.653333 0 c 82 59 227 439 bf 1 0.466667 0 c 83 59 309 439 bf 82 59 392 439 bf 83 59 474 439 bf 1 0.186667 0 c 82 59 557 439 bf 83 59 639 439 bf 82 59 722 439 bf 82 59 804 439 bf 83 59 886 439 bf 1 0.466667 0 c 82 59
 969 439 bf 1 0.933333 0 c 83 59 1051 439 bf 0.6 1 0 c 82 59 1134 439 bf 0.413333 1 0 c 83 59 1216 439 bf 0.133333 1 0 c 82 59 1299 439 bf 0 1 0.0533333 c 83 59 1381 439 bf 82 59 1464 439 bf 0 1 0.333333 c 83 59 1546 439 bf 0 1 0.8 c 82 59 1629 439
 bf 0 1 0.52 c 83 59 1711 439 bf 82 59 1794 439 bf 82 59 1876 439 bf 0 1 0.986667 c 83 59 1958 439 bf 1 0.653333 0 c 82 58 227 498 bf 83 58 309 498 bf 1 0.466667 0 c 82 58 392 498 bf 83 58 474 498 bf 82 58 557 498 bf 1 0.186667 0 c 83 58 639 498 bf
 82 58 722 498 bf 82 58 804 498 bf 83 58 886 498 bf 82 58 969 498 bf 83 58 1051 498 bf 1 0.466667 0 c 82 58 1134 498 bf 1 0.933333 0 c 83 58 1216 498 bf 0.6 1 0 c 82 58 1299 498 bf 0.413333 1 0 c 83 58 1381 498 bf 82 58 1464 498 bf 0 1 0.0533333 c 83
 58 1546 498 bf 0 1 0.52 c 82 58 1629 498 bf 83 58 1711 498 bf 82 58 1794 498 bf 0 1 0.986667 c 82 58 1876 498 bf 0 1 0.52 c 83 58 1958 498 bf 1 0.933333 0 c 82 59 227 556 bf 1 0.653333 0 c 83 59 309 556 bf 82 59 392 556 bf 1 0.466667 0 c 83 59 474
 556 bf 82 59 557 556 bf 83 59 639 556 bf 82 59 722 556 bf 1 0.186667 0 c 82 59 804 556 bf 83 59 886 556 bf 82 59 969 556 bf 83 59 1051 556 bf 82 59 1134 556 bf 1 0.466667 0 c 83 59 1216 556 bf 82 59 1299 556 bf 1 0.933333 0 c 83 59 1381 556 bf 0.88
 1 0 c 82 59 1464 556 bf 0.133333 1 0 c 83 59 1546 556 bf 0.413333 1 0 c 82 59 1629 556 bf 0 1 0.52 c 83 59 1711 556 bf 0.133333 1 0 c 82 59 1794 556 bf 0 1 0.333333 c 82 59 1876 556 bf 83 59 1958 556 bf 1 0.933333 0 c 82 58 227 615 bf 1 0.653333 0 c
 83 58 309 615 bf 82 58 392 615 bf 83 58 474 615 bf 1 0.466667 0 c 82 58 557 615 bf 83 58 639 615 bf 82 58 722 615 bf 82 58 804 615 bf 83 58 886 615 bf 82 58 969 615 bf 1 0.186667 0 c 83 58 1051 615 bf 82 58 1134 615 bf 1 0.466667 0 c 83 58 1216 615
 bf 82 58 1299 615 bf 83 58 1381 615 bf 1 0.653333 0 c 82 58 1464 615 bf 1 0.933333 0 c 83 58 1546 615 bf 0.88 1 0 c 82 58 1629 615 bf 0.6 1 0 c 83 58 1711 615 bf 0.133333 1 0 c 82 58 1794 615 bf 82 58 1876 615 bf 0 1 0.333333 c 83 58 1958 615 bf 1
 0.933333 0 c 82 59 227 673 bf 83 59 309 673 bf 1 0.653333 0 c 82 59 392 673 bf 83 59 474 673 bf 82 59 557 673 bf 1 0.466667 0 c 83 59 639 673 bf 82 59 722 673 bf 82 59 804 673 bf 83 59 886 673 bf 82 59 969 673 bf 83 59 1051 673 bf 82 59 1134 673 bf
 83 59 1216 673 bf 82 59 1299 673 bf 83 59 1381 673 bf 82 59 1464 673 bf 83 59 1546 673 bf 82 59 1629 673 bf 1 0.933333 0 c 83 59 1711 673 bf 0.88 1 0 c 82 59 1794 673 bf 0.6 1 0 c 82 59 1876 673 bf 0 1 0.0533333 c 83 59 1958 673 bf 1 0.933333 0 c 82
 58 227 732 bf 1 0.653333 0 c 83 58 309 732 bf 1 0.933333 0 c 82 58 392 732 bf 1 0.653333 0 c 83 58 474 732 bf 82 58 557 732 bf 83 58 639 732 bf 1 0.466667 0 c 82 58 722 732 bf 82 58 804 732 bf 83 58 886 732 bf 82 58 969 732 bf 83 58 1051 732 bf 82
 58 1134 732 bf 83 58 1216 732 bf 82 58 1299 732 bf 83 58 1381 732 bf 82 58 1464 732 bf 83 58 1546 732 bf 82 58 1629 732 bf 83 58 1711 732 bf 1 0.653333 0 c 82 58 1794 732 bf 1 0.933333 0 c 82 58 1876 732 bf 0.88 1 0 c 83 58 1958 732 bf 1 0.933333 0
 c 82 59 227 790 bf 83 59 309 790 bf 82 59 392 790 bf 83 59 474 790 bf 1 0.653333 0 c 82 59 557 790 bf 83 59 639 790 bf 82 59 722 790 bf 1 0.466667 0 c 82 59 804 790 bf 83 59 886 790 bf 82 59 969 790 bf 83 59 1051 790 bf 82 59 1134 790 bf 83 59 1216
 790 bf 82 59 1299 790 bf 83 59 1381 790 bf 82 59 1464 790 bf 83 59 1546 790 bf 82 59 1629 790 bf 83 59 1711 790 bf 82 59 1794 790 bf 82 59 1876 790 bf 1 0.653333 0 c 83 59 1958 790 bf 0.88 1 0 c 82 59 227 849 bf 1 0.933333 0 c 83 59 309 849 bf 1
 0.653333 0 c 82 59 392 849 bf 1 0.933333 0 c 83 59 474 849 bf 1 0.653333 0 c 82 59 557 849 bf 83 59 639 849 bf 82 59 722 849 bf 1 0.466667 0 c 82 59 804 849 bf 83 59 886 849 bf 82 59 969 849 bf 83 59 1051 849 bf 82 59 1134 849 bf 83 59 1216 849 bf
 82 59 1299 849 bf 83 59 1381 849 bf 82 59 1464 849 bf 83 59 1546 849 bf 82 59 1629 849 bf 83 59 1711 849 bf 82 59 1794 849 bf 82 59 1876 849 bf 83 59 1958 849 bf 1 0.933333 0 c 82 58 227 908 bf 83 58 309 908 bf 82 58 392 908 bf 83 58 474 908 bf 1
 0.653333 0 c 82 58 557 908 bf 83 58 639 908 bf 82 58 722 908 bf 82 58 804 908 bf 1 0.466667 0 c 83 58 886 908 bf 82 58 969 908 bf 1 0.653333 0 c 83 58 1051 908 bf 1 0.466667 0 c 82 58 1134 908 bf 83 58 1216 908 bf 82 58 1299 908 bf 83 58 1381 908 bf
 82 58 1464 908 bf 83 58 1546 908 bf 82 58 1629 908 bf 83 58 1711 908 bf 82 58 1794 908 bf 82 58 1876 908 bf 83 58 1958 908 bf 0.88 1 0 c 82 59 227 966 bf 83 59 309 966 bf 1 0.933333 0 c 82 59 392 966 bf 83 59 474 966 bf 82 59 557 966 bf 83 59 639
 966 bf 1 0.653333 0 c 82 59 722 966 bf 82 59 804 966 bf 83 59 886 966 bf 82 59 969 966 bf 83 59 1051 966 bf 1 0.466667 0 c 82 59 1134 966 bf 83 59 1216 966 bf 82 59 1299 966 bf 83 59 1381 966 bf 82 59 1464 966 bf 83 59 1546 966 bf 82 59 1629 966 bf
 83 59 1711 966 bf 82 59 1794 966 bf 82 59 1876 966 bf 83 59 1958 966 bf 0.88 1 0 c 82 58 227 1025 bf 1 0.933333 0 c 83 58 309 1025 bf 82 58 392 1025 bf 83 58 474 1025 bf 1 0.653333 0 c 82 58 557 1025 bf 1 0.933333 0 c 83 58 639 1025 bf 1 0.653333 0
 c 82 58 722 1025 bf 82 58 804 1025 bf 83 58 886 1025 bf 82 58 969 1025 bf 83 58 1051 1025 bf 82 58 1134 1025 bf 1 0.466667 0 c 83 58 1216 1025 bf 82 58 1299 1025 bf 83 58 1381 1025 bf 82 58 1464 1025 bf 83 58 1546 1025 bf 82 58 1629 1025 bf 83 58
 1711 1025 bf 82 58 1794 1025 bf 82 58 1876 1025 bf 83 58 1958 1025 bf 0.88 1 0 c 82 59 227 1083 bf 83 59 309 1083 bf 1 0.933333 0 c 82 59 392 1083 bf 83 59 474 1083 bf 82 59 557 1083 bf 83 59 639 1083 bf 1 0.653333 0 c 82 59 722 1083 bf 82 59 804
 1083 bf 83 59 886 1083 bf 82 59 969 1083 bf 83 59 1051 1083 bf 82 59 1134 1083 bf 83 59 1216 1083 bf 1 0.466667 0 c 82 59 1299 1083 bf 83 59 1381 1083 bf 82 59 1464 1083 bf 83 59 1546 1083 bf 82 59 1629 1083 bf 83 59 1711 1083 bf 82 59 1794 1083 bf
 82 59 1876 1083 bf 83 59 1958 1083 bf 0.88 1 0 c 82 58 227 1142 bf 83 58 309 1142 bf 82 58 392 1142 bf 1 0.933333 0 c 83 58 474 1142 bf 82 58 557 1142 bf 83 58 639 1142 bf 82 58 722 1142 bf 1 0.653333 0 c 82 58 804 1142 bf 83 58 886 1142 bf 82 58
 969 1142 bf 83 58 1051 1142 bf 82 58 1134 1142 bf 83 58 1216 1142 bf 82 58 1299 1142 bf 1 0.466667 0 c 83 58 1381 1142 bf 82 58 1464 1142 bf 83 58 1546 1142 bf 82 58 1629 1142 bf 83 58 1711 1142 bf 82 58 1794 1142 bf 82 58 1876 1142 bf 83 58 1958
 1142 bf 0.6 1 0 c 82 59 227 1200 bf 0.88 1 0 c 83 59 309 1200 bf 82 59 392 1200 bf 83 59 474 1200 bf 1 0.933333 0 c 82 59 557 1200 bf 83 59 639 1200 bf 1 0.653333 0 c 82 59 722 1200 bf 82 59 804 1200 bf 83 59 886 1200 bf 82 59 969 1200 bf 83 59 1051
 1200 bf 82 59 1134 1200 bf 83 59 1216 1200 bf 82 59 1299 1200 bf 83 59 1381 1200 bf 82 59 1464 1200 bf 1 0.466667 0 c 83 59 1546 1200 bf 82 59 1629 1200 bf 83 59 1711 1200 bf 82 59 1794 1200 bf 82 59 1876 1200 bf 83 59 1958 1200 bf 0.88 1 0 c 82 58
 227 1259 bf 83 58 309 1259 bf 82 58 392 1259 bf 1 0.933333 0 c 83 58 474 1259 bf 82 58 557 1259 bf 83 58 639 1259 bf 82 58 722 1259 bf 82 58 804 1259 bf 1 0.653333 0 c 83 58 886 1259 bf 82 58 969 1259 bf 83 58 1051 1259 bf 82 58 1134 1259 bf 83 58
 1216 1259 bf 82 58 1299 1259 bf 83 58 1381 1259 bf 82 58 1464 1259 bf 83 58 1546 1259 bf 1 0.466667 0 c 82 58 1629 1259 bf 83 58 1711 1259 bf 82 58 1794 1259 bf 82 58 1876 1259 bf 83 58 1958 1259 bf 1 1 1 c black 227 146 m 1814 X s
 gsave  2268 1464 0 0 C 1903.67 43.6099 t 0 r /Helvetica findfont 47.4021 sf 0 0 m ( \(GeV\)) show NC gr 
 gsave  2268 1464 0 0 C 1882.81 17.0648 t 0 r /Helvetica findfont 32.2334 sf 0 0 m (T) show NC gr 
 gsave  2268 1464 0 0 C 1535.83 43.6099 t 0 r /Helvetica findfont 47.4021 sf 0 0 m (Detector\255Level p) show NC gr  392 182 m -36 Y s 474 164 m -18 Y s 557 164 m -18 Y s 639 164 m -18 Y s 722 182 m -36 Y s 804 164 m -18 Y s 886 164 m -18 Y s 969 164
 m -18 Y s 1051 182 m -36 Y s 1134 164 m -18 Y s 1216 164 m -18 Y s 1299 164 m -18 Y s 1381 182 m -36 Y s 1464 164 m -18 Y s 1546 164 m -18 Y s 1629 164 m -18 Y s 1711 182 m -36 Y s 1794 164 m -18 Y s 1876 164 m -18 Y s 1958 164 m -18 Y s 2041 182 m
 -36 Y s 392 182 m -36 Y s 309 164 m -18 Y s 227 164 m -18 Y s
 gsave  2268 1464 0 0 C 364.048 98.5964 t 0 r /Helvetica findfont 47.4021 sf 0 0 m (20) show NC gr 
 gsave  2268 1464 0 0 C 693.967 98.5964 t 0 r /Helvetica findfont 47.4021 sf 0 0 m (40) show NC gr 
 gsave  2268 1464 0 0 C 1023.89 98.5964 t 0 r /Helvetica findfont 47.4021 sf 0 0 m (60) show NC gr 
 gsave  2268 1464 0 0 C 1353.8 98.5964 t 0 r /Helvetica findfont 47.4021 sf 0 0 m (80) show NC gr 
 gsave  2268 1464 0 0 C 1670.45 98.5964 t 0 r /Helvetica findfont 47.4021 sf 0 0 m (100) show NC gr 
 gsave  2268 1464 0 0 C 2000.37 98.5964 t 0 r /Helvetica findfont 47.4021 sf 0 0 m (120) show NC gr  227 146 m 1171 Y s
 gsave  2268 1464 0 0 C 79.6355 1181.26 t 90 r /Helvetica findfont 47.4021 sf 0 0 m ( \(GeV\)) show NC gr 
 gsave  2268 1464 0 0 C 106.181 1160.4 t 90 r /Helvetica findfont 32.2334 sf 0 0 m (T) show NC gr 
 gsave  2268 1464 0 0 C 79.6355 834.277 t 90 r /Helvetica findfont 47.4021 sf 0 0 m (Particle\255Level p) show NC gr  281 146 m -54 X s 254 176 m -27 X s 254 205 m -27 X s 254 234 m -27 X s 281 263 m -54 X s 254 293 m -27 X s 254 322 m -27 X s 254
 351 m -27 X s 281 381 m -54 X s 254 410 m -27 X s 254 439 m -27 X s 254 468 m -27 X s 281 498 m -54 X s 254 527 m -27 X s 254 556 m -27 X s 254 586 m -27 X s 281 615 m -54 X s 254 644 m -27 X s 254 673 m -27 X s 254 703 m -27 X s 281 732 m -54 X s
 254 761 m -27 X s 254 790 m -27 X s 254 820 m -27 X s 281 849 m -54 X s 254 878 m -27 X s 254 908 m -27 X s 254 937 m -27 X s 281 966 m -54 X s 254 995 m -27 X s 254 1025 m -27 X s 254 1054 m -27 X s 281 1083 m -54 X s 254 1112 m -27 X s 254 1142 m
 -27 X s 254 1171 m -27 X s 281 1200 m -54 X s 254 1230 m -27 X s 254 1259 m -27 X s 254 1288 m -27 X s 281 1317 m -54 X s
 gsave  2268 1464 0 0 C 189.608 130.83 t 0 r /Helvetica findfont 47.4021 sf 0 0 m (0) show NC gr 
 gsave  2268 1464 0 0 C 163.063 246.491 t 0 r /Helvetica findfont 47.4021 sf 0 0 m (20) show NC gr 
 gsave  2268 1464 0 0 C 163.063 364.048 t 0 r /Helvetica findfont 47.4021 sf 0 0 m (40) show NC gr 
 gsave  2268 1464 0 0 C 163.063 481.605 t 0 r /Helvetica findfont 47.4021 sf 0 0 m (60) show NC gr 
 gsave  2268 1464 0 0 C 163.063 599.163 t 0 r /Helvetica findfont 47.4021 sf 0 0 m (80) show NC gr 
 gsave  2268 1464 0 0 C 136.518 714.824 t 0 r /Helvetica findfont 47.4021 sf 0 0 m (100) show NC gr 
 gsave  2268 1464 0 0 C 136.518 832.381 t 0 r /Helvetica findfont 47.4021 sf 0 0 m (120) show NC gr 
 gsave  2268 1464 0 0 C 136.518 949.938 t 0 r /Helvetica findfont 47.4021 sf 0 0 m (140) show NC gr 
 gsave  2268 1464 0 0 C 136.518 1067.5 t 0 r /Helvetica findfont 47.4021 sf 0 0 m (160) show NC gr 
 gsave  2268 1464 0 0 C 136.518 1185.05 t 0 r /Helvetica findfont 47.4021 sf 0 0 m (180) show NC gr 
 gsave  2268 1464 0 0 C 136.518 1300.71 t 0 r /Helvetica findfont 47.4021 sf 0 0 m (200) show NC gr  1 1 1 c 1360 73 454 1383 bf black
 gsave  2268 1464 0 0 C 684.486 1403.1 t 0 r /Helvetica-Bold findfont 58.7786 sf 0 0 m (Detector Response Matrix R=0.4) show NC gr  0.386667 0 1 c 50 59 2050 146 bf 0.2 0 1 c 50 58 2050 205 bf 0 0.0800001 1 c 50 59 2050 263 bf 0 0.266667 1 c 50 59
 2050 322 bf 0 0.546666 1 c 50 58 2050 381 bf 0 0.733333 1 c 50 59 2050 439 bf 0 1 0.986667 c 50 58 2050 498 bf 0 1 0.8 c 50 59 2050 556 bf 0 1 0.52 c 50 58 2050 615 bf 0 1 0.333333 c 50 59 2050 673 bf 0 1 0.0533333 c 50 58 2050 732 bf 0.133333 1 0 c
 50 59 2050 790 bf 0.413333 1 0 c 50 59 2050 849 bf 0.6 1 0 c 50 58 2050 908 bf 0.88 1 0 c 50 59 2050 966 bf 1 0.933333 0 c 50 58 2050 1025 bf 1 0.653333 0 c 50 59 2050 1083 bf 1 0.466667 0 c 50 58 2050 1142 bf 1 0.186667 0 c 50 59 2050 1200 bf 1 0 0
 c 50 58 2050 1259 bf black 2100 146 m 1171 Y s
 gsave  2268 1464 0 0 C 2237.38 862.718 t 90 r /Helvetica findfont 54.9864 sf 0 0 m (Probability Density) show NC gr  2045 146 m 55 X s
 gsave  2268 1464 0 0 C 2163.43 147.895 t 0 r /Helvetica findfont 32.2334 sf 0 0 m (\25510) show NC gr 
 gsave  2268 1464 0 0 C 2112.24 125.142 t 0 r /Helvetica findfont 47.4021 sf 0 0 m (10) show NC gr  2073 182 m 27 X s 2073 202 m 27 X s 2073 217 m 27 X s 2073 228 m 27 X s 2073 238 m 27 X s 2073 245 m 27 X s 2073 252 m 27 X s 2073 258 m 27 X s 2045
 263 m 55 X s
 gsave  2268 1464 0 0 C 2163.43 263.556 t 0 r /Helvetica findfont 32.2334 sf 0 0 m (\2559) show NC gr 
 gsave  2268 1464 0 0 C 2112.24 240.803 t 0 r /Helvetica findfont 47.4021 sf 0 0 m (10) show NC gr  2073 299 m 27 X s 2073 319 m 27 X s 2073 334 m 27 X s 2073 345 m 27 X s 2073 355 m 27 X s 2073 362 m 27 X s 2073 369 m 27 X s 2073 375 m 27 X s 2045
 381 m 55 X s
 gsave  2268 1464 0 0 C 2163.43 381.113 t 0 r /Helvetica findfont 32.2334 sf 0 0 m (\2558) show NC gr 
 gsave  2268 1464 0 0 C 2112.24 358.36 t 0 r /Helvetica findfont 47.4021 sf 0 0 m (10) show NC gr  2073 416 m 27 X s 2073 436 m 27 X s 2073 451 m 27 X s 2073 462 m 27 X s 2073 472 m 27 X s 2073 480 m 27 X s 2073 486 m 27 X s 2073 492 m 27 X s 2045
 498 m 55 X s
 gsave  2268 1464 0 0 C 2163.43 496.774 t 0 r /Helvetica findfont 32.2334 sf 0 0 m (\2557) show NC gr 
 gsave  2268 1464 0 0 C 2112.24 475.917 t 0 r /Helvetica findfont 47.4021 sf 0 0 m (10) show NC gr  2073 533 m 27 X s 2073 554 m 27 X s 2073 568 m 27 X s 2073 580 m 27 X s 2073 589 m 27 X s 2073 597 m 27 X s 2073 603 m 27 X s 2073 609 m 27 X s 2045
 615 m 55 X s
 gsave  2268 1464 0 0 C 2163.43 616.227 t 0 r /Helvetica findfont 32.2334 sf 0 0 m (\2556) show NC gr 
 gsave  2268 1464 0 0 C 2112.24 593.474 t 0 r /Helvetica findfont 47.4021 sf 0 0 m (10) show NC gr  2073 650 m 27 X s 2073 671 m 27 X s 2073 685 m 27 X s 2073 697 m 27 X s 2073 706 m 27 X s 2073 714 m 27 X s 2073 721 m 27 X s 2073 727 m 27 X s 2045
 732 m 55 X s
 gsave  2268 1464 0 0 C 2163.43 731.888 t 0 r /Helvetica findfont 32.2334 sf 0 0 m (\2555) show NC gr 
 gsave  2268 1464 0 0 C 2112.24 709.135 t 0 r /Helvetica findfont 47.4021 sf 0 0 m (10) show NC gr  2073 767 m 27 X s 2073 788 m 27 X s 2073 802 m 27 X s 2073 814 m 27 X s 2073 823 m 27 X s 2073 831 m 27 X s 2073 838 m 27 X s 2073 844 m 27 X s 2045
 849 m 55 X s
 gsave  2268 1464 0 0 C 2163.43 847.55 t 0 r /Helvetica findfont 32.2334 sf 0 0 m (\2554) show NC gr 
 gsave  2268 1464 0 0 C 2112.24 826.693 t 0 r /Helvetica findfont 47.4021 sf 0 0 m (10) show NC gr  2073 884 m 27 X s 2073 905 m 27 X s 2073 919 m 27 X s 2073 931 m 27 X s 2073 940 m 27 X s 2073 948 m 27 X s 2073 955 m 27 X s 2073 961 m 27 X s 2045
 966 m 55 X s
 gsave  2268 1464 0 0 C 2163.43 967.003 t 0 r /Helvetica findfont 32.2334 sf 0 0 m (\2553) show NC gr 
 gsave  2268 1464 0 0 C 2112.24 944.25 t 0 r /Helvetica findfont 47.4021 sf 0 0 m (10) show NC gr  2073 1001 m 27 X s 2073 1022 m 27 X s 2073 1037 m 27 X s 2073 1048 m 27 X s 2073 1057 m 27 X s 2073 1065 m 27 X s 2073 1072 m 27 X s 2073 1078 m 27 X s
 2045 1083 m 55 X s
 gsave  2268 1464 0 0 C 2163.43 1082.66 t 0 r /Helvetica findfont 32.2334 sf 0 0 m (\2552) show NC gr 
 gsave  2268 1464 0 0 C 2112.24 1061.81 t 0 r /Helvetica findfont 47.4021 sf 0 0 m (10) show NC gr  2073 1118 m 27 X s 2073 1139 m 27 X s 2073 1154 m 27 X s 2073 1165 m 27 X s 2073 1174 m 27 X s 2073 1182 m 27 X s 2073 1189 m 27 X s 2073 1195 m 27 X
 s 2045 1200 m 55 X s
 gsave  2268 1464 0 0 C 2163.43 1200.22 t 0 r /Helvetica findfont 32.2334 sf 0 0 m (\2551) show NC gr 
 gsave  2268 1464 0 0 C 2112.24 1179.36 t 0 r /Helvetica findfont 47.4021 sf 0 0 m (10) show NC gr  2073 1236 m 27 X s 2073 1256 m 27 X s 2073 1271 m 27 X s 2073 1282 m 27 X s 2073 1291 m 27 X s 2073 1299 m 27 X s 2073 1306 m 27 X s 2073 1312 m 27 X
 s 2045 1317 m 55 X s
 gsave  2268 1464 0 0 C 2113.4 1296.92 t 0 r /Helvetica findfont 47.4021 sf 0 0 m (1) show NC gr  1 1 1 c 1360 73 454 1383 bf black
 gsave  2268 1464 0 0 C 684.486 1403.1 t 0 r /Helvetica-Bold findfont 58.7786 sf 0 0 m (Detector Response Matrix R=0.4) show NC gr 
 gr  gr showpage
end
%%EOF
