%!PS-Adobe-2.0 EPSF-2.0
%%BoundingBox:  0 0 567 398
%%Title: : 
%%Creator: ROOT Version 5.34/09
%%CreationDate: Fri Mar 28 16:22:35 2014
%%EndComments
%%BeginProlog
80 dict begin
/s {stroke} def /l {lineto} def /m {moveto} def /t {translate} def
/r {rotate} def /rl {roll}  def /R {repeat} def
/d {rlineto} def /rm {rmoveto} def /gr {grestore} def /f {eofill} def
/c {setrgbcolor} def /black {0 setgray} def /sd {setdash} def
/cl {closepath} def /sf {scalefont setfont} def /lw {setlinewidth} def
/box {m dup 0 exch d exch 0 d 0 exch neg d cl} def
/NC{systemdict begin initclip end}def/C{NC box clip newpath}def
/bl {box s} def /bf {box f} def /Y { 0 exch d} def /X { 0 d} def 
/K {{pop pop 0 moveto} exch kshow} bind def
/ita {/ang 15 def gsave [1 0 ang dup sin exch cos div 1 0 0] concat} def 
/mp {newpath /y exch def /x exch def} def
/side {[w .77 mul w .23 mul] .385 w mul sd w 0 l currentpoint t -144 r} def
/mr {mp x y w2 0 360 arc} def /m24 {mr s} def /m20 {mr f} def
/mb {mp x y w2 add m w2 neg 0 d 0 w neg d w 0 d 0 w d cl} def
/mt {mp x y w2 add m w2 neg w neg d w 0 d cl} def
/m21 {mb f} def /m25 {mb s} def /m22 {mt f} def /m26{mt s} def
/m23 {mp x y w2 sub m w2 w d w neg 0 d cl f} def
/m27 {mp x y w2 add m w3 neg w2 neg d w3 w2 neg d w3 w2 d cl s} def
/m28 {mp x w2 sub y w2 sub w3 add m w3 0 d  0 w3 neg d w3 0 d 0 w3 d w3 0 d  0 w3 d w3 neg 0 d 0 w3 d w3 neg 0 d 0 w3 neg d w3 neg 0 d cl s } def
/m29 {mp gsave x w2 sub y w2 add w3 sub m currentpoint t 4 {side} repeat cl fill gr} def
/m30 {mp gsave x w2 sub y w2 add w3 sub m currentpoint t 4 {side} repeat cl s gr} def
/m31 {mp x y w2 sub m 0 w d x w2 sub y m w 0 d x w2 sub y w2 add m w w neg d x w2 sub y w2 sub m w w d s} def
/m32 {mp x y w2 sub m w2 w d w neg 0 d cl s} def
/m33 {mp x y w2 add m w3 neg w2 neg d w3 w2 neg d w3 w2 d cl f} def
/m34 {mp x w2 sub y w2 sub w3 add m w3 0 d  0 w3 neg d w3 0 d 0 w3 d w3 0 d  0 w3 d w3 neg 0 d 0 w3 d w3 neg 0 d 0 w3 neg d w3 neg 0 d cl f } def
/m2 {mp x y w2 sub m 0 w d x w2 sub y m w 0 d s} def
/m5 {mp x w2 sub y w2 sub m w w d x w2 sub y w2 add m w w neg d s} def
/reEncode {exch findfont dup length dict begin {1 index /FID eq  {pop pop} {def} ifelse } forall /Encoding exch def currentdict end dup /FontName get exch definefont pop } def [/Times-Bold /Times-Italic /Times-BoldItalic /Helvetica /Helvetica-Oblique
 /Helvetica-Bold /Helvetica-BoldOblique /Courier /Courier-Oblique /Courier-Bold /Courier-BoldOblique /Times-Roman /AvantGarde-Book /AvantGarde-BookOblique /AvantGarde-Demi /AvantGarde-DemiOblique /Bookman-Demi /Bookman-DemiItalic /Bookman-Light
 /Bookman-LightItalic /Helvetica-Narrow /Helvetica-Narrow-Bold /Helvetica-Narrow-BoldOblique /Helvetica-Narrow-Oblique /NewCenturySchlbk-Roman /NewCenturySchlbk-Bold /NewCenturySchlbk-BoldItalic /NewCenturySchlbk-Italic /Palatino-Bold
 /Palatino-BoldItalic /Palatino-Italic /Palatino-Roman ] {ISOLatin1Encoding reEncode } forall
%%EndProlog
%%BeginSetup
%%EndSetup
newpath  gsave  .25 .25 scale  gsave  0 0 t black[  ] 0 sd 3 lw 0.999 0.999 0.999 c 2268 1594 0 0 bf black 0.999 0.999 0.999 c 1814 1276 227 159 bf black 1814 1276 227 159 bl 0 0 1 c 1 1 1 c 0 0 1 c 443 159 m 19 Y s 443 195 m 27 Y s 400 187 m 35 X s
 451 187 m 35 X s /w 16 def /w2 {w 2 div} def /w3 {w 3 div} def 443 187 m20 529 731 m 23 Y s 529 770 m 16 Y s 486 762 m 35 X s 537 762 m 35 X s 529 762 m20 616 951 m 2 Y s 616 970 m 1 Y s 572 962 m 35 X s 624 962 m 35 X s 616 962 m20 659 1093 m 35 X
 s 710 1093 m 35 X s 702 1093 m20 745 1171 m 35 X s 797 1171 m 34 X s 788 1171 m20 831 1218 m 35 X s 883 1218 m 35 X s 875 1218 m20 918 1239 m 35 X s 969 1239 m 35 X s 961 1239 m20 1004 1250 m 35 X s 1056 1250 m 35 X s 1047 1250 m20 1091 1268 m 35 X
 s 1142 1268 m 35 X s 1134 1268 m20 1177 1249 m 35 X s 1228 1249 m 35 X s 1220 1249 m20 1263 1232 m 35 X s 1315 1232 m 35 X s 1307 1232 m20 1350 1207 m 35 X s 1401 1207 m 35 X s 1393 1207 m20 1436 1193 m 35 X s 1488 1193 m 35 X s 1479 1193 m20 1523
 1174 m 35 X s 1574 1174 m 35 X s 1566 1174 m20 1609 1156 m 35 X s 1660 1156 m 35 X s 1652 1156 m20 1695 1148 m 35 X s 1747 1148 m 35 X s 1739 1148 m20 1782 1134 m 35 X s 1833 1134 m 35 X s 1825 1134 m20 1868 1067 m 35 X s 1920 1067 m 35 X s 1911
 1067 m20 1955 1244 m 35 X s 2006 1244 m 35 X s 1998 1244 m20 black 227 159 m 1814 X s
 gsave  2268 1594 0 0 C 1971.93 41.0818 t 0 r /Helvetica findfont 34.9195 sf 0 0 m (T,jet) show NC gr 
 gsave  2268 1594 0 0 C 1926.74 69.8391 t 0 r /Helvetica findfont 51.3523 sf 0 0 m (/p) show NC gr 
 gsave  2268 1594 0 0 C 1682.3 41.0818 t 0 r /Helvetica findfont 34.9195 sf 0 0 m (T,leading const.) show NC gr 
 gsave  2268 1594 0 0 C 1596.03 69.8391 t 0 r /Helvetica findfont 51.3523 sf 0 0 m ( = p) show NC gr 
 gsave  2268 1594 0 0 C 1485.11 53.4064 t 0 r /Helvetica findfont 34.9195 sf 0 0 m (leading) show NC gr 
 gsave  2268 1594 0 0 C 1460.46 69.8391 t 0 r /Helvetica findfont 51.3523 sf 0 0 m (z) show NC gr  227 198 m -39 Y s 313 179 m -20 Y s 400 179 m -20 Y s 486 179 m -20 Y s 572 198 m -39 Y s 659 179 m -20 Y s 745 179 m -20 Y s 831 179 m -20 Y s 918 198
 m -39 Y s 1004 179 m -20 Y s 1091 179 m -20 Y s 1177 179 m -20 Y s 1263 198 m -39 Y s 1350 179 m -20 Y s 1436 179 m -20 Y s 1523 179 m -20 Y s 1609 198 m -39 Y s 1695 179 m -20 Y s 1782 179 m -20 Y s 1868 179 m -20 Y s 1955 198 m -39 Y s 1955 198 m
 -39 Y s
 gsave  2268 1594 0 0 C 211.571 106.813 t 0 r /Helvetica findfont 51.3523 sf 0 0 m (0) show NC gr 
 gsave  2268 1594 0 0 C 536.118 106.813 t 0 r /Helvetica findfont 51.3523 sf 0 0 m (0.2) show NC gr 
 gsave  2268 1594 0 0 C 881.205 106.813 t 0 r /Helvetica findfont 51.3523 sf 0 0 m (0.4) show NC gr 
 gsave  2268 1594 0 0 C 1228.35 106.813 t 0 r /Helvetica findfont 51.3523 sf 0 0 m (0.6) show NC gr 
 gsave  2268 1594 0 0 C 1573.43 106.813 t 0 r /Helvetica findfont 51.3523 sf 0 0 m (0.8) show NC gr 
 gsave  2268 1594 0 0 C 1943.17 106.813 t 0 r /Helvetica findfont 51.3523 sf 0 0 m (1) show NC gr  227 159 m 1276 Y s
 gsave  2268 1594 0 0 C 88.3259 1365.97 t 90 r /Helvetica findfont 51.3523 sf 0 0 m (/dz) show NC gr 
 gsave  2268 1594 0 0 C 104.759 1326.94 t 90 r /Helvetica findfont 34.9195 sf 0 0 m (jet) show NC gr 
 gsave  2268 1594 0 0 C 88.3259 1248.89 t 90 r /Helvetica findfont 51.3523 sf 0 0 m ( dN) show NC gr 
 gsave  2268 1594 0 0 C 104.759 1209.86 t 90 r /Helvetica findfont 34.9195 sf 0 0 m (jet) show NC gr 
 gsave  2268 1594 0 0 C 88.3259 1131.8 t 90 r /Helvetica findfont 51.3523 sf 0 0 m (1/N) show NC gr  281 159 m -54 X s
 gsave  2268 1594 0 0 C 176.652 158.165 t 0 r /Helvetica findfont 34.9195 sf 0 0 m (\2554) show NC gr 
 gsave  2268 1594 0 0 C 121.191 135.57 t 0 r /Helvetica findfont 51.3523 sf 0 0 m (10) show NC gr  254 236 m -27 X s 254 281 m -27 X s 254 313 m -27 X s 254 338 m -27 X s 254 358 m -27 X s 254 375 m -27 X s 254 390 m -27 X s 254 403 m -27 X s 281 414
 m -54 X s
 gsave  2268 1594 0 0 C 176.652 414.926 t 0 r /Helvetica findfont 34.9195 sf 0 0 m (\2553) show NC gr 
 gsave  2268 1594 0 0 C 121.191 390.277 t 0 r /Helvetica findfont 51.3523 sf 0 0 m (10) show NC gr  254 491 m -27 X s 254 536 m -27 X s 254 568 m -27 X s 254 593 m -27 X s 254 613 m -27 X s 254 630 m -27 X s 254 645 m -27 X s 254 658 m -27 X s 281
 669 m -54 X s
 gsave  2268 1594 0 0 C 176.652 667.58 t 0 r /Helvetica findfont 34.9195 sf 0 0 m (\2552) show NC gr 
 gsave  2268 1594 0 0 C 121.191 644.985 t 0 r /Helvetica findfont 51.3523 sf 0 0 m (10) show NC gr  254 746 m -27 X s 254 791 m -27 X s 254 823 m -27 X s 254 848 m -27 X s 254 868 m -27 X s 254 885 m -27 X s 254 900 m -27 X s 254 913 m -27 X s 281
 925 m -54 X s
 gsave  2268 1594 0 0 C 182.814 924.341 t 0 r /Helvetica findfont 34.9195 sf 0 0 m (\2551) show NC gr 
 gsave  2268 1594 0 0 C 127.354 901.746 t 0 r /Helvetica findfont 51.3523 sf 0 0 m (10) show NC gr  254 1001 m -27 X s 254 1046 m -27 X s 254 1078 m -27 X s 254 1103 m -27 X s 254 1123 m -27 X s 254 1140 m -27 X s 254 1155 m -27 X s 254 1168 m -27 X
 s 281 1180 m -54 X s
 gsave  2268 1594 0 0 C 209.083 1157.36 t 0 r  -28 0 t /Helvetica findfont 51.3523 sf 0 0 m (1) show NC gr  254 1256 m -27 X s 254 1301 m -27 X s 254 1333 m -27 X s 254 1358 m -27 X s 254 1378 m -27 X s 254 1395 m -27 X s 254 1410 m -27 X s 254 1423
 m -27 X s 281 1435 m -54 X s
 gsave  2268 1594 0 0 C 209.083 1412.39 t 0 r  -57 0 t /Helvetica findfont 51.3523 sf 0 0 m (10) show NC gr  1 1 1 c black 443 437 m 48 Y s 443 502 m 28 Y s 400 493 m 35 X s 451 493 m 35 X s 443 493 m21 529 774 m 10 Y s 529 800 m 8 Y s 486 792 m 35 X
 s 537 792 m 35 X s 529 792 m21 572 1001 m 35 X s 624 1001 m 35 X s 616 1001 m21 659 1126 m 35 X s 710 1126 m 35 X s 702 1126 m21 745 1198 m 35 X s 797 1198 m 34 X s 788 1198 m21 831 1241 m 35 X s 883 1241 m 35 X s 875 1241 m21 918 1254 m 35 X s 969
 1254 m 35 X s 961 1254 m21 1004 1256 m 35 X s 1056 1256 m 35 X s 1047 1256 m21 1091 1276 m 35 X s 1142 1276 m 35 X s 1134 1276 m21 1177 1252 m 35 X s 1228 1252 m 35 X s 1220 1252 m21 1263 1226 m 35 X s 1315 1226 m 35 X s 1307 1226 m21 1350 1198 m 35
 X s 1401 1198 m 35 X s 1393 1198 m21 1436 1177 m 35 X s 1488 1177 m 35 X s 1479 1177 m21 1523 1149 m 35 X s 1574 1149 m 35 X s 1566 1149 m21 1609 1134 m 35 X s 1660 1134 m 35 X s 1652 1134 m21 1695 1117 m 35 X s 1747 1117 m 35 X s 1739 1117 m21 1782
 1108 m 35 X s 1833 1108 m 35 X s 1825 1108 m21 1868 1113 m 35 X s 1920 1113 m 35 X s 1911 1113 m21 1955 1202 m 35 X s 2006 1202 m 35 X s 1998 1202 m21 1 1 1 c 613 240 748 398 bf black
 gsave  2268 1594 0 0 C 899.692 558.713 t 0 r /Helvetica-Bold findfont 51.3523 sf 0 0 m (Detector level) show NC gr  0 0 1 c 825 578 m20 black
 gsave  2268 1594 0 0 C 899.692 439.576 t 0 r /Helvetica-Bold findfont 51.3523 sf 0 0 m (Particle level) show NC gr  825 458 m21
 gsave  2268 1594 0 0 C 1033.21 792.879 t 0 r /Helvetica-Bold findfont 55.4605 sf 0 0 m ( < 20) show NC gr 
 gsave  2268 1594 0 0 C 957.206 764.122 t 0 r /Helvetica-Bold findfont 36.9736 sf 0 0 m (T,jet) show NC gr 
 gsave  2268 1594 0 0 C 829.853 792.879 t 0 r /Helvetica-Bold findfont 55.4605 sf 0 0 m (5 < p) show NC gr 
 gsave  2268 1594 0 0 C 1000.34 669.634 t 0 r /Helvetica-Bold findfont 55.4605 sf 0 0 m ( R = 0.2) show NC gr 
 gsave  2268 1594 0 0 C 977.747 651.147 t 0 r /Helvetica-Bold findfont 36.9736 sf 0 0 m (T) show NC gr 
 gsave  2268 1594 0 0 C 829.853 669.634 t 0 r /Helvetica-Bold findfont 55.4605 sf 0 0 m (anti\255k) show NC gr 
 gr  gr showpage
end
%%EOF
