   MMGvolt  GEM1volt  GEM2volt    Edrift     Etran      Eind        GA      Eres       IBF     Anode   Cathode	CrosstalkConfig
         0         0         0     0.400     3.000     0.075  	  2100      8.9      0.81     0.000     0.000     	1
         0         0         0     0.400     3.000     0.075  	  2100      8.9      0.66     0.000     0.000		1
         0         0         0     0.400     3.000     0.075  	  2100      9.1      0.54     0.000     0.000		1
         0         0         0     0.400     3.000     0.075  	  2100      9.4      0.45     0.000     0.000		1
         0         0         0     0.400     3.000     0.075  	  2100     9.75      0.38     0.000     0.000		1
         0         0         0     0.400     3.000     0.075  	  2100    10.15      0.32     0.000     0.000		1
         0         0         0     0.400     3.000     0.075  	  2100     10.7      0.27     0.000     0.000		1
         0         0         0     0.400     3.000     0.075  	  2100     11.5      0.24     0.000     0.000		1
         0         0         0     0.400     3.000     0.075  	  2100     13.2      0.21     0.000     0.000		1