   MMGvolt  GEM1volt  GEM2volt    Edrift     Etran      Eind        GA      Eres       IBF     Anode   Cathode
       440       300       270     0.400     3.000     0.075  2175.000    11.450     0.410     0.000     0.000
       450       295       265     0.400     3.000     0.075  2229.000    11.600     0.335     0.000     0.000
       460       290       260     0.400     3.000     0.075  2320.000    12.100     0.275     0.000     0.000
       470       280       255     0.400     3.000     0.075  2099.000    12.750     0.235     0.000     0.000
       480       275       250     0.400     3.000     0.075  2168.000    13.400     0.205     0.000     0.000
       490       270       245     0.400     3.000     0.075  2242.000    13.900     0.170     0.000     0.000
