   MMGvolt  GEM1volt  GEM2volt    Edrift     Etran      Eind        GA      Eres       IBF     Anode   Cathode	CrosstalkConfig
         0         0         0     0.400     3.000     0.075  	  2100      10.2       0.7     0.000     0.000     	2
         0         0         0     0.400     3.000     0.075  	  2100      10.4      0.58     0.000     0.000		2
         0         0         0     0.400     3.000     0.075  	  2100      10.6     0.485     0.000     0.000		2
         0         0         0     0.400     3.000     0.075  	  2100      10.9      0.41     0.000     0.000		2
         0         0         0     0.400     3.000     0.075  	  2100      11.2      0.35     0.000     0.000		2
         0         0         0     0.400     3.000     0.075  	  2100      11.6       0.3     0.000     0.000		2
         0         0         0     0.400     3.000     0.075  	  2100      12.4      0.26     0.000     0.000		2
         0         0         0     0.400     3.000     0.075  	  2100      13.9      0.23     0.000     0.000		2