   MMGvolt  GEM1volt  GEM2volt    Edrift     Etran      Eind        GA      Eres       IBF     Anode   Cathode
       440       305       270     0.400     3.000     0.075  2248.000    10.400     0.580     0.000     0.000
       450       295       265     0.400     3.000     0.075  2074.000    10.600     0.475     0.000     0.000
       460       290       260     0.400     3.000     0.075  2146.000    11.050     0.385     0.000     0.000
       470       280       255     0.400     3.000     0.075  2046.000    11.550     0.320     0.000     0.000
       480       275       250     0.400     3.000     0.075  2092.000    12.300     0.270     0.000     0.000
       490       270       245     0.400     3.000     0.075  2146.000    13.300     0.235     0.000     0.000
       500       265       237     0.400     3.000     0.075  2111.000    14.250     0.210     0.000     0.000
       510       260       229     0.400     3.000     0.075  2091.000    14.900     0.185     0.000     0.000
