   MMGvolt  GEM1volt  GEM2volt    Edrift     Etran      Eind        GA      Eres       IBF     Anode   Cathode
       405       325       250     0.400     2.500     0.075  1886.000    10.000     0.950     0.000     0.000
       415       320       245     0.400     2.500     0.075  1908.000    10.400     0.800     0.000     0.000
       425       315       240     0.400     2.500     0.075  1936.000    10.700     0.670     0.000     0.000
       435       310       235     0.400     2.500     0.075  1965.000    11.100     0.560     0.000     0.000
       445       305       230     0.400     2.500     0.075  2010.000    11.300     0.500     0.000     0.000
       455       300       225     0.400     2.500     0.075  1984.000    11.900     0.420     0.000     0.000
       465       295       220     0.400     2.500     0.075  2008.000    12.500     0.360     0.000     0.000
       475       290       215     0.400     2.500     0.075  2030.000    13.300     0.310     0.000     0.000
       380       295       246     0.400     1.500     0.075  2428.000     8.850     1.780     0.000     0.000
       390       290       239     0.400     1.500     0.075  2421.000     8.950     1.440     0.000     0.000
       400       286       231     0.400     1.500     0.075  2434.000     9.000     1.170     0.000     0.000
       410       281       222     0.400     1.500     0.075  2361.000     9.200     0.960     0.000     0.000
       420       276       214     0.400     1.500     0.075  2324.000     9.550     0.800     0.000     0.000
       430       271       206     0.400     1.500     0.075  2281.000     9.900     0.670     0.000     0.000
       440       267       198     0.400     1.500     0.075  2275.000    10.200     0.560     0.000     0.000
       450       257       198     0.400     1.500     0.075  2385.000    10.600     0.470     0.000     0.000
       460       247       196     0.400     1.500     0.075  2403.000    11.250     0.400     0.000     0.000
       470       237       196     0.400     1.500     0.075  2507.000    12.000     0.330     0.000     0.000
