   MMGvolt  GEM1volt  GEM2volt    Edrift     Etran      Eind        GA      Eres       IBF     Anode   Cathode
       400       270       218     0.400     3.000     0.075  1985.000     9.900     0.580     0.000     0.000
       415       265       215     0.400     3.000     0.075  2122.000    10.600     0.470     0.000     0.000
       425       260       210     0.400     3.000     0.075  2160.000    10.700     0.390     0.000     0.000
       435       250       205     0.400     3.000     0.075  1969.000    11.450     0.320     0.000     0.000
       445       245       200     0.400     3.000     0.075  2004.000    11.900     0.290     0.000     0.000
       455       240       195     0.400     3.000     0.075  2044.000    12.400     0.250     0.000     0.000
       460       235       195     0.400     3.000     0.075  2055.000    13.000     0.225     0.000     0.000
