   MMGvolt  GEM1volt  GEM2volt    Edrift     Etran      Eind        GA      Eres       IBF     Anode   Cathode
       380       285       234     0.400     3.000     0.075       275.      9.0      1.13     0.000     0.000
       390       280       227     0.400     3.000     0.075       343.      9.0      0.91     0.000     0.000
       400       275       221     0.400     3.000     0.075       427.      9.1      0.74     0.000     0.000
       410       268       214     0.400     3.000     0.075       534.      9.5      0.61     0.000     0.000
       420       261       207     0.400     3.000     0.075       673.      9.9      0.51     0.000     0.000
       430       254       204     0.400     3.000     0.075       846.     10.1      0.42     0.000     0.000
       440       246       200     0.400     3.000     0.075      1066.     10.7      0.34     0.000     0.000
       450       239       193     0.400     3.000     0.075      1347.     11.5       0.3     0.000     0.000
       460       230       192     0.400     3.000     0.075      1709.     12.8      0.25     0.000     0.000
