   MMGvolt  GEM1volt  GEM2volt    Edrift     Etran      Eind        GA      Eres       IBF     Anode   Cathode
       435       265       230     0.400     3.000     0.075  2057.000    10.900     0.470     0.000     0.000
       445       260       225     0.400     3.000     0.075  2090.000    11.300     0.400     0.000     0.000
       455       255       220     0.400     3.000     0.075  2126.000    11.650     0.330     0.000     0.000
       465       250       215     0.400     3.000     0.075  2172.000    12.250     0.280     0.000     0.000
       475       245       210     0.400     3.000     0.075  2223.000    12.750     0.240     0.000     0.000
       485       240       200     0.400     3.000     0.075  2049.000    13.900     0.220     0.000     0.000
       495       235       195     0.400     3.000     0.075  2102.000    14.500     0.210     0.000     0.000
