   MMGvolt  GEM1volt  GEM2volt    Edrift     Etran      Eind        GA      Eres       IBF     Anode   Cathode
       400       242       185     0.220     2.000     0.075     0.000    10.900     0.200    71.000     0.000
       400       242       185     0.265     2.000     0.075     0.000    10.950     0.250    72.000     0.000
       400       242       185     0.311     2.000     0.075     0.000    10.950     0.300    72.800     0.000
       400       242       185     0.355     2.000     0.075     0.000    10.900     0.340    73.000     0.000
       400       242       185     0.400     2.000     0.075     0.000    10.900     0.400    73.700     0.000
       400       242       185     0.445     2.000     0.075     0.000    10.900     0.450    74.100     0.000
       400       242       185     0.490     2.000     0.075     0.000    10.900     0.490    74.500     0.000
