%!PS-Adobe-2.0 EPSF-2.0
%%BoundingBox:  0 0 567 398
%%Title: : 
%%Creator: ROOT Version 5.34/09
%%CreationDate: Fri Mar 28 18:31:52 2014
%%EndComments
%%BeginProlog
80 dict begin
/s {stroke} def /l {lineto} def /m {moveto} def /t {translate} def
/r {rotate} def /rl {roll}  def /R {repeat} def
/d {rlineto} def /rm {rmoveto} def /gr {grestore} def /f {eofill} def
/c {setrgbcolor} def /black {0 setgray} def /sd {setdash} def
/cl {closepath} def /sf {scalefont setfont} def /lw {setlinewidth} def
/box {m dup 0 exch d exch 0 d 0 exch neg d cl} def
/NC{systemdict begin initclip end}def/C{NC box clip newpath}def
/bl {box s} def /bf {box f} def /Y { 0 exch d} def /X { 0 d} def 
/K {{pop pop 0 moveto} exch kshow} bind def
/ita {/ang 15 def gsave [1 0 ang dup sin exch cos div 1 0 0] concat} def 
/mp {newpath /y exch def /x exch def} def
/side {[w .77 mul w .23 mul] .385 w mul sd w 0 l currentpoint t -144 r} def
/mr {mp x y w2 0 360 arc} def /m24 {mr s} def /m20 {mr f} def
/mb {mp x y w2 add m w2 neg 0 d 0 w neg d w 0 d 0 w d cl} def
/mt {mp x y w2 add m w2 neg w neg d w 0 d cl} def
/m21 {mb f} def /m25 {mb s} def /m22 {mt f} def /m26{mt s} def
/m23 {mp x y w2 sub m w2 w d w neg 0 d cl f} def
/m27 {mp x y w2 add m w3 neg w2 neg d w3 w2 neg d w3 w2 d cl s} def
/m28 {mp x w2 sub y w2 sub w3 add m w3 0 d  0 w3 neg d w3 0 d 0 w3 d w3 0 d  0 w3 d w3 neg 0 d 0 w3 d w3 neg 0 d 0 w3 neg d w3 neg 0 d cl s } def
/m29 {mp gsave x w2 sub y w2 add w3 sub m currentpoint t 4 {side} repeat cl fill gr} def
/m30 {mp gsave x w2 sub y w2 add w3 sub m currentpoint t 4 {side} repeat cl s gr} def
/m31 {mp x y w2 sub m 0 w d x w2 sub y m w 0 d x w2 sub y w2 add m w w neg d x w2 sub y w2 sub m w w d s} def
/m32 {mp x y w2 sub m w2 w d w neg 0 d cl s} def
/m33 {mp x y w2 add m w3 neg w2 neg d w3 w2 neg d w3 w2 d cl f} def
/m34 {mp x w2 sub y w2 sub w3 add m w3 0 d  0 w3 neg d w3 0 d 0 w3 d w3 0 d  0 w3 d w3 neg 0 d 0 w3 d w3 neg 0 d 0 w3 neg d w3 neg 0 d cl f } def
/m2 {mp x y w2 sub m 0 w d x w2 sub y m w 0 d s} def
/m5 {mp x w2 sub y w2 sub m w w d x w2 sub y w2 add m w w neg d s} def
/reEncode {exch findfont dup length dict begin {1 index /FID eq  {pop pop} {def} ifelse } forall /Encoding exch def currentdict end dup /FontName get exch definefont pop } def [/Times-Bold /Times-Italic /Times-BoldItalic /Helvetica /Helvetica-Oblique
 /Helvetica-Bold /Helvetica-BoldOblique /Courier /Courier-Oblique /Courier-Bold /Courier-BoldOblique /Times-Roman /AvantGarde-Book /AvantGarde-BookOblique /AvantGarde-Demi /AvantGarde-DemiOblique /Bookman-Demi /Bookman-DemiItalic /Bookman-Light
 /Bookman-LightItalic /Helvetica-Narrow /Helvetica-Narrow-Bold /Helvetica-Narrow-BoldOblique /Helvetica-Narrow-Oblique /NewCenturySchlbk-Roman /NewCenturySchlbk-Bold /NewCenturySchlbk-BoldItalic /NewCenturySchlbk-Italic /Palatino-Bold
 /Palatino-BoldItalic /Palatino-Italic /Palatino-Roman ] {ISOLatin1Encoding reEncode } forall
%%EndProlog
%%BeginSetup
%%EndSetup
newpath  gsave  .25 .25 scale  gsave  0 0 t black[  ] 0 sd 3 lw 0.999 0.999 0.999 c 2268 1594 0 0 bf black 0.999 0.999 0.999 c 1814 1276 227 159 bf black 1814 1276 227 159 bl 1 0 0 c 1 1 1 c 1 0 0 c 227 677 m 37 X s 280 677 m 37 X s /w 16 def /w2 {w
 2 div} def /w3 {w 3 div} def 272 677 m20 317 732 m 38 X s 371 732 m 37 X s 363 732 m20 408 778 m 37 X s 462 778 m 37 X s 454 778 m20 499 802 m 37 X s 552 802 m 38 X s 544 802 m20 590 829 m 37 X s 643 829 m 37 X s 635 829 m20 680 824 m 37 X s 734 824
 m 37 X s 726 824 m20 771 836 m 37 X s 825 836 m 37 X s 816 836 m20 862 824 m 37 X s 915 824 m 37 X s 907 824 m20 952 837 m 38 X s 1006 837 m 37 X s 998 837 m20 1043 840 m 37 X s 1097 840 m 37 X s 1089 840 m20 1134 826 m 37 X s 1187 826 m 38 X s 1179
 826 m20 1225 842 m 37 X s 1278 842 m 37 X s 1270 842 m20 1315 849 m 37 X s 1369 849 m 37 X s 1361 849 m20 1406 842 m 37 X s 1460 842 m 37 X s 1451 842 m20 1497 846 m 37 X s 1550 846 m 37 X s 1542 846 m20 1587 848 m 38 X s 1641 848 m 37 X s 1633 848
 m20 1678 835 m 37 X s 1732 835 m 37 X s 1723 835 m20 1769 866 m 37 X s 1822 866 m 38 X s 1814 866 m20 1860 878 m 37 X s 1913 878 m 37 X s 1905 878 m20 1950 871 m 37 X s 2004 871 m 37 X s 1996 871 m20 black 227 159 m 1814 X s
 gsave  2268 1594 0 0 C 1891.82 51.3523 t 0 r /Helvetica findfont 51.3523 sf 0 0 m ( \(GeV\)) show NC gr 
 gsave  2268 1594 0 0 C 1824.03 22.595 t 0 r /Helvetica findfont 34.9195 sf 0 0 m (T,jet) show NC gr 
 gsave  2268 1594 0 0 C 1795.28 51.3523 t 0 r /Helvetica findfont 51.3523 sf 0 0 m (p) show NC gr  227 198 m -39 Y s 263 179 m -20 Y s 299 179 m -20 Y s 336 179 m -20 Y s 372 179 m -20 Y s 408 198 m -39 Y s 444 179 m -20 Y s 481 179 m -20 Y s 517 179
 m -20 Y s 553 179 m -20 Y s 590 198 m -39 Y s 626 179 m -20 Y s 662 179 m -20 Y s 698 179 m -20 Y s 735 179 m -20 Y s 771 198 m -39 Y s 807 179 m -20 Y s 844 179 m -20 Y s 880 179 m -20 Y s 916 179 m -20 Y s 952 198 m -39 Y s 989 179 m -20 Y s 1025
 179 m -20 Y s 1061 179 m -20 Y s 1098 179 m -20 Y s 1134 198 m -39 Y s 1170 179 m -20 Y s 1206 179 m -20 Y s 1243 179 m -20 Y s 1279 179 m -20 Y s 1315 198 m -39 Y s 1352 179 m -20 Y s 1388 179 m -20 Y s 1424 179 m -20 Y s 1460 179 m -20 Y s 1497
 198 m -39 Y s 1533 179 m -20 Y s 1569 179 m -20 Y s 1606 179 m -20 Y s 1642 179 m -20 Y s 1678 198 m -39 Y s 1714 179 m -20 Y s 1751 179 m -20 Y s 1787 179 m -20 Y s 1823 179 m -20 Y s 1860 198 m -39 Y s 1896 179 m -20 Y s 1932 179 m -20 Y s 1968
 179 m -20 Y s 2005 179 m -20 Y s 2041 198 m -39 Y s
 gsave  2268 1594 0 0 C 211.571 106.813 t 0 r /Helvetica findfont 51.3523 sf 0 0 m (0) show NC gr 
 gsave  2268 1594 0 0 C 377.953 106.813 t 0 r /Helvetica findfont 51.3523 sf 0 0 m (10) show NC gr 
 gsave  2268 1594 0 0 C 560.767 106.813 t 0 r /Helvetica findfont 51.3523 sf 0 0 m (20) show NC gr 
 gsave  2268 1594 0 0 C 741.527 106.813 t 0 r /Helvetica findfont 51.3523 sf 0 0 m (30) show NC gr 
 gsave  2268 1594 0 0 C 922.287 106.813 t 0 r /Helvetica findfont 51.3523 sf 0 0 m (40) show NC gr 
 gsave  2268 1594 0 0 C 1105.1 106.813 t 0 r /Helvetica findfont 51.3523 sf 0 0 m (50) show NC gr 
 gsave  2268 1594 0 0 C 1285.86 106.813 t 0 r /Helvetica findfont 51.3523 sf 0 0 m (60) show NC gr 
 gsave  2268 1594 0 0 C 1466.62 106.813 t 0 r /Helvetica findfont 51.3523 sf 0 0 m (70) show NC gr 
 gsave  2268 1594 0 0 C 1647.38 106.813 t 0 r /Helvetica findfont 51.3523 sf 0 0 m (80) show NC gr 
 gsave  2268 1594 0 0 C 1830.2 106.813 t 0 r /Helvetica findfont 51.3523 sf 0 0 m (90) show NC gr 
 gsave  2268 1594 0 0 C 1996.58 106.813 t 0 r /Helvetica findfont 51.3523 sf 0 0 m (100) show NC gr  227 159 m 1276 Y s
 gsave  2268 1594 0 0 C 92.4341 1273.54 t 90 r /Helvetica findfont 51.3523 sf 0 0 m (<NEF>) show NC gr  281 159 m -54 X s 254 202 m -27 X s 254 244 m -27 X s 254 287 m -27 X s 254 329 m -27 X s 281 372 m -54 X s 254 414 m -27 X s 254 457 m -27 X s
 254 499 m -27 X s 254 542 m -27 X s 281 584 m -54 X s 254 627 m -27 X s 254 669 m -27 X s 254 712 m -27 X s 254 754 m -27 X s 281 797 m -54 X s 254 839 m -27 X s 254 882 m -27 X s 254 925 m -27 X s 254 967 m -27 X s 281 1010 m -54 X s 254 1052 m -27
 X s 254 1095 m -27 X s 254 1137 m -27 X s 254 1180 m -27 X s 281 1222 m -54 X s 254 1265 m -27 X s 254 1307 m -27 X s 254 1350 m -27 X s 254 1392 m -27 X s 281 1435 m -54 X s 281 1435 m -54 X s
 gsave  2268 1594 0 0 C 186.922 141.732 t 0 r /Helvetica findfont 51.3523 sf 0 0 m (0) show NC gr 
 gsave  2268 1594 0 0 C 152.003 355.358 t 0 r /Helvetica findfont 51.3523 sf 0 0 m (0.1) show NC gr 
 gsave  2268 1594 0 0 C 143.786 566.929 t 0 r /Helvetica findfont 51.3523 sf 0 0 m (0.2) show NC gr 
 gsave  2268 1594 0 0 C 143.786 778.5 t 0 r /Helvetica findfont 51.3523 sf 0 0 m (0.3) show NC gr 
 gsave  2268 1594 0 0 C 143.786 992.126 t 0 r /Helvetica findfont 51.3523 sf 0 0 m (0.4) show NC gr 
 gsave  2268 1594 0 0 C 143.786 1203.7 t 0 r /Helvetica findfont 51.3523 sf 0 0 m (0.5) show NC gr 
 gsave  2268 1594 0 0 C 143.786 1417.32 t 0 r /Helvetica findfont 51.3523 sf 0 0 m (0.6) show NC gr  0 0 1 c 1 1 1 c 0 0 1 c 317 637 m 38 X s 371 637 m 37 X s 363 637 m21 408 723 m 37 X s 462 723 m 37 X s 454 723 m21 499 764 m 37 X s 552 764 m 38 X s
 544 764 m21 590 793 m 37 X s 643 793 m 37 X s 635 793 m21 726 823 m 1 Y s 726 840 m 1 Y s 680 832 m 37 X s 734 832 m 37 X s 726 832 m21 816 796 m 5 Y s 816 817 m 5 Y s 771 809 m 37 X s 825 809 m 37 X s 816 809 m21 907 840 m 10 Y s 907 867 m 10 Y s
 862 859 m 37 X s 915 859 m 37 X s 907 859 m21 998 815 m 15 Y s 998 847 m 15 Y s 952 839 m 38 X s 1006 839 m 37 X s 998 839 m21 1089 828 m 22 Y s 1089 866 m 22 Y s 1043 858 m 37 X s 1097 858 m 37 X s 1089 858 m21 1179 817 m 25 Y s 1179 859 m 25 Y s
 1134 850 m 37 X s 1187 850 m 38 X s 1179 850 m21 1270 783 m 39 Y s 1270 838 m 39 Y s 1225 830 m 37 X s 1278 830 m 37 X s 1270 830 m21 1361 819 m 48 Y s 1361 884 m 48 Y s 1315 875 m 37 X s 1369 875 m 37 X s 1361 875 m21 1451 889 m 74 Y s 1451 980 m
 74 Y s 1406 972 m 37 X s 1460 972 m 37 X s 1451 972 m21 1542 897 m 81 Y s 1542 994 m 82 Y s 1497 986 m 37 X s 1550 986 m 37 X s 1542 986 m21 1633 763 m 101 Y s 1633 881 m 101 Y s 1587 873 m 38 X s 1641 873 m 37 X s 1633 873 m21 1723 787 m 116 Y s
 1723 919 m 115 Y s 1678 911 m 37 X s 1732 911 m 37 X s 1723 911 m21 1814 724 m 127 Y s 1814 867 m 128 Y s 1769 859 m 37 X s 1822 859 m 38 X s 1814 859 m21 1905 877 m 142 Y s 1905 1035 m 143 Y s 1860 1027 m 37 X s 1913 1027 m 37 X s 1905 1027 m21
 1996 912 m 88 Y s 1996 1016 m 88 Y s 1950 1008 m 37 X s 2004 1008 m 37 X s 1996 1008 m21 black 1 1 1 c 680 239 454 239 bf black
 gsave  2268 1594 0 0 C 622.39 406.71 t 0 r /Helvetica-Bold findfont 36.9736 sf 0 0 m (Simulation \(Detector\255level\)) show NC gr  1 0 0 c 539 418 m20 black
 gsave  2268 1594 0 0 C 622.39 285.519 t 0 r /Helvetica-Bold findfont 36.9736 sf 0 0 m (Data) show NC gr  0 0 1 c 539 299 m21 black
 gsave  2268 1594 0 0 C 760.014 521.739 t 0 r /Helvetica-Bold findfont 55.4605 sf 0 0 m ( R = 0.2) show NC gr 
 gsave  2268 1594 0 0 C 737.419 503.252 t 0 r /Helvetica-Bold findfont 36.9736 sf 0 0 m (T) show NC gr 
 gsave  2268 1594 0 0 C 589.524 521.739 t 0 r /Helvetica-Bold findfont 55.4605 sf 0 0 m (anti\255k) show NC gr 
 gsave  2268 1594 0 0 C 316.33 1329 t 0 r /Helvetica-Bold findfont 45.19 sf 0 0 m (Jet <NEF> comparison between lhc13c and lhc13b4_fix_semigood) show NC gr 
 gr  gr showpage
end
%%EOF
