%!PS-Adobe-2.0 EPSF-2.0
%%BoundingBox:  0 0 567 355
%%Title: DeltaPtFullJetsR040.eps: c2: dpt
%%Creator: ROOT Version 5.34/09
%%CreationDate: Tue Jan  7 10:11:00 2014
%%EndComments
%%BeginProlog
80 dict begin
/s {stroke} def /l {lineto} def /m {moveto} def /t {translate} def
/r {rotate} def /rl {roll}  def /R {repeat} def
/d {rlineto} def /rm {rmoveto} def /gr {grestore} def /f {eofill} def
/c {setrgbcolor} def /black {0 setgray} def /sd {setdash} def
/cl {closepath} def /sf {scalefont setfont} def /lw {setlinewidth} def
/box {m dup 0 exch d exch 0 d 0 exch neg d cl} def
/NC{systemdict begin initclip end}def/C{NC box clip newpath}def
/bl {box s} def /bf {box f} def /Y { 0 exch d} def /X { 0 d} def 
/K {{pop pop 0 moveto} exch kshow} bind def
/ita {/ang 15 def gsave [1 0 ang dup sin exch cos div 1 0 0] concat} def 
/mp {newpath /y exch def /x exch def} def
/side {[w .77 mul w .23 mul] .385 w mul sd w 0 l currentpoint t -144 r} def
/mr {mp x y w2 0 360 arc} def /m24 {mr s} def /m20 {mr f} def
/mb {mp x y w2 add m w2 neg 0 d 0 w neg d w 0 d 0 w d cl} def
/mt {mp x y w2 add m w2 neg w neg d w 0 d cl} def
/m21 {mb f} def /m25 {mb s} def /m22 {mt f} def /m26{mt s} def
/m23 {mp x y w2 sub m w2 w d w neg 0 d cl f} def
/m27 {mp x y w2 add m w3 neg w2 neg d w3 w2 neg d w3 w2 d cl s} def
/m28 {mp x w2 sub y w2 sub w3 add m w3 0 d  0 w3 neg d w3 0 d 0 w3 d w3 0 d  0 w3 d w3 neg 0 d 0 w3 d w3 neg 0 d 0 w3 neg d w3 neg 0 d cl s } def
/m29 {mp gsave x w2 sub y w2 add w3 sub m currentpoint t 4 {side} repeat cl fill gr} def
/m30 {mp gsave x w2 sub y w2 add w3 sub m currentpoint t 4 {side} repeat cl s gr} def
/m31 {mp x y w2 sub m 0 w d x w2 sub y m w 0 d x w2 sub y w2 add m w w neg d x w2 sub y w2 sub m w w d s} def
/m32 {mp x y w2 sub m w2 w d w neg 0 d cl s} def
/m33 {mp x y w2 add m w3 neg w2 neg d w3 w2 neg d w3 w2 d cl f} def
/m34 {mp x w2 sub y w2 sub w3 add m w3 0 d  0 w3 neg d w3 0 d 0 w3 d w3 0 d  0 w3 d w3 neg 0 d 0 w3 d w3 neg 0 d 0 w3 neg d w3 neg 0 d cl f } def
/m2 {mp x y w2 sub m 0 w d x w2 sub y m w 0 d s} def
/m5 {mp x w2 sub y w2 sub m w w d x w2 sub y w2 add m w w neg d s} def
/reEncode {exch findfont dup length dict begin {1 index /FID eq  {pop pop} {def} ifelse } forall /Encoding exch def currentdict end dup /FontName get exch definefont pop } def [/Times-Bold /Times-Italic /Times-BoldItalic /Helvetica /Helvetica-Oblique
 /Helvetica-Bold /Helvetica-BoldOblique /Courier /Courier-Oblique /Courier-Bold /Courier-BoldOblique /Times-Roman /AvantGarde-Book /AvantGarde-BookOblique /AvantGarde-Demi /AvantGarde-DemiOblique /Bookman-Demi /Bookman-DemiItalic /Bookman-Light
 /Bookman-LightItalic /Helvetica-Narrow /Helvetica-Narrow-Bold /Helvetica-Narrow-BoldOblique /Helvetica-Narrow-Oblique /NewCenturySchlbk-Roman /NewCenturySchlbk-Bold /NewCenturySchlbk-BoldItalic /NewCenturySchlbk-Italic /Palatino-Bold
 /Palatino-BoldItalic /Palatino-Italic /Palatino-Roman ] {ISOLatin1Encoding reEncode } forall
%%EndProlog
%%BeginSetup
%%EndSetup
newpath  gsave  .25 .25 scale  gsave  0 0 t black[  ] 0 sd 3 lw 0.999 0.999 0.999 c 2268 1421 0 0 bf black 0.999 0.999 0.999 c 710 682 23 725 bf black 1 1 1 c 533 511 129 827 bf black 533 511 129 827 bl 1 1 1 c 533 511 129 827 bf black 533 511 129
 827 bl 0 0 0.6 c 1 1 1 c black 0 0 0.6 c 129 827 m 533 X s black 129 827 m 533 X s
 gsave  710 682 23 725 C 648.895 765.013 t 0 r /Helvetica findfont 38.7733 sf 0 0 m (\)) show NC gr 
 gsave  710 682 23 725 C 626.127 765.013 t 0 r /Helvetica-Oblique findfont 38.7733 sf 0 0 m (c) show NC gr 
 gsave  710 682 23 725 C 512.285 765.013 t 0 r /Helvetica findfont 38.7733 sf 0 0 m ( \(GeV/) show NC gr 
 gsave  710 682 23 725 C 496.348 742.245 t 0 r /Helvetica findfont 25.0886 sf 0 0 m (T) show NC gr 
 gsave  710 682 23 725 C 471.303 765.013 t 0 r /Helvetica-Oblique findfont 38.7733 sf 0 0 m (p) show NC gr 
 gsave  710 682 23 725 C 457.642 765.013 t 0 r /Helvetica findfont 38.7733 sf 0 0 m ( ) show NC gr 
 gsave  710 682 23 725 C 437.15 765.013 t 0 r /Symbol findfont 38.7733 sf 0 0 m (d) show NC gr  129 842 m -15 Y s 147 835 m -8 Y s 165 835 m -8 Y s 183 835 m -8 Y s 200 835 m -8 Y s 218 842 m -15 Y s 236 835 m -8 Y s 254 835 m -8 Y s 271 835 m -8 Y s
 289 835 m -8 Y s 307 842 m -15 Y s 325 835 m -8 Y s 342 835 m -8 Y s 360 835 m -8 Y s 378 835 m -8 Y s 396 842 m -15 Y s 413 835 m -8 Y s 431 835 m -8 Y s 449 835 m -8 Y s 467 835 m -8 Y s 485 842 m -15 Y s 502 835 m -8 Y s 520 835 m -8 Y s 538 835
 m -8 Y s 556 835 m -8 Y s 573 842 m -15 Y s 591 835 m -8 Y s 609 835 m -8 Y s 627 835 m -8 Y s 644 835 m -8 Y s 662 842 m -15 Y s
 gsave  710 682 23 725 C 104.734 796.888 t 0 r /Helvetica findfont 31.931 sf 0 0 m (\25510) show NC gr 
 gsave  710 682 23 725 C 207.191 796.888 t 0 r /Helvetica findfont 31.931 sf 0 0 m (0) show NC gr 
 gsave  710 682 23 725 C 286.88 796.888 t 0 r /Helvetica findfont 31.931 sf 0 0 m (10) show NC gr 
 gsave  710 682 23 725 C 375.676 796.888 t 0 r /Helvetica findfont 31.931 sf 0 0 m (20) show NC gr 
 gsave  710 682 23 725 C 464.472 796.888 t 0 r /Helvetica findfont 31.931 sf 0 0 m (30) show NC gr 
 gsave  710 682 23 725 C 553.268 796.888 t 0 r /Helvetica findfont 31.931 sf 0 0 m (40) show NC gr 
 gsave  710 682 23 725 C 642.064 796.888 t 0 r /Helvetica findfont 31.931 sf 0 0 m (50) show NC gr  129 827 m 511 Y s
 gsave  710 682 23 725 C 63.7511 1101.98 t 90 r /Helvetica findfont 38.7733 sf 0 0 m (probability/bin) show NC gr  145 827 m -16 X s
 gsave  710 682 23 725 C 102.457 828.764 t 0 r /Helvetica findfont 20.5271 sf 0 0 m (\2558) show NC gr 
 gsave  710 682 23 725 C 68.3047 812.826 t 0 r /Helvetica findfont 31.931 sf 0 0 m (10) show NC gr  137 846 m -8 X s 137 857 m -8 X s 137 865 m -8 X s 137 872 m -8 X s 137 877 m -8 X s 137 881 m -8 X s 137 885 m -8 X s 137 888 m -8 X s 145 891 m -16
 X s
 gsave  710 682 23 725 C 102.457 890.238 t 0 r /Helvetica findfont 20.5271 sf 0 0 m (\2557) show NC gr 
 gsave  710 682 23 725 C 68.3047 876.577 t 0 r /Helvetica findfont 31.931 sf 0 0 m (10) show NC gr  137 910 m -8 X s 137 921 m -8 X s 137 929 m -8 X s 137 935 m -8 X s 137 941 m -8 X s 137 945 m -8 X s 137 949 m -8 X s 137 952 m -8 X s 145 955 m -16
 X s
 gsave  710 682 23 725 C 102.457 956.266 t 0 r /Helvetica findfont 20.5271 sf 0 0 m (\2556) show NC gr 
 gsave  710 682 23 725 C 68.3047 940.328 t 0 r /Helvetica findfont 31.931 sf 0 0 m (10) show NC gr  137 974 m -8 X s 137 985 m -8 X s 137 993 m -8 X s 137 999 m -8 X s 137 1004 m -8 X s 137 1009 m -8 X s 137 1012 m -8 X s 137 1016 m -8 X s 145 1019 m
 -16 X s
 gsave  710 682 23 725 C 102.457 1020.02 t 0 r /Helvetica findfont 20.5271 sf 0 0 m (\2555) show NC gr 
 gsave  710 682 23 725 C 68.3047 1004.08 t 0 r /Helvetica findfont 31.931 sf 0 0 m (10) show NC gr  137 1038 m -8 X s 137 1049 m -8 X s 137 1057 m -8 X s 137 1063 m -8 X s 137 1068 m -8 X s 137 1073 m -8 X s 137 1076 m -8 X s 137 1080 m -8 X s 145
 1083 m -16 X s
 gsave  710 682 23 725 C 102.457 1081.49 t 0 r /Helvetica findfont 20.5271 sf 0 0 m (\2554) show NC gr 
 gsave  710 682 23 725 C 68.3047 1067.83 t 0 r /Helvetica findfont 31.931 sf 0 0 m (10) show NC gr  137 1102 m -8 X s 137 1113 m -8 X s 137 1121 m -8 X s 137 1127 m -8 X s 137 1132 m -8 X s 137 1137 m -8 X s 137 1140 m -8 X s 137 1144 m -8 X s 145
 1147 m -16 X s
 gsave  710 682 23 725 C 102.457 1147.52 t 0 r /Helvetica findfont 20.5271 sf 0 0 m (\2553) show NC gr 
 gsave  710 682 23 725 C 68.3047 1131.58 t 0 r /Helvetica findfont 31.931 sf 0 0 m (10) show NC gr  137 1166 m -8 X s 137 1177 m -8 X s 137 1185 m -8 X s 137 1191 m -8 X s 137 1196 m -8 X s 137 1201 m -8 X s 137 1204 m -8 X s 137 1208 m -8 X s 145
 1210 m -16 X s
 gsave  710 682 23 725 C 102.457 1208.99 t 0 r /Helvetica findfont 20.5271 sf 0 0 m (\2552) show NC gr 
 gsave  710 682 23 725 C 68.3047 1195.33 t 0 r /Helvetica findfont 31.931 sf 0 0 m (10) show NC gr  137 1230 m -8 X s 137 1241 m -8 X s 137 1249 m -8 X s 137 1255 m -8 X s 137 1260 m -8 X s 137 1264 m -8 X s 137 1268 m -8 X s 137 1271 m -8 X s 145
 1274 m -16 X s
 gsave  710 682 23 725 C 104.734 1272.74 t 0 r /Helvetica findfont 20.5271 sf 0 0 m (\2551) show NC gr 
 gsave  710 682 23 725 C 70.5815 1259.08 t 0 r /Helvetica findfont 31.931 sf 0 0 m (10) show NC gr  137 1294 m -8 X s 137 1305 m -8 X s 137 1313 m -8 X s 137 1319 m -8 X s 137 1324 m -8 X s 137 1328 m -8 X s 137 1332 m -8 X s 137 1335 m -8 X s 145
 1338 m -16 X s
 gsave  710 682 23 725 C 122.865 1325.59 t 0 r  -17 0 t /Helvetica findfont 31.931 sf 0 0 m (1) show NC gr  6 lw 1 1 1 c black 131 827 m 47 Y s 131 893 m 10 Y s 3 lw /w 22 def /w2 {w 2 div} def /w3 {w 3 div} def 131 884 m20 6 lw 136 827 m 47 Y s 136
 893 m 10 Y s 3 lw 136 884 m20 6 lw 140 827 m 47 Y s 140 893 m 10 Y s 3 lw 140 884 m20 6 lw 145 827 m 47 Y s 145 893 m 10 Y s 3 lw 145 884 m20 6 lw 154 827 m 47 Y s 154 893 m 10 Y s 3 lw 154 884 m20 6 lw 158 929 m 3 Y s 3 lw 158 941 m20 6 lw 3 lw 163
 964 m20 6 lw 3 lw 167 995 m20 6 lw 3 lw 171 1022 m20 6 lw 3 lw 176 1054 m20 6 lw 3 lw 180 1088 m20 6 lw 3 lw 185 1123 m20 6 lw 3 lw 189 1156 m20 6 lw 3 lw 194 1189 m20 6 lw 3 lw 198 1219 m20 6 lw 3 lw 203 1245 m20 6 lw 3 lw 207 1267 m20 6 lw 3 lw
 211 1282 m20 6 lw 3 lw 216 1288 m20 6 lw 3 lw 220 1284 m20 6 lw 3 lw 225 1277 m20 6 lw 3 lw 229 1269 m20 6 lw 3 lw 234 1261 m20 6 lw 3 lw 238 1252 m20 6 lw 3 lw 243 1244 m20 6 lw 3 lw 247 1235 m20 6 lw 3 lw 251 1227 m20 6 lw 3 lw 256 1219 m20 6 lw 3
 lw 260 1211 m20 6 lw 3 lw 265 1203 m20 6 lw 3 lw 269 1195 m20 6 lw 3 lw 274 1187 m20 6 lw 3 lw 278 1180 m20 6 lw 3 lw 282 1172 m20 6 lw 3 lw 287 1165 m20 6 lw 3 lw 291 1158 m20 6 lw 3 lw 296 1151 m20 6 lw 3 lw 300 1144 m20 6 lw 3 lw 305 1138 m20 6
 lw 3 lw 309 1131 m20 6 lw 3 lw 314 1125 m20 6 lw 3 lw 318 1119 m20 6 lw 3 lw 322 1112 m20 6 lw 3 lw 327 1106 m20 6 lw 3 lw 331 1102 m20 6 lw 3 lw 336 1096 m20 6 lw 3 lw 340 1090 m20 6 lw 3 lw 345 1086 m20 6 lw 3 lw 349 1080 m20 6 lw 3 lw 354 1074
 m20 6 lw 3 lw 358 1069 m20 6 lw 3 lw 362 1068 m20 6 lw 3 lw 367 1064 m20 6 lw 3 lw 371 1060 m20 6 lw 3 lw 376 1054 m20 6 lw 3 lw 380 1052 m20 6 lw 3 lw 385 1043 m20 6 lw 3 lw 389 1042 m20 6 lw 3 lw 393 1039 m20 6 lw 3 lw 398 1035 m20 6 lw 3 lw 402
 1031 m20 6 lw 3 lw 407 1028 m20 6 lw 3 lw 411 1027 m20 6 lw 3 lw 416 1020 m20 6 lw 3 lw 420 1018 m20 6 lw 3 lw 425 1020 m20 6 lw 3 lw 429 1013 m20 6 lw 3 lw 433 1005 m20 6 lw 3 lw 438 1014 m20 6 lw 3 lw 442 1008 m20 6 lw 3 lw 447 1006 m20 6 lw 3 lw
 451 1003 m20 6 lw 3 lw 456 999 m20 6 lw 3 lw 460 987 m20 6 lw 3 lw 465 996 m20 6 lw 3 lw 469 992 m20 6 lw 3 lw 473 984 m20 6 lw 3 lw 478 989 m20 6 lw 3 lw 482 985 m20 6 lw 3 lw 487 986 m20 6 lw 3 lw 491 976 m20 6 lw 3 lw 496 971 m20 6 lw 3 lw 500
 979 m20 6 lw 3 lw 505 978 m20 6 lw 3 lw 509 964 m20 6 lw 3 lw 513 969 m20 6 lw 3 lw 518 964 m20 6 lw 3 lw 522 961 m20 6 lw 3 lw 527 961 m20 6 lw 3 lw 531 959 m20 6 lw 536 943 m s 3 lw 536 953 m20 6 lw 3 lw 540 961 m20 6 lw 3 lw 544 962 m20 6 lw 3 lw
 549 957 m20 6 lw 553 940 m 1 Y s 3 lw 553 950 m20 6 lw 558 940 m 1 Y s 3 lw 558 950 m20 6 lw 3 lw 562 961 m20 6 lw 567 929 m 3 Y s 3 lw 567 941 m20 6 lw 3 lw 571 964 m20 6 lw 576 943 m s 3 lw 576 953 m20 6 lw 580 912 m 7 Y s 580 937 m 2 Y s 3 lw 580
 928 m20 6 lw 584 919 m 5 Y s 584 942 m 1 Y s 3 lw 584 933 m20 6 lw 589 919 m 5 Y s 589 942 m 1 Y s 3 lw 589 933 m20 6 lw 593 890 m 15 Y s 593 923 m 4 Y s 3 lw 593 914 m20 6 lw 598 933 m 2 Y s 3 lw 598 945 m20 6 lw 602 937 m 1 Y s 3 lw 602 948 m20 6
 lw 607 912 m 7 Y s 607 937 m 2 Y s 3 lw 607 928 m20 6 lw 611 919 m 5 Y s 611 942 m 1 Y s 3 lw 611 933 m20 6 lw 616 933 m 2 Y s 3 lw 616 945 m20 6 lw 620 903 m 10 Y s 620 931 m 2 Y s 3 lw 620 922 m20 6 lw 624 903 m 10 Y s 624 931 m 2 Y s 3 lw 624 922
 m20 6 lw 629 827 m 47 Y s 629 893 m 10 Y s 3 lw 629 884 m20 6 lw 633 890 m 15 Y s 633 923 m 4 Y s 3 lw 633 914 m20 6 lw 638 912 m 7 Y s 638 937 m 2 Y s 3 lw 638 928 m20 6 lw 642 912 m 7 Y s 642 937 m 2 Y s 3 lw 642 928 m20 6 lw 647 890 m 15 Y s 647
 923 m 4 Y s 3 lw 647 914 m20 6 lw 651 890 m 15 Y s 651 923 m 4 Y s 3 lw 651 914 m20 6 lw 656 903 m 10 Y s 656 931 m 2 Y s 3 lw 656 922 m20 6 lw 660 869 m 25 Y s 660 912 m 6 Y s 3 lw 660 903 m20 6 lw 0 0 1 c 1 1 1 c 0 0 1 c 145 870 m 25 Y s 145 913 m
 6 Y s 3 lw /w 18 def /w2 {w 2 div} def /w3 {w 3 div} def 145 904 m21 6 lw 149 891 m 15 Y s 149 924 m 4 Y s 3 lw 149 915 m21 6 lw 154 827 m 48 Y s 154 894 m 10 Y s 3 lw 154 885 m21 6 lw 158 870 m 25 Y s 158 913 m 6 Y s 3 lw 158 904 m21 6 lw 3 lw 163
 977 m21 6 lw 3 lw 167 1002 m21 6 lw 3 lw 171 1034 m21 6 lw 3 lw 176 1065 m21 6 lw 3 lw 180 1101 m21 6 lw 3 lw 185 1134 m21 6 lw 3 lw 189 1168 m21 6 lw 3 lw 194 1200 m21 6 lw 3 lw 198 1229 m21 6 lw 3 lw 203 1255 m21 6 lw 3 lw 207 1275 m21 6 lw 3 lw
 211 1289 m21 6 lw 3 lw 216 1292 m21 6 lw 3 lw 220 1284 m21 6 lw 3 lw 225 1273 m21 6 lw 3 lw 229 1263 m21 6 lw 3 lw 234 1253 m21 6 lw 3 lw 238 1243 m21 6 lw 3 lw 243 1233 m21 6 lw 3 lw 247 1224 m21 6 lw 3 lw 251 1215 m21 6 lw 3 lw 256 1206 m21 6 lw 3
 lw 260 1197 m21 6 lw 3 lw 265 1188 m21 6 lw 3 lw 269 1180 m21 6 lw 3 lw 274 1172 m21 6 lw 3 lw 278 1164 m21 6 lw 3 lw 282 1156 m21 6 lw 3 lw 287 1148 m21 6 lw 3 lw 291 1140 m21 6 lw 3 lw 296 1133 m21 6 lw 3 lw 300 1126 m21 6 lw 3 lw 305 1119 m21 6
 lw 3 lw 309 1113 m21 6 lw 3 lw 314 1105 m21 6 lw 3 lw 318 1100 m21 6 lw 3 lw 322 1094 m21 6 lw 3 lw 327 1087 m21 6 lw 3 lw 331 1083 m21 6 lw 3 lw 336 1076 m21 6 lw 3 lw 340 1071 m21 6 lw 3 lw 345 1066 m21 6 lw 3 lw 349 1061 m21 6 lw 3 lw 354 1056
 m21 6 lw 3 lw 358 1051 m21 6 lw 3 lw 362 1047 m21 6 lw 3 lw 367 1043 m21 6 lw 3 lw 371 1038 m21 6 lw 3 lw 376 1034 m21 6 lw 3 lw 380 1031 m21 6 lw 3 lw 385 1025 m21 6 lw 3 lw 389 1020 m21 6 lw 3 lw 393 1019 m21 6 lw 3 lw 398 1020 m21 6 lw 3 lw 402
 1017 m21 6 lw 3 lw 407 1009 m21 6 lw 3 lw 411 1004 m21 6 lw 3 lw 416 1001 m21 6 lw 3 lw 420 1004 m21 6 lw 3 lw 425 1001 m21 6 lw 3 lw 429 998 m21 6 lw 3 lw 433 1001 m21 6 lw 3 lw 438 990 m21 6 lw 3 lw 442 982 m21 6 lw 3 lw 447 982 m21 6 lw 3 lw 451
 982 m21 6 lw 3 lw 456 990 m21 6 lw 3 lw 460 974 m21 6 lw 3 lw 465 969 m21 6 lw 3 lw 469 972 m21 6 lw 3 lw 473 972 m21 6 lw 3 lw 478 974 m21 6 lw 3 lw 482 960 m21 6 lw 3 lw 487 962 m21 6 lw 491 941 m 1 Y s 3 lw 491 951 m21 6 lw 496 944 m s 3 lw 496
 954 m21 6 lw 3 lw 500 956 m21 6 lw 505 938 m 1 Y s 3 lw 505 948 m21 6 lw 509 941 m 1 Y s 3 lw 509 951 m21 6 lw 513 938 m 1 Y s 3 lw 513 948 m21 6 lw 518 944 m s 3 lw 518 954 m21 6 lw 522 930 m 3 Y s 3 lw 522 942 m21 6 lw 527 930 m 3 Y s 3 lw 527 942
 m21 6 lw 531 930 m 3 Y s 3 lw 531 942 m21 6 lw 536 920 m 5 Y s 536 943 m 1 Y s 3 lw 536 934 m21 6 lw 540 938 m 1 Y s 3 lw 540 948 m21 6 lw 544 934 m 2 Y s 3 lw 544 946 m21 6 lw 549 891 m 15 Y s 549 924 m 4 Y s 3 lw 549 915 m21 6 lw 553 938 m 1 Y s 3
 lw 553 948 m21 6 lw 558 904 m 10 Y s 558 932 m 2 Y s 3 lw 558 923 m21 6 lw 562 938 m 1 Y s 3 lw 562 948 m21 6 lw 567 870 m 25 Y s 567 913 m 6 Y s 3 lw 567 904 m21 6 lw 571 870 m 25 Y s 571 913 m 6 Y s 3 lw 571 904 m21 6 lw 576 870 m 25 Y s 576 913 m
 6 Y s 3 lw 576 904 m21 6 lw 580 891 m 15 Y s 580 924 m 4 Y s 3 lw 580 915 m21 6 lw 584 891 m 15 Y s 584 924 m 4 Y s 3 lw 584 915 m21 6 lw 589 930 m 3 Y s 3 lw 589 942 m21 6 lw 593 870 m 25 Y s 593 913 m 6 Y s 3 lw 593 904 m21 6 lw 598 920 m 5 Y s
 598 943 m 1 Y s 3 lw 598 934 m21 6 lw 602 904 m 10 Y s 602 932 m 2 Y s 3 lw 602 923 m21 6 lw 607 891 m 15 Y s 607 924 m 4 Y s 3 lw 607 915 m21 6 lw 611 891 m 15 Y s 611 924 m 4 Y s 3 lw 611 915 m21 6 lw 616 891 m 15 Y s 616 924 m 4 Y s 3 lw 616 915
 m21 6 lw 620 870 m 25 Y s 620 913 m 6 Y s 3 lw 620 904 m21 6 lw 624 827 m 48 Y s 624 894 m 10 Y s 3 lw 624 885 m21 6 lw 633 827 m 48 Y s 633 894 m 10 Y s 3 lw 633 885 m21 6 lw 638 891 m 15 Y s 638 924 m 4 Y s 3 lw 638 915 m21 6 lw 642 870 m 25 Y s
 642 913 m 6 Y s 3 lw 642 904 m21 6 lw 647 870 m 25 Y s 647 913 m 6 Y s 3 lw 647 904 m21 6 lw 651 891 m 15 Y s 651 924 m 4 Y s 3 lw 651 915 m21 6 lw 656 827 m 48 Y s 656 894 m 10 Y s 3 lw 656 885 m21 6 lw 660 870 m 25 Y s 660 913 m 6 Y s 3 lw 660 904
 m21 6 lw 1 0 0 c 1 1 1 c 1 0 0 c 154 869 m 25 Y s 154 912 m 6 Y s 3 lw 154 903 m22 6 lw 158 924 m 5 Y s 3 lw 158 938 m22 6 lw 3 lw 163 964 m22 6 lw 3 lw 167 984 m22 6 lw 3 lw 171 1019 m22 6 lw 3 lw 176 1053 m22 6 lw 3 lw 180 1088 m22 6 lw 3 lw 185
 1123 m22 6 lw 3 lw 189 1157 m22 6 lw 3 lw 194 1189 m22 6 lw 3 lw 198 1219 m22 6 lw 3 lw 203 1245 m22 6 lw 3 lw 207 1267 m22 6 lw 3 lw 211 1283 m22 6 lw 3 lw 216 1288 m22 6 lw 3 lw 220 1284 m22 6 lw 3 lw 225 1277 m22 6 lw 3 lw 229 1269 m22 6 lw 3 lw
 234 1261 m22 6 lw 3 lw 238 1252 m22 6 lw 3 lw 243 1243 m22 6 lw 3 lw 247 1235 m22 6 lw 3 lw 251 1227 m22 6 lw 3 lw 256 1218 m22 6 lw 3 lw 260 1210 m22 6 lw 3 lw 265 1202 m22 6 lw 3 lw 269 1195 m22 6 lw 3 lw 274 1187 m22 6 lw 3 lw 278 1179 m22 6 lw 3
 lw 282 1172 m22 6 lw 3 lw 287 1165 m22 6 lw 3 lw 291 1157 m22 6 lw 3 lw 296 1150 m22 6 lw 3 lw 300 1144 m22 6 lw 3 lw 305 1137 m22 6 lw 3 lw 309 1131 m22 6 lw 3 lw 314 1125 m22 6 lw 3 lw 318 1118 m22 6 lw 3 lw 322 1113 m22 6 lw 3 lw 327 1107 m22 6
 lw 3 lw 331 1100 m22 6 lw 3 lw 336 1095 m22 6 lw 3 lw 340 1090 m22 6 lw 3 lw 345 1086 m22 6 lw 3 lw 349 1080 m22 6 lw 3 lw 354 1074 m22 6 lw 3 lw 358 1071 m22 6 lw 3 lw 362 1067 m22 6 lw 3 lw 367 1060 m22 6 lw 3 lw 371 1057 m22 6 lw 3 lw 376 1057
 m22 6 lw 3 lw 380 1050 m22 6 lw 3 lw 385 1049 m22 6 lw 3 lw 389 1041 m22 6 lw 3 lw 393 1040 m22 6 lw 3 lw 398 1036 m22 6 lw 3 lw 402 1034 m22 6 lw 3 lw 407 1030 m22 6 lw 3 lw 411 1024 m22 6 lw 3 lw 416 1024 m22 6 lw 3 lw 420 1019 m22 6 lw 3 lw 425
 1013 m22 6 lw 3 lw 429 1016 m22 6 lw 3 lw 433 1009 m22 6 lw 3 lw 438 1009 m22 6 lw 3 lw 442 1014 m22 6 lw 3 lw 447 1002 m22 6 lw 3 lw 451 996 m22 6 lw 3 lw 456 997 m22 6 lw 3 lw 460 996 m22 6 lw 3 lw 465 991 m22 6 lw 3 lw 469 993 m22 6 lw 3 lw 473
 985 m22 6 lw 3 lw 478 991 m22 6 lw 3 lw 482 987 m22 6 lw 3 lw 487 980 m22 6 lw 3 lw 491 983 m22 6 lw 3 lw 496 981 m22 6 lw 3 lw 500 971 m22 6 lw 3 lw 505 981 m22 6 lw 3 lw 509 972 m22 6 lw 3 lw 513 957 m22 6 lw 3 lw 518 961 m22 6 lw 3 lw 522 968 m22
 6 lw 3 lw 527 959 m22 6 lw 3 lw 531 957 m22 6 lw 3 lw 536 962 m22 6 lw 3 lw 540 955 m22 6 lw 3 lw 544 955 m22 6 lw 3 lw 549 955 m22 6 lw 553 940 m 1 Y s 3 lw 553 950 m22 6 lw 558 933 m 3 Y s 3 lw 558 945 m22 6 lw 3 lw 562 957 m22 6 lw 567 943 m s 3
 lw 567 953 m22 6 lw 571 919 m 5 Y s 571 942 m 1 Y s 3 lw 571 933 m22 6 lw 576 919 m 5 Y s 576 942 m 1 Y s 3 lw 576 933 m22 6 lw 580 940 m 1 Y s 3 lw 580 950 m22 6 lw 584 912 m 7 Y s 584 937 m 2 Y s 3 lw 584 928 m22 6 lw 589 937 m 1 Y s 3 lw 589 948
 m22 6 lw 593 919 m 5 Y s 593 942 m 1 Y s 3 lw 593 933 m22 6 lw 598 869 m 25 Y s 598 912 m 6 Y s 3 lw 598 903 m22 6 lw 602 924 m 5 Y s 3 lw 602 938 m22 6 lw 607 912 m 7 Y s 607 937 m 2 Y s 3 lw 607 928 m22 6 lw 611 924 m 5 Y s 3 lw 611 938 m22 6 lw
 616 903 m 10 Y s 616 931 m 2 Y s 3 lw 616 922 m22 6 lw 620 890 m 15 Y s 620 923 m 4 Y s 3 lw 620 914 m22 6 lw 624 929 m 3 Y s 3 lw 624 941 m22 6 lw 629 903 m 10 Y s 629 931 m 2 Y s 3 lw 629 922 m22 6 lw 633 919 m 5 Y s 633 942 m 1 Y s 3 lw 633 933
 m22 6 lw 638 912 m 7 Y s 638 937 m 2 Y s 3 lw 638 928 m22 6 lw 647 912 m 7 Y s 647 937 m 2 Y s 3 lw 647 928 m22 6 lw 651 827 m 47 Y s 651 893 m 10 Y s 3 lw 651 884 m22 6 lw 656 924 m 5 Y s 3 lw 656 938 m22 6 lw 660 827 m 47 Y s 660 893 m 10 Y s 3 lw
 660 884 m22 6 lw black
 gsave  710 682 23 725 C 368.845 1306.9 t 0 r /Helvetica findfont 29.6502 sf 0 0 m (Centrality: 0 \255 20%) show NC gr 
 gsave  710 682 23 725 C 450.811 1213.55 t 0 r /Helvetica findfont 29.6502 sf 0 0 m (=1.94 GeV/c) show NC gr 
 gsave  710 682 23 725 C 432.597 1213.55 t 0 r /Symbol findfont 29.6502 sf 0 0 m (s) show NC gr 
 gsave  710 682 23 725 C 432.597 1245.42 t 0 r /Helvetica findfont 29.6502 sf 0 0 m (RC) show NC gr  3 lw /w 22 def /w2 {w 2 div} def /w3 {w 3 div} def 399 1239 m20 6 lw
 gsave  710 682 23 725 C 450.811 1136.14 t 0 r /Helvetica findfont 29.6502 sf 0 0 m (=1.69 GeV/c) show NC gr 
 gsave  710 682 23 725 C 432.597 1136.14 t 0 r /Symbol findfont 29.6502 sf 0 0 m (s) show NC gr 
 gsave  710 682 23 725 C 432.597 1172.56 t 0 r /Helvetica findfont 29.6502 sf 0 0 m (RC w/o lead. jet) show NC gr  0 0 1 c 3 lw /w 18 def /w2 {w 2 div} def /w3 {w 3 div} def 399 1164 m21 6 lw black
 gsave  710 682 23 725 C 450.811 1061 t 0 r /Helvetica findfont 29.6502 sf 0 0 m (=1.94 GeV/c) show NC gr 
 gsave  710 682 23 725 C 432.597 1061 t 0 r /Symbol findfont 29.6502 sf 0 0 m (s) show NC gr 
 gsave  710 682 23 725 C 432.597 1097.43 t 0 r /Helvetica findfont 29.6502 sf 0 0 m (RC partial) show NC gr  1 0 0 c 3 lw 399 1089 m22 6 lw black 3 lw 0.999 0.999 0.999 c 710 682 779 725 bf black 1 1 1 c 533 511 885 827 bf black 533 511 885 827 bl 1
 1 1 c 533 511 885 827 bf black 533 511 885 827 bl 0 0 0.6 c 1 1 1 c black 0 0 0.6 c 885 827 m 533 X s black 885 827 m 533 X s
 gsave  710 682 779 725 C 1404.8 765.013 t 0 r /Helvetica findfont 38.7733 sf 0 0 m (\)) show NC gr 
 gsave  710 682 779 725 C 1382.03 765.013 t 0 r /Helvetica-Oblique findfont 38.7733 sf 0 0 m (c) show NC gr 
 gsave  710 682 779 725 C 1268.19 765.013 t 0 r /Helvetica findfont 38.7733 sf 0 0 m ( \(GeV/) show NC gr 
 gsave  710 682 779 725 C 1252.25 742.245 t 0 r /Helvetica findfont 25.0886 sf 0 0 m (T) show NC gr 
 gsave  710 682 779 725 C 1227.21 765.013 t 0 r /Helvetica-Oblique findfont 38.7733 sf 0 0 m (p) show NC gr 
 gsave  710 682 779 725 C 1213.55 765.013 t 0 r /Helvetica findfont 38.7733 sf 0 0 m ( ) show NC gr 
 gsave  710 682 779 725 C 1193.06 765.013 t 0 r /Symbol findfont 38.7733 sf 0 0 m (d) show NC gr  885 842 m -15 Y s 903 835 m -8 Y s 921 835 m -8 Y s 938 835 m -8 Y s 956 835 m -8 Y s 974 842 m -15 Y s 992 835 m -8 Y s 1010 835 m -8 Y s 1027 835 m -8
 Y s 1045 835 m -8 Y s 1063 842 m -15 Y s 1081 835 m -8 Y s 1098 835 m -8 Y s 1116 835 m -8 Y s 1134 835 m -8 Y s 1152 842 m -15 Y s 1169 835 m -8 Y s 1187 835 m -8 Y s 1205 835 m -8 Y s 1223 835 m -8 Y s 1240 842 m -15 Y s 1258 835 m -8 Y s 1276 835
 m -8 Y s 1294 835 m -8 Y s 1311 835 m -8 Y s 1329 842 m -15 Y s 1347 835 m -8 Y s 1365 835 m -8 Y s 1383 835 m -8 Y s 1400 835 m -8 Y s 1418 842 m -15 Y s
 gsave  710 682 779 725 C 860.639 796.888 t 0 r /Helvetica findfont 31.931 sf 0 0 m (\25510) show NC gr 
 gsave  710 682 779 725 C 963.096 796.888 t 0 r /Helvetica findfont 31.931 sf 0 0 m (0) show NC gr 
 gsave  710 682 779 725 C 1042.79 796.888 t 0 r /Helvetica findfont 31.931 sf 0 0 m (10) show NC gr 
 gsave  710 682 779 725 C 1131.58 796.888 t 0 r /Helvetica findfont 31.931 sf 0 0 m (20) show NC gr 
 gsave  710 682 779 725 C 1220.38 796.888 t 0 r /Helvetica findfont 31.931 sf 0 0 m (30) show NC gr 
 gsave  710 682 779 725 C 1309.17 796.888 t 0 r /Helvetica findfont 31.931 sf 0 0 m (40) show NC gr 
 gsave  710 682 779 725 C 1397.97 796.888 t 0 r /Helvetica findfont 31.931 sf 0 0 m (50) show NC gr  885 827 m 511 Y s
 gsave  710 682 779 725 C 819.657 1101.98 t 90 r /Helvetica findfont 38.7733 sf 0 0 m (probability/bin) show NC gr  901 827 m -16 X s
 gsave  710 682 779 725 C 858.363 828.764 t 0 r /Helvetica findfont 20.5271 sf 0 0 m (\2558) show NC gr 
 gsave  710 682 779 725 C 824.21 812.826 t 0 r /Helvetica findfont 31.931 sf 0 0 m (10) show NC gr  893 846 m -8 X s 893 857 m -8 X s 893 865 m -8 X s 893 872 m -8 X s 893 877 m -8 X s 893 881 m -8 X s 893 885 m -8 X s 893 888 m -8 X s 901 891 m -16
 X s
 gsave  710 682 779 725 C 858.363 890.238 t 0 r /Helvetica findfont 20.5271 sf 0 0 m (\2557) show NC gr 
 gsave  710 682 779 725 C 824.21 876.577 t 0 r /Helvetica findfont 31.931 sf 0 0 m (10) show NC gr  893 910 m -8 X s 893 921 m -8 X s 893 929 m -8 X s 893 935 m -8 X s 893 941 m -8 X s 893 945 m -8 X s 893 949 m -8 X s 893 952 m -8 X s 901 955 m -16
 X s
 gsave  710 682 779 725 C 858.363 956.266 t 0 r /Helvetica findfont 20.5271 sf 0 0 m (\2556) show NC gr 
 gsave  710 682 779 725 C 824.21 940.328 t 0 r /Helvetica findfont 31.931 sf 0 0 m (10) show NC gr  893 974 m -8 X s 893 985 m -8 X s 893 993 m -8 X s 893 999 m -8 X s 893 1004 m -8 X s 893 1009 m -8 X s 893 1012 m -8 X s 893 1016 m -8 X s 901 1019 m
 -16 X s
 gsave  710 682 779 725 C 858.363 1020.02 t 0 r /Helvetica findfont 20.5271 sf 0 0 m (\2555) show NC gr 
 gsave  710 682 779 725 C 824.21 1004.08 t 0 r /Helvetica findfont 31.931 sf 0 0 m (10) show NC gr  893 1038 m -8 X s 893 1049 m -8 X s 893 1057 m -8 X s 893 1063 m -8 X s 893 1068 m -8 X s 893 1073 m -8 X s 893 1076 m -8 X s 893 1080 m -8 X s 901
 1083 m -16 X s
 gsave  710 682 779 725 C 858.363 1081.49 t 0 r /Helvetica findfont 20.5271 sf 0 0 m (\2554) show NC gr 
 gsave  710 682 779 725 C 824.21 1067.83 t 0 r /Helvetica findfont 31.931 sf 0 0 m (10) show NC gr  893 1102 m -8 X s 893 1113 m -8 X s 893 1121 m -8 X s 893 1127 m -8 X s 893 1132 m -8 X s 893 1137 m -8 X s 893 1140 m -8 X s 893 1144 m -8 X s 901
 1147 m -16 X s
 gsave  710 682 779 725 C 858.363 1147.52 t 0 r /Helvetica findfont 20.5271 sf 0 0 m (\2553) show NC gr 
 gsave  710 682 779 725 C 824.21 1131.58 t 0 r /Helvetica findfont 31.931 sf 0 0 m (10) show NC gr  893 1166 m -8 X s 893 1177 m -8 X s 893 1185 m -8 X s 893 1191 m -8 X s 893 1196 m -8 X s 893 1201 m -8 X s 893 1204 m -8 X s 893 1208 m -8 X s 901
 1210 m -16 X s
 gsave  710 682 779 725 C 858.363 1208.99 t 0 r /Helvetica findfont 20.5271 sf 0 0 m (\2552) show NC gr 
 gsave  710 682 779 725 C 824.21 1195.33 t 0 r /Helvetica findfont 31.931 sf 0 0 m (10) show NC gr  893 1230 m -8 X s 893 1241 m -8 X s 893 1249 m -8 X s 893 1255 m -8 X s 893 1260 m -8 X s 893 1264 m -8 X s 893 1268 m -8 X s 893 1271 m -8 X s 901
 1274 m -16 X s
 gsave  710 682 779 725 C 860.639 1272.74 t 0 r /Helvetica findfont 20.5271 sf 0 0 m (\2551) show NC gr 
 gsave  710 682 779 725 C 826.487 1259.08 t 0 r /Helvetica findfont 31.931 sf 0 0 m (10) show NC gr  893 1294 m -8 X s 893 1305 m -8 X s 893 1313 m -8 X s 893 1319 m -8 X s 893 1324 m -8 X s 893 1328 m -8 X s 893 1332 m -8 X s 893 1335 m -8 X s 901
 1338 m -16 X s
 gsave  710 682 779 725 C 878.77 1325.59 t 0 r  -17 0 t /Helvetica findfont 31.931 sf 0 0 m (1) show NC gr  6 lw 1 1 1 c black 923 907 m 10 Y s 923 935 m 2 Y s 3 lw /w 21 def /w2 {w 2 div} def /w3 {w 3 div} def 923 926 m20 6 lw 927 873 m 25 Y s 927
 916 m 6 Y s 3 lw 927 907 m20 6 lw 3 lw 932 971 m20 6 lw 3 lw 936 1009 m20 6 lw 3 lw 941 1050 m20 6 lw 3 lw 945 1092 m20 6 lw 3 lw 950 1135 m20 6 lw 3 lw 954 1177 m20 6 lw 3 lw 958 1216 m20 6 lw 3 lw 963 1251 m20 6 lw 3 lw 967 1279 m20 6 lw 3 lw 972
 1296 m20 6 lw 3 lw 976 1293 m20 6 lw 3 lw 981 1282 m20 6 lw 3 lw 985 1271 m20 6 lw 3 lw 990 1259 m20 6 lw 3 lw 994 1248 m20 6 lw 3 lw 998 1237 m20 6 lw 3 lw 1003 1226 m20 6 lw 3 lw 1007 1216 m20 6 lw 3 lw 1012 1206 m20 6 lw 3 lw 1016 1197 m20 6 lw 3
 lw 1021 1188 m20 6 lw 3 lw 1025 1179 m20 6 lw 3 lw 1029 1170 m20 6 lw 3 lw 1034 1162 m20 6 lw 3 lw 1038 1154 m20 6 lw 3 lw 1043 1146 m20 6 lw 3 lw 1047 1139 m20 6 lw 3 lw 1052 1132 m20 6 lw 3 lw 1056 1125 m20 6 lw 3 lw 1061 1119 m20 6 lw 3 lw 1065
 1113 m20 6 lw 3 lw 1069 1106 m20 6 lw 3 lw 1074 1100 m20 6 lw 3 lw 1078 1094 m20 6 lw 3 lw 1083 1089 m20 6 lw 3 lw 1087 1084 m20 6 lw 3 lw 1092 1079 m20 6 lw 3 lw 1096 1075 m20 6 lw 3 lw 1101 1070 m20 6 lw 3 lw 1105 1065 m20 6 lw 3 lw 1109 1061 m20
 6 lw 3 lw 1114 1055 m20 6 lw 3 lw 1118 1052 m20 6 lw 3 lw 1123 1049 m20 6 lw 3 lw 1127 1042 m20 6 lw 3 lw 1132 1042 m20 6 lw 3 lw 1136 1038 m20 6 lw 3 lw 1141 1034 m20 6 lw 3 lw 1145 1033 m20 6 lw 3 lw 1149 1030 m20 6 lw 3 lw 1154 1027 m20 6 lw 3 lw
 1158 1017 m20 6 lw 3 lw 1163 1021 m20 6 lw 3 lw 1167 1012 m20 6 lw 3 lw 1172 1016 m20 6 lw 3 lw 1176 1009 m20 6 lw 3 lw 1180 1005 m20 6 lw 3 lw 1185 1005 m20 6 lw 3 lw 1189 1005 m20 6 lw 3 lw 1194 1004 m20 6 lw 3 lw 1198 996 m20 6 lw 3 lw 1203 991
 m20 6 lw 3 lw 1207 996 m20 6 lw 3 lw 1212 989 m20 6 lw 3 lw 1216 997 m20 6 lw 3 lw 1220 981 m20 6 lw 3 lw 1225 981 m20 6 lw 3 lw 1229 992 m20 6 lw 3 lw 1234 985 m20 6 lw 3 lw 1238 985 m20 6 lw 3 lw 1243 978 m20 6 lw 3 lw 1247 980 m20 6 lw 3 lw 1252
 977 m20 6 lw 1256 944 m 1 Y s 3 lw 1256 954 m20 6 lw 3 lw 1260 959 m20 6 lw 3 lw 1265 963 m20 6 lw 1269 937 m 2 Y s 3 lw 1269 948 m20 6 lw 3 lw 1274 969 m20 6 lw 1278 944 m 1 Y s 3 lw 1278 954 m20 6 lw 1283 941 m 1 Y s 3 lw 1283 951 m20 6 lw 1287
 937 m 2 Y s 3 lw 1287 948 m20 6 lw 3 lw 1292 959 m20 6 lw 1296 941 m 1 Y s 3 lw 1296 951 m20 6 lw 3 lw 1300 959 m20 6 lw 1305 907 m 10 Y s 1305 935 m 2 Y s 3 lw 1305 926 m20 6 lw 1309 894 m 15 Y s 1309 927 m 4 Y s 3 lw 1309 918 m20 6 lw 1314 873 m
 25 Y s 1314 916 m 6 Y s 3 lw 1314 907 m20 6 lw 1318 928 m 4 Y s 3 lw 1318 941 m20 6 lw 1323 916 m 7 Y s 1323 941 m 1 Y s 3 lw 1323 932 m20 6 lw 1327 916 m 7 Y s 1327 941 m 1 Y s 3 lw 1327 932 m20 6 lw 1331 933 m 3 Y s 3 lw 1331 945 m20 6 lw 1336 916
 m 7 Y s 1336 941 m 1 Y s 3 lw 1336 932 m20 6 lw 1340 873 m 25 Y s 1340 916 m 6 Y s 3 lw 1340 907 m20 6 lw 1345 928 m 4 Y s 3 lw 1345 941 m20 6 lw 1349 894 m 15 Y s 1349 927 m 4 Y s 3 lw 1349 918 m20 6 lw 1354 937 m 2 Y s 3 lw 1354 948 m20 6 lw 1358
 894 m 15 Y s 1358 927 m 4 Y s 3 lw 1358 918 m20 6 lw 1363 907 m 10 Y s 1363 935 m 2 Y s 3 lw 1363 926 m20 6 lw 1367 907 m 10 Y s 1367 935 m 2 Y s 3 lw 1367 926 m20 6 lw 1371 916 m 7 Y s 1371 941 m 1 Y s 3 lw 1371 932 m20 6 lw 1376 907 m 10 Y s 1376
 935 m 2 Y s 3 lw 1376 926 m20 6 lw 1380 894 m 15 Y s 1380 927 m 4 Y s 3 lw 1380 918 m20 6 lw 1385 827 m 51 Y s 1385 897 m 10 Y s 3 lw 1385 887 m20 6 lw 1389 873 m 25 Y s 1389 916 m 6 Y s 3 lw 1389 907 m20 6 lw 1394 894 m 15 Y s 1394 927 m 4 Y s 3 lw
 1394 918 m20 6 lw 1398 894 m 15 Y s 1398 927 m 4 Y s 3 lw 1398 918 m20 6 lw 1403 907 m 10 Y s 1403 935 m 2 Y s 3 lw 1403 926 m20 6 lw 1407 873 m 25 Y s 1407 916 m 6 Y s 3 lw 1407 907 m20 6 lw 1411 873 m 25 Y s 1411 916 m 6 Y s 3 lw 1411 907 m20 6 lw
 1416 873 m 25 Y s 1416 916 m 6 Y s 3 lw 1416 907 m20 6 lw 0 0 1 c 1 1 1 c 0 0 1 c 918 896 m 14 Y s 918 929 m 3 Y s 3 lw /w 18 def /w2 {w 2 div} def /w3 {w 3 div} def 918 920 m21 6 lw 927 917 m 8 Y s 927 943 m 1 Y s 3 lw 927 934 m21 6 lw 3 lw 932 982
 m21 6 lw 3 lw 936 1022 m21 6 lw 3 lw 941 1061 m21 6 lw 3 lw 945 1104 m21 6 lw 3 lw 950 1146 m21 6 lw 3 lw 954 1188 m21 6 lw 3 lw 958 1226 m21 6 lw 3 lw 963 1260 m21 6 lw 3 lw 967 1287 m21 6 lw 3 lw 972 1301 m21 6 lw 3 lw 976 1294 m21 6 lw 3 lw 981
 1278 m21 6 lw 3 lw 985 1263 m21 6 lw 3 lw 990 1249 m21 6 lw 3 lw 994 1236 m21 6 lw 3 lw 998 1224 m21 6 lw 3 lw 1003 1212 m21 6 lw 3 lw 1007 1201 m21 6 lw 3 lw 1012 1191 m21 6 lw 3 lw 1016 1180 m21 6 lw 3 lw 1021 1170 m21 6 lw 3 lw 1025 1162 m21 6 lw
 3 lw 1029 1152 m21 6 lw 3 lw 1034 1144 m21 6 lw 3 lw 1038 1136 m21 6 lw 3 lw 1043 1128 m21 6 lw 3 lw 1047 1120 m21 6 lw 3 lw 1052 1113 m21 6 lw 3 lw 1056 1106 m21 6 lw 3 lw 1061 1099 m21 6 lw 3 lw 1065 1092 m21 6 lw 3 lw 1069 1087 m21 6 lw 3 lw 1074
 1080 m21 6 lw 3 lw 1078 1074 m21 6 lw 3 lw 1083 1069 m21 6 lw 3 lw 1087 1062 m21 6 lw 3 lw 1092 1059 m21 6 lw 3 lw 1096 1055 m21 6 lw 3 lw 1101 1049 m21 6 lw 3 lw 1105 1045 m21 6 lw 3 lw 1109 1040 m21 6 lw 3 lw 1114 1038 m21 6 lw 3 lw 1118 1032 m21
 6 lw 3 lw 1123 1027 m21 6 lw 3 lw 1127 1026 m21 6 lw 3 lw 1132 1021 m21 6 lw 3 lw 1136 1015 m21 6 lw 3 lw 1141 1015 m21 6 lw 3 lw 1145 1014 m21 6 lw 3 lw 1149 1007 m21 6 lw 3 lw 1154 1002 m21 6 lw 3 lw 1158 1003 m21 6 lw 3 lw 1163 997 m21 6 lw 3 lw
 1167 992 m21 6 lw 3 lw 1172 989 m21 6 lw 3 lw 1176 990 m21 6 lw 3 lw 1180 994 m21 6 lw 3 lw 1185 988 m21 6 lw 3 lw 1189 988 m21 6 lw 3 lw 1194 974 m21 6 lw 3 lw 1198 978 m21 6 lw 3 lw 1203 979 m21 6 lw 1207 946 m 1 Y s 3 lw 1207 956 m21 6 lw 3 lw
 1212 964 m21 6 lw 1216 949 m s 3 lw 1216 958 m21 6 lw 1220 949 m s 3 lw 1220 958 m21 6 lw 3 lw 1225 960 m21 6 lw 3 lw 1229 969 m21 6 lw 1234 939 m 2 Y s 3 lw 1234 950 m21 6 lw 1238 942 m 2 Y s 3 lw 1238 953 m21 6 lw 1243 946 m 1 Y s 3 lw 1243 956
 m21 6 lw 3 lw 1247 966 m21 6 lw 1252 917 m 8 Y s 1252 943 m 1 Y s 3 lw 1252 934 m21 6 lw 1256 924 m 6 Y s 1256 948 m s 3 lw 1256 939 m21 6 lw 1260 946 m 1 Y s 3 lw 1260 956 m21 6 lw 1265 924 m 6 Y s 1265 948 m s 3 lw 1265 939 m21 6 lw 1269 908 m 10
 Y s 1269 937 m 2 Y s 3 lw 1269 928 m21 6 lw 1274 917 m 8 Y s 1274 943 m 1 Y s 3 lw 1274 934 m21 6 lw 1278 827 m 53 Y s 1278 898 m 10 Y s 3 lw 1278 889 m21 6 lw 1283 896 m 14 Y s 1283 929 m 3 Y s 3 lw 1283 920 m21 6 lw 1287 896 m 14 Y s 1287 929 m 3
 Y s 3 lw 1287 920 m21 6 lw 1292 924 m 6 Y s 1292 948 m s 3 lw 1292 939 m21 6 lw 1296 917 m 8 Y s 1296 943 m 1 Y s 3 lw 1296 934 m21 6 lw 1300 874 m 25 Y s 1300 917 m 6 Y s 3 lw 1300 908 m21 6 lw 1305 827 m 53 Y s 1305 898 m 10 Y s 3 lw 1305 889 m21
 6 lw 1309 908 m 10 Y s 1309 937 m 2 Y s 3 lw 1309 928 m21 6 lw 1314 924 m 6 Y s 1314 948 m s 3 lw 1314 939 m21 6 lw 1318 874 m 25 Y s 1318 917 m 6 Y s 3 lw 1318 908 m21 6 lw 1323 908 m 10 Y s 1323 937 m 2 Y s 3 lw 1323 928 m21 6 lw 1327 908 m 10 Y s
 1327 937 m 2 Y s 3 lw 1327 928 m21 6 lw 1331 939 m 2 Y s 3 lw 1331 950 m21 6 lw 1336 930 m 4 Y s 3 lw 1336 943 m21 6 lw 1340 874 m 25 Y s 1340 917 m 6 Y s 3 lw 1340 908 m21 6 lw 1345 908 m 10 Y s 1345 937 m 2 Y s 3 lw 1345 928 m21 6 lw 1354 874 m 25
 Y s 1354 917 m 6 Y s 3 lw 1354 908 m21 6 lw 1358 874 m 25 Y s 1358 917 m 6 Y s 3 lw 1358 908 m21 6 lw 1363 874 m 25 Y s 1363 917 m 6 Y s 3 lw 1363 908 m21 6 lw 1367 896 m 14 Y s 1367 929 m 3 Y s 3 lw 1367 920 m21 6 lw 1371 874 m 25 Y s 1371 917 m 6
 Y s 3 lw 1371 908 m21 6 lw 1376 874 m 25 Y s 1376 917 m 6 Y s 3 lw 1376 908 m21 6 lw 1380 874 m 25 Y s 1380 917 m 6 Y s 3 lw 1380 908 m21 6 lw 1389 896 m 14 Y s 1389 929 m 3 Y s 3 lw 1389 920 m21 6 lw 1394 827 m 53 Y s 1394 898 m 10 Y s 3 lw 1394
 889 m21 6 lw 1398 827 m 53 Y s 1398 898 m 10 Y s 3 lw 1398 889 m21 6 lw 1407 827 m 53 Y s 1407 898 m 10 Y s 3 lw 1407 889 m21 6 lw 1416 827 m 53 Y s 1416 898 m 10 Y s 3 lw 1416 889 m21 6 lw 1 0 0 c 1 1 1 c 1 0 0 c 914 827 m 51 Y s 914 897 m 10 Y s 3
 lw 914 888 m22 6 lw 918 873 m 25 Y s 918 916 m 6 Y s 3 lw 918 907 m22 6 lw 927 916 m 7 Y s 927 941 m 1 Y s 3 lw 927 932 m22 6 lw 3 lw 932 959 m22 6 lw 3 lw 936 1004 m22 6 lw 3 lw 941 1050 m22 6 lw 3 lw 945 1094 m22 6 lw 3 lw 950 1136 m22 6 lw 3 lw
 954 1177 m22 6 lw 3 lw 958 1216 m22 6 lw 3 lw 963 1251 m22 6 lw 3 lw 967 1280 m22 6 lw 3 lw 972 1296 m22 6 lw 3 lw 976 1294 m22 6 lw 3 lw 981 1282 m22 6 lw 3 lw 985 1270 m22 6 lw 3 lw 990 1259 m22 6 lw 3 lw 994 1248 m22 6 lw 3 lw 998 1237 m22 6 lw 3
 lw 1003 1226 m22 6 lw 3 lw 1007 1216 m22 6 lw 3 lw 1012 1206 m22 6 lw 3 lw 1016 1196 m22 6 lw 3 lw 1021 1187 m22 6 lw 3 lw 1025 1178 m22 6 lw 3 lw 1029 1170 m22 6 lw 3 lw 1034 1162 m22 6 lw 3 lw 1038 1154 m22 6 lw 3 lw 1043 1146 m22 6 lw 3 lw 1047
 1139 m22 6 lw 3 lw 1052 1132 m22 6 lw 3 lw 1056 1125 m22 6 lw 3 lw 1061 1118 m22 6 lw 3 lw 1065 1112 m22 6 lw 3 lw 1069 1106 m22 6 lw 3 lw 1074 1101 m22 6 lw 3 lw 1078 1094 m22 6 lw 3 lw 1083 1089 m22 6 lw 3 lw 1087 1083 m22 6 lw 3 lw 1092 1079 m22
 6 lw 3 lw 1096 1074 m22 6 lw 3 lw 1101 1069 m22 6 lw 3 lw 1105 1065 m22 6 lw 3 lw 1109 1062 m22 6 lw 3 lw 1114 1056 m22 6 lw 3 lw 1118 1051 m22 6 lw 3 lw 1123 1050 m22 6 lw 3 lw 1127 1044 m22 6 lw 3 lw 1132 1039 m22 6 lw 3 lw 1136 1042 m22 6 lw 3 lw
 1141 1033 m22 6 lw 3 lw 1145 1029 m22 6 lw 3 lw 1149 1027 m22 6 lw 3 lw 1154 1022 m22 6 lw 3 lw 1158 1021 m22 6 lw 3 lw 1163 1018 m22 6 lw 3 lw 1167 1017 m22 6 lw 3 lw 1172 1010 m22 6 lw 3 lw 1176 1012 m22 6 lw 3 lw 1180 1007 m22 6 lw 3 lw 1185 1006
 m22 6 lw 3 lw 1189 1003 m22 6 lw 3 lw 1194 1001 m22 6 lw 3 lw 1198 996 m22 6 lw 3 lw 1203 998 m22 6 lw 3 lw 1207 990 m22 6 lw 3 lw 1212 990 m22 6 lw 3 lw 1216 982 m22 6 lw 3 lw 1220 984 m22 6 lw 3 lw 1225 984 m22 6 lw 3 lw 1229 983 m22 6 lw 3 lw
 1234 982 m22 6 lw 3 lw 1238 977 m22 6 lw 3 lw 1243 975 m22 6 lw 3 lw 1247 972 m22 6 lw 3 lw 1252 976 m22 6 lw 3 lw 1256 969 m22 6 lw 1260 947 m s 3 lw 1260 957 m22 6 lw 3 lw 1265 966 m22 6 lw 3 lw 1269 971 m22 6 lw 1274 933 m 3 Y s 3 lw 1274 945 m22
 6 lw 3 lw 1278 963 m22 6 lw 3 lw 1283 961 m22 6 lw 1287 944 m 1 Y s 3 lw 1287 954 m22 6 lw 1292 907 m 10 Y s 1292 935 m 2 Y s 3 lw 1292 926 m22 6 lw 1296 933 m 3 Y s 3 lw 1296 945 m22 6 lw 1300 941 m 1 Y s 3 lw 1300 951 m22 6 lw 1305 941 m 1 Y s 3
 lw 1305 951 m22 6 lw 1309 907 m 10 Y s 1309 935 m 2 Y s 3 lw 1309 926 m22 6 lw 1314 923 m 5 Y s 1314 946 m 1 Y s 3 lw 1314 937 m22 6 lw 1318 923 m 5 Y s 1318 946 m 1 Y s 3 lw 1318 937 m22 6 lw 1327 941 m 1 Y s 3 lw 1327 951 m22 6 lw 1331 907 m 10 Y
 s 1331 935 m 2 Y s 3 lw 1331 926 m22 6 lw 1336 894 m 15 Y s 1336 927 m 4 Y s 3 lw 1336 918 m22 6 lw 1340 937 m 2 Y s 3 lw 1340 949 m22 6 lw 1345 928 m 4 Y s 3 lw 1345 942 m22 6 lw 1349 907 m 10 Y s 1349 935 m 2 Y s 3 lw 1349 926 m22 6 lw 1354 933 m
 3 Y s 3 lw 1354 945 m22 6 lw 1358 873 m 25 Y s 1358 916 m 6 Y s 3 lw 1358 907 m22 6 lw 1363 894 m 15 Y s 1363 927 m 4 Y s 3 lw 1363 918 m22 6 lw 1367 873 m 25 Y s 1367 916 m 6 Y s 3 lw 1367 907 m22 6 lw 1371 873 m 25 Y s 1371 916 m 6 Y s 3 lw 1371
 907 m22 6 lw 1376 907 m 10 Y s 1376 935 m 2 Y s 3 lw 1376 926 m22 6 lw 1380 923 m 5 Y s 1380 946 m 1 Y s 3 lw 1380 937 m22 6 lw 1385 923 m 5 Y s 1385 946 m 1 Y s 3 lw 1385 937 m22 6 lw 1389 873 m 25 Y s 1389 916 m 6 Y s 3 lw 1389 907 m22 6 lw 1394
 873 m 25 Y s 1394 916 m 6 Y s 3 lw 1394 907 m22 6 lw 1398 907 m 10 Y s 1398 935 m 2 Y s 3 lw 1398 926 m22 6 lw 1403 873 m 25 Y s 1403 916 m 6 Y s 3 lw 1403 907 m22 6 lw 1407 894 m 15 Y s 1407 927 m 4 Y s 3 lw 1407 918 m22 6 lw 1411 894 m 15 Y s 1411
 927 m 4 Y s 3 lw 1411 918 m22 6 lw 1416 894 m 15 Y s 1416 927 m 4 Y s 3 lw 1416 918 m22 6 lw black
 gsave  710 682 779 725 C 1124.75 1306.9 t 0 r /Helvetica findfont 29.6502 sf 0 0 m (Centrality: 20 \255 40%) show NC gr 
 gsave  710 682 779 725 C 1206.72 1213.55 t 0 r /Helvetica findfont 29.6502 sf 0 0 m (=1.54 GeV/c) show NC gr 
 gsave  710 682 779 725 C 1188.5 1213.55 t 0 r /Symbol findfont 29.6502 sf 0 0 m (s) show NC gr 
 gsave  710 682 779 725 C 1188.5 1245.42 t 0 r /Helvetica findfont 29.6502 sf 0 0 m (RC) show NC gr  3 lw /w 21 def /w2 {w 2 div} def /w3 {w 3 div} def 1155 1239 m20 6 lw
 gsave  710 682 779 725 C 1206.72 1136.14 t 0 r /Helvetica findfont 29.6502 sf 0 0 m (=1.30 GeV/c) show NC gr 
 gsave  710 682 779 725 C 1188.5 1136.14 t 0 r /Symbol findfont 29.6502 sf 0 0 m (s) show NC gr 
 gsave  710 682 779 725 C 1188.5 1172.56 t 0 r /Helvetica findfont 29.6502 sf 0 0 m (RC w/o lead. jet) show NC gr  0 0 1 c 3 lw /w 18 def /w2 {w 2 div} def /w3 {w 3 div} def 1155 1164 m21 6 lw black
 gsave  710 682 779 725 C 1206.72 1061 t 0 r /Helvetica findfont 29.6502 sf 0 0 m (=1.54 GeV/c) show NC gr 
 gsave  710 682 779 725 C 1188.5 1061 t 0 r /Symbol findfont 29.6502 sf 0 0 m (s) show NC gr 
 gsave  710 682 779 725 C 1188.5 1097.43 t 0 r /Helvetica findfont 29.6502 sf 0 0 m (RC partial) show NC gr  1 0 0 c 3 lw 1155 1089 m22 6 lw black 3 lw 0.999 0.999 0.999 c 711 682 1534 725 bf black 1 1 1 c 533 511 1641 827 bf black 533 511 1641 827
 bl 1 1 1 c 533 511 1641 827 bf black 533 511 1641 827 bl 0 0 0.6 c 1 1 1 c black 0 0 0.6 c 1641 827 m 533 X s black 1641 827 m 533 X s
 gsave  711 682 1534 725 C 2160.71 765.013 t 0 r /Helvetica findfont 38.7733 sf 0 0 m (\)) show NC gr 
 gsave  711 682 1534 725 C 2137.94 765.013 t 0 r /Helvetica-Oblique findfont 38.7733 sf 0 0 m (c) show NC gr 
 gsave  711 682 1534 725 C 2024.1 765.013 t 0 r /Helvetica findfont 38.7733 sf 0 0 m ( \(GeV/) show NC gr 
 gsave  711 682 1534 725 C 2008.16 742.245 t 0 r /Helvetica findfont 25.0886 sf 0 0 m (T) show NC gr 
 gsave  711 682 1534 725 C 1983.11 765.013 t 0 r /Helvetica-Oblique findfont 38.7733 sf 0 0 m (p) show NC gr 
 gsave  711 682 1534 725 C 1969.45 765.013 t 0 r /Helvetica findfont 38.7733 sf 0 0 m ( ) show NC gr 
 gsave  711 682 1534 725 C 1948.96 765.013 t 0 r /Symbol findfont 38.7733 sf 0 0 m (d) show NC gr  1641 842 m -15 Y s 1659 835 m -8 Y s 1677 835 m -8 Y s 1694 835 m -8 Y s 1712 835 m -8 Y s 1730 842 m -15 Y s 1748 835 m -8 Y s 1765 835 m -8 Y s 1783
 835 m -8 Y s 1801 835 m -8 Y s 1819 842 m -15 Y s 1836 835 m -8 Y s 1854 835 m -8 Y s 1872 835 m -8 Y s 1890 835 m -8 Y s 1908 842 m -15 Y s 1925 835 m -8 Y s 1943 835 m -8 Y s 1961 835 m -8 Y s 1979 835 m -8 Y s 1996 842 m -15 Y s 2014 835 m -8 Y s
 2032 835 m -8 Y s 2050 835 m -8 Y s 2067 835 m -8 Y s 2085 842 m -15 Y s 2103 835 m -8 Y s 2121 835 m -8 Y s 2138 835 m -8 Y s 2156 835 m -8 Y s 2174 842 m -15 Y s
 gsave  711 682 1534 725 C 1616.54 796.888 t 0 r /Helvetica findfont 31.931 sf 0 0 m (\25510) show NC gr 
 gsave  711 682 1534 725 C 1719 796.888 t 0 r /Helvetica findfont 31.931 sf 0 0 m (0) show NC gr 
 gsave  711 682 1534 725 C 1798.69 796.888 t 0 r /Helvetica findfont 31.931 sf 0 0 m (10) show NC gr 
 gsave  711 682 1534 725 C 1887.49 796.888 t 0 r /Helvetica findfont 31.931 sf 0 0 m (20) show NC gr 
 gsave  711 682 1534 725 C 1976.28 796.888 t 0 r /Helvetica findfont 31.931 sf 0 0 m (30) show NC gr 
 gsave  711 682 1534 725 C 2065.08 796.888 t 0 r /Helvetica findfont 31.931 sf 0 0 m (40) show NC gr 
 gsave  711 682 1534 725 C 2153.88 796.888 t 0 r /Helvetica findfont 31.931 sf 0 0 m (50) show NC gr  1641 827 m 511 Y s
 gsave  711 682 1534 725 C 1575.56 1101.98 t 90 r /Helvetica findfont 38.7733 sf 0 0 m (probability/bin) show NC gr  1657 827 m -16 X s
 gsave  711 682 1534 725 C 1614.27 828.764 t 0 r /Helvetica findfont 20.5271 sf 0 0 m (\2558) show NC gr 
 gsave  711 682 1534 725 C 1580.12 812.826 t 0 r /Helvetica findfont 31.931 sf 0 0 m (10) show NC gr  1649 846 m -8 X s 1649 857 m -8 X s 1649 865 m -8 X s 1649 872 m -8 X s 1649 877 m -8 X s 1649 881 m -8 X s 1649 885 m -8 X s 1649 888 m -8 X s 1657
 891 m -16 X s
 gsave  711 682 1534 725 C 1614.27 890.238 t 0 r /Helvetica findfont 20.5271 sf 0 0 m (\2557) show NC gr 
 gsave  711 682 1534 725 C 1580.12 876.577 t 0 r /Helvetica findfont 31.931 sf 0 0 m (10) show NC gr  1649 910 m -8 X s 1649 921 m -8 X s 1649 929 m -8 X s 1649 935 m -8 X s 1649 941 m -8 X s 1649 945 m -8 X s 1649 949 m -8 X s 1649 952 m -8 X s 1657
 955 m -16 X s
 gsave  711 682 1534 725 C 1614.27 956.266 t 0 r /Helvetica findfont 20.5271 sf 0 0 m (\2556) show NC gr 
 gsave  711 682 1534 725 C 1580.12 940.328 t 0 r /Helvetica findfont 31.931 sf 0 0 m (10) show NC gr  1649 974 m -8 X s 1649 985 m -8 X s 1649 993 m -8 X s 1649 999 m -8 X s 1649 1004 m -8 X s 1649 1009 m -8 X s 1649 1012 m -8 X s 1649 1016 m -8 X s
 1657 1019 m -16 X s
 gsave  711 682 1534 725 C 1614.27 1020.02 t 0 r /Helvetica findfont 20.5271 sf 0 0 m (\2555) show NC gr 
 gsave  711 682 1534 725 C 1580.12 1004.08 t 0 r /Helvetica findfont 31.931 sf 0 0 m (10) show NC gr  1649 1038 m -8 X s 1649 1049 m -8 X s 1649 1057 m -8 X s 1649 1063 m -8 X s 1649 1068 m -8 X s 1649 1073 m -8 X s 1649 1076 m -8 X s 1649 1080 m -8
 X s 1657 1083 m -16 X s
 gsave  711 682 1534 725 C 1614.27 1081.49 t 0 r /Helvetica findfont 20.5271 sf 0 0 m (\2554) show NC gr 
 gsave  711 682 1534 725 C 1580.12 1067.83 t 0 r /Helvetica findfont 31.931 sf 0 0 m (10) show NC gr  1649 1102 m -8 X s 1649 1113 m -8 X s 1649 1121 m -8 X s 1649 1127 m -8 X s 1649 1132 m -8 X s 1649 1137 m -8 X s 1649 1140 m -8 X s 1649 1144 m -8
 X s 1657 1147 m -16 X s
 gsave  711 682 1534 725 C 1614.27 1147.52 t 0 r /Helvetica findfont 20.5271 sf 0 0 m (\2553) show NC gr 
 gsave  711 682 1534 725 C 1580.12 1131.58 t 0 r /Helvetica findfont 31.931 sf 0 0 m (10) show NC gr  1649 1166 m -8 X s 1649 1177 m -8 X s 1649 1185 m -8 X s 1649 1191 m -8 X s 1649 1196 m -8 X s 1649 1201 m -8 X s 1649 1204 m -8 X s 1649 1208 m -8
 X s 1657 1210 m -16 X s
 gsave  711 682 1534 725 C 1614.27 1208.99 t 0 r /Helvetica findfont 20.5271 sf 0 0 m (\2552) show NC gr 
 gsave  711 682 1534 725 C 1580.12 1195.33 t 0 r /Helvetica findfont 31.931 sf 0 0 m (10) show NC gr  1649 1230 m -8 X s 1649 1241 m -8 X s 1649 1249 m -8 X s 1649 1255 m -8 X s 1649 1260 m -8 X s 1649 1264 m -8 X s 1649 1268 m -8 X s 1649 1271 m -8
 X s 1657 1274 m -16 X s
 gsave  711 682 1534 725 C 1616.54 1272.74 t 0 r /Helvetica findfont 20.5271 sf 0 0 m (\2551) show NC gr 
 gsave  711 682 1534 725 C 1582.39 1259.08 t 0 r /Helvetica findfont 31.931 sf 0 0 m (10) show NC gr  1649 1294 m -8 X s 1649 1305 m -8 X s 1649 1313 m -8 X s 1649 1319 m -8 X s 1649 1324 m -8 X s 1649 1328 m -8 X s 1649 1332 m -8 X s 1649 1335 m -8
 X s 1657 1338 m -16 X s
 gsave  711 682 1534 725 C 1634.68 1325.59 t 0 r  -17 0 t /Helvetica findfont 31.931 sf 0 0 m (1) show NC gr  6 lw 1 1 1 c black 1661 827 m 57 Y s 1661 902 m 10 Y s 3 lw /w 22 def /w2 {w 2 div} def /w3 {w 3 div} def 1661 893 m20 6 lw 1670 827 m 57 Y
 s 1670 902 m 10 Y s 3 lw 1670 893 m20 6 lw 1688 899 m 15 Y s 1688 932 m 4 Y s 3 lw 1688 923 m20 6 lw 3 lw 1692 971 m20 6 lw 3 lw 1697 989 m20 6 lw 3 lw 1701 1036 m20 6 lw 3 lw 1705 1089 m20 6 lw 3 lw 1710 1136 m20 6 lw 3 lw 1714 1182 m20 6 lw 3 lw
 1719 1227 m20 6 lw 3 lw 1723 1268 m20 6 lw 3 lw 1728 1299 m20 6 lw 3 lw 1732 1302 m20 6 lw 3 lw 1737 1286 m20 6 lw 3 lw 1741 1271 m20 6 lw 3 lw 1745 1257 m20 6 lw 3 lw 1750 1243 m20 6 lw 3 lw 1754 1230 m20 6 lw 3 lw 1759 1218 m20 6 lw 3 lw 1763 1206
 m20 6 lw 3 lw 1768 1195 m20 6 lw 3 lw 1772 1185 m20 6 lw 3 lw 1777 1175 m20 6 lw 3 lw 1781 1166 m20 6 lw 3 lw 1785 1157 m20 6 lw 3 lw 1790 1149 m20 6 lw 3 lw 1794 1141 m20 6 lw 3 lw 1799 1133 m20 6 lw 3 lw 1803 1126 m20 6 lw 3 lw 1808 1119 m20 6 lw
 3 lw 1812 1113 m20 6 lw 3 lw 1816 1106 m20 6 lw 3 lw 1821 1100 m20 6 lw 3 lw 1825 1094 m20 6 lw 3 lw 1830 1087 m20 6 lw 3 lw 1834 1084 m20 6 lw 3 lw 1839 1078 m20 6 lw 3 lw 1843 1073 m20 6 lw 3 lw 1848 1071 m20 6 lw 3 lw 1852 1064 m20 6 lw 3 lw 1856
 1061 m20 6 lw 3 lw 1861 1055 m20 6 lw 3 lw 1865 1052 m20 6 lw 3 lw 1870 1047 m20 6 lw 3 lw 1874 1041 m20 6 lw 3 lw 1879 1038 m20 6 lw 3 lw 1883 1036 m20 6 lw 3 lw 1888 1034 m20 6 lw 3 lw 1892 1027 m20 6 lw 3 lw 1896 1029 m20 6 lw 3 lw 1901 1022 m20
 6 lw 3 lw 1905 1021 m20 6 lw 3 lw 1910 1016 m20 6 lw 3 lw 1914 1012 m20 6 lw 3 lw 1919 1010 m20 6 lw 3 lw 1923 1005 m20 6 lw 3 lw 1928 1004 m20 6 lw 3 lw 1932 1004 m20 6 lw 3 lw 1936 1001 m20 6 lw 3 lw 1941 997 m20 6 lw 3 lw 1945 994 m20 6 lw 3 lw
 1950 980 m20 6 lw 3 lw 1954 997 m20 6 lw 3 lw 1959 980 m20 6 lw 3 lw 1963 981 m20 6 lw 3 lw 1967 989 m20 6 lw 3 lw 1972 977 m20 6 lw 3 lw 1976 983 m20 6 lw 3 lw 1981 973 m20 6 lw 3 lw 1985 979 m20 6 lw 3 lw 1990 973 m20 6 lw 3 lw 1994 964 m20 6 lw
 1999 949 m 1 Y s 3 lw 1999 959 m20 6 lw 3 lw 2003 971 m20 6 lw 2007 952 m 1 Y s 3 lw 2007 962 m20 6 lw 2012 949 m 1 Y s 3 lw 2012 959 m20 6 lw 2016 938 m 3 Y s 3 lw 2016 950 m20 6 lw 2021 949 m 1 Y s 3 lw 2021 959 m20 6 lw 2025 934 m 4 Y s 3 lw 2025
 947 m20 6 lw 2030 942 m 3 Y s 3 lw 2030 954 m20 6 lw 2034 928 m 5 Y s 2034 952 m s 3 lw 2034 942 m20 6 lw 2039 921 m 7 Y s 2039 946 m 2 Y s 3 lw 2039 937 m20 6 lw 2043 934 m 4 Y s 3 lw 2043 947 m20 6 lw 2047 946 m 2 Y s 3 lw 2047 957 m20 6 lw 2052
 899 m 15 Y s 2052 932 m 4 Y s 3 lw 2052 923 m20 6 lw 2056 928 m 5 Y s 2056 952 m s 3 lw 2056 942 m20 6 lw 2061 921 m 7 Y s 2061 946 m 2 Y s 3 lw 2061 937 m20 6 lw 2065 899 m 15 Y s 2065 932 m 4 Y s 3 lw 2065 923 m20 6 lw 2070 912 m 10 Y s 2070 940 m
 2 Y s 3 lw 2070 931 m20 6 lw 2074 912 m 10 Y s 2074 940 m 2 Y s 3 lw 2074 931 m20 6 lw 2079 934 m 4 Y s 3 lw 2079 947 m20 6 lw 2083 878 m 25 Y s 2083 921 m 6 Y s 3 lw 2083 912 m20 6 lw 2087 827 m 57 Y s 2087 902 m 10 Y s 3 lw 2087 893 m20 6 lw 2092
 912 m 10 Y s 2092 940 m 2 Y s 3 lw 2092 931 m20 6 lw 2096 899 m 15 Y s 2096 932 m 4 Y s 3 lw 2096 923 m20 6 lw 2101 899 m 15 Y s 2101 932 m 4 Y s 3 lw 2101 923 m20 6 lw 2105 928 m 5 Y s 2105 952 m s 3 lw 2105 942 m20 6 lw 2110 899 m 15 Y s 2110 932
 m 4 Y s 3 lw 2110 923 m20 6 lw 2114 921 m 7 Y s 2114 946 m 2 Y s 3 lw 2114 937 m20 6 lw 2118 899 m 15 Y s 2118 932 m 4 Y s 3 lw 2118 923 m20 6 lw 2123 912 m 10 Y s 2123 940 m 2 Y s 3 lw 2123 931 m20 6 lw 2127 912 m 10 Y s 2127 940 m 2 Y s 3 lw 2127
 931 m20 6 lw 2132 899 m 15 Y s 2132 932 m 4 Y s 3 lw 2132 923 m20 6 lw 2136 899 m 15 Y s 2136 932 m 4 Y s 3 lw 2136 923 m20 6 lw 2141 827 m 57 Y s 2141 902 m 10 Y s 3 lw 2141 893 m20 6 lw 2145 827 m 57 Y s 2145 902 m 10 Y s 3 lw 2145 893 m20 6 lw
 2150 912 m 10 Y s 2150 940 m 2 Y s 3 lw 2150 931 m20 6 lw 2154 827 m 57 Y s 2154 902 m 10 Y s 3 lw 2154 893 m20 6 lw 2158 878 m 25 Y s 2158 921 m 6 Y s 3 lw 2158 912 m20 6 lw 2167 827 m 57 Y s 2167 902 m 10 Y s 3 lw 2167 893 m20 6 lw 0 0 1 c 1 1 1 c
 0 0 1 c 1670 827 m 59 Y s 1670 904 m 10 Y s 3 lw /w 19 def /w2 {w 2 div} def /w3 {w 3 div} def 1670 895 m21 6 lw 1688 880 m 25 Y s 1688 923 m 6 Y s 3 lw 1688 914 m21 6 lw 3 lw 1692 975 m21 6 lw 3 lw 1697 1007 m21 6 lw 3 lw 1701 1053 m21 6 lw 3 lw
 1705 1099 m21 6 lw 3 lw 1710 1147 m21 6 lw 3 lw 1714 1193 m21 6 lw 3 lw 1719 1236 m21 6 lw 3 lw 1723 1276 m21 6 lw 3 lw 1728 1304 m21 6 lw 3 lw 1732 1304 m21 6 lw 3 lw 1737 1281 m21 6 lw 3 lw 1741 1261 m21 6 lw 3 lw 1745 1245 m21 6 lw 3 lw 1750 1230
 m21 6 lw 3 lw 1754 1216 m21 6 lw 3 lw 1759 1203 m21 6 lw 3 lw 1763 1190 m21 6 lw 3 lw 1768 1178 m21 6 lw 3 lw 1772 1167 m21 6 lw 3 lw 1777 1157 m21 6 lw 3 lw 1781 1147 m21 6 lw 3 lw 1785 1138 m21 6 lw 3 lw 1790 1129 m21 6 lw 3 lw 1794 1121 m21 6 lw
 3 lw 1799 1113 m21 6 lw 3 lw 1803 1105 m21 6 lw 3 lw 1808 1099 m21 6 lw 3 lw 1812 1092 m21 6 lw 3 lw 1816 1085 m21 6 lw 3 lw 1821 1078 m21 6 lw 3 lw 1825 1074 m21 6 lw 3 lw 1830 1067 m21 6 lw 3 lw 1834 1062 m21 6 lw 3 lw 1839 1058 m21 6 lw 3 lw 1843
 1053 m21 6 lw 3 lw 1848 1047 m21 6 lw 3 lw 1852 1041 m21 6 lw 3 lw 1856 1035 m21 6 lw 3 lw 1861 1032 m21 6 lw 3 lw 1865 1031 m21 6 lw 3 lw 1870 1026 m21 6 lw 3 lw 1874 1024 m21 6 lw 3 lw 1879 1018 m21 6 lw 3 lw 1883 1019 m21 6 lw 3 lw 1888 1010 m21
 6 lw 3 lw 1892 1004 m21 6 lw 3 lw 1896 1004 m21 6 lw 3 lw 1901 1002 m21 6 lw 3 lw 1905 998 m21 6 lw 3 lw 1910 991 m21 6 lw 3 lw 1914 997 m21 6 lw 3 lw 1919 989 m21 6 lw 3 lw 1923 989 m21 6 lw 3 lw 1928 982 m21 6 lw 3 lw 1932 970 m21 6 lw 3 lw 1936
 989 m21 6 lw 3 lw 1941 985 m21 6 lw 3 lw 1945 972 m21 6 lw 3 lw 1950 970 m21 6 lw 1954 951 m 1 Y s 3 lw 1954 961 m21 6 lw 1959 954 m 1 Y s 3 lw 1959 964 m21 6 lw 1963 948 m 2 Y s 3 lw 1963 959 m21 6 lw 3 lw 1967 968 m21 6 lw 3 lw 1972 968 m21 6 lw
 1976 948 m 2 Y s 3 lw 1976 959 m21 6 lw 1981 914 m 10 Y s 1981 942 m 2 Y s 3 lw 1981 933 m21 6 lw 1985 901 m 15 Y s 1985 934 m 4 Y s 3 lw 1985 925 m21 6 lw 1990 930 m 5 Y s 1990 954 m s 3 lw 1990 944 m21 6 lw 1994 914 m 10 Y s 1994 942 m 2 Y s 3 lw
 1994 933 m21 6 lw 1999 930 m 5 Y s 1999 954 m s 3 lw 1999 944 m21 6 lw 2003 948 m 2 Y s 3 lw 2003 959 m21 6 lw 2007 923 m 7 Y s 2007 948 m 2 Y s 3 lw 2007 939 m21 6 lw 2012 936 m 4 Y s 3 lw 2012 949 m21 6 lw 2016 944 m 3 Y s 3 lw 2016 956 m21 6 lw
 2021 914 m 10 Y s 2021 942 m 2 Y s 3 lw 2021 933 m21 6 lw 2025 901 m 15 Y s 2025 934 m 4 Y s 3 lw 2025 925 m21 6 lw 2030 914 m 10 Y s 2030 942 m 2 Y s 3 lw 2030 933 m21 6 lw 2034 901 m 15 Y s 2034 934 m 4 Y s 3 lw 2034 925 m21 6 lw 2039 827 m 59 Y s
 2039 904 m 10 Y s 3 lw 2039 895 m21 6 lw 2043 880 m 25 Y s 2043 923 m 6 Y s 3 lw 2043 914 m21 6 lw 2047 901 m 15 Y s 2047 934 m 4 Y s 3 lw 2047 925 m21 6 lw 2052 827 m 59 Y s 2052 904 m 10 Y s 3 lw 2052 895 m21 6 lw 2056 901 m 15 Y s 2056 934 m 4 Y
 s 3 lw 2056 925 m21 6 lw 2061 827 m 59 Y s 2061 904 m 10 Y s 3 lw 2061 895 m21 6 lw 2065 880 m 25 Y s 2065 923 m 6 Y s 3 lw 2065 914 m21 6 lw 2070 901 m 15 Y s 2070 934 m 4 Y s 3 lw 2070 925 m21 6 lw 2074 880 m 25 Y s 2074 923 m 6 Y s 3 lw 2074 914
 m21 6 lw 2079 827 m 59 Y s 2079 904 m 10 Y s 3 lw 2079 895 m21 6 lw 2083 901 m 15 Y s 2083 934 m 4 Y s 3 lw 2083 925 m21 6 lw 2087 880 m 25 Y s 2087 923 m 6 Y s 3 lw 2087 914 m21 6 lw 2092 914 m 10 Y s 2092 942 m 2 Y s 3 lw 2092 933 m21 6 lw 2096
 901 m 15 Y s 2096 934 m 4 Y s 3 lw 2096 925 m21 6 lw 2101 880 m 25 Y s 2101 923 m 6 Y s 3 lw 2101 914 m21 6 lw 2105 827 m 59 Y s 2105 904 m 10 Y s 3 lw 2105 895 m21 6 lw 2110 827 m 59 Y s 2110 904 m 10 Y s 3 lw 2110 895 m21 6 lw 2118 880 m 25 Y s
 2118 923 m 6 Y s 3 lw 2118 914 m21 6 lw 2123 914 m 10 Y s 2123 942 m 2 Y s 3 lw 2123 933 m21 6 lw 2127 827 m 59 Y s 2127 904 m 10 Y s 3 lw 2127 895 m21 6 lw 2136 827 m 59 Y s 2136 904 m 10 Y s 3 lw 2136 895 m21 6 lw 2141 827 m 59 Y s 2141 904 m 10 Y
 s 3 lw 2141 895 m21 6 lw 2150 880 m 25 Y s 2150 923 m 6 Y s 3 lw 2150 914 m21 6 lw 2154 901 m 15 Y s 2154 934 m 4 Y s 3 lw 2154 925 m21 6 lw 2163 901 m 15 Y s 2163 934 m 4 Y s 3 lw 2163 925 m21 6 lw 2172 880 m 25 Y s 2172 923 m 6 Y s 3 lw 2172 914
 m21 6 lw 1 0 0 c 1 1 1 c 1 0 0 c 1670 827 m 57 Y s 1670 902 m 10 Y s 3 lw 1670 893 m22 6 lw 1674 827 m 57 Y s 1674 902 m 10 Y s 3 lw 1674 893 m22 6 lw 1688 899 m 15 Y s 1688 932 m 4 Y s 3 lw 1688 923 m22 6 lw 3 lw 1692 966 m22 6 lw 3 lw 1697 987 m22
 6 lw 3 lw 1701 1041 m22 6 lw 3 lw 1705 1089 m22 6 lw 3 lw 1710 1137 m22 6 lw 3 lw 1714 1183 m22 6 lw 3 lw 1719 1228 m22 6 lw 3 lw 1723 1268 m22 6 lw 3 lw 1728 1299 m22 6 lw 3 lw 1732 1302 m22 6 lw 3 lw 1737 1286 m22 6 lw 3 lw 1741 1270 m22 6 lw 3 lw
 1745 1256 m22 6 lw 3 lw 1750 1243 m22 6 lw 3 lw 1754 1230 m22 6 lw 3 lw 1759 1218 m22 6 lw 3 lw 1763 1206 m22 6 lw 3 lw 1768 1195 m22 6 lw 3 lw 1772 1185 m22 6 lw 3 lw 1777 1175 m22 6 lw 3 lw 1781 1165 m22 6 lw 3 lw 1785 1157 m22 6 lw 3 lw 1790 1148
 m22 6 lw 3 lw 1794 1140 m22 6 lw 3 lw 1799 1133 m22 6 lw 3 lw 1803 1125 m22 6 lw 3 lw 1808 1119 m22 6 lw 3 lw 1812 1111 m22 6 lw 3 lw 1816 1105 m22 6 lw 3 lw 1821 1100 m22 6 lw 3 lw 1825 1093 m22 6 lw 3 lw 1830 1086 m22 6 lw 3 lw 1834 1083 m22 6 lw
 3 lw 1839 1076 m22 6 lw 3 lw 1843 1073 m22 6 lw 3 lw 1848 1068 m22 6 lw 3 lw 1852 1063 m22 6 lw 3 lw 1856 1059 m22 6 lw 3 lw 1861 1051 m22 6 lw 3 lw 1865 1050 m22 6 lw 3 lw 1870 1046 m22 6 lw 3 lw 1874 1042 m22 6 lw 3 lw 1879 1038 m22 6 lw 3 lw 1883
 1036 m22 6 lw 3 lw 1888 1036 m22 6 lw 3 lw 1892 1029 m22 6 lw 3 lw 1896 1021 m22 6 lw 3 lw 1901 1022 m22 6 lw 3 lw 1905 1020 m22 6 lw 3 lw 1910 1014 m22 6 lw 3 lw 1914 1009 m22 6 lw 3 lw 1919 1010 m22 6 lw 3 lw 1923 1002 m22 6 lw 3 lw 1928 1006 m22
 6 lw 3 lw 1932 1005 m22 6 lw 3 lw 1936 1000 m22 6 lw 3 lw 1941 999 m22 6 lw 3 lw 1945 1000 m22 6 lw 3 lw 1950 994 m22 6 lw 3 lw 1954 999 m22 6 lw 3 lw 1959 994 m22 6 lw 3 lw 1963 981 m22 6 lw 3 lw 1967 984 m22 6 lw 3 lw 1972 983 m22 6 lw 3 lw 1976
 982 m22 6 lw 3 lw 1981 970 m22 6 lw 3 lw 1985 973 m22 6 lw 3 lw 1990 968 m22 6 lw 3 lw 1994 973 m22 6 lw 1999 952 m 1 Y s 3 lw 1999 962 m22 6 lw 2003 949 m 1 Y s 3 lw 2003 959 m22 6 lw 2007 934 m 4 Y s 3 lw 2007 947 m22 6 lw 3 lw 2012 964 m22 6 lw
 2016 928 m 5 Y s 2016 952 m s 3 lw 2016 943 m22 6 lw 2021 943 m 2 Y s 3 lw 2021 954 m22 6 lw 2025 946 m 2 Y s 3 lw 2025 957 m22 6 lw 3 lw 2030 964 m22 6 lw 2034 921 m 7 Y s 2034 947 m 1 Y s 3 lw 2034 937 m22 6 lw 2039 946 m 2 Y s 3 lw 2039 957 m22 6
 lw 2043 912 m 10 Y s 2043 940 m 3 Y s 3 lw 2043 931 m22 6 lw 2047 899 m 15 Y s 2047 932 m 4 Y s 3 lw 2047 923 m22 6 lw 2052 928 m 5 Y s 2052 952 m s 3 lw 2052 943 m22 6 lw 2056 921 m 7 Y s 2056 947 m 1 Y s 3 lw 2056 937 m22 6 lw 2061 928 m 5 Y s
 2061 952 m s 3 lw 2061 943 m22 6 lw 2065 878 m 25 Y s 2065 921 m 6 Y s 3 lw 2065 912 m22 6 lw 2070 878 m 25 Y s 2070 921 m 6 Y s 3 lw 2070 912 m22 6 lw 2074 921 m 7 Y s 2074 947 m 1 Y s 3 lw 2074 937 m22 6 lw 2079 938 m 3 Y s 3 lw 2079 951 m22 6 lw
 2083 934 m 4 Y s 3 lw 2083 947 m22 6 lw 2087 878 m 25 Y s 2087 921 m 6 Y s 3 lw 2087 912 m22 6 lw 2092 912 m 10 Y s 2092 940 m 3 Y s 3 lw 2092 931 m22 6 lw 2096 912 m 10 Y s 2096 940 m 3 Y s 3 lw 2096 931 m22 6 lw 2101 827 m 57 Y s 2101 902 m 10 Y s
 3 lw 2101 893 m22 6 lw 2105 899 m 15 Y s 2105 932 m 4 Y s 3 lw 2105 923 m22 6 lw 2110 827 m 57 Y s 2110 902 m 10 Y s 3 lw 2110 893 m22 6 lw 2114 827 m 57 Y s 2114 902 m 10 Y s 3 lw 2114 893 m22 6 lw 2118 899 m 15 Y s 2118 932 m 4 Y s 3 lw 2118 923
 m22 6 lw 2123 912 m 10 Y s 2123 940 m 3 Y s 3 lw 2123 931 m22 6 lw 2127 912 m 10 Y s 2127 940 m 3 Y s 3 lw 2127 931 m22 6 lw 2136 878 m 25 Y s 2136 921 m 6 Y s 3 lw 2136 912 m22 6 lw 2141 899 m 15 Y s 2141 932 m 4 Y s 3 lw 2141 923 m22 6 lw 2145 878
 m 25 Y s 2145 921 m 6 Y s 3 lw 2145 912 m22 6 lw 2150 899 m 15 Y s 2150 932 m 4 Y s 3 lw 2150 923 m22 6 lw 2158 878 m 25 Y s 2158 921 m 6 Y s 3 lw 2158 912 m22 6 lw 2163 827 m 57 Y s 2163 902 m 10 Y s 3 lw 2163 893 m22 6 lw 2167 827 m 57 Y s 2167
 902 m 10 Y s 3 lw 2167 893 m22 6 lw 2172 827 m 57 Y s 2172 902 m 10 Y s 3 lw 2172 893 m22 6 lw black
 gsave  711 682 1534 725 C 1880.66 1306.9 t 0 r /Helvetica findfont 29.6502 sf 0 0 m (Centrality: 40 \255 60%) show NC gr 
 gsave  711 682 1534 725 C 1962.62 1213.55 t 0 r /Helvetica findfont 29.6502 sf 0 0 m (=1.29 GeV/c) show NC gr 
 gsave  711 682 1534 725 C 1944.41 1213.55 t 0 r /Symbol findfont 29.6502 sf 0 0 m (s) show NC gr 
 gsave  711 682 1534 725 C 1944.41 1245.42 t 0 r /Helvetica findfont 29.6502 sf 0 0 m (RC) show NC gr  3 lw /w 22 def /w2 {w 2 div} def /w3 {w 3 div} def 1911 1239 m20 6 lw
 gsave  711 682 1534 725 C 1962.62 1136.14 t 0 r /Helvetica findfont 29.6502 sf 0 0 m (=1.06 GeV/c) show NC gr 
 gsave  711 682 1534 725 C 1944.41 1136.14 t 0 r /Symbol findfont 29.6502 sf 0 0 m (s) show NC gr 
 gsave  711 682 1534 725 C 1944.41 1172.56 t 0 r /Helvetica findfont 29.6502 sf 0 0 m (RC w/o lead. jet) show NC gr  0 0 1 c 3 lw /w 19 def /w2 {w 2 div} def /w3 {w 3 div} def 1911 1164 m21 6 lw black
 gsave  711 682 1534 725 C 1962.62 1061 t 0 r /Helvetica findfont 29.6502 sf 0 0 m (=1.28 GeV/c) show NC gr 
 gsave  711 682 1534 725 C 1944.41 1061 t 0 r /Symbol findfont 29.6502 sf 0 0 m (s) show NC gr 
 gsave  711 682 1534 725 C 1944.41 1097.43 t 0 r /Helvetica findfont 29.6502 sf 0 0 m (RC partial) show NC gr  1 0 0 c 3 lw 1911 1089 m22 6 lw black 3 lw 0.999 0.999 0.999 c 710 682 23 14 bf black 1 1 1 c 533 511 129 117 bf black 533 511 129 117 bl 1
 1 1 c 533 511 129 117 bf black 533 511 129 117 bl 0 0 0.6 c 1 1 1 c black 0 0 0.6 c 129 117 m 533 X s black 129 117 m 533 X s
 gsave  710 682 23 14 C 648.895 54.6438 t 0 r /Helvetica findfont 38.7733 sf 0 0 m (\)) show NC gr 
 gsave  710 682 23 14 C 626.127 54.6438 t 0 r /Helvetica-Oblique findfont 38.7733 sf 0 0 m (c) show NC gr 
 gsave  710 682 23 14 C 512.285 54.6438 t 0 r /Helvetica findfont 38.7733 sf 0 0 m ( \(GeV/) show NC gr 
 gsave  710 682 23 14 C 496.348 31.8755 t 0 r /Helvetica findfont 25.0886 sf 0 0 m (T) show NC gr 
 gsave  710 682 23 14 C 471.303 54.6438 t 0 r /Helvetica-Oblique findfont 38.7733 sf 0 0 m (p) show NC gr 
 gsave  710 682 23 14 C 457.642 54.6438 t 0 r /Helvetica findfont 38.7733 sf 0 0 m ( ) show NC gr 
 gsave  710 682 23 14 C 437.15 54.6438 t 0 r /Symbol findfont 38.7733 sf 0 0 m (d) show NC gr  129 132 m -15 Y s 147 124 m -7 Y s 165 124 m -7 Y s 183 124 m -7 Y s 200 124 m -7 Y s 218 132 m -15 Y s 236 124 m -7 Y s 254 124 m -7 Y s 271 124 m -7 Y s
 289 124 m -7 Y s 307 132 m -15 Y s 325 124 m -7 Y s 342 124 m -7 Y s 360 124 m -7 Y s 378 124 m -7 Y s 396 132 m -15 Y s 413 124 m -7 Y s 431 124 m -7 Y s 449 124 m -7 Y s 467 124 m -7 Y s 485 132 m -15 Y s 502 124 m -7 Y s 520 124 m -7 Y s 538 124
 m -7 Y s 556 124 m -7 Y s 573 132 m -15 Y s 591 124 m -7 Y s 609 124 m -7 Y s 627 124 m -7 Y s 644 124 m -7 Y s 662 132 m -15 Y s
 gsave  710 682 23 14 C 104.734 86.5193 t 0 r /Helvetica findfont 31.931 sf 0 0 m (\25510) show NC gr 
 gsave  710 682 23 14 C 207.191 86.5193 t 0 r /Helvetica findfont 31.931 sf 0 0 m (0) show NC gr 
 gsave  710 682 23 14 C 286.88 86.5193 t 0 r /Helvetica findfont 31.931 sf 0 0 m (10) show NC gr 
 gsave  710 682 23 14 C 375.676 86.5193 t 0 r /Helvetica findfont 31.931 sf 0 0 m (20) show NC gr 
 gsave  710 682 23 14 C 464.472 86.5193 t 0 r /Helvetica findfont 31.931 sf 0 0 m (30) show NC gr 
 gsave  710 682 23 14 C 553.268 86.5193 t 0 r /Helvetica findfont 31.931 sf 0 0 m (40) show NC gr 
 gsave  710 682 23 14 C 642.064 86.5193 t 0 r /Helvetica findfont 31.931 sf 0 0 m (50) show NC gr  129 117 m 511 Y s
 gsave  710 682 23 14 C 63.7511 391.614 t 90 r /Helvetica findfont 38.7733 sf 0 0 m (probability/bin) show NC gr  145 117 m -16 X s
 gsave  710 682 23 14 C 102.457 118.395 t 0 r /Helvetica findfont 20.5271 sf 0 0 m (\2558) show NC gr 
 gsave  710 682 23 14 C 68.3047 102.457 t 0 r /Helvetica findfont 31.931 sf 0 0 m (10) show NC gr  137 136 m -8 X s 137 147 m -8 X s 137 155 m -8 X s 137 161 m -8 X s 137 166 m -8 X s 137 171 m -8 X s 137 174 m -8 X s 137 178 m -8 X s 145 180 m -16 X
 s
 gsave  710 682 23 14 C 102.457 179.869 t 0 r /Helvetica findfont 20.5271 sf 0 0 m (\2557) show NC gr 
 gsave  710 682 23 14 C 68.3047 166.208 t 0 r /Helvetica findfont 31.931 sf 0 0 m (10) show NC gr  137 200 m -8 X s 137 211 m -8 X s 137 219 m -8 X s 137 225 m -8 X s 137 230 m -8 X s 137 234 m -8 X s 137 238 m -8 X s 137 241 m -8 X s 145 244 m -16 X
 s
 gsave  710 682 23 14 C 102.457 245.897 t 0 r /Helvetica findfont 20.5271 sf 0 0 m (\2556) show NC gr 
 gsave  710 682 23 14 C 68.3047 229.959 t 0 r /Helvetica findfont 31.931 sf 0 0 m (10) show NC gr  137 264 m -8 X s 137 275 m -8 X s 137 283 m -8 X s 137 289 m -8 X s 137 294 m -8 X s 137 298 m -8 X s 137 302 m -8 X s 137 305 m -8 X s 145 308 m -16 X
 s
 gsave  710 682 23 14 C 102.457 309.648 t 0 r /Helvetica findfont 20.5271 sf 0 0 m (\2555) show NC gr 
 gsave  710 682 23 14 C 68.3047 293.71 t 0 r /Helvetica findfont 31.931 sf 0 0 m (10) show NC gr  137 328 m -8 X s 137 339 m -8 X s 137 347 m -8 X s 137 353 m -8 X s 137 358 m -8 X s 137 362 m -8 X s 137 366 m -8 X s 137 369 m -8 X s 145 372 m -16 X
 s
 gsave  710 682 23 14 C 102.457 371.122 t 0 r /Helvetica findfont 20.5271 sf 0 0 m (\2554) show NC gr 
 gsave  710 682 23 14 C 68.3047 357.461 t 0 r /Helvetica findfont 31.931 sf 0 0 m (10) show NC gr  137 391 m -8 X s 137 403 m -8 X s 137 411 m -8 X s 137 417 m -8 X s 137 422 m -8 X s 137 426 m -8 X s 137 430 m -8 X s 137 433 m -8 X s 145 436 m -16 X
 s
 gsave  710 682 23 14 C 102.457 437.15 t 0 r /Helvetica findfont 20.5271 sf 0 0 m (\2553) show NC gr 
 gsave  710 682 23 14 C 68.3047 421.212 t 0 r /Helvetica findfont 31.931 sf 0 0 m (10) show NC gr  137 455 m -8 X s 137 467 m -8 X s 137 475 m -8 X s 137 481 m -8 X s 137 486 m -8 X s 137 490 m -8 X s 137 494 m -8 X s 137 497 m -8 X s 145 500 m -16 X
 s
 gsave  710 682 23 14 C 102.457 498.624 t 0 r /Helvetica findfont 20.5271 sf 0 0 m (\2552) show NC gr 
 gsave  710 682 23 14 C 68.3047 484.964 t 0 r /Helvetica findfont 31.931 sf 0 0 m (10) show NC gr  137 519 m -8 X s 137 531 m -8 X s 137 539 m -8 X s 137 545 m -8 X s 137 550 m -8 X s 137 554 m -8 X s 137 558 m -8 X s 137 561 m -8 X s 145 564 m -16 X
 s
 gsave  710 682 23 14 C 104.734 562.375 t 0 r /Helvetica findfont 20.5271 sf 0 0 m (\2551) show NC gr 
 gsave  710 682 23 14 C 70.5815 548.715 t 0 r /Helvetica findfont 31.931 sf 0 0 m (10) show NC gr  137 583 m -8 X s 137 595 m -8 X s 137 603 m -8 X s 137 609 m -8 X s 137 614 m -8 X s 137 618 m -8 X s 137 622 m -8 X s 137 625 m -8 X s 145 628 m -16 X
 s
 gsave  710 682 23 14 C 122.865 615.216 t 0 r  -17 0 t /Helvetica findfont 31.931 sf 0 0 m (1) show NC gr  6 lw 1 1 1 c black 167 117 m 64 Y s 167 200 m 10 Y s 3 lw /w 22 def /w2 {w 2 div} def /w3 {w 3 div} def 167 191 m20 6 lw 171 117 m 64 Y s 171
 200 m 10 Y s 3 lw 171 191 m20 6 lw 176 117 m 64 Y s 176 200 m 10 Y s 3 lw 176 191 m20 6 lw 180 219 m 7 Y s 180 244 m 2 Y s 3 lw 180 235 m20 6 lw 185 176 m 25 Y s 185 219 m 6 Y s 3 lw 185 210 m20 6 lw 3 lw 189 280 m20 6 lw 3 lw 194 323 m20 6 lw 3 lw
 198 376 m20 6 lw 3 lw 203 428 m20 6 lw 3 lw 207 482 m20 6 lw 3 lw 211 535 m20 6 lw 3 lw 216 584 m20 6 lw 3 lw 220 601 m20 6 lw 3 lw 225 580 m20 6 lw 3 lw 229 560 m20 6 lw 3 lw 234 542 m20 6 lw 3 lw 238 526 m20 6 lw 3 lw 243 511 m20 6 lw 3 lw 247 497
 m20 6 lw 3 lw 251 484 m20 6 lw 3 lw 256 472 m20 6 lw 3 lw 260 461 m20 6 lw 3 lw 265 451 m20 6 lw 3 lw 269 441 m20 6 lw 3 lw 274 432 m20 6 lw 3 lw 278 424 m20 6 lw 3 lw 282 417 m20 6 lw 3 lw 287 409 m20 6 lw 3 lw 291 400 m20 6 lw 3 lw 296 394 m20 6
 lw 3 lw 300 386 m20 6 lw 3 lw 305 382 m20 6 lw 3 lw 309 375 m20 6 lw 3 lw 314 370 m20 6 lw 3 lw 318 365 m20 6 lw 3 lw 322 360 m20 6 lw 3 lw 327 353 m20 6 lw 3 lw 331 350 m20 6 lw 3 lw 336 345 m20 6 lw 3 lw 340 343 m20 6 lw 3 lw 345 337 m20 6 lw 3 lw
 349 334 m20 6 lw 3 lw 354 330 m20 6 lw 3 lw 358 324 m20 6 lw 3 lw 362 323 m20 6 lw 3 lw 367 315 m20 6 lw 3 lw 371 317 m20 6 lw 3 lw 376 310 m20 6 lw 3 lw 380 307 m20 6 lw 3 lw 385 305 m20 6 lw 3 lw 389 299 m20 6 lw 3 lw 393 301 m20 6 lw 3 lw 398 300
 m20 6 lw 3 lw 402 293 m20 6 lw 3 lw 407 289 m20 6 lw 3 lw 411 285 m20 6 lw 3 lw 416 282 m20 6 lw 3 lw 420 288 m20 6 lw 3 lw 425 275 m20 6 lw 3 lw 429 278 m20 6 lw 3 lw 433 274 m20 6 lw 3 lw 438 275 m20 6 lw 3 lw 442 269 m20 6 lw 3 lw 447 262 m20 6
 lw 451 247 m 1 Y s 3 lw 451 257 m20 6 lw 3 lw 456 266 m20 6 lw 3 lw 460 271 m20 6 lw 465 219 m 7 Y s 465 244 m 2 Y s 3 lw 465 235 m20 6 lw 469 231 m 4 Y s 3 lw 469 245 m20 6 lw 473 250 m s 3 lw 473 260 m20 6 lw 478 226 m 5 Y s 478 249 m 1 Y s 3 lw
 478 240 m20 6 lw 482 240 m 2 Y s 3 lw 482 252 m20 6 lw 487 240 m 2 Y s 3 lw 487 252 m20 6 lw 491 226 m 5 Y s 491 249 m 1 Y s 3 lw 491 240 m20 6 lw 496 219 m 7 Y s 496 244 m 2 Y s 3 lw 496 235 m20 6 lw 500 250 m s 3 lw 500 260 m20 6 lw 505 250 m s 3
 lw 505 260 m20 6 lw 509 219 m 7 Y s 509 244 m 2 Y s 3 lw 509 235 m20 6 lw 513 210 m 10 Y s 513 238 m 2 Y s 3 lw 513 229 m20 6 lw 518 236 m 3 Y s 3 lw 518 248 m20 6 lw 522 240 m 2 Y s 3 lw 522 252 m20 6 lw 531 226 m 5 Y s 531 249 m 1 Y s 3 lw 531 240
 m20 6 lw 536 176 m 25 Y s 536 219 m 6 Y s 3 lw 536 210 m20 6 lw 540 226 m 5 Y s 540 249 m 1 Y s 3 lw 540 240 m20 6 lw 544 176 m 25 Y s 544 219 m 6 Y s 3 lw 544 210 m20 6 lw 549 117 m 64 Y s 549 200 m 10 Y s 3 lw 549 191 m20 6 lw 553 117 m 64 Y s 553
 200 m 10 Y s 3 lw 553 191 m20 6 lw 558 197 m 15 Y s 558 230 m 4 Y s 3 lw 558 221 m20 6 lw 562 210 m 10 Y s 562 238 m 2 Y s 3 lw 562 229 m20 6 lw 567 117 m 64 Y s 567 200 m 10 Y s 3 lw 567 191 m20 6 lw 571 117 m 64 Y s 571 200 m 10 Y s 3 lw 571 191
 m20 6 lw 576 176 m 25 Y s 576 219 m 6 Y s 3 lw 576 210 m20 6 lw 580 176 m 25 Y s 580 219 m 6 Y s 3 lw 580 210 m20 6 lw 589 117 m 64 Y s 589 200 m 10 Y s 3 lw 589 191 m20 6 lw 598 117 m 64 Y s 598 200 m 10 Y s 3 lw 598 191 m20 6 lw 607 176 m 25 Y s
 607 219 m 6 Y s 3 lw 607 210 m20 6 lw 620 117 m 64 Y s 620 200 m 10 Y s 3 lw 620 191 m20 6 lw 624 117 m 64 Y s 624 200 m 10 Y s 3 lw 624 191 m20 6 lw 629 176 m 25 Y s 629 219 m 6 Y s 3 lw 629 210 m20 6 lw 633 176 m 25 Y s 633 219 m 6 Y s 3 lw 633
 210 m20 6 lw 638 176 m 25 Y s 638 219 m 6 Y s 3 lw 638 210 m20 6 lw 651 117 m 64 Y s 651 200 m 10 Y s 3 lw 651 191 m20 6 lw 656 117 m 64 Y s 656 200 m 10 Y s 3 lw 656 191 m20 6 lw 0 0 1 c 1 1 1 c 0 0 1 c 167 117 m 67 Y s 167 202 m 10 Y s 3 lw /w 18
 def /w2 {w 2 div} def /w3 {w 3 div} def 167 193 m21 6 lw 171 178 m 25 Y s 171 221 m 6 Y s 3 lw 171 212 m21 6 lw 180 199 m 15 Y s 180 232 m 4 Y s 3 lw 180 223 m21 6 lw 185 238 m 3 Y s 3 lw 185 251 m21 6 lw 3 lw 189 290 m21 6 lw 3 lw 194 335 m21 6 lw
 3 lw 198 386 m21 6 lw 3 lw 203 438 m21 6 lw 3 lw 207 491 m21 6 lw 3 lw 211 543 m21 6 lw 3 lw 216 590 m21 6 lw 3 lw 220 604 m21 6 lw 3 lw 225 576 m21 6 lw 3 lw 229 549 m21 6 lw 3 lw 234 528 m21 6 lw 3 lw 238 510 m21 6 lw 3 lw 243 494 m21 6 lw 3 lw
 247 479 m21 6 lw 3 lw 251 466 m21 6 lw 3 lw 256 453 m21 6 lw 3 lw 260 442 m21 6 lw 3 lw 265 430 m21 6 lw 3 lw 269 422 m21 6 lw 3 lw 274 412 m21 6 lw 3 lw 278 403 m21 6 lw 3 lw 282 395 m21 6 lw 3 lw 287 388 m21 6 lw 3 lw 291 380 m21 6 lw 3 lw 296 375
 m21 6 lw 3 lw 300 365 m21 6 lw 3 lw 305 361 m21 6 lw 3 lw 309 354 m21 6 lw 3 lw 314 347 m21 6 lw 3 lw 318 344 m21 6 lw 3 lw 322 337 m21 6 lw 3 lw 327 327 m21 6 lw 3 lw 331 331 m21 6 lw 3 lw 336 324 m21 6 lw 3 lw 340 318 m21 6 lw 3 lw 345 315 m21 6
 lw 3 lw 349 307 m21 6 lw 3 lw 354 308 m21 6 lw 3 lw 358 310 m21 6 lw 3 lw 362 297 m21 6 lw 3 lw 367 293 m21 6 lw 3 lw 371 296 m21 6 lw 3 lw 376 289 m21 6 lw 3 lw 380 287 m21 6 lw 3 lw 385 280 m21 6 lw 3 lw 389 284 m21 6 lw 3 lw 393 280 m21 6 lw 3 lw
 398 273 m21 6 lw 402 249 m 1 Y s 3 lw 402 259 m21 6 lw 407 243 m 2 Y s 3 lw 407 254 m21 6 lw 3 lw 411 268 m21 6 lw 416 221 m 7 Y s 416 247 m 1 Y s 3 lw 416 237 m21 6 lw 3 lw 420 266 m21 6 lw 425 238 m 3 Y s 3 lw 425 251 m21 6 lw 429 228 m 5 Y s 429
 252 m s 3 lw 429 243 m21 6 lw 3 lw 433 264 m21 6 lw 438 228 m 5 Y s 438 252 m s 3 lw 438 243 m21 6 lw 442 228 m 5 Y s 442 252 m s 3 lw 442 243 m21 6 lw 447 228 m 5 Y s 447 252 m s 3 lw 447 243 m21 6 lw 451 221 m 7 Y s 451 247 m 1 Y s 3 lw 451 237
 m21 6 lw 456 234 m 4 Y s 3 lw 456 247 m21 6 lw 460 199 m 15 Y s 460 232 m 4 Y s 3 lw 460 223 m21 6 lw 465 221 m 7 Y s 465 247 m 1 Y s 3 lw 465 237 m21 6 lw 469 228 m 5 Y s 469 252 m s 3 lw 469 243 m21 6 lw 473 178 m 25 Y s 473 221 m 6 Y s 3 lw 473
 212 m21 6 lw 478 221 m 7 Y s 478 247 m 1 Y s 3 lw 478 237 m21 6 lw 482 199 m 15 Y s 482 232 m 4 Y s 3 lw 482 223 m21 6 lw 487 178 m 25 Y s 487 221 m 6 Y s 3 lw 487 212 m21 6 lw 491 117 m 67 Y s 491 202 m 10 Y s 3 lw 491 193 m21 6 lw 496 178 m 25 Y s
 496 221 m 6 Y s 3 lw 496 212 m21 6 lw 500 199 m 15 Y s 500 232 m 4 Y s 3 lw 500 223 m21 6 lw 505 117 m 67 Y s 505 202 m 10 Y s 3 lw 505 193 m21 6 lw 509 212 m 10 Y s 509 240 m 3 Y s 3 lw 509 231 m21 6 lw 513 178 m 25 Y s 513 221 m 6 Y s 3 lw 513 212
 m21 6 lw 522 234 m 4 Y s 3 lw 522 247 m21 6 lw 527 199 m 15 Y s 527 232 m 4 Y s 3 lw 527 223 m21 6 lw 531 178 m 25 Y s 531 221 m 6 Y s 3 lw 531 212 m21 6 lw 536 117 m 67 Y s 536 202 m 10 Y s 3 lw 536 193 m21 6 lw 540 199 m 15 Y s 540 232 m 4 Y s 3
 lw 540 223 m21 6 lw 544 212 m 10 Y s 544 240 m 3 Y s 3 lw 544 231 m21 6 lw 549 178 m 25 Y s 549 221 m 6 Y s 3 lw 549 212 m21 6 lw 553 117 m 67 Y s 553 202 m 10 Y s 3 lw 553 193 m21 6 lw 558 178 m 25 Y s 558 221 m 6 Y s 3 lw 558 212 m21 6 lw 562 117
 m 67 Y s 562 202 m 10 Y s 3 lw 562 193 m21 6 lw 580 117 m 67 Y s 580 202 m 10 Y s 3 lw 580 193 m21 6 lw 584 178 m 25 Y s 584 221 m 6 Y s 3 lw 584 212 m21 6 lw 598 178 m 25 Y s 598 221 m 6 Y s 3 lw 598 212 m21 6 lw 602 178 m 25 Y s 602 221 m 6 Y s 3
 lw 602 212 m21 6 lw 638 178 m 25 Y s 638 221 m 6 Y s 3 lw 638 212 m21 6 lw 1 0 0 c 1 1 1 c 1 0 0 c 171 117 m 65 Y s 171 200 m 10 Y s 3 lw 171 191 m22 6 lw 176 117 m 65 Y s 176 200 m 10 Y s 3 lw 176 191 m22 6 lw 180 210 m 10 Y s 180 238 m 3 Y s 3 lw
 180 229 m22 6 lw 185 226 m 5 Y s 185 250 m s 3 lw 185 241 m22 6 lw 3 lw 189 277 m22 6 lw 3 lw 194 324 m22 6 lw 3 lw 198 376 m22 6 lw 3 lw 203 429 m22 6 lw 3 lw 207 483 m22 6 lw 3 lw 211 536 m22 6 lw 3 lw 216 585 m22 6 lw 3 lw 220 601 m22 6 lw 3 lw
 225 579 m22 6 lw 3 lw 229 559 m22 6 lw 3 lw 234 541 m22 6 lw 3 lw 238 525 m22 6 lw 3 lw 243 510 m22 6 lw 3 lw 247 496 m22 6 lw 3 lw 251 483 m22 6 lw 3 lw 256 471 m22 6 lw 3 lw 260 460 m22 6 lw 3 lw 265 449 m22 6 lw 3 lw 269 440 m22 6 lw 3 lw 274 431
 m22 6 lw 3 lw 278 423 m22 6 lw 3 lw 282 414 m22 6 lw 3 lw 287 408 m22 6 lw 3 lw 291 400 m22 6 lw 3 lw 296 393 m22 6 lw 3 lw 300 387 m22 6 lw 3 lw 305 380 m22 6 lw 3 lw 309 372 m22 6 lw 3 lw 314 368 m22 6 lw 3 lw 318 365 m22 6 lw 3 lw 322 358 m22 6
 lw 3 lw 327 352 m22 6 lw 3 lw 331 349 m22 6 lw 3 lw 336 341 m22 6 lw 3 lw 340 338 m22 6 lw 3 lw 345 335 m22 6 lw 3 lw 349 330 m22 6 lw 3 lw 354 324 m22 6 lw 3 lw 358 322 m22 6 lw 3 lw 362 320 m22 6 lw 3 lw 367 321 m22 6 lw 3 lw 371 313 m22 6 lw 3 lw
 376 314 m22 6 lw 3 lw 380 304 m22 6 lw 3 lw 385 302 m22 6 lw 3 lw 389 299 m22 6 lw 3 lw 393 300 m22 6 lw 3 lw 398 288 m22 6 lw 3 lw 402 290 m22 6 lw 3 lw 407 287 m22 6 lw 3 lw 411 281 m22 6 lw 3 lw 416 280 m22 6 lw 3 lw 420 271 m22 6 lw 3 lw 425 279
 m22 6 lw 3 lw 429 277 m22 6 lw 3 lw 433 266 m22 6 lw 3 lw 438 266 m22 6 lw 442 250 m 1 Y s 3 lw 442 260 m22 6 lw 3 lw 447 275 m22 6 lw 3 lw 451 262 m22 6 lw 456 244 m 2 Y s 3 lw 456 255 m22 6 lw 460 236 m 3 Y s 3 lw 460 249 m22 6 lw 465 176 m 25 Y s
 465 219 m 6 Y s 3 lw 465 210 m22 6 lw 469 247 m 1 Y s 3 lw 469 257 m22 6 lw 473 236 m 3 Y s 3 lw 473 249 m22 6 lw 478 210 m 10 Y s 478 238 m 3 Y s 3 lw 478 229 m22 6 lw 482 176 m 25 Y s 482 219 m 6 Y s 3 lw 482 210 m22 6 lw 487 236 m 3 Y s 3 lw 487
 249 m22 6 lw 491 197 m 15 Y s 491 230 m 4 Y s 3 lw 491 221 m22 6 lw 496 226 m 5 Y s 496 250 m s 3 lw 496 241 m22 6 lw 500 236 m 3 Y s 3 lw 500 249 m22 6 lw 505 219 m 7 Y s 505 245 m 1 Y s 3 lw 505 235 m22 6 lw 509 219 m 7 Y s 509 245 m 1 Y s 3 lw
 509 235 m22 6 lw 513 210 m 10 Y s 513 238 m 3 Y s 3 lw 513 229 m22 6 lw 518 197 m 15 Y s 518 230 m 4 Y s 3 lw 518 221 m22 6 lw 522 176 m 25 Y s 522 219 m 6 Y s 3 lw 522 210 m22 6 lw 527 117 m 65 Y s 527 200 m 10 Y s 3 lw 527 191 m22 6 lw 531 236 m 3
 Y s 3 lw 531 249 m22 6 lw 536 226 m 5 Y s 536 250 m s 3 lw 536 241 m22 6 lw 540 210 m 10 Y s 540 238 m 3 Y s 3 lw 540 229 m22 6 lw 544 197 m 15 Y s 544 230 m 4 Y s 3 lw 544 221 m22 6 lw 549 210 m 10 Y s 549 238 m 3 Y s 3 lw 549 229 m22 6 lw 553 117
 m 65 Y s 553 200 m 10 Y s 3 lw 553 191 m22 6 lw 562 197 m 15 Y s 562 230 m 4 Y s 3 lw 562 221 m22 6 lw 567 197 m 15 Y s 567 230 m 4 Y s 3 lw 567 221 m22 6 lw 571 197 m 15 Y s 571 230 m 4 Y s 3 lw 571 221 m22 6 lw 576 117 m 65 Y s 576 200 m 10 Y s 3
 lw 576 191 m22 6 lw 580 117 m 65 Y s 580 200 m 10 Y s 3 lw 580 191 m22 6 lw 584 210 m 10 Y s 584 238 m 3 Y s 3 lw 584 229 m22 6 lw 607 197 m 15 Y s 607 230 m 4 Y s 3 lw 607 221 m22 6 lw 611 117 m 65 Y s 611 200 m 10 Y s 3 lw 611 191 m22 6 lw 616 197
 m 15 Y s 616 230 m 4 Y s 3 lw 616 221 m22 6 lw 620 117 m 65 Y s 620 200 m 10 Y s 3 lw 620 191 m22 6 lw 629 176 m 25 Y s 629 219 m 6 Y s 3 lw 629 210 m22 6 lw 633 117 m 65 Y s 633 200 m 10 Y s 3 lw 633 191 m22 6 lw 638 197 m 15 Y s 638 230 m 4 Y s 3
 lw 638 221 m22 6 lw 651 117 m 65 Y s 651 200 m 10 Y s 3 lw 651 191 m22 6 lw 656 176 m 25 Y s 656 219 m 6 Y s 3 lw 656 210 m22 6 lw black
 gsave  710 682 23 14 C 368.845 596.528 t 0 r /Helvetica findfont 29.6502 sf 0 0 m (Centrality: 60 \255 80%) show NC gr 
 gsave  710 682 23 14 C 450.811 503.178 t 0 r /Helvetica findfont 29.6502 sf 0 0 m (=1.05 GeV/c) show NC gr 
 gsave  710 682 23 14 C 432.597 503.178 t 0 r /Symbol findfont 29.6502 sf 0 0 m (s) show NC gr 
 gsave  710 682 23 14 C 432.597 535.054 t 0 r /Helvetica findfont 29.6502 sf 0 0 m (RC) show NC gr  3 lw /w 22 def /w2 {w 2 div} def /w3 {w 3 div} def 399 529 m20 6 lw
 gsave  710 682 23 14 C 450.811 425.766 t 0 r /Helvetica findfont 29.6502 sf 0 0 m (=0.83 GeV/c) show NC gr 
 gsave  710 682 23 14 C 432.597 425.766 t 0 r /Symbol findfont 29.6502 sf 0 0 m (s) show NC gr 
 gsave  710 682 23 14 C 432.597 462.195 t 0 r /Helvetica findfont 29.6502 sf 0 0 m (RC w/o lead. jet) show NC gr  0 0 1 c 3 lw /w 18 def /w2 {w 2 div} def /w3 {w 3 div} def 399 454 m21 6 lw black
 gsave  710 682 23 14 C 450.811 350.631 t 0 r /Helvetica findfont 29.6502 sf 0 0 m (=1.03 GeV/c) show NC gr 
 gsave  710 682 23 14 C 432.597 350.631 t 0 r /Symbol findfont 29.6502 sf 0 0 m (s) show NC gr 
 gsave  710 682 23 14 C 432.597 387.06 t 0 r /Helvetica findfont 29.6502 sf 0 0 m (RC partial) show NC gr  1 0 0 c 3 lw 399 379 m22 6 lw black 3 lw 0.999 0.999 0.999 c 710 682 779 14 bf black 1 1 1 c 533 511 885 117 bf black 533 511 885 117 bl 1 1 1
 c 533 511 885 117 bf black 533 511 885 117 bl 0 0 0.6 c 1 1 1 c black 0 0 0.6 c 885 117 m 533 X s black 885 117 m 533 X s
 gsave  710 682 779 14 C 1404.8 54.6438 t 0 r /Helvetica findfont 38.7733 sf 0 0 m (\)) show NC gr 
 gsave  710 682 779 14 C 1382.03 54.6438 t 0 r /Helvetica-Oblique findfont 38.7733 sf 0 0 m (c) show NC gr 
 gsave  710 682 779 14 C 1268.19 54.6438 t 0 r /Helvetica findfont 38.7733 sf 0 0 m ( \(GeV/) show NC gr 
 gsave  710 682 779 14 C 1252.25 31.8755 t 0 r /Helvetica findfont 25.0886 sf 0 0 m (T) show NC gr 
 gsave  710 682 779 14 C 1227.21 54.6438 t 0 r /Helvetica-Oblique findfont 38.7733 sf 0 0 m (p) show NC gr 
 gsave  710 682 779 14 C 1213.55 54.6438 t 0 r /Helvetica findfont 38.7733 sf 0 0 m ( ) show NC gr 
 gsave  710 682 779 14 C 1193.06 54.6438 t 0 r /Symbol findfont 38.7733 sf 0 0 m (d) show NC gr  885 132 m -15 Y s 903 124 m -7 Y s 921 124 m -7 Y s 938 124 m -7 Y s 956 124 m -7 Y s 974 132 m -15 Y s 992 124 m -7 Y s 1010 124 m -7 Y s 1027 124 m -7
 Y s 1045 124 m -7 Y s 1063 132 m -15 Y s 1081 124 m -7 Y s 1098 124 m -7 Y s 1116 124 m -7 Y s 1134 124 m -7 Y s 1152 132 m -15 Y s 1169 124 m -7 Y s 1187 124 m -7 Y s 1205 124 m -7 Y s 1223 124 m -7 Y s 1240 132 m -15 Y s 1258 124 m -7 Y s 1276 124
 m -7 Y s 1294 124 m -7 Y s 1311 124 m -7 Y s 1329 132 m -15 Y s 1347 124 m -7 Y s 1365 124 m -7 Y s 1383 124 m -7 Y s 1400 124 m -7 Y s 1418 132 m -15 Y s
 gsave  710 682 779 14 C 860.639 86.5193 t 0 r /Helvetica findfont 31.931 sf 0 0 m (\25510) show NC gr 
 gsave  710 682 779 14 C 963.096 86.5193 t 0 r /Helvetica findfont 31.931 sf 0 0 m (0) show NC gr 
 gsave  710 682 779 14 C 1042.79 86.5193 t 0 r /Helvetica findfont 31.931 sf 0 0 m (10) show NC gr 
 gsave  710 682 779 14 C 1131.58 86.5193 t 0 r /Helvetica findfont 31.931 sf 0 0 m (20) show NC gr 
 gsave  710 682 779 14 C 1220.38 86.5193 t 0 r /Helvetica findfont 31.931 sf 0 0 m (30) show NC gr 
 gsave  710 682 779 14 C 1309.17 86.5193 t 0 r /Helvetica findfont 31.931 sf 0 0 m (40) show NC gr 
 gsave  710 682 779 14 C 1397.97 86.5193 t 0 r /Helvetica findfont 31.931 sf 0 0 m (50) show NC gr  885 117 m 511 Y s
 gsave  710 682 779 14 C 819.657 391.614 t 90 r /Helvetica findfont 38.7733 sf 0 0 m (probability/bin) show NC gr  901 117 m -16 X s
 gsave  710 682 779 14 C 858.363 118.395 t 0 r /Helvetica findfont 20.5271 sf 0 0 m (\2558) show NC gr 
 gsave  710 682 779 14 C 824.21 102.457 t 0 r /Helvetica findfont 31.931 sf 0 0 m (10) show NC gr  893 136 m -8 X s 893 147 m -8 X s 893 155 m -8 X s 893 161 m -8 X s 893 166 m -8 X s 893 171 m -8 X s 893 174 m -8 X s 893 178 m -8 X s 901 180 m -16 X
 s
 gsave  710 682 779 14 C 858.363 179.869 t 0 r /Helvetica findfont 20.5271 sf 0 0 m (\2557) show NC gr 
 gsave  710 682 779 14 C 824.21 166.208 t 0 r /Helvetica findfont 31.931 sf 0 0 m (10) show NC gr  893 200 m -8 X s 893 211 m -8 X s 893 219 m -8 X s 893 225 m -8 X s 893 230 m -8 X s 893 234 m -8 X s 893 238 m -8 X s 893 241 m -8 X s 901 244 m -16 X
 s
 gsave  710 682 779 14 C 858.363 245.897 t 0 r /Helvetica findfont 20.5271 sf 0 0 m (\2556) show NC gr 
 gsave  710 682 779 14 C 824.21 229.959 t 0 r /Helvetica findfont 31.931 sf 0 0 m (10) show NC gr  893 264 m -8 X s 893 275 m -8 X s 893 283 m -8 X s 893 289 m -8 X s 893 294 m -8 X s 893 298 m -8 X s 893 302 m -8 X s 893 305 m -8 X s 901 308 m -16 X
 s
 gsave  710 682 779 14 C 858.363 309.648 t 0 r /Helvetica findfont 20.5271 sf 0 0 m (\2555) show NC gr 
 gsave  710 682 779 14 C 824.21 293.71 t 0 r /Helvetica findfont 31.931 sf 0 0 m (10) show NC gr  893 328 m -8 X s 893 339 m -8 X s 893 347 m -8 X s 893 353 m -8 X s 893 358 m -8 X s 893 362 m -8 X s 893 366 m -8 X s 893 369 m -8 X s 901 372 m -16 X
 s
 gsave  710 682 779 14 C 858.363 371.122 t 0 r /Helvetica findfont 20.5271 sf 0 0 m (\2554) show NC gr 
 gsave  710 682 779 14 C 824.21 357.461 t 0 r /Helvetica findfont 31.931 sf 0 0 m (10) show NC gr  893 391 m -8 X s 893 403 m -8 X s 893 411 m -8 X s 893 417 m -8 X s 893 422 m -8 X s 893 426 m -8 X s 893 430 m -8 X s 893 433 m -8 X s 901 436 m -16 X
 s
 gsave  710 682 779 14 C 858.363 437.15 t 0 r /Helvetica findfont 20.5271 sf 0 0 m (\2553) show NC gr 
 gsave  710 682 779 14 C 824.21 421.212 t 0 r /Helvetica findfont 31.931 sf 0 0 m (10) show NC gr  893 455 m -8 X s 893 467 m -8 X s 893 475 m -8 X s 893 481 m -8 X s 893 486 m -8 X s 893 490 m -8 X s 893 494 m -8 X s 893 497 m -8 X s 901 500 m -16 X
 s
 gsave  710 682 779 14 C 858.363 498.624 t 0 r /Helvetica findfont 20.5271 sf 0 0 m (\2552) show NC gr 
 gsave  710 682 779 14 C 824.21 484.964 t 0 r /Helvetica findfont 31.931 sf 0 0 m (10) show NC gr  893 519 m -8 X s 893 531 m -8 X s 893 539 m -8 X s 893 545 m -8 X s 893 550 m -8 X s 893 554 m -8 X s 893 558 m -8 X s 893 561 m -8 X s 901 564 m -16 X
 s
 gsave  710 682 779 14 C 860.639 562.375 t 0 r /Helvetica findfont 20.5271 sf 0 0 m (\2551) show NC gr 
 gsave  710 682 779 14 C 826.487 548.715 t 0 r /Helvetica findfont 31.931 sf 0 0 m (10) show NC gr  893 583 m -8 X s 893 595 m -8 X s 893 603 m -8 X s 893 609 m -8 X s 893 614 m -8 X s 893 618 m -8 X s 893 622 m -8 X s 893 625 m -8 X s 901 628 m -16
 X s
 gsave  710 682 779 14 C 878.77 615.216 t 0 r  -17 0 t /Helvetica findfont 31.931 sf 0 0 m (1) show NC gr  6 lw 1 1 1 c black 936 197 m 25 Y s 936 241 m 5 Y s 3 lw /w 21 def /w2 {w 2 div} def /w3 {w 3 div} def 936 231 m20 6 lw 941 197 m 25 Y s 941
 241 m 5 Y s 3 lw 941 231 m20 6 lw 945 219 m 15 Y s 945 252 m 3 Y s 3 lw 945 243 m20 6 lw 950 262 m 2 Y s 3 lw 950 273 m20 6 lw 3 lw 954 312 m20 6 lw 3 lw 958 370 m20 6 lw 3 lw 963 428 m20 6 lw 3 lw 967 494 m20 6 lw 3 lw 972 568 m20 6 lw 3 lw 976 610
 m20 6 lw 3 lw 981 584 m20 6 lw 3 lw 985 556 m20 6 lw 3 lw 990 533 m20 6 lw 3 lw 994 513 m20 6 lw 3 lw 998 496 m20 6 lw 3 lw 1003 480 m20 6 lw 3 lw 1007 466 m20 6 lw 3 lw 1012 453 m20 6 lw 3 lw 1016 441 m20 6 lw 3 lw 1021 431 m20 6 lw 3 lw 1025 422
 m20 6 lw 3 lw 1029 412 m20 6 lw 3 lw 1034 404 m20 6 lw 3 lw 1038 394 m20 6 lw 3 lw 1043 389 m20 6 lw 3 lw 1047 380 m20 6 lw 3 lw 1052 376 m20 6 lw 3 lw 1056 368 m20 6 lw 3 lw 1061 361 m20 6 lw 3 lw 1065 361 m20 6 lw 3 lw 1069 350 m20 6 lw 3 lw 1074
 343 m20 6 lw 3 lw 1078 338 m20 6 lw 3 lw 1083 335 m20 6 lw 3 lw 1087 333 m20 6 lw 3 lw 1092 331 m20 6 lw 3 lw 1096 323 m20 6 lw 3 lw 1101 317 m20 6 lw 3 lw 1105 308 m20 6 lw 3 lw 1109 314 m20 6 lw 3 lw 1114 307 m20 6 lw 3 lw 1118 306 m20 6 lw 3 lw
 1123 303 m20 6 lw 3 lw 1127 300 m20 6 lw 3 lw 1132 295 m20 6 lw 3 lw 1136 295 m20 6 lw 3 lw 1141 298 m20 6 lw 3 lw 1145 292 m20 6 lw 1149 258 m 3 Y s 3 lw 1149 270 m20 6 lw 1154 253 m 4 Y s 3 lw 1154 266 m20 6 lw 1158 269 m 1 Y s 3 lw 1158 279 m20 6
 lw 1163 266 m 1 Y s 3 lw 1163 276 m20 6 lw 1167 253 m 4 Y s 3 lw 1167 266 m20 6 lw 1172 253 m 4 Y s 3 lw 1172 266 m20 6 lw 1176 266 m 1 Y s 3 lw 1176 276 m20 6 lw 1180 262 m 2 Y s 3 lw 1180 273 m20 6 lw 1185 117 m 86 Y s 1185 221 m 10 Y s 3 lw 1185
 212 m20 6 lw 1189 253 m 4 Y s 3 lw 1189 266 m20 6 lw 1194 240 m 8 Y s 1194 266 m 1 Y s 3 lw 1194 257 m20 6 lw 1198 231 m 11 Y s 1198 260 m 2 Y s 3 lw 1198 251 m20 6 lw 1203 240 m 8 Y s 1203 266 m 1 Y s 3 lw 1203 257 m20 6 lw 1207 262 m 2 Y s 3 lw
 1207 273 m20 6 lw 1212 240 m 8 Y s 1212 266 m 1 Y s 3 lw 1212 257 m20 6 lw 1216 197 m 25 Y s 1216 241 m 5 Y s 3 lw 1216 231 m20 6 lw 1220 258 m 3 Y s 3 lw 1220 270 m20 6 lw 1225 197 m 25 Y s 1225 241 m 5 Y s 3 lw 1225 231 m20 6 lw 1229 231 m 11 Y s
 1229 260 m 2 Y s 3 lw 1229 251 m20 6 lw 1234 197 m 25 Y s 1234 241 m 5 Y s 3 lw 1234 231 m20 6 lw 1238 231 m 11 Y s 1238 260 m 2 Y s 3 lw 1238 251 m20 6 lw 1243 219 m 15 Y s 1243 252 m 3 Y s 3 lw 1243 243 m20 6 lw 1247 240 m 8 Y s 1247 266 m 1 Y s 3
 lw 1247 257 m20 6 lw 1252 197 m 25 Y s 1252 241 m 5 Y s 3 lw 1252 231 m20 6 lw 1256 197 m 25 Y s 1256 241 m 5 Y s 3 lw 1256 231 m20 6 lw 1265 197 m 25 Y s 1265 241 m 5 Y s 3 lw 1265 231 m20 6 lw 1274 117 m 86 Y s 1274 221 m 10 Y s 3 lw 1274 212 m20
 6 lw 1278 117 m 86 Y s 1278 221 m 10 Y s 3 lw 1278 212 m20 6 lw 1283 117 m 86 Y s 1283 221 m 10 Y s 3 lw 1283 212 m20 6 lw 1287 197 m 25 Y s 1287 241 m 5 Y s 3 lw 1287 231 m20 6 lw 1300 117 m 86 Y s 1300 221 m 10 Y s 3 lw 1300 212 m20 6 lw 1314 117
 m 86 Y s 1314 221 m 10 Y s 3 lw 1314 212 m20 6 lw 1327 117 m 86 Y s 1327 221 m 10 Y s 3 lw 1327 212 m20 6 lw 1336 117 m 86 Y s 1336 221 m 10 Y s 3 lw 1336 212 m20 6 lw 1340 117 m 86 Y s 1340 221 m 10 Y s 3 lw 1340 212 m20 6 lw 1354 117 m 86 Y s 1354
 221 m 10 Y s 3 lw 1354 212 m20 6 lw 1358 197 m 25 Y s 1358 241 m 5 Y s 3 lw 1358 231 m20 6 lw 1380 197 m 25 Y s 1380 241 m 5 Y s 3 lw 1380 231 m20 6 lw 1389 117 m 86 Y s 1389 221 m 10 Y s 3 lw 1389 212 m20 6 lw 0 0 1 c 1 1 1 c 0 0 1 c 932 117 m 88 Y
 s 932 223 m 11 Y s 3 lw /w 18 def /w2 {w 2 div} def /w3 {w 3 div} def 932 214 m21 6 lw 936 199 m 25 Y s 936 243 m 5 Y s 3 lw 936 234 m21 6 lw 945 234 m 10 Y s 945 262 m 2 Y s 3 lw 945 253 m21 6 lw 3 lw 950 296 m21 6 lw 3 lw 954 314 m21 6 lw 3 lw 958
 375 m21 6 lw 3 lw 963 437 m21 6 lw 3 lw 967 501 m21 6 lw 3 lw 972 572 m21 6 lw 3 lw 976 613 m21 6 lw 3 lw 981 581 m21 6 lw 3 lw 985 543 m21 6 lw 3 lw 990 517 m21 6 lw 3 lw 994 496 m21 6 lw 3 lw 998 477 m21 6 lw 3 lw 1003 460 m21 6 lw 3 lw 1007 445
 m21 6 lw 3 lw 1012 431 m21 6 lw 3 lw 1016 420 m21 6 lw 3 lw 1021 410 m21 6 lw 3 lw 1025 399 m21 6 lw 3 lw 1029 391 m21 6 lw 3 lw 1034 381 m21 6 lw 3 lw 1038 374 m21 6 lw 3 lw 1043 366 m21 6 lw 3 lw 1047 358 m21 6 lw 3 lw 1052 350 m21 6 lw 3 lw 1056
 344 m21 6 lw 3 lw 1061 342 m21 6 lw 3 lw 1065 332 m21 6 lw 3 lw 1069 332 m21 6 lw 3 lw 1074 325 m21 6 lw 3 lw 1078 312 m21 6 lw 3 lw 1083 310 m21 6 lw 3 lw 1087 299 m21 6 lw 3 lw 1092 301 m21 6 lw 3 lw 1096 307 m21 6 lw 3 lw 1101 306 m21 6 lw 3 lw
 1105 293 m21 6 lw 1109 274 m s 3 lw 1109 283 m21 6 lw 3 lw 1114 289 m21 6 lw 3 lw 1118 296 m21 6 lw 1123 268 m 1 Y s 3 lw 1123 278 m21 6 lw 1127 255 m 4 Y s 3 lw 1127 268 m21 6 lw 1132 255 m 4 Y s 3 lw 1132 268 m21 6 lw 1136 249 m 6 Y s 1136 273 m 1
 Y s 3 lw 1136 264 m21 6 lw 1141 255 m 4 Y s 3 lw 1141 268 m21 6 lw 1145 268 m 1 Y s 3 lw 1145 278 m21 6 lw 1149 234 m 10 Y s 1149 262 m 2 Y s 3 lw 1149 253 m21 6 lw 1154 221 m 15 Y s 1154 254 m 3 Y s 3 lw 1154 245 m21 6 lw 1158 221 m 15 Y s 1158 254
 m 3 Y s 3 lw 1158 245 m21 6 lw 1163 243 m 7 Y s 1163 268 m 1 Y s 3 lw 1163 259 m21 6 lw 1167 234 m 10 Y s 1167 262 m 2 Y s 3 lw 1167 253 m21 6 lw 1172 221 m 15 Y s 1172 254 m 3 Y s 3 lw 1172 245 m21 6 lw 1176 199 m 25 Y s 1176 243 m 5 Y s 3 lw 1176
 234 m21 6 lw 1180 117 m 88 Y s 1180 223 m 11 Y s 3 lw 1180 214 m21 6 lw 1185 199 m 25 Y s 1185 243 m 5 Y s 3 lw 1185 234 m21 6 lw 1189 117 m 88 Y s 1189 223 m 11 Y s 3 lw 1189 214 m21 6 lw 1194 117 m 88 Y s 1194 223 m 11 Y s 3 lw 1194 214 m21 6 lw
 1198 117 m 88 Y s 1198 223 m 11 Y s 3 lw 1198 214 m21 6 lw 1203 221 m 15 Y s 1203 254 m 3 Y s 3 lw 1203 245 m21 6 lw 1207 243 m 7 Y s 1207 268 m 1 Y s 3 lw 1207 259 m21 6 lw 1212 221 m 15 Y s 1212 254 m 3 Y s 3 lw 1212 245 m21 6 lw 1220 221 m 15 Y s
 1220 254 m 3 Y s 3 lw 1220 245 m21 6 lw 1225 117 m 88 Y s 1225 223 m 11 Y s 3 lw 1225 214 m21 6 lw 1229 117 m 88 Y s 1229 223 m 11 Y s 3 lw 1229 214 m21 6 lw 1234 117 m 88 Y s 1234 223 m 11 Y s 3 lw 1234 214 m21 6 lw 1238 117 m 88 Y s 1238 223 m 11
 Y s 3 lw 1238 214 m21 6 lw 1252 221 m 15 Y s 1252 254 m 3 Y s 3 lw 1252 245 m21 6 lw 1265 199 m 25 Y s 1265 243 m 5 Y s 3 lw 1265 234 m21 6 lw 1283 117 m 88 Y s 1283 223 m 11 Y s 3 lw 1283 214 m21 6 lw 1287 117 m 88 Y s 1287 223 m 11 Y s 3 lw 1287
 214 m21 6 lw 1292 199 m 25 Y s 1292 243 m 5 Y s 3 lw 1292 234 m21 6 lw 1314 117 m 88 Y s 1314 223 m 11 Y s 3 lw 1314 214 m21 6 lw 1323 117 m 88 Y s 1323 223 m 11 Y s 3 lw 1323 214 m21 6 lw 1345 117 m 88 Y s 1345 223 m 11 Y s 3 lw 1345 214 m21 6 lw
 1354 199 m 25 Y s 1354 243 m 5 Y s 3 lw 1354 234 m21 6 lw 1358 117 m 88 Y s 1358 223 m 11 Y s 3 lw 1358 214 m21 6 lw 1411 117 m 88 Y s 1411 223 m 11 Y s 3 lw 1411 214 m21 6 lw 1 0 0 c 1 1 1 c 1 0 0 c 936 198 m 25 Y s 936 241 m 6 Y s 3 lw 936 232 m22
 6 lw 941 198 m 25 Y s 941 241 m 6 Y s 3 lw 941 232 m22 6 lw 945 241 m 8 Y s 945 267 m 1 Y s 3 lw 945 258 m22 6 lw 3 lw 950 286 m22 6 lw 3 lw 954 314 m22 6 lw 3 lw 958 369 m22 6 lw 3 lw 963 432 m22 6 lw 3 lw 967 497 m22 6 lw 3 lw 972 570 m22 6 lw 3
 lw 976 611 m22 6 lw 3 lw 981 583 m22 6 lw 3 lw 985 552 m22 6 lw 3 lw 990 528 m22 6 lw 3 lw 994 509 m22 6 lw 3 lw 998 491 m22 6 lw 3 lw 1003 474 m22 6 lw 3 lw 1007 460 m22 6 lw 3 lw 1012 447 m22 6 lw 3 lw 1016 436 m22 6 lw 3 lw 1021 425 m22 6 lw 3 lw
 1025 414 m22 6 lw 3 lw 1029 405 m22 6 lw 3 lw 1034 398 m22 6 lw 3 lw 1038 390 m22 6 lw 3 lw 1043 380 m22 6 lw 3 lw 1047 373 m22 6 lw 3 lw 1052 365 m22 6 lw 3 lw 1056 364 m22 6 lw 3 lw 1061 356 m22 6 lw 3 lw 1065 350 m22 6 lw 3 lw 1069 344 m22 6 lw 3
 lw 1074 339 m22 6 lw 3 lw 1078 333 m22 6 lw 3 lw 1083 326 m22 6 lw 3 lw 1087 327 m22 6 lw 3 lw 1092 317 m22 6 lw 3 lw 1096 318 m22 6 lw 3 lw 1101 311 m22 6 lw 3 lw 1105 306 m22 6 lw 3 lw 1109 306 m22 6 lw 3 lw 1114 304 m22 6 lw 3 lw 1118 302 m22 6
 lw 3 lw 1123 288 m22 6 lw 3 lw 1127 288 m22 6 lw 3 lw 1132 286 m22 6 lw 1136 270 m s 3 lw 1136 280 m22 6 lw 3 lw 1141 286 m22 6 lw 1145 266 m 2 Y s 3 lw 1145 277 m22 6 lw 1149 263 m 2 Y s 3 lw 1149 274 m22 6 lw 1154 270 m s 3 lw 1154 280 m22 6 lw
 1158 248 m 6 Y s 1158 272 m s 3 lw 1158 263 m22 6 lw 1163 259 m 3 Y s 3 lw 1163 271 m22 6 lw 1167 232 m 10 Y s 1167 261 m 2 Y s 3 lw 1167 251 m22 6 lw 1172 248 m 6 Y s 1172 272 m s 3 lw 1172 263 m22 6 lw 1176 198 m 25 Y s 1176 241 m 6 Y s 3 lw 1176
 232 m22 6 lw 1180 220 m 14 Y s 1180 253 m 3 Y s 3 lw 1180 243 m22 6 lw 1185 232 m 10 Y s 1185 261 m 2 Y s 3 lw 1185 251 m22 6 lw 1189 198 m 25 Y s 1189 241 m 6 Y s 3 lw 1189 232 m22 6 lw 1194 254 m 4 Y s 3 lw 1194 267 m22 6 lw 1198 117 m 87 Y s 1198
 222 m 10 Y s 3 lw 1198 213 m22 6 lw 1203 232 m 10 Y s 1203 261 m 2 Y s 3 lw 1203 251 m22 6 lw 1207 198 m 25 Y s 1207 241 m 6 Y s 3 lw 1207 232 m22 6 lw 1216 198 m 25 Y s 1216 241 m 6 Y s 3 lw 1216 232 m22 6 lw 1220 248 m 6 Y s 1220 272 m s 3 lw 1220
 263 m22 6 lw 1225 198 m 25 Y s 1225 241 m 6 Y s 3 lw 1225 232 m22 6 lw 1229 241 m 8 Y s 1229 267 m 1 Y s 3 lw 1229 258 m22 6 lw 1234 220 m 14 Y s 1234 253 m 3 Y s 3 lw 1234 243 m22 6 lw 1238 220 m 14 Y s 1238 253 m 3 Y s 3 lw 1238 243 m22 6 lw 1243
 117 m 87 Y s 1243 222 m 10 Y s 3 lw 1243 213 m22 6 lw 1247 117 m 87 Y s 1247 222 m 10 Y s 3 lw 1247 213 m22 6 lw 1252 198 m 25 Y s 1252 241 m 6 Y s 3 lw 1252 232 m22 6 lw 1256 117 m 87 Y s 1256 222 m 10 Y s 3 lw 1256 213 m22 6 lw 1260 117 m 87 Y s
 1260 222 m 10 Y s 3 lw 1260 213 m22 6 lw 1265 220 m 14 Y s 1265 253 m 3 Y s 3 lw 1265 243 m22 6 lw 1269 220 m 14 Y s 1269 253 m 3 Y s 3 lw 1269 243 m22 6 lw 1274 117 m 87 Y s 1274 222 m 10 Y s 3 lw 1274 213 m22 6 lw 1278 198 m 25 Y s 1278 241 m 6 Y
 s 3 lw 1278 232 m22 6 lw 1283 232 m 10 Y s 1283 261 m 2 Y s 3 lw 1283 251 m22 6 lw 1287 117 m 87 Y s 1287 222 m 10 Y s 3 lw 1287 213 m22 6 lw 1296 117 m 87 Y s 1296 222 m 10 Y s 3 lw 1296 213 m22 6 lw 1300 198 m 25 Y s 1300 241 m 6 Y s 3 lw 1300 232
 m22 6 lw 1323 117 m 87 Y s 1323 222 m 10 Y s 3 lw 1323 213 m22 6 lw 1327 117 m 87 Y s 1327 222 m 10 Y s 3 lw 1327 213 m22 6 lw 1336 117 m 87 Y s 1336 222 m 10 Y s 3 lw 1336 213 m22 6 lw 1407 117 m 87 Y s 1407 222 m 10 Y s 3 lw 1407 213 m22 6 lw 1411
 117 m 87 Y s 1411 222 m 10 Y s 3 lw 1411 213 m22 6 lw black
 gsave  710 682 779 14 C 1124.75 596.528 t 0 r /Helvetica findfont 29.6502 sf 0 0 m (Centrality: 80 \255 100%) show NC gr 
 gsave  710 682 779 14 C 1206.72 503.178 t 0 r /Helvetica findfont 29.6502 sf 0 0 m (=0.78 GeV/c) show NC gr 
 gsave  710 682 779 14 C 1188.5 503.178 t 0 r /Symbol findfont 29.6502 sf 0 0 m (s) show NC gr 
 gsave  710 682 779 14 C 1188.5 535.054 t 0 r /Helvetica findfont 29.6502 sf 0 0 m (RC) show NC gr  3 lw /w 21 def /w2 {w 2 div} def /w3 {w 3 div} def 1155 529 m20 6 lw
 gsave  710 682 779 14 C 1206.72 425.766 t 0 r /Helvetica findfont 29.6502 sf 0 0 m (=0.61 GeV/c) show NC gr 
 gsave  710 682 779 14 C 1188.5 425.766 t 0 r /Symbol findfont 29.6502 sf 0 0 m (s) show NC gr 
 gsave  710 682 779 14 C 1188.5 462.195 t 0 r /Helvetica findfont 29.6502 sf 0 0 m (RC w/o lead. jet) show NC gr  0 0 1 c 3 lw /w 18 def /w2 {w 2 div} def /w3 {w 3 div} def 1155 454 m21 6 lw black
 gsave  710 682 779 14 C 1206.72 350.631 t 0 r /Helvetica findfont 29.6502 sf 0 0 m (=0.73 GeV/c) show NC gr 
 gsave  710 682 779 14 C 1188.5 350.631 t 0 r /Symbol findfont 29.6502 sf 0 0 m (s) show NC gr 
 gsave  710 682 779 14 C 1188.5 387.06 t 0 r /Helvetica findfont 29.6502 sf 0 0 m (RC partial) show NC gr  1 0 0 c 3 lw 1155 379 m22 6 lw black 3 lw 0.999 0.999 0.999 c 711 682 1534 14 bf
 gr  gr showpage
end
%%EOF
