%!PS-Adobe-2.0 EPSF-2.0
%%BoundingBox:  0 0 567 544
%%Title: : 10 May 2014
%%Creator: ROOT Version 5.34/02
%%CreationDate: Sat May 10 10:36:02 2014
%%EndComments
%%BeginProlog
80 dict begin
/s {stroke} def /l {lineto} def /m {moveto} def /t {translate} def
/r {rotate} def /rl {roll}  def /R {repeat} def
/d {rlineto} def /rm {rmoveto} def /gr {grestore} def /f {eofill} def
/c {setrgbcolor} def /black {0 setgray} def /sd {setdash} def
/cl {closepath} def /sf {scalefont setfont} def /lw {setlinewidth} def
/box {m dup 0 exch d exch 0 d 0 exch neg d cl} def
/NC{systemdict begin initclip end}def/C{NC box clip newpath}def
/bl {box s} def /bf {box f} def /Y { 0 exch d} def /X { 0 d} def 
/K {{pop pop 0 moveto} exch kshow} bind def
/ita {/ang 15 def gsave [1 0 ang dup sin exch cos div 1 0 0] concat} def 
/mp {newpath /y exch def /x exch def} def
/side {[w .77 mul w .23 mul] .385 w mul sd w 0 l currentpoint t -144 r} def
/mr {mp x y w2 0 360 arc} def /m24 {mr s} def /m20 {mr f} def
/mb {mp x y w2 add m w2 neg 0 d 0 w neg d w 0 d 0 w d cl} def
/mt {mp x y w2 add m w2 neg w neg d w 0 d cl} def
/m21 {mb f} def /m25 {mb s} def /m22 {mt f} def /m26{mt s} def
/m23 {mp x y w2 sub m w2 w d w neg 0 d cl f} def
/m27 {mp x y w2 add m w3 neg w2 neg d w3 w2 neg d w3 w2 d cl s} def
/m28 {mp x w2 sub y w2 sub w3 add m w3 0 d  0 w3 neg d w3 0 d 0 w3 d w3 0 d  0 w3 d w3 neg 0 d 0 w3 d w3 neg 0 d 0 w3 neg d w3 neg 0 d cl s } def
/m29 {mp gsave x w2 sub y w2 add w3 sub m currentpoint t 4 {side} repeat cl fill gr} def
/m30 {mp gsave x w2 sub y w2 add w3 sub m currentpoint t 4 {side} repeat cl s gr} def
/m31 {mp x y w2 sub m 0 w d x w2 sub y m w 0 d x w2 sub y w2 add m w w neg d x w2 sub y w2 sub m w w d s} def
/m32 {mp x y w2 sub m w2 w d w neg 0 d cl s} def
/m33 {mp x y w2 add m w3 neg w2 neg d w3 w2 neg d w3 w2 d cl f} def
/m34 {mp x w2 sub y w2 sub w3 add m w3 0 d  0 w3 neg d w3 0 d 0 w3 d w3 0 d  0 w3 d w3 neg 0 d 0 w3 d w3 neg 0 d 0 w3 neg d w3 neg 0 d cl f } def
/m2 {mp x y w2 sub m 0 w d x w2 sub y m w 0 d s} def
/m5 {mp x w2 sub y w2 sub m w w d x w2 sub y w2 add m w w neg d s} def
/reEncode {exch findfont dup length dict begin {1 index /FID eq  {pop pop} {def} ifelse } forall /Encoding exch def currentdict end dup /FontName get exch definefont pop } def [/Times-Bold /Times-Italic /Times-BoldItalic /Helvetica /Helvetica-Oblique
 /Helvetica-Bold /Helvetica-BoldOblique /Courier /Courier-Oblique /Courier-Bold /Courier-BoldOblique /Times-Roman /AvantGarde-Book /AvantGarde-BookOblique /AvantGarde-Demi /AvantGarde-DemiOblique /Bookman-Demi /Bookman-DemiItalic /Bookman-Light
 /Bookman-LightItalic /Helvetica-Narrow /Helvetica-Narrow-Bold /Helvetica-Narrow-BoldOblique /Helvetica-Narrow-Oblique /NewCenturySchlbk-Roman /NewCenturySchlbk-Bold /NewCenturySchlbk-BoldItalic /NewCenturySchlbk-Italic /Palatino-Bold
 /Palatino-BoldItalic /Palatino-Italic /Palatino-Roman ] {ISOLatin1Encoding reEncode } forall
%%EndProlog
%%BeginSetup
%%EndSetup
newpath  gsave  .25 .25 scale  gsave  0 0 t black[  ] 0 sd 3 lw 0.999 0.999 0.999 c 2268 2176 0 0 bf black 0.999 0.999 0.999 c 2268 2176 0 0 bf black 1 1 1 c 1678 1763 499 326 bf black 1678 1763 499 326 bl 1 1 1 c 1678 1763 499 326 bf black 1678 1763
 499 326 bl 0 0 0.6 c 1 1 1 c black 0 0 0.6 c 499 326 m 1678 X s black 499 326 m 1678 X s
 gsave  2268 2176 0 0 C 2145.96 136.976 t 0 r /Helvetica findfont 91.3174 sf 0 0 m (\)) show NC gr 
 gsave  2268 2176 0 0 C 2096.5 136.976 t 0 r /Helvetica-Oblique findfont 91.3174 sf 0 0 m (c) show NC gr 
 gsave  2268 2176 0 0 C 1830.15 136.976 t 0 r /Helvetica findfont 91.3174 sf 0 0 m ( \(GeV/) show NC gr 
 gsave  2268 2176 0 0 C 1716.01 87.5126 t 0 r /Helvetica findfont 60.8783 sf 0 0 m 
 95 61 47 30
(T,jet) K NC gr 
 gsave  2268 2176 0 0 C 1662.74 136.976 t 0 r /Helvetica-Oblique findfont 91.3174 sf 0 0 m (p) show NC gr  499 375 m -49 Y s 566 351 m -25 Y s 633 351 m -25 Y s 700 351 m -25 Y s 767 375 m -49 Y s 835 351 m -25 Y s 902 351 m -25 Y s 969 351 m -25 Y s
 1036 375 m -49 Y s 1103 351 m -25 Y s 1170 351 m -25 Y s 1237 351 m -25 Y s 1304 375 m -49 Y s 1372 351 m -25 Y s 1439 351 m -25 Y s 1506 351 m -25 Y s 1573 375 m -49 Y s 1640 351 m -25 Y s 1707 351 m -25 Y s 1774 351 m -25 Y s 1841 375 m -49 Y s
 1909 351 m -25 Y s 1976 351 m -25 Y s 2043 351 m -25 Y s 2110 375 m -49 Y s 2110 375 m -49 Y s
 gsave  2268 2176 0 0 C 471.807 220.684 t 0 r /Helvetica findfont 102.732 sf 0 0 m (0) show NC gr 
 gsave  2268 2176 0 0 C 707.71 220.684 t 0 r /Helvetica findfont 102.732 sf 0 0 m (20) show NC gr 
 gsave  2268 2176 0 0 C 977.858 220.684 t 0 r /Helvetica findfont 102.732 sf 0 0 m (40) show NC gr 
 gsave  2268 2176 0 0 C 1244.2 220.684 t 0 r /Helvetica findfont 102.732 sf 0 0 m (60) show NC gr 
 gsave  2268 2176 0 0 C 1514.35 220.684 t 0 r /Helvetica findfont 102.732 sf 0 0 m (80) show NC gr 
 gsave  2268 2176 0 0 C 1754.06 220.684 t 0 r /Helvetica findfont 102.732 sf 0 0 m (100) show NC gr 
 gsave  2268 2176 0 0 C 2024.2 220.684 t 0 r /Helvetica findfont 102.732 sf 0 0 m (120) show NC gr  499 326 m 1763 Y s
 gsave  2268 2176 0 0 C 133.171 2047.03 t 90 r /Helvetica findfont 60.8783 sf 0 0 m (\2551) show NC gr 
 gsave  2268 2176 0 0 C 175.025 2016.59 t 90 r /Helvetica findfont 91.3174 sf 0 0 m (\)) show NC gr 
 gsave  2268 2176 0 0 C 175.025 1967.13 t 90 r /Helvetica-Oblique findfont 91.3174 sf 0 0 m (c) show NC gr 
 gsave  2268 2176 0 0 C 175.025 1700.79 t 90 r /Helvetica findfont 91.3174 sf 0 0 m ( \(GeV/) show NC gr 
 gsave  2268 2176 0 0 C 281.562 1632.3 t 90 r /Helvetica findfont 60.8783 sf 0 0 m (jet) show NC gr 
 gsave  2268 2176 0 0 C 232.099 1575.23 t 90 r /Symbol findfont 91.3174 sf 0 0 m ita (h) show gr NC gr 
 gsave  2268 2176 0 0 C 232.099 1529.57 t 90 r /Helvetica findfont 91.3174 sf 0 0 m (d) show NC gr 
 gsave  2268 2176 0 0 C 277.757 1415.42 t 90 r /Helvetica findfont 60.8783 sf 0 0 m 
 95 61 47 30
(T,jet) K NC gr 
 gsave  2268 2176 0 0 C 232.099 1362.15 t 90 r /Helvetica-Oblique findfont 91.3174 sf 0 0 m (p) show NC gr 
 gsave  2268 2176 0 0 C 232.099 1316.49 t 90 r /Helvetica findfont 91.3174 sf 0 0 m (d) show NC gr 
 gsave  2268 2176 0 0 C 136.976 1514.35 t 90 r /Helvetica-Oblique findfont 91.3174 sf 0 0 m (N) show NC gr 
 gsave  2268 2176 0 0 C 95.1223 1480.1 t 90 r /Helvetica findfont 60.8783 sf 0 0 m (2) show NC gr 
 gsave  2268 2176 0 0 C 136.976 1434.44 t 90 r /Helvetica findfont 91.3174 sf 0 0 m (d) show NC gr  6 lw 152 1316 m 385 Y s
 gsave  2268 2176 0 0 C 175.025 1293.66 t 90 r /Helvetica findfont 91.3174 sf 0 0 m ( ) show NC gr 
 gsave  2268 2176 0 0 C 258.733 1209.96 t 90 r /Helvetica findfont 60.8783 sf 0 0 m (evt) show NC gr 
 gsave  2268 2176 0 0 C 232.099 1137.66 t 90 r /Helvetica-Oblique findfont 91.3174 sf 0 0 m (N) show NC gr 
 gsave  2268 2176 0 0 C 140.781 1198.54 t 90 r /Helvetica findfont 91.3174 sf 0 0 m (1) show NC gr  152 1138 m 156 Y s
 gsave  2268 2176 0 0 C 175.025 1114.83 t 90 r /Helvetica findfont 91.3174 sf 0 0 m ( ) show NC gr 
 gsave  2268 2176 0 0 C 258.733 1027.32 t 90 r /Helvetica findfont 60.8783 sf 0 0 m (coll) show NC gr 
 gsave  2268 2176 0 0 C 232.099 955.028 t 90 r /Helvetica-Oblique findfont 91.3174 sf 0 0 m (N) show NC gr 
 gsave  2268 2176 0 0 C 140.781 1019.71 t 90 r /Helvetica findfont 91.3174 sf 0 0 m (1) show NC gr  152 955 m 160 Y s 3 lw 517 326 m -18 X s 517 352 m -18 X s 517 374 m -18 X s 536 394 m -37 X s
 gsave  2268 2176 0 0 C 403.319 395.709 t 0 r /Helvetica findfont 68.4881 sf 0 0 m (\2559) show NC gr 
 gsave  2268 2176 0 0 C 292.977 346.245 t 0 r /Helvetica findfont 102.732 sf 0 0 m (10) show NC gr  517 525 m -18 X s 517 601 m -18 X s 517 655 m -18 X s 517 697 m -18 X s 517 732 m -18 X s 517 761 m -18 X s 517 786 m -18 X s 517 808 m -18 X s 536
 828 m -37 X s
 gsave  2268 2176 0 0 C 403.319 829.467 t 0 r /Helvetica findfont 68.4881 sf 0 0 m (\2558) show NC gr 
 gsave  2268 2176 0 0 C 292.977 780.003 t 0 r /Helvetica findfont 102.732 sf 0 0 m (10) show NC gr  517 959 m -18 X s 517 1035 m -18 X s 517 1090 m -18 X s 517 1132 m -18 X s 517 1166 m -18 X s 517 1195 m -18 X s 517 1220 m -18 X s 517 1243 m -18 X s
 536 1263 m -37 X s
 gsave  2268 2176 0 0 C 403.319 1259.42 t 0 r /Helvetica findfont 68.4881 sf 0 0 m (\2557) show NC gr 
 gsave  2268 2176 0 0 C 292.977 1213.76 t 0 r /Helvetica findfont 102.732 sf 0 0 m (10) show NC gr  517 1393 m -18 X s 517 1470 m -18 X s 517 1524 m -18 X s 517 1566 m -18 X s 517 1601 m -18 X s 517 1630 m -18 X s 517 1655 m -18 X s 517 1677 m -18 X
 s 536 1697 m -37 X s
 gsave  2268 2176 0 0 C 403.319 1700.79 t 0 r /Helvetica findfont 68.4881 sf 0 0 m (\2556) show NC gr 
 gsave  2268 2176 0 0 C 292.977 1651.32 t 0 r /Helvetica findfont 102.732 sf 0 0 m (10) show NC gr  517 1828 m -18 X s 517 1904 m -18 X s 517 1959 m -18 X s 517 2001 m -18 X s 517 2035 m -18 X s 517 2064 m -18 X s 517 2089 m -18 X s 0.8 0.8 0.8 c 134
 19 902 1776 bf black 0.8 0.8 0.8 c 134 19 1036 1548 bf black 0.8 0.8 0.8 c 134 19 1170 1375 bf black 0.8 0.8 0.8 c 135 19 1304 1246 bf black 0.8 0.8 0.8 c 134 21 1439 1101 bf black 0.8 0.8 0.8 c 134 25 1573 975 bf black 0.8 0.8 0.8 c 134 26 1707 890
 bf black 0.8 0.8 0.8 c 135 34 1841 748 bf black 0.8 0.8 0.8 c 134 46 1976 578 bf black 0.8 0.8 0.8 c black 9 lw 1506 1134 m 7 Y s 1494 1141 m 23 X s 1506 1089 m -12 Y s 1494 1077 m 23 X s 1640 1011 m 17 Y s 1629 1028 m 22 X s 1640 965 m -28 Y s 1629
 937 m 22 X s 1774 926 m 27 Y s 1763 953 m 23 X s 1774 880 m -45 Y s 1763 835 m 23 X s 1909 789 m 47 Y s 1897 836 m 23 X s 1909 743 m -89 Y s 1897 654 m 23 X s 2043 625 m 78 Y s 2031 703 m 23 X s 2043 579 m -209 Y s 2031 370 m 23 X s 3 lw /w 46 def
 /w2 {w 2 div} def /w3 {w 3 div} def 969 1786 1103 1558 1237 1385 1372 1256 1506 1112 1640 988 1774 903 1909 766 2043 602 9 { m20} R 9 lw 3 lw 0.8 0.8 0.8 c black 134 19 902 1776 bl 0.8 0.8 0.8 c black 134 19 1036 1548 bl 0.8 0.8 0.8 c black 134 19
 1170 1375 bl 0.8 0.8 0.8 c black 135 19 1304 1246 bl 0.8 0.8 0.8 c black 134 21 1439 1101 bl 0.8 0.8 0.8 c black 134 25 1573 975 bl 0.8 0.8 0.8 c black 134 26 1707 890 bl 0.8 0.8 0.8 c black 135 34 1841 748 bl 0.8 0.8 0.8 c black 134 46 1976 578 bl
 0.8 0.8 0.8 c black 1 0 0 c 9 lw 0.8 0.8 0.8 c 215 115 633 436 bf black 3 lw 1 0.6 0.6 c 134 63 902 1544 bf black 1 0.6 0.6 c 134 58 1036 1369 bf black 1 0.6 0.6 c 134 56 1170 1180 bf black 1 0.6 0.6 c 135 57 1304 1034 bf black 1 0.6 0.6 c 134 51
 1439 922 bf black 1 0.6 0.6 c 134 52 1573 803 bf black 1 0.6 0.6 c 134 60 1707 667 bf black 1 0.6 0.6 c black 1 0 0 c black 1 0 0 c 134 63 902 1544 bl black 1 0 0 c 134 58 1036 1369 bl black 1 0 0 c 134 56 1170 1180 bl black 1 0 0 c 135 57 1304 1034
 bl black 1 0 0 c 134 51 1439 922 bl black 1 0 0 c 134 52 1573 803 bl black 1 0 0 c 134 60 1707 667 bl black 1 0 0 c 9 lw 1640 854 m s 1629 854 m 22 X s 1640 808 m -4 Y s 1629 804 m 22 X s 1774 722 m 8 Y s 1763 730 m 23 X s 1774 677 m -14 Y s 1763
 663 m 23 X s black 1 0 0 c 3 lw 969 1578 1103 1400 1237 1210 1372 1065 1506 949 1640 831 1774 699 7 { m22} R 9 lw 1 0.6 0.6 c 215 112 633 574 bf black 3 lw 0.6 0.6 1 c 134 89 902 1461 bf black 0.6 0.6 1 c 134 87 1036 1257 bf black 0.6 0.6 1 c 134 72
 1170 1108 bf black 0.6 0.6 1 c 135 67 1304 986 bf black 0.6 0.6 1 c 134 64 1439 879 bf black 0.6 0.6 1 c 134 64 1573 777 bf black 0.6 0.6 1 c 134 64 1707 678 bf black 0.6 0.6 1 c 135 65 1841 588 bf black 0.6 0.6 1 c 134 65 1976 505 bf black 0.6 0.6
 1 c black 0 0 1 c black 0 0 1 c 969 1511 1103 1305 1237 1148 1372 1022 1506 914 1640 812 1774 713 1909 623 2043 540 9 { m21} R 1 0 0 c 0 0 1 c 134 89 902 1461 bl 1 0 0 c 0 0 1 c 134 87 1036 1257 bl 1 0 0 c 0 0 1 c 134 72 1170 1108 bl 1 0 0 c 0 0 1 c
 135 67 1304 986 bl 1 0 0 c 0 0 1 c 134 64 1439 879 bl 1 0 0 c 0 0 1 c 134 64 1573 777 bl 1 0 0 c 0 0 1 c 134 64 1707 678 bl 1 0 0 c 0 0 1 c 135 65 1841 588 bl 1 0 0 c 0 0 1 c 134 65 1976 505 bl 1 0 0 c black 1 0 0 c 9 lw 0.6 0.6 1 c 215 113 633 715
 bf 1 1 1 c 3 lw 0.6 0.8 0.6 c 134 54 902 1949 bf 1 1 1 c 0.6 0.8 0.6 c 134 59 1036 1747 bf 1 1 1 c 0.6 0.8 0.6 c 134 50 1170 1554 bf 1 1 1 c 0.6 0.8 0.6 c 135 48 1304 1401 bf 1 1 1 c 0.6 0.8 0.6 c 134 47 1439 1275 bf 1 1 1 c 0.6 0.8 0.6 c 134 48
 1573 1160 bf 1 1 1 c 0.6 0.8 0.6 c 0 0.4 0 c 0 0 0.6 c 1 1 1 c 0 0.4 0 c /w 61 def /w2 {w 2 div} def /w3 {w 3 div} def 969 1976 m33 1103 1777 m33 1237 1579 m33 1372 1424 m33 1506 1297 m33 1640 1183 m33 black
 gsave  2268 2176 0 0 C 928.394 981.663 t 0 r /Helvetica findfont 72.293 sf 0 0 m 
 313 274 238 220 180 141 121 81 62 20
( = 2.76 TeV) K NC gr 
 gsave  2268 2176 0 0 C 863.711 958.833 t 0 r /Helvetica findfont 45.6587 sf 0 0 m (NN) show NC gr 
 gsave  2268 2176 0 0 C 825.662 981.663 t 0 r /Helvetica-Oblique findfont 72.293 sf 0 0 m (s) show NC gr  6 lw 795 1024 m 12 -65 d s 0 lw 807 959 m 11 87 d s 818 1046 m 110 X s
 gsave  2268 2176 0 0 C 566.929 981.663 t 0 r /Helvetica findfont 72.293 sf 0 0 m (Pb\255Pb ) show NC gr 
 gsave  2268 2176 0 0 C 1095.81 871.321 t 0 r /Helvetica-Oblique findfont 72.293 sf 0 0 m (c) show NC gr 
 gsave  2268 2176 0 0 C 787.613 871.321 t 0 r /Helvetica findfont 72.293 sf 0 0 m ( > 5 GeV/) show NC gr 
 gsave  2268 2176 0 0 C 589.758 909.37 t 0 r /Helvetica findfont 45.6587 sf 0 0 m (leading) show NC gr 
 gsave  2268 2176 0 0 C 589.758 837.077 t 0 r /Helvetica findfont 45.6587 sf 0 0 m 
 181 155 129 113 87 60 36 23
(T,charged) K NC gr 
 gsave  2268 2176 0 0 C 544.1 871.321 t 0 r /Helvetica-Oblique findfont 72.293 sf 0 0 m (p) show NC gr 
 gsave  2268 2176 0 0 C 1088.2 2005.18 t 0 r /Helvetica findfont 72.293 sf 0 0 m (ALICE Preliminary) show NC gr 
 gsave  2268 2176 0 0 C 1761.67 1891.03 t 0 r /Helvetica findfont 79.9028 sf 0 0 m (|<0.5) show NC gr 
 gsave  2268 2176 0 0 C 1700.79 1845.37 t 0 r /Helvetica findfont 53.2685 sf 0 0 m (jet) show NC gr 
 gsave  2268 2176 0 0 C 1651.32 1891.03 t 0 r /Symbol findfont 79.9028 sf 0 0 m ita (h) show gr NC gr 
 gsave  2268 2176 0 0 C 1331.71 1891.03 t 0 r /Helvetica findfont 79.9028 sf 0 0 m ( R = 0.2 |) show NC gr 
 gsave  2268 2176 0 0 C 1297.47 1864.4 t 0 r /Helvetica findfont 53.2685 sf 0 0 m (T) show NC gr 
 gsave  2268 2176 0 0 C 1251.81 1891.03 t 0 r /Helvetica-Oblique findfont 79.9028 sf 0 0 m (k) show NC gr 
 gsave  2268 2176 0 0 C 1084.39 1891.03 t 0 r /Helvetica findfont 79.9028 sf 0 0 m (Anti\255) show NC gr 
 gsave  2268 2176 0 0 C 1084.39 1761.67 t 0 r /Helvetica findfont 79.9028 sf 0 0 m ( ) show NC gr 
 gsave  2268 2176 0 0 C 852.296 749.564 t 0 r /Helvetica findfont 79.9028 sf 0 0 m (  0 \255 10%) show NC gr  3 lw 734 739 m 82 Y s 0 0 1 c /w 46 def /w2 {w 2 div} def /w3 {w 3 div} def 734 780 m21 black
 gsave  2268 2176 0 0 C 852.296 612.588 t 0 r /Helvetica findfont 79.9028 sf 0 0 m ( 10 \255 30%) show NC gr  734 601 m 82 Y s 1 0 0 c 734 642 m22 black
 gsave  2268 2176 0 0 C 852.296 490.831 t 0 r /Helvetica findfont 79.9028 sf 0 0 m (pp) show NC gr  734 463 m 83 Y s 734 504 m20
 gsave  2268 2176 0 0 C 1837.76 1723.62 t 0 r /Helvetica findfont 79.9028 sf 0 0 m 
 287 242 201 180 135 90 67 22
( 5.02 TeV) K NC gr 
 gsave  2268 2176 0 0 C 1761.67 1696.98 t 0 r /Helvetica findfont 53.2685 sf 0 0 m (NN) show NC gr 
 gsave  2268 2176 0 0 C 1719.81 1723.62 t 0 r /Helvetica-Oblique findfont 79.9028 sf 0 0 m (s) show NC gr  6 lw 1686 1769 m 11 -72 d s 0 lw 1697 1697 m 15 95 d s 1712 1792 m 126 X s
 gsave  2268 2176 0 0 C 1445.86 1723.62 t 0 r /Helvetica findfont 79.9028 sf 0 0 m (  p\255Pb ) show NC gr  0.6 0.8 0.6 c 3 lw 1255 1669 m 160 X 155 Y -160 X f 0 lw 1 1 1 c 3 lw 1255 1824 m 160 X s 1255 1669 m 160 X s 1415 1669 m 155 Y s 1255 1669 m
 155 Y s 0 0.4 0 c /w 61 def /w2 {w 2 div} def /w3 {w 3 div} def 1335 1746 m33
 gr  gr showpage
end
%%EOF
