%!PS-Adobe-2.0 EPSF-2.0
%%BoundingBox:  0 0 567 367
%%Title: /global/project/projectdirs/alice/mconnors/JetUnfolding/JSR_ticks_eta_prelim.eps: 
%%Creator: ROOT Version 5.34/09
%%CreationDate: Mon May 12 10:42:30 2014
%%EndComments
%%BeginProlog
80 dict begin
/s {stroke} def /l {lineto} def /m {moveto} def /t {translate} def
/r {rotate} def /rl {roll}  def /R {repeat} def
/d {rlineto} def /rm {rmoveto} def /gr {grestore} def /f {eofill} def
/c {setrgbcolor} def /black {0 setgray} def /sd {setdash} def
/cl {closepath} def /sf {scalefont setfont} def /lw {setlinewidth} def
/box {m dup 0 exch d exch 0 d 0 exch neg d cl} def
/NC{systemdict begin initclip end}def/C{NC box clip newpath}def
/bl {box s} def /bf {box f} def /Y { 0 exch d} def /X { 0 d} def 
/K {{pop pop 0 moveto} exch kshow} bind def
/ita {/ang 15 def gsave [1 0 ang dup sin exch cos div 1 0 0] concat} def 
/mp {newpath /y exch def /x exch def} def
/side {[w .77 mul w .23 mul] .385 w mul sd w 0 l currentpoint t -144 r} def
/mr {mp x y w2 0 360 arc} def /m24 {mr s} def /m20 {mr f} def
/mb {mp x y w2 add m w2 neg 0 d 0 w neg d w 0 d 0 w d cl} def
/mt {mp x y w2 add m w2 neg w neg d w 0 d cl} def
/m21 {mb f} def /m25 {mb s} def /m22 {mt f} def /m26{mt s} def
/m23 {mp x y w2 sub m w2 w d w neg 0 d cl f} def
/m27 {mp x y w2 add m w3 neg w2 neg d w3 w2 neg d w3 w2 d cl s} def
/m28 {mp x w2 sub y w2 sub w3 add m w3 0 d  0 w3 neg d w3 0 d 0 w3 d w3 0 d  0 w3 d w3 neg 0 d 0 w3 d w3 neg 0 d 0 w3 neg d w3 neg 0 d cl s } def
/m29 {mp gsave x w2 sub y w2 add w3 sub m currentpoint t 4 {side} repeat cl fill gr} def
/m30 {mp gsave x w2 sub y w2 add w3 sub m currentpoint t 4 {side} repeat cl s gr} def
/m31 {mp x y w2 sub m 0 w d x w2 sub y m w 0 d x w2 sub y w2 add m w w neg d x w2 sub y w2 sub m w w d s} def
/m32 {mp x y w2 sub m w2 w d w neg 0 d cl s} def
/m33 {mp x y w2 add m w3 neg w2 neg d w3 w2 neg d w3 w2 d cl f} def
/m34 {mp x w2 sub y w2 sub w3 add m w3 0 d  0 w3 neg d w3 0 d 0 w3 d w3 0 d  0 w3 d w3 neg 0 d 0 w3 d w3 neg 0 d 0 w3 neg d w3 neg 0 d cl f } def
/m2 {mp x y w2 sub m 0 w d x w2 sub y m w 0 d s} def
/m5 {mp x w2 sub y w2 sub m w w d x w2 sub y w2 add m w w neg d s} def
/reEncode {exch findfont dup length dict begin {1 index /FID eq  {pop pop} {def} ifelse } forall /Encoding exch def currentdict end dup /FontName get exch definefont pop } def [/Times-Bold /Times-Italic /Times-BoldItalic /Helvetica /Helvetica-Oblique
 /Helvetica-Bold /Helvetica-BoldOblique /Courier /Courier-Oblique /Courier-Bold /Courier-BoldOblique /Times-Roman /AvantGarde-Book /AvantGarde-BookOblique /AvantGarde-Demi /AvantGarde-DemiOblique /Bookman-Demi /Bookman-DemiItalic /Bookman-Light
 /Bookman-LightItalic /Helvetica-Narrow /Helvetica-Narrow-Bold /Helvetica-Narrow-BoldOblique /Helvetica-Narrow-Oblique /NewCenturySchlbk-Roman /NewCenturySchlbk-Bold /NewCenturySchlbk-BoldItalic /NewCenturySchlbk-Italic /Palatino-Bold
 /Palatino-BoldItalic /Palatino-Italic /Palatino-Roman ] {ISOLatin1Encoding reEncode } forall
%%EndProlog
%%BeginSetup
%%EndSetup
newpath  gsave  .25 .25 scale  gsave  0 0 t black[  ] 0 sd 3 lw 1 1 1 c 2268 1468 0 0 bf black 1 1 1 c 1814 1174 226 157 bf black 1814 1174 226 157 bl 1 1 1 c 1814 1174 226 157 bf black 1814 1174 226 157 bl 1 0 0 c 9 lw 1 1 1 c 1 0 0 c 326 625 m 3 Y
 s 326 658 m 3 Y s 226 643 m 85 X s 342 643 m 85 X s 3 lw /w 30 def /w2 {w 2 div} def /w3 {w 3 div} def 326 643 m20 9 lw 528 582 m 17 Y s 528 629 m 17 Y s 427 614 m 86 X s 543 614 m 86 X s 3 lw 528 614 m20 9 lw 730 602 m 32 Y s 730 665 m 32 Y s 629
 649 m 86 X s 745 649 m 85 X s 3 lw 730 649 m20 9 lw 931 578 m 34 Y s 931 642 m 34 Y s 830 627 m 86 X s 946 627 m 86 X s 3 lw 931 627 m20 9 lw 1133 651 m 65 Y s 1133 746 m 65 Y s 1032 731 m 86 X s 1148 731 m 86 X s 3 lw 1133 731 m20 9 lw 1335 618 m
 120 Y s 1335 769 m 119 Y s 1234 753 m 85 X s 1350 753 m 85 X s 3 lw 1335 753 m20 9 lw 1536 601 m 157 Y s 1536 789 m 158 Y s 1435 774 m 86 X s 1551 774 m 86 X s 3 lw 1536 774 m20 9 lw black 3 lw 226 157 m 1814 X s
 gsave  2268 1468 0 0 C 2025.02 43.6099 t 0 r /Helvetica findfont 54.9864 sf 0 0 m (\)) show NC gr 
 gsave  2268 1468 0 0 C 1994.68 43.6099 t 0 r /Helvetica-Oblique findfont 54.9864 sf 0 0 m (c) show NC gr 
 gsave  2268 1468 0 0 C 1835.41 43.6099 t 0 r /Helvetica findfont 54.9864 sf 0 0 m ( \(GeV/) show NC gr 
 gsave  2268 1468 0 0 C 1765.25 13.2726 t 0 r /Helvetica findfont 36.0256 sf 0 0 m (T,jet) show NC gr 
 gsave  2268 1468 0 0 C 1731.12 43.6099 t 0 r /Helvetica-Oblique findfont 54.9864 sf 0 0 m (p) show NC gr  226 193 m -36 Y s 266 175 m -18 Y s 306 175 m -18 Y s 347 175 m -18 Y s 387 175 m -18 Y s 427 193 m -36 Y s 468 175 m -18 Y s 508 175 m -18 Y s
 548 175 m -18 Y s 589 175 m -18 Y s 629 193 m -36 Y s 669 175 m -18 Y s 710 175 m -18 Y s 750 175 m -18 Y s 790 175 m -18 Y s 830 193 m -36 Y s 871 175 m -18 Y s 911 175 m -18 Y s 951 175 m -18 Y s 992 175 m -18 Y s 1032 193 m -36 Y s 1072 175 m -18
 Y s 1113 175 m -18 Y s 1153 175 m -18 Y s 1193 175 m -18 Y s 1234 193 m -36 Y s 1274 175 m -18 Y s 1314 175 m -18 Y s 1355 175 m -18 Y s 1395 175 m -18 Y s 1435 193 m -36 Y s 1476 175 m -18 Y s 1516 175 m -18 Y s 1556 175 m -18 Y s 1597 175 m -18 Y
 s 1637 193 m -36 Y s 1677 175 m -18 Y s 1718 175 m -18 Y s 1758 175 m -18 Y s 1798 175 m -18 Y s 1839 193 m -36 Y s 1879 175 m -18 Y s 1919 175 m -18 Y s 1960 175 m -18 Y s 2000 175 m -18 Y s 2040 193 m -36 Y s
 gsave  2268 1468 0 0 C 199.089 109.973 t 0 r /Helvetica findfont 47.4021 sf 0 0 m (20) show NC gr 
 gsave  2268 1468 0 0 C 400.074 109.973 t 0 r /Helvetica findfont 47.4021 sf 0 0 m (30) show NC gr 
 gsave  2268 1468 0 0 C 601.059 109.973 t 0 r /Helvetica findfont 47.4021 sf 0 0 m (40) show NC gr 
 gsave  2268 1468 0 0 C 803.94 109.973 t 0 r /Helvetica findfont 47.4021 sf 0 0 m (50) show NC gr 
 gsave  2268 1468 0 0 C 1004.92 109.973 t 0 r /Helvetica findfont 47.4021 sf 0 0 m (60) show NC gr 
 gsave  2268 1468 0 0 C 1205.91 109.973 t 0 r /Helvetica findfont 47.4021 sf 0 0 m (70) show NC gr 
 gsave  2268 1468 0 0 C 1408.79 109.973 t 0 r /Helvetica findfont 47.4021 sf 0 0 m (80) show NC gr 
 gsave  2268 1468 0 0 C 1609.78 109.973 t 0 r /Helvetica findfont 47.4021 sf 0 0 m (90) show NC gr 
 gsave  2268 1468 0 0 C 1797.49 109.973 t 0 r /Helvetica findfont 47.4021 sf 0 0 m (100) show NC gr 
 gsave  2268 1468 0 0 C 2000.37 109.973 t 0 r /Helvetica findfont 47.4021 sf 0 0 m (110) show NC gr  226 1331 m 1814 X s 226 1296 m 35 Y s 266 1313 m 18 Y s 306 1313 m 18 Y s 347 1313 m 18 Y s 387 1313 m 18 Y s 427 1296 m 35 Y s 468 1313 m 18 Y s 508
 1313 m 18 Y s 548 1313 m 18 Y s 589 1313 m 18 Y s 629 1296 m 35 Y s 669 1313 m 18 Y s 710 1313 m 18 Y s 750 1313 m 18 Y s 790 1313 m 18 Y s 830 1296 m 35 Y s 871 1313 m 18 Y s 911 1313 m 18 Y s 951 1313 m 18 Y s 992 1313 m 18 Y s 1032 1296 m 35 Y s
 1072 1313 m 18 Y s 1113 1313 m 18 Y s 1153 1313 m 18 Y s 1193 1313 m 18 Y s 1234 1296 m 35 Y s 1274 1313 m 18 Y s 1314 1313 m 18 Y s 1355 1313 m 18 Y s 1395 1313 m 18 Y s 1435 1296 m 35 Y s 1476 1313 m 18 Y s 1516 1313 m 18 Y s 1556 1313 m 18 Y s
 1597 1313 m 18 Y s 1637 1296 m 35 Y s 1677 1313 m 18 Y s 1718 1313 m 18 Y s 1758 1313 m 18 Y s 1798 1313 m 18 Y s 1839 1296 m 35 Y s 1879 1313 m 18 Y s 1919 1313 m 18 Y s 1960 1313 m 18 Y s 2000 1313 m 18 Y s 2040 1296 m 35 Y s 226 157 m 1174 Y s
 gsave  2268 1468 0 0 C 83.4277 889.263 t 90 r /Helvetica findfont 62.5708 sf 0 0 m (=0.4 Yield Ratio) show NC gr 
 gsave  2268 1468 0 0 C 83.4277 839.965 t 90 r /Helvetica-Oblique findfont 62.5708 sf 0 0 m (R) show NC gr 
 gsave  2268 1468 0 0 C 83.4277 697.759 t 90 r /Helvetica findfont 62.5708 sf 0 0 m (=0.2/) show NC gr 
 gsave  2268 1468 0 0 C 83.4277 648.461 t 90 r /Helvetica-Oblique findfont 62.5708 sf 0 0 m (R) show NC gr  280 157 m -54 X s 253 196 m -27 X s 253 236 m -27 X s 253 275 m -27 X s 280 314 m -54 X s 253 353 m -27 X s 253 392 m -27 X s 253 431 m -27 X
 s 280 470 m -54 X s 253 509 m -27 X s 253 549 m -27 X s 253 588 m -27 X s 280 627 m -54 X s 253 666 m -27 X s 253 705 m -27 X s 253 744 m -27 X s 280 783 m -54 X s 253 822 m -27 X s 253 862 m -27 X s 253 901 m -27 X s 280 940 m -54 X s 253 979 m -27
 X s 253 1018 m -27 X s 253 1057 m -27 X s 280 1096 m -54 X s 253 1135 m -27 X s 253 1175 m -27 X s 253 1214 m -27 X s 280 1253 m -54 X s 280 1253 m -54 X s 253 1292 m -27 X s 253 1331 m -27 X s
 gsave  2268 1468 0 0 C 189.608 140.31 t 0 r /Helvetica findfont 47.4021 sf 0 0 m (0) show NC gr 
 gsave  2268 1468 0 0 C 149.791 297.685 t 0 r /Helvetica findfont 47.4021 sf 0 0 m (0.2) show NC gr 
 gsave  2268 1468 0 0 C 149.791 455.06 t 0 r /Helvetica findfont 47.4021 sf 0 0 m (0.4) show NC gr 
 gsave  2268 1468 0 0 C 149.791 610.539 t 0 r /Helvetica findfont 47.4021 sf 0 0 m (0.6) show NC gr 
 gsave  2268 1468 0 0 C 149.791 767.914 t 0 r /Helvetica findfont 47.4021 sf 0 0 m (0.8) show NC gr 
 gsave  2268 1468 0 0 C 197.193 921.497 t 0 r /Helvetica findfont 47.4021 sf 0 0 m (1) show NC gr 
 gsave  2268 1468 0 0 C 149.791 1078.87 t 0 r /Helvetica findfont 47.4021 sf 0 0 m (1.2) show NC gr 
 gsave  2268 1468 0 0 C 149.791 1234.35 t 0 r /Helvetica findfont 47.4021 sf 0 0 m (1.4) show NC gr  2040 157 m 1174 Y s 1986 157 m 54 X s 2013 196 m 27 X s 2013 236 m 27 X s 2013 275 m 27 X s 1986 314 m 54 X s 2013 353 m 27 X s 2013 392 m 27 X s
 2013 431 m 27 X s 1986 470 m 54 X s 2013 509 m 27 X s 2013 549 m 27 X s 2013 588 m 27 X s 1986 627 m 54 X s 2013 666 m 27 X s 2013 705 m 27 X s 2013 744 m 27 X s 1986 783 m 54 X s 2013 822 m 27 X s 2013 862 m 27 X s 2013 901 m 27 X s 1986 940 m 54 X
 s 2013 979 m 27 X s 2013 1018 m 27 X s 2013 1057 m 27 X s 1986 1096 m 54 X s 2013 1135 m 27 X s 2013 1175 m 27 X s 2013 1214 m 27 X s 1986 1253 m 54 X s 1986 1253 m 54 X s 2013 1292 m 27 X s 2013 1331 m 27 X s 0.8 0.8 0.8 c 201 256 226 508 bf black
 0.8 0.8 0.8 c 202 243 427 500 bf black 0.8 0.8 0.8 c 201 165 629 577 bf black 0.8 0.8 0.8 c 202 120 830 571 bf black 0.8 0.8 0.8 c 202 251 1032 646 bf black 0.8 0.8 0.8 c 201 203 1234 627 bf black 0.8 0.8 0.8 c 202 227 1435 651 bf black 0.8 0.8 0.8
 c black 1 0 0 c 9 lw 1 1 1 c 1 0 0 c 326 625 m 3 Y s 326 658 m 3 Y s 226 643 m 85 X s 342 643 m 85 X s 3 lw 326 643 m20 9 lw 528 582 m 17 Y s 528 629 m 17 Y s 427 614 m 86 X s 543 614 m 86 X s 3 lw 528 614 m20 9 lw 730 602 m 32 Y s 730 665 m 32 Y s
 629 649 m 86 X s 745 649 m 85 X s 3 lw 730 649 m20 9 lw 931 578 m 34 Y s 931 642 m 34 Y s 830 627 m 86 X s 946 627 m 86 X s 3 lw 931 627 m20 9 lw 1133 651 m 65 Y s 1133 746 m 65 Y s 1032 731 m 86 X s 1148 731 m 86 X s 3 lw 1133 731 m20 9 lw 1335 618
 m 120 Y s 1335 769 m 119 Y s 1234 753 m 85 X s 1350 753 m 85 X s 3 lw 1335 753 m20 9 lw 1536 601 m 157 Y s 1536 789 m 158 Y s 1435 774 m 86 X s 1551 774 m 86 X s 3 lw 1536 774 m20 9 lw black
 gsave  2268 1468 0 0 C 426.619 1564.27 t 0 r /Helvetica-Bold findfont 51.1943 sf 0 0 m (ALICE Preliminary) show NC gr 
 gsave  2268 1468 0 0 C 1628.74 1076.98 t 0 r /Helvetica findfont 51.1943 sf 0 0 m (|<0.5) show NC gr 
 gsave  2268 1468 0 0 C 1590.81 1050.43 t 0 r /Helvetica findfont 34.1295 sf 0 0 m (jet) show NC gr 
 gsave  2268 1468 0 0 C 1558.58 1076.98 t 0 r /Symbol findfont 51.1943 sf 0 0 m ita (h) show gr NC gr 
 gsave  2268 1468 0 0 C 1549.1 1076.98 t 0 r /Helvetica findfont 51.1943 sf 0 0 m (|) show NC gr  6 lw 1 1 1 c black 100 71 226 553 bl 1 1 1 c black 101 55 326 492 bl 1 1 1 c black 101 70 427 544 bl 1 1 1 c black 101 62 528 513 bl 1 1 1 c black 201
 72 629 525 bl 1 1 1 c black 202 77 830 557 bl 1 1 1 c black 202 84 1032 601 bl 1 1 1 c black 302 64 1234 490 bl 1 1 1 c black 403 87 1536 619 bl 1 1 1 c black 276 604 m 47 Y s 272 651 m 8 X s 276 573 m -47 Y s 272 526 m 8 X s 377 535 m 64 Y s 373
 599 m 8 X s 377 504 m -64 Y s 373 440 m 8 X s 478 594 m 22 Y s 474 616 m 7 X s 478 564 m -22 Y s 474 542 m 7 X s 578 559 m 24 Y s 575 583 m 7 X s 578 529 m -24 Y s 575 505 m 7 X s 730 576 m 29 Y s 726 605 m 7 X s 730 546 m -28 Y s 726 518 m 7 X s
 931 611 m 63 Y s 928 674 m 7 X s 931 580 m -62 Y s 928 518 m 7 X s 1133 658 m 116 Y s 1129 774 m 8 X s 1133 628 m -115 Y s 1129 513 m 8 X s 1385 537 m 103 Y s 1381 640 m 8 X s 1385 507 m -103 Y s 1381 404 m 8 X s 1738 678 m 225 Y s 1734 903 m 8 X s
 1738 648 m -226 Y s 1734 422 m 8 X s 1 1 1 c black 3 lw 276 588 377 520 478 579 578 544 730 561 931 596 1133 643 1385 522 1738 663 9 { m21} R 6 lw 3 lw 1 1 1 c 680 367 340 954 bf black
 gsave  2268 1468 0 0 C 752.745 1245.73 t 0 r /Helvetica findfont 54.9864 sf 0 0 m ( = 5.02 TeV) show NC gr 
 gsave  2268 1468 0 0 C 703.447 1228.66 t 0 r /Helvetica findfont 36.0256 sf 0 0 m (NN) show NC gr 
 gsave  2268 1468 0 0 C 673.11 1245.73 t 0 r /Helvetica-Oblique findfont 54.9864 sf 0 0 m (s) show NC gr  6 lw 652 1276 m 8 -47 d s 3 lw 660 1229 m 7 62 d s 667 1291 m 86 X s
 gsave  2268 1468 0 0 C 510.047 1245.73 t 0 r /Helvetica findfont 54.9864 sf 0 0 m (p\255Pb ) show NC gr  1 0 0 c 425 1260 m20 black
 gsave  2268 1468 0 0 C 510.047 1124.38 t 0 r /Helvetica findfont 54.9864 sf 0 0 m (syst error) show NC gr  0.8 0.8 0.8 c 366 1095 m 119 X 85 Y -119 X f black 366 1180 m 119 X s 366 1095 m 119 X s 485 1095 m 85 Y s 366 1095 m 85 Y s
 gsave  2268 1468 0 0 C 648.461 999.236 t 0 r /Helvetica findfont 54.9864 sf 0 0 m ( = 2.76 TeV) show NC gr 
 gsave  2268 1468 0 0 C 618.123 999.236 t 0 r /Helvetica-Oblique findfont 54.9864 sf 0 0 m (s) show NC gr  6 lw 601 1030 m 6 -33 d s 0 lw 607 997 m 5 48 d s 612 1045 m 36 X s
 gsave  2268 1468 0 0 C 510.047 999.236 t 0 r /Helvetica findfont 54.9864 sf 0 0 m (pp ) show NC gr  3 lw 425 1015 m21 0 lw
 gsave  2268 1468 0 0 C 1336.74 1188.84 t 0 r /Helvetica findfont 68.259 sf 0 0 m (ALICE Preliminary) show NC gr  3 lw 226 157 m 1814 X s 226 193 m -36 Y s 266 175 m -18 Y s 306 175 m -18 Y s 347 175 m -18 Y s 387 175 m -18 Y s 427 193 m -36 Y s 468
 175 m -18 Y s 508 175 m -18 Y s 548 175 m -18 Y s 589 175 m -18 Y s 629 193 m -36 Y s 669 175 m -18 Y s 710 175 m -18 Y s 750 175 m -18 Y s 790 175 m -18 Y s 830 193 m -36 Y s 871 175 m -18 Y s 911 175 m -18 Y s 951 175 m -18 Y s 992 175 m -18 Y s
 1032 193 m -36 Y s 1072 175 m -18 Y s 1113 175 m -18 Y s 1153 175 m -18 Y s 1193 175 m -18 Y s 1234 193 m -36 Y s 1274 175 m -18 Y s 1314 175 m -18 Y s 1355 175 m -18 Y s 1395 175 m -18 Y s 1435 193 m -36 Y s 1476 175 m -18 Y s 1516 175 m -18 Y s
 1556 175 m -18 Y s 1597 175 m -18 Y s 1637 193 m -36 Y s 1677 175 m -18 Y s 1718 175 m -18 Y s 1758 175 m -18 Y s 1798 175 m -18 Y s 1839 193 m -36 Y s 1879 175 m -18 Y s 1919 175 m -18 Y s 1960 175 m -18 Y s 2000 175 m -18 Y s 2040 193 m -36 Y s
 226 1331 m 1814 X s 226 1296 m 35 Y s 266 1313 m 18 Y s 306 1313 m 18 Y s 347 1313 m 18 Y s 387 1313 m 18 Y s 427 1296 m 35 Y s 468 1313 m 18 Y s 508 1313 m 18 Y s 548 1313 m 18 Y s 589 1313 m 18 Y s 629 1296 m 35 Y s 669 1313 m 18 Y s 710 1313 m 18
 Y s 750 1313 m 18 Y s 790 1313 m 18 Y s 830 1296 m 35 Y s 871 1313 m 18 Y s 911 1313 m 18 Y s 951 1313 m 18 Y s 992 1313 m 18 Y s 1032 1296 m 35 Y s 1072 1313 m 18 Y s 1113 1313 m 18 Y s 1153 1313 m 18 Y s 1193 1313 m 18 Y s 1234 1296 m 35 Y s 1274
 1313 m 18 Y s 1314 1313 m 18 Y s 1355 1313 m 18 Y s 1395 1313 m 18 Y s 1435 1296 m 35 Y s 1476 1313 m 18 Y s 1516 1313 m 18 Y s 1556 1313 m 18 Y s 1597 1313 m 18 Y s 1637 1296 m 35 Y s 1677 1313 m 18 Y s 1718 1313 m 18 Y s 1758 1313 m 18 Y s 1798
 1313 m 18 Y s 1839 1296 m 35 Y s 1879 1313 m 18 Y s 1919 1313 m 18 Y s 1960 1313 m 18 Y s 2000 1313 m 18 Y s 2040 1296 m 35 Y s 226 157 m 1174 Y s 280 157 m -54 X s 253 196 m -27 X s 253 236 m -27 X s 253 275 m -27 X s 280 314 m -54 X s 253 353 m
 -27 X s 253 392 m -27 X s 253 431 m -27 X s 280 470 m -54 X s 253 509 m -27 X s 253 549 m -27 X s 253 588 m -27 X s 280 627 m -54 X s 253 666 m -27 X s 253 705 m -27 X s 253 744 m -27 X s 280 783 m -54 X s 253 822 m -27 X s 253 862 m -27 X s 253 901
 m -27 X s 280 940 m -54 X s 253 979 m -27 X s 253 1018 m -27 X s 253 1057 m -27 X s 280 1096 m -54 X s 253 1135 m -27 X s 253 1175 m -27 X s 253 1214 m -27 X s 280 1253 m -54 X s 280 1253 m -54 X s 253 1292 m -27 X s 253 1331 m -27 X s 2040 157 m
 1174 Y s 1986 157 m 54 X s 2013 196 m 27 X s 2013 236 m 27 X s 2013 275 m 27 X s 1986 314 m 54 X s 2013 353 m 27 X s 2013 392 m 27 X s 2013 431 m 27 X s 1986 470 m 54 X s 2013 509 m 27 X s 2013 549 m 27 X s 2013 588 m 27 X s 1986 627 m 54 X s 2013
 666 m 27 X s 2013 705 m 27 X s 2013 744 m 27 X s 1986 783 m 54 X s 2013 822 m 27 X s 2013 862 m 27 X s 2013 901 m 27 X s 1986 940 m 54 X s 2013 979 m 27 X s 2013 1018 m 27 X s 2013 1057 m 27 X s 1986 1096 m 54 X s 2013 1135 m 27 X s 2013 1175 m 27 X
 s 2013 1214 m 27 X s 1986 1253 m 54 X s 1986 1253 m 54 X s 2013 1292 m 27 X s 2013 1331 m 27 X s
 gr  gr showpage
end
%%EOF
