%!PS-Adobe-2.0 EPSF-2.0
%%BoundingBox:  0 0 567 584
%%Title: /global/project/projectdirs/alice/mconnors/JetUnfolding/R2_Data_MC_prelim.eps: cspectra
%%Creator: ROOT Version 5.34/09
%%CreationDate: Sun May 11 12:58:59 2014
%%EndComments
%%BeginProlog
80 dict begin
/s {stroke} def /l {lineto} def /m {moveto} def /t {translate} def
/r {rotate} def /rl {roll}  def /R {repeat} def
/d {rlineto} def /rm {rmoveto} def /gr {grestore} def /f {eofill} def
/c {setrgbcolor} def /black {0 setgray} def /sd {setdash} def
/cl {closepath} def /sf {scalefont setfont} def /lw {setlinewidth} def
/box {m dup 0 exch d exch 0 d 0 exch neg d cl} def
/NC{systemdict begin initclip end}def/C{NC box clip newpath}def
/bl {box s} def /bf {box f} def /Y { 0 exch d} def /X { 0 d} def 
/K {{pop pop 0 moveto} exch kshow} bind def
/ita {/ang 15 def gsave [1 0 ang dup sin exch cos div 1 0 0] concat} def 
/mp {newpath /y exch def /x exch def} def
/side {[w .77 mul w .23 mul] .385 w mul sd w 0 l currentpoint t -144 r} def
/mr {mp x y w2 0 360 arc} def /m24 {mr s} def /m20 {mr f} def
/mb {mp x y w2 add m w2 neg 0 d 0 w neg d w 0 d 0 w d cl} def
/mt {mp x y w2 add m w2 neg w neg d w 0 d cl} def
/m21 {mb f} def /m25 {mb s} def /m22 {mt f} def /m26{mt s} def
/m23 {mp x y w2 sub m w2 w d w neg 0 d cl f} def
/m27 {mp x y w2 add m w3 neg w2 neg d w3 w2 neg d w3 w2 d cl s} def
/m28 {mp x w2 sub y w2 sub w3 add m w3 0 d  0 w3 neg d w3 0 d 0 w3 d w3 0 d  0 w3 d w3 neg 0 d 0 w3 d w3 neg 0 d 0 w3 neg d w3 neg 0 d cl s } def
/m29 {mp gsave x w2 sub y w2 add w3 sub m currentpoint t 4 {side} repeat cl fill gr} def
/m30 {mp gsave x w2 sub y w2 add w3 sub m currentpoint t 4 {side} repeat cl s gr} def
/m31 {mp x y w2 sub m 0 w d x w2 sub y m w 0 d x w2 sub y w2 add m w w neg d x w2 sub y w2 sub m w w d s} def
/m32 {mp x y w2 sub m w2 w d w neg 0 d cl s} def
/m33 {mp x y w2 add m w3 neg w2 neg d w3 w2 neg d w3 w2 d cl f} def
/m34 {mp x w2 sub y w2 sub w3 add m w3 0 d  0 w3 neg d w3 0 d 0 w3 d w3 0 d  0 w3 d w3 neg 0 d 0 w3 d w3 neg 0 d 0 w3 neg d w3 neg 0 d cl f } def
/m2 {mp x y w2 sub m 0 w d x w2 sub y m w 0 d s} def
/m5 {mp x w2 sub y w2 sub m w w d x w2 sub y w2 add m w w neg d s} def
/reEncode {exch findfont dup length dict begin {1 index /FID eq  {pop pop} {def} ifelse } forall /Encoding exch def currentdict end dup /FontName get exch definefont pop } def [/Times-Bold /Times-Italic /Times-BoldItalic /Helvetica /Helvetica-Oblique
 /Helvetica-Bold /Helvetica-BoldOblique /Courier /Courier-Oblique /Courier-Bold /Courier-BoldOblique /Times-Roman /AvantGarde-Book /AvantGarde-BookOblique /AvantGarde-Demi /AvantGarde-DemiOblique /Bookman-Demi /Bookman-DemiItalic /Bookman-Light
 /Bookman-LightItalic /Helvetica-Narrow /Helvetica-Narrow-Bold /Helvetica-Narrow-BoldOblique /Helvetica-Narrow-Oblique /NewCenturySchlbk-Roman /NewCenturySchlbk-Bold /NewCenturySchlbk-BoldItalic /NewCenturySchlbk-Italic /Palatino-Bold
 /Palatino-BoldItalic /Palatino-Italic /Palatino-Roman ] {ISOLatin1Encoding reEncode } forall
%%EndProlog
%%BeginSetup
%%EndSetup
newpath  gsave  .25 .25 scale  gsave  0 0 t black[  ] 0 sd 3 lw 1 1 1 c 2268 2336 0 0 bf black 1 1 1 c 2268 1518 0 818 bf black 1 1 1 c 1837 1456 340 819 bf black 1837 1456 340 819 bl 1 1 1 c 1837 1456 340 819 bf black 1837 1456 340 819 bl 1 0 0 c 1
 1 1 c 1 0 0 c 340 2173 m 116 X s 487 2173 m 116 X s /w 37 def /w2 {w 2 div} def /w3 {w 3 div} def 471 2173 m20 603 1866 m 116 X s 749 1866 m 116 X s 734 1866 m20 865 1649 m 116 X s 1011 1649 m 116 X s 996 1649 m20 1127 1431 m 116 X s 1274 1431 m 116
 X s 1259 1431 m20 1390 1262 m 116 X s 1536 1262 m 116 X s 1521 1262 m20 1652 1123 m 116 X s 1799 1123 m 116 X s 1783 1123 m20 1915 998 m 116 X s 2061 998 m 116 X s 2046 998 m20 black 340 819 m 1837 X s
 gsave  2268 1518 0 818 C 1993.76 730.54 t 0 r /Helvetica findfont 49.476 sf 0 0 m ( \(GeV/c\)) show NC gr 
 gsave  2268 1518 0 818 C 1925.28 703.905 t 0 r /Helvetica findfont 34.2526 sf 0 0 m (T,jet) show NC gr 
 gsave  2268 1518 0 818 C 1898.64 730.54 t 0 r /Helvetica findfont 49.476 sf 0 0 m (p) show NC gr  340 856 m -37 Y s 393 838 m -19 Y s 445 838 m -19 Y s 498 838 m -19 Y s 550 838 m -19 Y s 603 856 m -37 Y s 655 838 m -19 Y s 708 838 m -19 Y s 760 838
 m -19 Y s 812 838 m -19 Y s 865 856 m -37 Y s 917 838 m -19 Y s 970 838 m -19 Y s 1022 838 m -19 Y s 1075 838 m -19 Y s 1127 856 m -37 Y s 1180 838 m -19 Y s 1232 838 m -19 Y s 1285 838 m -19 Y s 1337 838 m -19 Y s 1390 856 m -37 Y s 1442 838 m -19
 Y s 1495 838 m -19 Y s 1547 838 m -19 Y s 1600 838 m -19 Y s 1652 856 m -37 Y s 1705 838 m -19 Y s 1757 838 m -19 Y s 1810 838 m -19 Y s 1862 838 m -19 Y s 1915 856 m -37 Y s 1967 838 m -19 Y s 2020 838 m -19 Y s 2072 838 m -19 Y s 2125 838 m -19 Y
 s 2177 856 m -37 Y s
 gsave  2268 1518 0 818 C 312.001 772.393 t 0 r /Helvetica findfont 49.476 sf 0 0 m (20) show NC gr 
 gsave  2268 1518 0 818 C 574.539 772.393 t 0 r /Helvetica findfont 49.476 sf 0 0 m (30) show NC gr 
 gsave  2268 1518 0 818 C 837.077 772.393 t 0 r /Helvetica findfont 49.476 sf 0 0 m (40) show NC gr 
 gsave  2268 1518 0 818 C 1099.61 772.393 t 0 r /Helvetica findfont 49.476 sf 0 0 m (50) show NC gr 
 gsave  2268 1518 0 818 C 1362.15 772.393 t 0 r /Helvetica findfont 49.476 sf 0 0 m (60) show NC gr 
 gsave  2268 1518 0 818 C 1624.69 772.393 t 0 r /Helvetica findfont 49.476 sf 0 0 m (70) show NC gr 
 gsave  2268 1518 0 818 C 1887.23 772.393 t 0 r /Helvetica findfont 49.476 sf 0 0 m (80) show NC gr 
 gsave  2268 1518 0 818 C 2149.76 772.393 t 0 r /Helvetica findfont 49.476 sf 0 0 m (90) show NC gr  340 2275 m 1837 X s 340 2239 m 36 Y s 393 2257 m 18 Y s 445 2257 m 18 Y s 498 2257 m 18 Y s 550 2257 m 18 Y s 603 2239 m 36 Y s 655 2257 m 18 Y s 708
 2257 m 18 Y s 760 2257 m 18 Y s 812 2257 m 18 Y s 865 2239 m 36 Y s 917 2257 m 18 Y s 970 2257 m 18 Y s 1022 2257 m 18 Y s 1075 2257 m 18 Y s 1127 2239 m 36 Y s 1180 2257 m 18 Y s 1232 2257 m 18 Y s 1285 2257 m 18 Y s 1337 2257 m 18 Y s 1390 2239 m
 36 Y s 1442 2257 m 18 Y s 1495 2257 m 18 Y s 1547 2257 m 18 Y s 1600 2257 m 18 Y s 1652 2239 m 36 Y s 1705 2257 m 18 Y s 1757 2257 m 18 Y s 1810 2257 m 18 Y s 1862 2257 m 18 Y s 1915 2239 m 36 Y s 1967 2257 m 18 Y s 2020 2257 m 18 Y s 2072 2257 m 18
 Y s 2125 2257 m 18 Y s 2177 2239 m 36 Y s 340 819 m 1456 Y s
 gsave  2268 1518 0 818 C 117.952 2252.5 t 90 r /Helvetica findfont 34.2526 sf 0 0 m (\2551) show NC gr 
 gsave  2268 1518 0 818 C 140.781 2237.28 t 90 r /Helvetica findfont 49.476 sf 0 0 m (\)) show NC gr 
 gsave  2268 1518 0 818 C 140.781 2206.84 t 90 r /Helvetica-Oblique findfont 49.476 sf 0 0 m (c) show NC gr 
 gsave  2268 1518 0 818 C 140.781 2062.25 t 90 r /Helvetica findfont 49.476 sf 0 0 m ( \(GeV/) show NC gr 
 gsave  2268 1518 0 818 C 175.025 2031.81 t 90 r /Symbol findfont 49.476 sf 0 0 m ita (h) show gr NC gr 
 gsave  2268 1518 0 818 C 175.025 2005.18 t 90 r /Helvetica findfont 49.476 sf 0 0 m (d) show NC gr 
 gsave  2268 1518 0 818 C 201.659 1982.35 t 90 r /Helvetica findfont 34.2526 sf 0 0 m (T) show NC gr 
 gsave  2268 1518 0 818 C 175.025 1951.91 t 90 r /Helvetica-Oblique findfont 49.476 sf 0 0 m (p) show NC gr 
 gsave  2268 1518 0 818 C 175.025 1925.28 t 90 r /Helvetica findfont 49.476 sf 0 0 m (d) show NC gr 
 gsave  2268 1518 0 818 C 117.952 1997.57 t 90 r /Helvetica-Oblique findfont 49.476 sf 0 0 m (N) show NC gr 
 gsave  2268 1518 0 818 C 95.1223 1978.54 t 90 r /Helvetica findfont 34.2526 sf 0 0 m (2) show NC gr 
 gsave  2268 1518 0 818 C 117.952 1951.91 t 90 r /Helvetica findfont 49.476 sf 0 0 m (d) show NC gr  6 lw 129 1925 m 137 Y s
 gsave  2268 1518 0 818 C 140.781 1910.06 t 90 r /Helvetica findfont 49.476 sf 0 0 m ( ) show NC gr 
 gsave  2268 1518 0 818 C 190.245 1860.59 t 90 r /Helvetica findfont 34.2526 sf 0 0 m (coll) show NC gr 
 gsave  2268 1518 0 818 C 175.025 1818.74 t 90 r /Helvetica-Oblique findfont 49.476 sf 0 0 m (N) show NC gr 
 gsave  2268 1518 0 818 C 175.025 1803.52 t 90 r /Helvetica findfont 49.476 sf 0 0 m ( ) show NC gr 
 gsave  2268 1518 0 818 C 190.245 1757.86 t 90 r /Helvetica findfont 34.2526 sf 0 0 m (evt) show NC gr 
 gsave  2268 1518 0 818 C 175.025 1716.01 t 90 r /Helvetica-Oblique findfont 49.476 sf 0 0 m (N) show NC gr 
 gsave  2268 1518 0 818 C 121.757 1803.52 t 90 r /Helvetica findfont 49.476 sf 0 0 m (1) show NC gr  129 1716 m 194 Y s 3 lw 373 837 m -33 X s 373 896 m -33 X s 373 942 m -33 X s 373 980 m -33 X s 373 1012 m -33 X s 373 1039 m -33 X s 373 1064 m -33
 X s 405 1086 m -65 X s
 gsave  2268 1518 0 818 C 289.172 1084.39 t 0 r /Helvetica findfont 34.2526 sf 0 0 m (\2557) show NC gr 
 gsave  2268 1518 0 818 C 235.903 1061.57 t 0 r /Helvetica findfont 49.476 sf 0 0 m (10) show NC gr  373 1229 m -33 X s 373 1312 m -33 X s 373 1372 m -33 X s 373 1418 m -33 X s 373 1456 m -33 X s 373 1487 m -33 X s 373 1515 m -33 X s 373 1539 m -33 X
 s 405 1561 m -65 X s
 gsave  2268 1518 0 818 C 289.172 1563.81 t 0 r /Helvetica findfont 34.2526 sf 0 0 m (\2556) show NC gr 
 gsave  2268 1518 0 818 C 235.903 1537.18 t 0 r /Helvetica findfont 49.476 sf 0 0 m (10) show NC gr  373 1704 m -33 X s 373 1788 m -33 X s 373 1848 m -33 X s 373 1894 m -33 X s 373 1931 m -33 X s 373 1963 m -33 X s 373 1991 m -33 X s 373 2015 m -33 X
 s 405 2037 m -65 X s
 gsave  2268 1518 0 818 C 289.172 2039.42 t 0 r /Helvetica findfont 34.2526 sf 0 0 m (\2555) show NC gr 
 gsave  2268 1518 0 818 C 235.903 2012.79 t 0 r /Helvetica findfont 49.476 sf 0 0 m (10) show NC gr  373 2180 m -33 X s 373 2264 m -33 X s 2177 819 m 1456 Y s 2144 837 m 33 X s 2144 896 m 33 X s 2144 942 m 33 X s 2144 980 m 33 X s 2144 1012 m 33 X s
 2144 1039 m 33 X s 2144 1064 m 33 X s 2112 1086 m 65 X s 2144 1229 m 33 X s 2144 1312 m 33 X s 2144 1372 m 33 X s 2144 1418 m 33 X s 2144 1456 m 33 X s 2144 1487 m 33 X s 2144 1515 m 33 X s 2144 1539 m 33 X s 2112 1561 m 65 X s 2144 1704 m 33 X s
 2144 1788 m 33 X s 2144 1848 m 33 X s 2144 1894 m 33 X s 2144 1931 m 33 X s 2144 1963 m 33 X s 2144 1991 m 33 X s 2144 2015 m 33 X s 2112 2037 m 65 X s 2144 2180 m 33 X s 2144 2264 m 33 X s 1 1 1 c 1021 410 1111 1577 bf black
 gsave  2268 1518 0 818 C 1833.96 1921.47 t 0 r /Helvetica findfont 60.8936 sf 0 0 m (=5.02 TeV) show NC gr 
 gsave  2268 1518 0 818 C 1773.08 1898.64 t 0 r /Helvetica findfont 41.8643 sf 0 0 m (NN) show NC gr 
 gsave  2268 1518 0 818 C 1738.84 1921.47 t 0 r /Helvetica-Oblique findfont 60.8936 sf 0 0 m (s) show NC gr  6 lw 1716 1956 m 8 -57 d s 0 lw 1724 1899 m 7 72 d s 1731 1971 m 103 X s
 gsave  2268 1518 0 818 C 1365.96 1921.47 t 0 r /Helvetica findfont 60.8936 sf 0 0 m (ALICE p\255Pb ) show NC gr  1 0 0 c 3 lw 1239 1936 m20 0 lw black
 gsave  2268 1518 0 818 C 1365.96 1818.74 t 0 r /Helvetica findfont 60.8936 sf 0 0 m (syst error) show NC gr  0.8 0.8 0.8 c 3 lw 1149 1797 m 179 X 72 Y -179 X f 0 lw 1 1 1 c 3 lw 1149 1869 m 179 X s 1149 1797 m 179 X s 1328 1797 m 72 Y s 1149 1797 m
 72 Y s black
 gsave  2268 1518 0 818 C 1769.28 1708.4 t 0 r /Helvetica findfont 60.8936 sf 0 0 m (=0.7 ) show NC gr 
 gsave  2268 1518 0 818 C 1731.23 1708.4 t 0 r /Helvetica-Oblique findfont 60.8936 sf 0 0 m (k) show NC gr 
 gsave  2268 1518 0 818 C 1365.96 1708.4 t 0 r /Helvetica findfont 60.8936 sf 0 0 m (PYTHIA8 4C ) show NC gr  0 0 1 c 1239 1731 m24 black
 gsave  2268 1518 0 818 C 1365.96 1609.47 t 0 r /Helvetica findfont 60.8936 sf 0 0 m (PYTHIA6 Perugia 2011) show NC gr  0 0.4 0 c 1239 1628 m24 black 1 1 1 c 860 472 384 875 bf black
 gsave  2268 1518 0 818 C 597.368 1274.64 t 0 r /Helvetica findfont 64.6994 sf 0 0 m (POWHEG+PYTHIA8) show NC gr 
 gsave  2268 1518 0 818 C 597.368 1179.52 t 0 r /Helvetica findfont 64.6994 sf 0 0 m (EPS) show NC gr  /w 52 def /w2 {w 2 div} def /w3 {w 3 div} def 492 1205 m27
 gsave  2268 1518 0 818 C 597.368 1092 t 0 r /Helvetica findfont 64.6994 sf 0 0 m (EPS Uncertainty) show NC gr  1 0.8 0.8 c 417 1078 m 150 X 66 Y -150 X cl s black 417 1144 m 150 X s 417 1078 m 150 X s 567 1078 m 66 Y s 417 1078 m 66 Y s
 gsave  2268 1518 0 818 C 597.368 993.077 t 0 r /Helvetica findfont 64.6994 sf 0 0 m (CTEQ6.6) show NC gr  1 0 1 c /w 30 def /w2 {w 2 div} def /w3 {w 3 div} def 492 1017 m25 black
 gsave  2268 1518 0 818 C 597.368 905.565 t 0 r /Helvetica findfont 64.6994 sf 0 0 m (CTEQ Uncertainty) show NC gr  0.6 0.6 1 c 417 889 m 150 X 66 Y -150 X cl s 1 0 1 c 417 955 m 150 X s 417 889 m 150 X s 567 889 m 66 Y s 417 889 m 66 Y s 1 1 1 c 0.8
 0.8 0.8 c 263 91 340 2123 bf 1 1 1 c 0.8 0.8 0.8 c 262 68 603 1830 bf 1 1 1 c 0.8 0.8 0.8 c 262 73 865 1609 bf 1 1 1 c 0.8 0.8 0.8 c 263 65 1127 1397 bf 1 1 1 c 0.8 0.8 0.8 c 262 64 1390 1228 bf 1 1 1 c 0.8 0.8 0.8 c 263 63 1652 1089 bf 1 1 1 c 0.8
 0.8 0.8 c 262 64 1915 964 bf 1 1 1 c 0.8 0.8 0.8 c black 1 0.8 0.8 c black 263 66 340 2089 bl /w 52 def /w2 {w 2 div} def /w3 {w 3 div} def 471 2124 m27 262 65 603 1791 bl 734 1826 m27 262 66 865 1558 bl 996 1593 m27 263 66 1127 1364 bl 1259 1400
 m27 262 66 1390 1197 bl 1521 1233 m27 263 66 1652 1050 bl 1783 1086 m27 262 66 1915 919 bl 2046 954 m27 1 0 1 c 0.6 0.6 1 c 1 0 1 c 263 59 340 2086 bl /w 30 def /w2 {w 2 div} def /w3 {w 3 div} def 471 2118 m25 262 60 603 1784 bl 734 1816 m25 262 60
 865 1550 bl 996 1582 m25 263 59 1127 1357 bl 1259 1389 m25 262 59 1390 1190 bl 1521 1222 m25 263 59 1652 1044 bl 1783 1076 m25 262 60 1915 912 bl 2046 944 m25 1 0 0 c 1 1 1 c 1 0 0 c /w 37 def /w2 {w 2 div} def /w3 {w 3 div} def 471 2173 m20 734
 1866 m20 996 1649 m20 1259 1431 m20 1521 1262 m20 1783 1123 m20 2046 998 m20 1 0 1 c 1 1 1 c 1 0 1 c /w 30 def /w2 {w 2 div} def /w3 {w 3 div} def 471 2118 m25 734 1816 m25 996 1582 m25 1259 1389 m25 1521 1222 m25 1783 1076 m25 2046 944 m25 black 1
 1 1 c black /w 52 def /w2 {w 2 div} def /w3 {w 3 div} def 471 2124 m27 734 1826 m27 996 1593 m27 1259 1400 m27 1521 1233 m27 1783 1086 m27 2046 954 m27 1 0 0 c 1 1 1 c 1 0 0 c /w 37 def /w2 {w 2 div} def /w3 {w 3 div} def 471 2173 m20 734 1866 m20
 996 1649 m20 1259 1431 m20 1521 1262 m20 1783 1123 m20 2046 998 m20 0 0 1 c 1 1 1 c 0 0 1 c 471 2149 m24 734 1832 m24 996 1601 m24 1259 1394 m24 1521 1233 m24 1783 1083 m24 2046 958 m24 0 0.4 0 c 6 lw 1 1 1 c 0 0.4 0 c 3 lw 471 2171 m24 6 lw 3 lw
 734 1864 m24 6 lw 3 lw 996 1622 m24 6 lw 3 lw 1259 1433 m24 6 lw 3 lw 1521 1263 m24 6 lw 3 lw 1783 1119 m24 6 lw 3 lw 2046 988 m24 6 lw black
 gsave  2268 1518 0 818 C 1289.86 2187.81 t 0 r /Helvetica findfont 72.3111 sf 0 0 m (ALICE Preliminary) show NC gr 
 gsave  2268 1518 0 818 C 1563.81 2062.25 t 0 r /Helvetica findfont 38.0585 sf 0 0 m (\2551) show NC gr 
 gsave  2268 1518 0 818 C 1533.37 2035.62 t 0 r /Helvetica findfont 57.0877 sf 0 0 m (b) show NC gr 
 gsave  2268 1518 0 818 C 1499.13 2035.62 t 0 r /Symbol findfont 57.0877 sf 0 0 m (m) show NC gr 
 gsave  2268 1518 0 818 C 1411.62 2035.62 t 0 r /Helvetica findfont 57.0877 sf 0 0 m (=51) show NC gr 
 gsave  2268 1518 0 818 C 1369.76 2020.4 t 0 r /Helvetica findfont 38.0585 sf 0 0 m (int) show NC gr 
 gsave  2268 1518 0 818 C 1335.52 2035.62 t 0 r /Helvetica-Oblique findfont 57.0877 sf 0 0 m (L) show NC gr 
 gsave  2268 1518 0 818 C 1529.57 2111.72 t 0 r /Helvetica findfont 72.3111 sf 0 0 m (|<0.5) show NC gr 
 gsave  2268 1518 0 818 C 1483.91 2111.72 t 0 r /Symbol findfont 72.3111 sf 0 0 m ita (h) show gr NC gr 
 gsave  2268 1518 0 818 C 1236.59 2111.72 t 0 r /Helvetica findfont 72.3111 sf 0 0 m ( R=0.2 |) show NC gr 
 gsave  2268 1518 0 818 C 1206.15 2092.69 t 0 r /Helvetica findfont 45.6702 sf 0 0 m (T) show NC gr 
 gsave  2268 1518 0 818 C 1160.49 2111.72 t 0 r /Helvetica-Oblique findfont 72.3111 sf 0 0 m (k) show NC gr 
 gsave  2268 1518 0 818 C 1019.71 2111.72 t 0 r /Helvetica findfont 72.3111 sf 0 0 m (anti\255) show NC gr  3 lw 1 1 1 c 2268 818 0 0 bf black 1 1 1 c 1837 638 340 180 bf black 1837 638 340 180 bl 1 1 1 c 1837 638 340 180 bf black 1837 638 340 180 bl
 1 0 0 c 6 lw 1 1 1 c black 1 0 0 c 340 484 m 1837 X s black 3 lw 340 180 m 1837 X s
 gsave  2268 818 0 0 C 2157.37 76.0979 t 0 r /Helvetica findfont 61.1343 sf 0 0 m (\)) show NC gr 
 gsave  2268 818 0 0 C 2123.13 76.0979 t 0 r /Helvetica-Oblique findfont 61.1343 sf 0 0 m (c) show NC gr 
 gsave  2268 818 0 0 C 1944.3 76.0979 t 0 r /Helvetica findfont 61.1343 sf 0 0 m ( \(GeV/) show NC gr 
 gsave  2268 818 0 0 C 1860.59 38.0489 t 0 r /Helvetica findfont 42.0298 sf 0 0 m (T,jet) show NC gr 
 gsave  2268 818 0 0 C 1822.54 76.0979 t 0 r /Helvetica-Oblique findfont 61.1343 sf 0 0 m (p) show NC gr  340 200 m -20 Y s 393 190 m -10 Y s 445 190 m -10 Y s 498 190 m -10 Y s 550 190 m -10 Y s 603 200 m -20 Y s 655 190 m -10 Y s 708 190 m -10 Y s
 760 190 m -10 Y s 812 190 m -10 Y s 865 200 m -20 Y s 917 190 m -10 Y s 970 190 m -10 Y s 1022 190 m -10 Y s 1075 190 m -10 Y s 1127 200 m -20 Y s 1180 190 m -10 Y s 1232 190 m -10 Y s 1285 190 m -10 Y s 1337 190 m -10 Y s 1390 200 m -20 Y s 1442
 190 m -10 Y s 1495 190 m -10 Y s 1547 190 m -10 Y s 1600 190 m -10 Y s 1652 200 m -20 Y s 1705 190 m -10 Y s 1757 190 m -10 Y s 1810 190 m -10 Y s 1862 190 m -10 Y s 1915 200 m -20 Y s 1967 190 m -10 Y s 2020 190 m -10 Y s 2072 190 m -10 Y s 2125
 190 m -10 Y s 2177 200 m -20 Y s
 gsave  2268 818 0 0 C 304.391 125.561 t 0 r /Helvetica findfont 61.1343 sf 0 0 m (20) show NC gr 
 gsave  2268 818 0 0 C 566.929 125.561 t 0 r /Helvetica findfont 61.1343 sf 0 0 m (30) show NC gr 
 gsave  2268 818 0 0 C 829.467 125.561 t 0 r /Helvetica findfont 61.1343 sf 0 0 m (40) show NC gr 
 gsave  2268 818 0 0 C 1092 125.561 t 0 r /Helvetica findfont 61.1343 sf 0 0 m (50) show NC gr 
 gsave  2268 818 0 0 C 1354.54 125.561 t 0 r /Helvetica findfont 61.1343 sf 0 0 m (60) show NC gr 
 gsave  2268 818 0 0 C 1617.08 125.561 t 0 r /Helvetica findfont 61.1343 sf 0 0 m (70) show NC gr 
 gsave  2268 818 0 0 C 1879.62 125.561 t 0 r /Helvetica findfont 61.1343 sf 0 0 m (80) show NC gr 
 gsave  2268 818 0 0 C 2142.16 125.561 t 0 r /Helvetica findfont 61.1343 sf 0 0 m (90) show NC gr  340 818 m 1837 X s 340 798 m 20 Y s 393 808 m 10 Y s 445 808 m 10 Y s 498 808 m 10 Y s 550 808 m 10 Y s 603 798 m 20 Y s 655 808 m 10 Y s 708 808 m 10
 Y s 760 808 m 10 Y s 812 808 m 10 Y s 865 798 m 20 Y s 917 808 m 10 Y s 970 808 m 10 Y s 1022 808 m 10 Y s 1075 808 m 10 Y s 1127 798 m 20 Y s 1180 808 m 10 Y s 1232 808 m 10 Y s 1285 808 m 10 Y s 1337 808 m 10 Y s 1390 798 m 20 Y s 1442 808 m 10 Y
 s 1495 808 m 10 Y s 1547 808 m 10 Y s 1600 808 m 10 Y s 1652 798 m 20 Y s 1705 808 m 10 Y s 1757 808 m 10 Y s 1810 808 m 10 Y s 1862 808 m 10 Y s 1915 798 m 20 Y s 1967 808 m 10 Y s 2020 808 m 10 Y s 2072 808 m 10 Y s 2125 808 m 10 Y s 2177 798 m 20
 Y s 340 180 m 638 Y s
 gsave  2268 818 0 0 C 186.44 578.344 t 90 r /Helvetica findfont 61.1343 sf 0 0 m (Data/MC) show NC gr  393 180 m -53 X s 367 195 m -27 X s 367 210 m -27 X s 367 225 m -27 X s 393 241 m -53 X s 367 256 m -27 X s 367 271 m -27 X s 367 286 m -27 X s
 393 301 m -53 X s 367 317 m -27 X s 367 332 m -27 X s 367 347 m -27 X s 393 362 m -53 X s 367 377 m -27 X s 367 392 m -27 X s 367 408 m -27 X s 393 423 m -53 X s 367 438 m -27 X s 367 453 m -27 X s 367 468 m -27 X s 393 484 m -53 X s 367 499 m -27 X
 s 367 514 m -27 X s 367 529 m -27 X s 393 544 m -53 X s 367 559 m -27 X s 367 575 m -27 X s 367 590 m -27 X s 393 605 m -53 X s 367 620 m -27 X s 367 635 m -27 X s 367 651 m -27 X s 393 666 m -53 X s 367 681 m -27 X s 367 696 m -27 X s 367 711 m -27
 X s 393 726 m -53 X s 367 742 m -27 X s 367 757 m -27 X s 367 772 m -27 X s 393 787 m -53 X s 393 787 m -53 X s 367 802 m -27 X s 367 818 m -27 X s
 gsave  2268 818 0 0 C 296.782 163.61 t 0 r /Helvetica findfont 53.4925 sf 0 0 m (0) show NC gr 
 gsave  2268 818 0 0 C 254.928 224.489 t 0 r /Helvetica findfont 53.4925 sf 0 0 m (0.2) show NC gr 
 gsave  2268 818 0 0 C 254.928 285.367 t 0 r /Helvetica findfont 53.4925 sf 0 0 m (0.4) show NC gr 
 gsave  2268 818 0 0 C 254.928 346.245 t 0 r /Helvetica findfont 53.4925 sf 0 0 m (0.6) show NC gr 
 gsave  2268 818 0 0 C 254.928 407.124 t 0 r /Helvetica findfont 53.4925 sf 0 0 m (0.8) show NC gr 
 gsave  2268 818 0 0 C 308.196 464.197 t 0 r /Helvetica findfont 53.4925 sf 0 0 m (1) show NC gr 
 gsave  2268 818 0 0 C 254.928 525.075 t 0 r /Helvetica findfont 53.4925 sf 0 0 m (1.2) show NC gr 
 gsave  2268 818 0 0 C 254.928 585.954 t 0 r /Helvetica findfont 53.4925 sf 0 0 m (1.4) show NC gr 
 gsave  2268 818 0 0 C 254.928 646.832 t 0 r /Helvetica findfont 53.4925 sf 0 0 m (1.6) show NC gr 
 gsave  2268 818 0 0 C 254.928 707.71 t 0 r /Helvetica findfont 53.4925 sf 0 0 m (1.8) show NC gr 
 gsave  2268 818 0 0 C 296.782 764.784 t 0 r /Helvetica findfont 53.4925 sf 0 0 m (2) show NC gr  2177 180 m 638 Y s 2124 180 m 53 X s 2150 195 m 27 X s 2150 210 m 27 X s 2150 225 m 27 X s 2124 241 m 53 X s 2150 256 m 27 X s 2150 271 m 27 X s 2150
 286 m 27 X s 2124 301 m 53 X s 2150 317 m 27 X s 2150 332 m 27 X s 2150 347 m 27 X s 2124 362 m 53 X s 2150 377 m 27 X s 2150 392 m 27 X s 2150 408 m 27 X s 2124 423 m 53 X s 2150 438 m 27 X s 2150 453 m 27 X s 2150 468 m 27 X s 2124 484 m 53 X s
 2150 499 m 27 X s 2150 514 m 27 X s 2150 529 m 27 X s 2124 544 m 53 X s 2150 559 m 27 X s 2150 575 m 27 X s 2150 590 m 27 X s 2124 605 m 53 X s 2150 620 m 27 X s 2150 635 m 27 X s 2150 651 m 27 X s 2124 666 m 53 X s 2150 681 m 27 X s 2150 696 m 27 X
 s 2150 711 m 27 X s 2124 726 m 53 X s 2150 742 m 27 X s 2150 757 m 27 X s 2150 772 m 27 X s 2124 787 m 53 X s 2124 787 m 53 X s 2150 802 m 27 X s 2150 818 m 27 X s 0.8 0.8 0.8 c 263 131 340 418 bf black 0.8 0.8 0.8 c 262 99 603 434 bf black 0.8 0.8
 0.8 c 262 106 865 430 bf black 0.8 0.8 0.8 c 263 94 1127 437 bf black 0.8 0.8 0.8 c 262 94 1390 437 bf black 0.8 0.8 0.8 c 263 92 1652 437 bf black 0.8 0.8 0.8 c 262 93 1915 437 bf black 0.8 0.8 0.8 c black 1 0 0 c 6 lw 1 1 1 c black 1 0 0 c 340 484
 m 1837 X s black 3 lw 1 0.8 0.8 c black 263 122 340 504 bl /w 2 def /w2 {w 2 div} def /w3 {w 3 div} def 471 565 m20 262 117 603 491 bl 734 549 m20 262 126 865 514 bl 996 577 m20 263 112 1127 478 bl 1259 534 m20 262 110 1390 475 bl 1521 530 m20 263
 115 1652 487 bl 1783 544 m20 262 119 1915 496 bl 2046 556 m20 1 0 1 c 0.6 0.6 1 c black 1 0 1 c 263 114 340 521 bl black 471 578 m20 1 0 1 c 262 111 603 512 bl black 734 567 m20 1 0 1 c 262 120 865 539 bl black 996 599 m20 1 0 1 c 263 107 1127 500
 bl black 1259 553 m20 1 0 1 c 262 105 1390 497 bl black 1521 549 m20 1 0 1 c 263 109 1652 508 bl black 1783 563 m20 1 0 1 c 262 113 1915 518 bl black 2046 574 m20 1 0 1 c 1 1 1 c 1 0 1 c /w 30 def /w2 {w 2 div} def /w3 {w 3 div} def 471 578 m25 734
 567 m25 996 599 m25 1259 553 m25 1521 549 m25 1783 546 m 1 Y s 1783 578 m 1 Y s 1783 563 m25 2046 554 m 5 Y s 2046 590 m 5 Y s 2046 574 m25 black 1 1 1 c black /w 52 def /w2 {w 2 div} def /w3 {w 3 div} def 471 565 m27 734 549 m27 996 577 m27 1259
 534 m27 1521 530 m27 1783 544 m27 2046 556 m27 0 0 1 c 1 1 1 c 0 0 1 c /w 30 def /w2 {w 2 div} def /w3 {w 3 div} def 471 521 m24 734 539 m24 996 563 m24 1259 543 m24 1521 530 m24 1783 532 m 1 Y s 1783 564 m 1 Y s 1783 549 m24 2046 531 m 3 Y s 2046
 565 m 4 Y s 2046 550 m24 0 0.4 0 c 1 1 1 c 0 0.4 0 c 471 487 m24 734 488 m24 996 525 m24 1259 481 m24 1521 482 m24 1783 490 m24 2046 483 m 1 Y s 2046 514 m 1 Y s 2046 499 m24
 gr  gr showpage
end
%%EOF
