%!PS-Adobe-2.0 EPSF-2.0
%%BoundingBox:  0 0 567 367
%%Title: /global/project/projectdirs/alice/mconnors/JetUnfolding/R2_prelim1.eps: 
%%Creator: ROOT Version 5.34/09
%%CreationDate: Mon May 12 13:45:49 2014
%%EndComments
%%BeginProlog
80 dict begin
/s {stroke} def /l {lineto} def /m {moveto} def /t {translate} def
/r {rotate} def /rl {roll}  def /R {repeat} def
/d {rlineto} def /rm {rmoveto} def /gr {grestore} def /f {eofill} def
/c {setrgbcolor} def /black {0 setgray} def /sd {setdash} def
/cl {closepath} def /sf {scalefont setfont} def /lw {setlinewidth} def
/box {m dup 0 exch d exch 0 d 0 exch neg d cl} def
/NC{systemdict begin initclip end}def/C{NC box clip newpath}def
/bl {box s} def /bf {box f} def /Y { 0 exch d} def /X { 0 d} def 
/K {{pop pop 0 moveto} exch kshow} bind def
/ita {/ang 15 def gsave [1 0 ang dup sin exch cos div 1 0 0] concat} def 
/mp {newpath /y exch def /x exch def} def
/side {[w .77 mul w .23 mul] .385 w mul sd w 0 l currentpoint t -144 r} def
/mr {mp x y w2 0 360 arc} def /m24 {mr s} def /m20 {mr f} def
/mb {mp x y w2 add m w2 neg 0 d 0 w neg d w 0 d 0 w d cl} def
/mt {mp x y w2 add m w2 neg w neg d w 0 d cl} def
/m21 {mb f} def /m25 {mb s} def /m22 {mt f} def /m26{mt s} def
/m23 {mp x y w2 sub m w2 w d w neg 0 d cl f} def
/m27 {mp x y w2 add m w3 neg w2 neg d w3 w2 neg d w3 w2 d cl s} def
/m28 {mp x w2 sub y w2 sub w3 add m w3 0 d  0 w3 neg d w3 0 d 0 w3 d w3 0 d  0 w3 d w3 neg 0 d 0 w3 d w3 neg 0 d 0 w3 neg d w3 neg 0 d cl s } def
/m29 {mp gsave x w2 sub y w2 add w3 sub m currentpoint t 4 {side} repeat cl fill gr} def
/m30 {mp gsave x w2 sub y w2 add w3 sub m currentpoint t 4 {side} repeat cl s gr} def
/m31 {mp x y w2 sub m 0 w d x w2 sub y m w 0 d x w2 sub y w2 add m w w neg d x w2 sub y w2 sub m w w d s} def
/m32 {mp x y w2 sub m w2 w d w neg 0 d cl s} def
/m33 {mp x y w2 add m w3 neg w2 neg d w3 w2 neg d w3 w2 d cl f} def
/m34 {mp x w2 sub y w2 sub w3 add m w3 0 d  0 w3 neg d w3 0 d 0 w3 d w3 0 d  0 w3 d w3 neg 0 d 0 w3 d w3 neg 0 d 0 w3 neg d w3 neg 0 d cl f } def
/m2 {mp x y w2 sub m 0 w d x w2 sub y m w 0 d s} def
/m5 {mp x w2 sub y w2 sub m w w d x w2 sub y w2 add m w w neg d s} def
/reEncode {exch findfont dup length dict begin {1 index /FID eq  {pop pop} {def} ifelse } forall /Encoding exch def currentdict end dup /FontName get exch definefont pop } def [/Times-Bold /Times-Italic /Times-BoldItalic /Helvetica /Helvetica-Oblique
 /Helvetica-Bold /Helvetica-BoldOblique /Courier /Courier-Oblique /Courier-Bold /Courier-BoldOblique /Times-Roman /AvantGarde-Book /AvantGarde-BookOblique /AvantGarde-Demi /AvantGarde-DemiOblique /Bookman-Demi /Bookman-DemiItalic /Bookman-Light
 /Bookman-LightItalic /Helvetica-Narrow /Helvetica-Narrow-Bold /Helvetica-Narrow-BoldOblique /Helvetica-Narrow-Oblique /NewCenturySchlbk-Roman /NewCenturySchlbk-Bold /NewCenturySchlbk-BoldItalic /NewCenturySchlbk-Italic /Palatino-Bold
 /Palatino-BoldItalic /Palatino-Italic /Palatino-Roman ] {ISOLatin1Encoding reEncode } forall
%%EndProlog
%%BeginSetup
%%EndSetup
newpath  gsave  .25 .25 scale  gsave  0 0 t black[  ] 0 sd 3 lw 1 1 1 c 2268 1468 0 0 bf black 1 1 1 c 1814 1174 313 214 bf black 1814 1174 313 214 bl 1 1 1 c 1814 1174 313 214 bf black 1814 1174 313 214 bl 1 0 0 c 1 1 1 c 1 0 0 c 313 1280 m 118 X s
 454 1280 m 118 X s /w 23 def /w2 {w 2 div} def /w3 {w 3 div} def 442 1280 m20 572 1034 m 118 X s 713 1034 m 118 X s 702 1034 m20 831 859 m 119 X s 972 859 m 119 X s 961 859 m20 1091 685 m 118 X s 1232 685 m 118 X s 1220 685 m20 1350 549 m 118 X s
 1491 549 m 118 X s 1479 549 m20 1609 438 m 118 X s 1750 438 m 118 X s 1739 438 m20 1868 338 m 118 X s 2009 338 m 118 X s 1998 338 m20 black 313 214 m 1814 X s
 gsave  2268 1468 0 0 C 2108.45 70.1551 t 0 r /Helvetica findfont 68.259 sf 0 0 m (\)) show NC gr 
 gsave  2268 1468 0 0 C 2070.52 70.1551 t 0 r /Helvetica-Oblique findfont 68.259 sf 0 0 m (c) show NC gr 
 gsave  2268 1468 0 0 C 1871.43 70.1551 t 0 r /Helvetica findfont 68.259 sf 0 0 m ( \(GeV/) show NC gr 
 gsave  2268 1468 0 0 C 1782.32 36.0256 t 0 r /Helvetica findfont 45.506 sf 0 0 m (T,jet) show NC gr 
 gsave  2268 1468 0 0 C 1740.61 70.1551 t 0 r /Helvetica-Oblique findfont 68.259 sf 0 0 m (p) show NC gr  313 249 m -35 Y s 365 232 m -18 Y s 417 232 m -18 Y s 468 232 m -18 Y s 520 232 m -18 Y s 572 249 m -35 Y s 624 232 m -18 Y s 676 232 m -18 Y s
 728 232 m -18 Y s 779 232 m -18 Y s 831 249 m -35 Y s 883 232 m -18 Y s 935 232 m -18 Y s 987 232 m -18 Y s 1039 232 m -18 Y s 1091 249 m -35 Y s 1142 232 m -18 Y s 1194 232 m -18 Y s 1246 232 m -18 Y s 1298 232 m -18 Y s 1350 249 m -35 Y s 1402 232
 m -18 Y s 1453 232 m -18 Y s 1505 232 m -18 Y s 1557 232 m -18 Y s 1609 249 m -35 Y s 1661 232 m -18 Y s 1713 232 m -18 Y s 1764 232 m -18 Y s 1816 232 m -18 Y s 1868 249 m -35 Y s 1920 232 m -18 Y s 1972 232 m -18 Y s 2024 232 m -18 Y s 2076 232 m
 -18 Y s 2127 249 m -35 Y s
 gsave  2268 1468 0 0 C 274.932 149.791 t 0 r /Helvetica findfont 68.259 sf 0 0 m (20) show NC gr 
 gsave  2268 1468 0 0 C 532.8 149.791 t 0 r /Helvetica findfont 68.259 sf 0 0 m (30) show NC gr 
 gsave  2268 1468 0 0 C 792.563 149.791 t 0 r /Helvetica findfont 68.259 sf 0 0 m (40) show NC gr 
 gsave  2268 1468 0 0 C 1052.33 149.791 t 0 r /Helvetica findfont 68.259 sf 0 0 m (50) show NC gr 
 gsave  2268 1468 0 0 C 1310.19 149.791 t 0 r /Helvetica findfont 68.259 sf 0 0 m (60) show NC gr 
 gsave  2268 1468 0 0 C 1569.96 149.791 t 0 r /Helvetica findfont 68.259 sf 0 0 m (70) show NC gr 
 gsave  2268 1468 0 0 C 1829.72 149.791 t 0 r /Helvetica findfont 68.259 sf 0 0 m (80) show NC gr 
 gsave  2268 1468 0 0 C 2089.48 149.791 t 0 r /Helvetica findfont 68.259 sf 0 0 m (90) show NC gr  313 1388 m 1814 X s 313 1353 m 35 Y s 365 1370 m 18 Y s 417 1370 m 18 Y s 468 1370 m 18 Y s 520 1370 m 18 Y s 572 1353 m 35 Y s 624 1370 m 18 Y s 676
 1370 m 18 Y s 728 1370 m 18 Y s 779 1370 m 18 Y s 831 1353 m 35 Y s 883 1370 m 18 Y s 935 1370 m 18 Y s 987 1370 m 18 Y s 1039 1370 m 18 Y s 1091 1353 m 35 Y s 1142 1370 m 18 Y s 1194 1370 m 18 Y s 1246 1370 m 18 Y s 1298 1370 m 18 Y s 1350 1353 m
 35 Y s 1402 1370 m 18 Y s 1453 1370 m 18 Y s 1505 1370 m 18 Y s 1557 1370 m 18 Y s 1609 1353 m 35 Y s 1661 1370 m 18 Y s 1713 1370 m 18 Y s 1764 1370 m 18 Y s 1816 1370 m 18 Y s 1868 1353 m 35 Y s 1920 1370 m 18 Y s 1972 1370 m 18 Y s 2024 1370 m 18
 Y s 2076 1370 m 18 Y s 2127 1353 m 35 Y s 313 214 m 1174 Y s
 gsave  2268 1468 0 0 C 73.9473 1355.7 t 90 r /Helvetica findfont 45.506 sf 0 0 m (\2551) show NC gr 
 gsave  2268 1468 0 0 C 104.285 1336.74 t 90 r /Helvetica findfont 68.259 sf 0 0 m (\)) show NC gr 
 gsave  2268 1468 0 0 C 104.285 1298.82 t 90 r /Helvetica-Oblique findfont 68.259 sf 0 0 m (c) show NC gr 
 gsave  2268 1468 0 0 C 104.285 1099.73 t 90 r /Helvetica findfont 68.259 sf 0 0 m ( \(GeV/) show NC gr 
 gsave  2268 1468 0 0 C 145.998 1056.12 t 90 r /Symbol findfont 68.259 sf 0 0 m ita (h) show gr NC gr 
 gsave  2268 1468 0 0 C 145.998 1021.99 t 90 r /Helvetica findfont 68.259 sf 0 0 m (d) show NC gr 
 gsave  2268 1468 0 0 C 182.024 993.548 t 90 r /Helvetica findfont 45.506 sf 0 0 m (T) show NC gr 
 gsave  2268 1468 0 0 C 145.998 951.834 t 90 r /Helvetica-Oblique findfont 68.259 sf 0 0 m (p) show NC gr 
 gsave  2268 1468 0 0 C 145.998 917.705 t 90 r /Helvetica findfont 68.259 sf 0 0 m (d) show NC gr 
 gsave  2268 1468 0 0 C 73.9473 1010.61 t 90 r /Helvetica-Oblique findfont 68.259 sf 0 0 m (N) show NC gr 
 gsave  2268 1468 0 0 C 43.6099 985.964 t 90 r /Helvetica findfont 45.506 sf 0 0 m (2) show NC gr 
 gsave  2268 1468 0 0 C 73.9473 951.834 t 90 r /Helvetica findfont 68.259 sf 0 0 m (d) show NC gr  6 lw 85 918 m 182 Y s
 gsave  2268 1468 0 0 C 104.285 894.952 t 90 r /Helvetica findfont 68.259 sf 0 0 m ( ) show NC gr 
 gsave  2268 1468 0 0 C 164.959 834.277 t 90 r /Helvetica findfont 45.506 sf 0 0 m (evt) show NC gr 
 gsave  2268 1468 0 0 C 145.998 779.291 t 90 r /Helvetica-Oblique findfont 68.259 sf 0 0 m (N) show NC gr 
 gsave  2268 1468 0 0 C 75.8434 824.797 t 90 r /Helvetica findfont 68.259 sf 0 0 m (1) show NC gr  85 779 m 116 Y s 3 lw 340 270 m -27 X s 340 318 m -27 X s 340 355 m -27 X s 340 385 m -27 X s 340 410 m -27 X s 340 433 m -27 X s 340 452 m -27 X s 367
 470 m -54 X s
 gsave  2268 1468 0 0 C 252.179 470.229 t 0 r /Helvetica findfont 45.506 sf 0 0 m (\2556) show NC gr 
 gsave  2268 1468 0 0 C 178.232 437.995 t 0 r /Helvetica findfont 68.259 sf 0 0 m (10) show NC gr  340 584 m -27 X s 340 651 m -27 X s 340 699 m -27 X s 340 736 m -27 X s 340 766 m -27 X s 340 792 m -27 X s 340 814 m -27 X s 340 833 m -27 X s 367 851
 m -54 X s
 gsave  2268 1468 0 0 C 252.179 851.342 t 0 r /Helvetica findfont 45.506 sf 0 0 m (\2555) show NC gr 
 gsave  2268 1468 0 0 C 178.232 819.108 t 0 r /Helvetica findfont 68.259 sf 0 0 m (10) show NC gr  340 966 m -27 X s 340 1033 m -27 X s 340 1080 m -27 X s 340 1117 m -27 X s 340 1148 m -27 X s 340 1173 m -27 X s 340 1195 m -27 X s 340 1215 m -27 X s
 367 1232 m -54 X s
 gsave  2268 1468 0 0 C 252.179 1230.56 t 0 r /Helvetica findfont 45.506 sf 0 0 m (\2554) show NC gr 
 gsave  2268 1468 0 0 C 178.232 1200.22 t 0 r /Helvetica findfont 68.259 sf 0 0 m (10) show NC gr  340 1347 m -27 X s 2127 214 m 1174 Y s 2100 270 m 27 X s 2100 318 m 27 X s 2100 355 m 27 X s 2100 385 m 27 X s 2100 410 m 27 X s 2100 433 m 27 X s 2100
 452 m 27 X s 2073 470 m 54 X s 2100 584 m 27 X s 2100 651 m 27 X s 2100 699 m 27 X s 2100 736 m 27 X s 2100 766 m 27 X s 2100 792 m 27 X s 2100 814 m 27 X s 2100 833 m 27 X s 2073 851 m 54 X s 2100 966 m 27 X s 2100 1033 m 27 X s 2100 1080 m 27 X s
 2100 1117 m 27 X s 2100 1148 m 27 X s 2100 1173 m 27 X s 2100 1195 m 27 X s 2100 1215 m 27 X s 2073 1232 m 54 X s 2100 1347 m 27 X s 1 1 1 c 0.8 0.8 0.8 c 259 67 313 1243 bf 1 1 1 c 0.8 0.8 0.8 c 259 47 572 1009 bf 1 1 1 c 0.8 0.8 0.8 c 260 52 831
 831 bf 1 1 1 c 0.8 0.8 0.8 c 259 45 1091 661 bf 1 1 1 c 0.8 0.8 0.8 c 259 44 1350 526 bf 1 1 1 c 0.8 0.8 0.8 c 259 43 1609 415 bf 1 1 1 c 0.8 0.8 0.8 c 259 44 1868 314 bf 1 1 1 c 0.8 0.8 0.8 c black 1 0 0 c 1 1 1 c 1 0 0 c 313 1280 m 118 X s 454
 1280 m 118 X s 442 1280 m20 572 1034 m 118 X s 713 1034 m 118 X s 702 1034 m20 831 859 m 119 X s 972 859 m 119 X s 961 859 m20 1091 685 m 118 X s 1232 685 m 118 X s 1220 685 m20 1350 549 m 118 X s 1491 549 m 118 X s 1479 549 m20 1609 438 m 118 X s
 1750 438 m 118 X s 1739 438 m20 1868 338 m 118 X s 2009 338 m 118 X s 1998 338 m20 black
 gsave  2268 1468 0 0 C 1376.56 1241.94 t 0 r /Helvetica findfont 68.259 sf 0 0 m (ALICE Preliminary) show NC gr 
 gsave  2268 1468 0 0 C 912.016 1274.17 t 0 r /Helvetica findfont 36.0256 sf 0 0 m (\2551) show NC gr 
 gsave  2268 1468 0 0 C 881.679 1247.62 t 0 r /Helvetica findfont 54.9864 sf 0 0 m (b) show NC gr 
 gsave  2268 1468 0 0 C 849.446 1247.62 t 0 r /Symbol findfont 54.9864 sf 0 0 m (m) show NC gr 
 gsave  2268 1468 0 0 C 747.057 1247.62 t 0 r /Helvetica findfont 54.9864 sf 0 0 m (=51 ) show NC gr 
 gsave  2268 1468 0 0 C 709.135 1232.45 t 0 r /Helvetica findfont 36.0256 sf 0 0 m (int) show NC gr 
 gsave  2268 1468 0 0 C 678.798 1247.62 t 0 r /Helvetica-Oblique findfont 54.9864 sf 0 0 m (L) show NC gr  1 1 1 c 794 323 1247 807 bf black
 gsave  2268 1468 0 0 C 1687.51 1035.26 t 0 r /Helvetica findfont 54.9864 sf 0 0 m ( = 5.02 TeV) show NC gr 
 gsave  2268 1468 0 0 C 1638.22 1018.2 t 0 r /Helvetica findfont 36.0256 sf 0 0 m (NN) show NC gr 
 gsave  2268 1468 0 0 C 1607.88 1035.26 t 0 r /Helvetica-Oblique findfont 54.9864 sf 0 0 m (s) show NC gr  6 lw 1587 1066 m 8 -48 d s 3 lw 1595 1018 m 7 63 d s 1602 1081 m 86 X s
 gsave  2268 1468 0 0 C 1444.82 1035.26 t 0 r /Helvetica findfont 54.9864 sf 0 0 m (p\255Pb ) show NC gr  1 0 0 c 1346 1049 m20 black
 gsave  2268 1468 0 0 C 1444.82 875.991 t 0 r /Helvetica findfont 54.9864 sf 0 0 m (syst error) show NC gr  0.8 0.8 0.8 c 1277 831 m 139 X 113 Y -139 X f 1 1 1 c 1277 944 m 139 X s 1277 831 m 139 X s 1416 831 m 113 Y s 1277 831 m 113 Y s black
 gsave  2268 1468 0 0 C 1818.34 1137.65 t 0 r /Helvetica findfont 54.9864 sf 0 0 m (|< 0.5) show NC gr 
 gsave  2268 1468 0 0 C 1778.53 1109.21 t 0 r /Helvetica findfont 36.0256 sf 0 0 m (jet) show NC gr 
 gsave  2268 1468 0 0 C 1744.4 1137.65 t 0 r /Symbol findfont 54.9864 sf 0 0 m ita (h) show gr NC gr 
 gsave  2268 1468 0 0 C 1579.44 1137.65 t 0 r /Helvetica findfont 54.9864 sf 0 0 m ( = 0.2 |) show NC gr 
 gsave  2268 1468 0 0 C 1535.83 1137.65 t 0 r /Helvetica-Oblique findfont 54.9864 sf 0 0 m (R) show NC gr 
 gsave  2268 1468 0 0 C 1516.87 1137.65 t 0 r /Helvetica findfont 54.9864 sf 0 0 m ( ) show NC gr 
 gsave  2268 1468 0 0 C 1494.11 1122.48 t 0 r /Helvetica findfont 36.0256 sf 0 0 m (T) show NC gr 
 gsave  2268 1468 0 0 C 1461.88 1137.65 t 0 r /Helvetica-Oblique findfont 54.9864 sf 0 0 m (k) show NC gr 
 gsave  2268 1468 0 0 C 1355.7 1137.65 t 0 r /Helvetica findfont 54.9864 sf 0 0 m (anti\255) show NC gr  313 214 m 1814 X s 313 249 m -35 Y s 365 232 m -18 Y s 417 232 m -18 Y s 468 232 m -18 Y s 520 232 m -18 Y s 572 249 m -35 Y s 624 232 m -18 Y s
 676 232 m -18 Y s 728 232 m -18 Y s 779 232 m -18 Y s 831 249 m -35 Y s 883 232 m -18 Y s 935 232 m -18 Y s 987 232 m -18 Y s 1039 232 m -18 Y s 1091 249 m -35 Y s 1142 232 m -18 Y s 1194 232 m -18 Y s 1246 232 m -18 Y s 1298 232 m -18 Y s 1350 249
 m -35 Y s 1402 232 m -18 Y s 1453 232 m -18 Y s 1505 232 m -18 Y s 1557 232 m -18 Y s 1609 249 m -35 Y s 1661 232 m -18 Y s 1713 232 m -18 Y s 1764 232 m -18 Y s 1816 232 m -18 Y s 1868 249 m -35 Y s 1920 232 m -18 Y s 1972 232 m -18 Y s 2024 232 m
 -18 Y s 2076 232 m -18 Y s 2127 249 m -35 Y s 313 1388 m 1814 X s 313 1353 m 35 Y s 365 1370 m 18 Y s 417 1370 m 18 Y s 468 1370 m 18 Y s 520 1370 m 18 Y s 572 1353 m 35 Y s 624 1370 m 18 Y s 676 1370 m 18 Y s 728 1370 m 18 Y s 779 1370 m 18 Y s 831
 1353 m 35 Y s 883 1370 m 18 Y s 935 1370 m 18 Y s 987 1370 m 18 Y s 1039 1370 m 18 Y s 1091 1353 m 35 Y s 1142 1370 m 18 Y s 1194 1370 m 18 Y s 1246 1370 m 18 Y s 1298 1370 m 18 Y s 1350 1353 m 35 Y s 1402 1370 m 18 Y s 1453 1370 m 18 Y s 1505 1370
 m 18 Y s 1557 1370 m 18 Y s 1609 1353 m 35 Y s 1661 1370 m 18 Y s 1713 1370 m 18 Y s 1764 1370 m 18 Y s 1816 1370 m 18 Y s 1868 1353 m 35 Y s 1920 1370 m 18 Y s 1972 1370 m 18 Y s 2024 1370 m 18 Y s 2076 1370 m 18 Y s 2127 1353 m 35 Y s 313 214 m
 1174 Y s 340 270 m -27 X s 340 318 m -27 X s 340 355 m -27 X s 340 385 m -27 X s 340 410 m -27 X s 340 433 m -27 X s 340 452 m -27 X s 367 470 m -54 X s 340 584 m -27 X s 340 651 m -27 X s 340 699 m -27 X s 340 736 m -27 X s 340 766 m -27 X s 340
 792 m -27 X s 340 814 m -27 X s 340 833 m -27 X s 367 851 m -54 X s 340 966 m -27 X s 340 1033 m -27 X s 340 1080 m -27 X s 340 1117 m -27 X s 340 1148 m -27 X s 340 1173 m -27 X s 340 1195 m -27 X s 340 1215 m -27 X s 367 1232 m -54 X s 340 1347 m
 -27 X s 2127 214 m 1174 Y s 2100 270 m 27 X s 2100 318 m 27 X s 2100 355 m 27 X s 2100 385 m 27 X s 2100 410 m 27 X s 2100 433 m 27 X s 2100 452 m 27 X s 2073 470 m 54 X s 2100 584 m 27 X s 2100 651 m 27 X s 2100 699 m 27 X s 2100 736 m 27 X s 2100
 766 m 27 X s 2100 792 m 27 X s 2100 814 m 27 X s 2100 833 m 27 X s 2073 851 m 54 X s 2100 966 m 27 X s 2100 1033 m 27 X s 2100 1080 m 27 X s 2100 1117 m 27 X s 2100 1148 m 27 X s 2100 1173 m 27 X s 2100 1195 m 27 X s 2100 1215 m 27 X s 2073 1232 m
 54 X s 2100 1347 m 27 X s
 gr  gr showpage
end
%%EOF
