%!PS-Adobe-2.0 EPSF-2.0
%%BoundingBox:  0 0 503 737
%%Title: /global/project/projectdirs/alice/mconnors/JetUnfolding/R4_Data_MC_prelim1.eps: cspectra
%%Creator: ROOT Version 5.34/09
%%CreationDate: Mon May 12 11:56:02 2014
%%EndComments
%%BeginProlog
80 dict begin
/s {stroke} def /l {lineto} def /m {moveto} def /t {translate} def
/r {rotate} def /rl {roll}  def /R {repeat} def
/d {rlineto} def /rm {rmoveto} def /gr {grestore} def /f {eofill} def
/c {setrgbcolor} def /black {0 setgray} def /sd {setdash} def
/cl {closepath} def /sf {scalefont setfont} def /lw {setlinewidth} def
/box {m dup 0 exch d exch 0 d 0 exch neg d cl} def
/NC{systemdict begin initclip end}def/C{NC box clip newpath}def
/bl {box s} def /bf {box f} def /Y { 0 exch d} def /X { 0 d} def 
/K {{pop pop 0 moveto} exch kshow} bind def
/ita {/ang 15 def gsave [1 0 ang dup sin exch cos div 1 0 0] concat} def 
/mp {newpath /y exch def /x exch def} def
/side {[w .77 mul w .23 mul] .385 w mul sd w 0 l currentpoint t -144 r} def
/mr {mp x y w2 0 360 arc} def /m24 {mr s} def /m20 {mr f} def
/mb {mp x y w2 add m w2 neg 0 d 0 w neg d w 0 d 0 w d cl} def
/mt {mp x y w2 add m w2 neg w neg d w 0 d cl} def
/m21 {mb f} def /m25 {mb s} def /m22 {mt f} def /m26{mt s} def
/m23 {mp x y w2 sub m w2 w d w neg 0 d cl f} def
/m27 {mp x y w2 add m w3 neg w2 neg d w3 w2 neg d w3 w2 d cl s} def
/m28 {mp x w2 sub y w2 sub w3 add m w3 0 d  0 w3 neg d w3 0 d 0 w3 d w3 0 d  0 w3 d w3 neg 0 d 0 w3 d w3 neg 0 d 0 w3 neg d w3 neg 0 d cl s } def
/m29 {mp gsave x w2 sub y w2 add w3 sub m currentpoint t 4 {side} repeat cl fill gr} def
/m30 {mp gsave x w2 sub y w2 add w3 sub m currentpoint t 4 {side} repeat cl s gr} def
/m31 {mp x y w2 sub m 0 w d x w2 sub y m w 0 d x w2 sub y w2 add m w w neg d x w2 sub y w2 sub m w w d s} def
/m32 {mp x y w2 sub m w2 w d w neg 0 d cl s} def
/m33 {mp x y w2 add m w3 neg w2 neg d w3 w2 neg d w3 w2 d cl f} def
/m34 {mp x w2 sub y w2 sub w3 add m w3 0 d  0 w3 neg d w3 0 d 0 w3 d w3 0 d  0 w3 d w3 neg 0 d 0 w3 d w3 neg 0 d 0 w3 neg d w3 neg 0 d cl f } def
/m2 {mp x y w2 sub m 0 w d x w2 sub y m w 0 d s} def
/m5 {mp x w2 sub y w2 sub m w w d x w2 sub y w2 add m w w neg d s} def
/reEncode {exch findfont dup length dict begin {1 index /FID eq  {pop pop} {def} ifelse } forall /Encoding exch def currentdict end dup /FontName get exch definefont pop } def [/Times-Bold /Times-Italic /Times-BoldItalic /Helvetica /Helvetica-Oblique
 /Helvetica-Bold /Helvetica-BoldOblique /Courier /Courier-Oblique /Courier-Bold /Courier-BoldOblique /Times-Roman /AvantGarde-Book /AvantGarde-BookOblique /AvantGarde-Demi /AvantGarde-DemiOblique /Bookman-Demi /Bookman-DemiItalic /Bookman-Light
 /Bookman-LightItalic /Helvetica-Narrow /Helvetica-Narrow-Bold /Helvetica-Narrow-BoldOblique /Helvetica-Narrow-Oblique /NewCenturySchlbk-Roman /NewCenturySchlbk-Bold /NewCenturySchlbk-BoldItalic /NewCenturySchlbk-Italic /Palatino-Bold
 /Palatino-BoldItalic /Palatino-Italic /Palatino-Roman ] {ISOLatin1Encoding reEncode } forall
%%EndProlog
%%BeginSetup
%%EndSetup
newpath  gsave  .25 .25 scale  gsave  0 0 t black[  ] 0 sd 3 lw 1 1 1 c 2010 2948 0 0 bf black 1 1 1 c 2010 1916 0 1032 bf black 1 1 1 c 1628 1837 302 1034 bf black 1628 1837 302 1034 bl 1 1 1 c 1628 1837 302 1034 bf black 1628 1837 302 1034 bl 1 0 0
 c 1 1 1 c 1 0 0 c 302 2740 m 102 X s 431 2740 m 103 X s /w 32 def /w2 {w 2 div} def /w3 {w 3 div} def 418 2740 m20 534 2356 m 103 X s 664 2356 m 103 X s 650 2356 m20 767 2096 m 103 X s 897 2096 m 102 X s 883 2096 m20 999 1867 m 103 X s 1129 1867 m
 103 X s 1116 1867 m20 1232 1650 m 103 X s 1362 1650 m 103 X s 1348 1650 m20 1465 1463 m 102 X s 1594 1463 m 103 X s 1581 1463 m20 1814 1290 m 2 Y s 1814 1319 m s 1697 1305 m 103 X s 1827 1305 m 103 X s 1814 1305 m20 black 302 1034 m 1628 X s
 gsave  2010 1916 0 1032 C 1693.26 924.211 t 0 r /Helvetica findfont 64.0989 sf 0 0 m ( \(GeV/c\)) show NC gr 
 gsave  2010 1916 0 1032 C 1612.31 887.108 t 0 r /Helvetica findfont 40.4835 sf 0 0 m (T,jet) show NC gr 
 gsave  2010 1916 0 1032 C 1575.21 924.211 t 0 r /Helvetica findfont 64.0989 sf 0 0 m (p) show NC gr  302 1080 m -46 Y s 348 1057 m -23 Y s 395 1057 m -23 Y s 441 1057 m -23 Y s 488 1057 m -23 Y s 534 1080 m -46 Y s 581 1057 m -23 Y s 627 1057 m -23
 Y s 674 1057 m -23 Y s 720 1057 m -23 Y s 767 1080 m -46 Y s 813 1057 m -23 Y s 860 1057 m -23 Y s 906 1057 m -23 Y s 953 1057 m -23 Y s 999 1080 m -46 Y s 1046 1057 m -23 Y s 1092 1057 m -23 Y s 1139 1057 m -23 Y s 1186 1057 m -23 Y s 1232 1080 m
 -46 Y s 1279 1057 m -23 Y s 1325 1057 m -23 Y s 1372 1057 m -23 Y s 1418 1057 m -23 Y s 1465 1080 m -46 Y s 1511 1057 m -23 Y s 1558 1057 m -23 Y s 1604 1057 m -23 Y s 1651 1057 m -23 Y s 1697 1080 m -46 Y s 1744 1057 m -23 Y s 1790 1057 m -23 Y s
 1837 1057 m -23 Y s 1883 1057 m -23 Y s 1930 1080 m -46 Y s
 gsave  2010 1916 0 1032 C 263.097 971.434 t 0 r /Helvetica findfont 64.0989 sf 0 0 m (20) show NC gr 
 gsave  2010 1916 0 1032 C 495.836 971.434 t 0 r /Helvetica findfont 64.0989 sf 0 0 m (30) show NC gr 
 gsave  2010 1916 0 1032 C 728.575 971.434 t 0 r /Helvetica findfont 64.0989 sf 0 0 m (40) show NC gr 
 gsave  2010 1916 0 1032 C 961.315 971.434 t 0 r /Helvetica findfont 64.0989 sf 0 0 m (50) show NC gr 
 gsave  2010 1916 0 1032 C 1194.05 971.434 t 0 r /Helvetica findfont 64.0989 sf 0 0 m (60) show NC gr 
 gsave  2010 1916 0 1032 C 1426.79 971.434 t 0 r /Helvetica findfont 64.0989 sf 0 0 m (70) show NC gr 
 gsave  2010 1916 0 1032 C 1659.53 971.434 t 0 r /Helvetica findfont 64.0989 sf 0 0 m (80) show NC gr 
 gsave  2010 1916 0 1032 C 1892.27 971.434 t 0 r /Helvetica findfont 64.0989 sf 0 0 m (90) show NC gr  302 2871 m 1628 X s 302 2825 m 46 Y s 348 2848 m 23 Y s 395 2848 m 23 Y s 441 2848 m 23 Y s 488 2848 m 23 Y s 534 2825 m 46 Y s 581 2848 m 23 Y s
 627 2848 m 23 Y s 674 2848 m 23 Y s 720 2848 m 23 Y s 767 2825 m 46 Y s 813 2848 m 23 Y s 860 2848 m 23 Y s 906 2848 m 23 Y s 953 2848 m 23 Y s 999 2825 m 46 Y s 1046 2848 m 23 Y s 1092 2848 m 23 Y s 1139 2848 m 23 Y s 1186 2848 m 23 Y s 1232 2825 m
 46 Y s 1279 2848 m 23 Y s 1325 2848 m 23 Y s 1372 2848 m 23 Y s 1418 2848 m 23 Y s 1465 2825 m 46 Y s 1511 2848 m 23 Y s 1558 2848 m 23 Y s 1604 2848 m 23 Y s 1651 2848 m 23 Y s 1697 2825 m 46 Y s 1744 2848 m 23 Y s 1790 2848 m 23 Y s 1837 2848 m 23
 Y s 1883 2848 m 23 Y s 1930 2825 m 46 Y s 302 1034 m 1837 Y s
 gsave  2010 1916 0 1032 C 97.818 2843.47 t 90 r /Helvetica findfont 40.4835 sf 0 0 m (\2551) show NC gr 
 gsave  2010 1916 0 1032 C 124.802 2826.6 t 90 r /Helvetica findfont 64.0989 sf 0 0 m (\)) show NC gr 
 gsave  2010 1916 0 1032 C 124.802 2789.5 t 90 r /Helvetica-Oblique findfont 64.0989 sf 0 0 m (c) show NC gr 
 gsave  2010 1916 0 1032 C 124.802 2600.61 t 90 r /Helvetica findfont 64.0989 sf 0 0 m ( \(GeV/) show NC gr 
 gsave  2010 1916 0 1032 C 165.279 2560.13 t 90 r /Symbol findfont 64.0989 sf 0 0 m ita (h) show gr NC gr 
 gsave  2010 1916 0 1032 C 165.279 2526.4 t 90 r /Helvetica findfont 64.0989 sf 0 0 m (d) show NC gr 
 gsave  2010 1916 0 1032 C 199.009 2499.42 t 90 r /Helvetica findfont 40.4835 sf 0 0 m (T) show NC gr 
 gsave  2010 1916 0 1032 C 165.279 2458.94 t 90 r /Helvetica-Oblique findfont 64.0989 sf 0 0 m (p) show NC gr 
 gsave  2010 1916 0 1032 C 165.279 2425.21 t 90 r /Helvetica findfont 64.0989 sf 0 0 m (d) show NC gr 
 gsave  2010 1916 0 1032 C 97.818 2516.28 t 90 r /Helvetica-Oblique findfont 64.0989 sf 0 0 m (N) show NC gr 
 gsave  2010 1916 0 1032 C 70.8337 2492.67 t 90 r /Helvetica findfont 40.4835 sf 0 0 m (2) show NC gr 
 gsave  2010 1916 0 1032 C 97.818 2458.94 t 90 r /Helvetica findfont 64.0989 sf 0 0 m (d) show NC gr  6 lw 108 2425 m 176 Y s
 gsave  2010 1916 0 1032 C 124.802 2404.97 t 90 r /Helvetica findfont 64.0989 sf 0 0 m ( ) show NC gr 
 gsave  2010 1916 0 1032 C 182.144 2344.26 t 90 r /Helvetica findfont 40.4835 sf 0 0 m (coll) show NC gr 
 gsave  2010 1916 0 1032 C 165.279 2290.29 t 90 r /Helvetica-Oblique findfont 64.0989 sf 0 0 m (N) show NC gr 
 gsave  2010 1916 0 1032 C 165.279 2270.05 t 90 r /Helvetica findfont 64.0989 sf 0 0 m ( ) show NC gr 
 gsave  2010 1916 0 1032 C 182.144 2216.08 t 90 r /Helvetica findfont 40.4835 sf 0 0 m (evt) show NC gr 
 gsave  2010 1916 0 1032 C 165.279 2162.11 t 90 r /Helvetica-Oblique findfont 64.0989 sf 0 0 m (N) show NC gr 
 gsave  2010 1916 0 1032 C 101.191 2273.42 t 90 r /Helvetica findfont 64.0989 sf 0 0 m (1) show NC gr  108 2162 m 243 Y s 3 lw 330 1034 m -28 X s 330 1103 m -28 X s 330 1157 m -28 X s 330 1201 m -28 X s 330 1239 m -28 X s 330 1271 m -28 X s 330 1299
 m -28 X s 359 1325 m -57 X s
 gsave  2010 1916 0 1032 C 246.231 1325.6 t 0 r /Helvetica findfont 40.4835 sf 0 0 m (\2557) show NC gr 
 gsave  2010 1916 0 1032 C 175.398 1295.24 t 0 r /Helvetica findfont 64.0989 sf 0 0 m (10) show NC gr  330 1492 m -28 X s 330 1590 m -28 X s 330 1660 m -28 X s 330 1714 m -28 X s 330 1758 m -28 X s 330 1795 m -28 X s 330 1828 m -28 X s 330 1856 m -28
 X s 359 1882 m -57 X s
 gsave  2010 1916 0 1032 C 246.231 1885.53 t 0 r /Helvetica findfont 40.4835 sf 0 0 m (\2556) show NC gr 
 gsave  2010 1916 0 1032 C 175.398 1851.8 t 0 r /Helvetica findfont 64.0989 sf 0 0 m (10) show NC gr  330 2049 m -28 X s 330 2147 m -28 X s 330 2217 m -28 X s 330 2271 m -28 X s 330 2315 m -28 X s 330 2352 m -28 X s 330 2384 m -28 X s 330 2413 m -28
 X s 359 2438 m -57 X s
 gsave  2010 1916 0 1032 C 246.231 2442.08 t 0 r /Helvetica findfont 40.4835 sf 0 0 m (\2555) show NC gr 
 gsave  2010 1916 0 1032 C 175.398 2408.35 t 0 r /Helvetica findfont 64.0989 sf 0 0 m (10) show NC gr  330 2606 m -28 X s 330 2704 m -28 X s 330 2773 m -28 X s 330 2827 m -28 X s 330 2871 m -28 X s 1930 1034 m 1837 Y s 1901 1034 m 29 X s 1901 1103 m
 29 X s 1901 1157 m 29 X s 1901 1201 m 29 X s 1901 1239 m 29 X s 1901 1271 m 29 X s 1901 1299 m 29 X s 1872 1325 m 58 X s 1901 1492 m 29 X s 1901 1590 m 29 X s 1901 1660 m 29 X s 1901 1714 m 29 X s 1901 1758 m 29 X s 1901 1795 m 29 X s 1901 1828 m 29
 X s 1901 1856 m 29 X s 1872 1882 m 58 X s 1901 2049 m 29 X s 1901 2147 m 29 X s 1901 2217 m 29 X s 1901 2271 m 29 X s 1901 2315 m 29 X s 1901 2352 m 29 X s 1901 2384 m 29 X s 1901 2413 m 29 X s 1872 2438 m 58 X s 1901 2606 m 29 X s 1901 2704 m 29 X
 s 1901 2773 m 29 X s 1901 2827 m 29 X s 1901 2871 m 29 X s 1 1 1 c 905 518 945 2028 bf black
 gsave  2010 1916 0 1032 C 1605.56 2465.69 t 0 r /Helvetica findfont 57.3517 sf 0 0 m (=5.02 TeV) show NC gr 
 gsave  2010 1916 0 1032 C 1551.6 2445.45 t 0 r /Helvetica findfont 37.1099 sf 0 0 m (NN) show NC gr 
 gsave  2010 1916 0 1032 C 1521.24 2465.69 t 0 r /Helvetica-Oblique findfont 57.3517 sf 0 0 m (s) show NC gr  6 lw 1498 2499 m 10 -54 d s 0 lw 1508 2445 m 10 71 d s 1518 2516 m 88 X s
 gsave  2010 1916 0 1032 C 1170.44 2465.69 t 0 r /Helvetica findfont 57.3517 sf 0 0 m (ALICE p\255Pb ) show NC gr  1 0 0 c 3 lw 1058 2481 m20 0 lw black
 gsave  2010 1916 0 1032 C 1170.44 2337.51 t 0 r /Helvetica findfont 57.3517 sf 0 0 m (syst error) show NC gr  0.8 0.8 0.8 c 3 lw 979 2306 m 158 X 91 Y -158 X f 0 lw 1 1 1 c 3 lw 979 2397 m 158 X s 979 2306 m 158 X s 1137 2306 m 91 Y s 979 2306 m 91
 Y s black
 gsave  2010 1916 0 1032 C 1551.6 2199.22 t 0 r /Helvetica findfont 57.3517 sf 0 0 m (=0.7 ) show NC gr 
 gsave  2010 1916 0 1032 C 1517.87 2199.22 t 0 r /Helvetica-Oblique findfont 57.3517 sf 0 0 m (k) show NC gr 
 gsave  2010 1916 0 1032 C 1170.44 2199.22 t 0 r /Helvetica findfont 57.3517 sf 0 0 m (PYTHIA8 4C ) show NC gr  0 0 1 c 1058 2222 m24 black
 gsave  2010 1916 0 1032 C 1170.44 2077.79 t 0 r /Helvetica findfont 57.3517 sf 0 0 m (PYTHIA6 Perugia 2011) show NC gr  0 0.4 0 c 1058 2093 m24 black 1 1 1 c 764 402 342 1166 bf black
 gsave  2010 1916 0 1032 C 529.566 1484.13 t 0 r /Helvetica findfont 50.6044 sf 0 0 m (POWHEG+PYTHIA8) show NC gr 
 gsave  2010 1916 0 1032 C 529.566 1352.59 t 0 r /Helvetica findfont 50.6044 sf 0 0 m (EPS + Uncertainty) show NC gr  1 0.8 0.8 c 370 1320 m 134 X 94 Y -134 X cl s black 370 1414 m 134 X s 370 1320 m 134 X s 504 1320 m 94 Y s 370 1320 m 94 Y s /w 46
 def /w2 {w 2 div} def /w3 {w 3 div} def 437 1367 m27
 gsave  2010 1916 0 1032 C 529.566 1217.67 t 0 r /Helvetica findfont 50.6044 sf 0 0 m (CTEQ6.6 + Uncertainty) show NC gr  0.6 0.6 1 c 370 1186 m 134 X 94 Y -134 X cl s 1 0 1 c 370 1280 m 134 X s 370 1186 m 134 X s 504 1186 m 94 Y s 370 1186 m 94 Y s
 /w 27 def /w2 {w 2 div} def /w3 {w 3 div} def 437 1233 m25 1 1 1 c 0.8 0.8 0.8 c 232 144 302 2659 bf 1 1 1 c 0.8 0.8 0.8 c 233 124 534 2286 bf 1 1 1 c 0.8 0.8 0.8 c 232 83 767 2048 bf 1 1 1 c 0.8 0.8 0.8 c 233 85 999 1820 bf 1 1 1 c 0.8 0.8 0.8 c
 233 76 1232 1608 bf 1 1 1 c 0.8 0.8 0.8 c 232 77 1465 1423 bf 1 1 1 c 0.8 0.8 0.8 c 233 84 1697 1262 bf 1 1 1 c 0.8 0.8 0.8 c black 1 0.8 0.8 c black 232 78 302 2681 bl /w 46 def /w2 {w 2 div} def /w3 {w 3 div} def 418 2723 m27 233 77 534 2301 bl
 650 2343 m27 232 77 767 2007 bl 883 2049 m27 233 77 999 1767 bl 1116 1809 m27 233 77 1232 1560 bl 1348 1602 m27 232 77 1465 1381 bl 1581 1423 m27 233 77 1697 1219 bl 1814 1261 m27 1 0 1 c 0.6 0.6 1 c 1 0 1 c 232 69 302 2679 bl /w 27 def /w2 {w 2
 div} def /w3 {w 3 div} def 418 2716 m25 233 69 534 2295 bl 650 2332 m25 232 69 767 1999 bl 883 2036 m25 233 70 999 1756 bl 1116 1794 m25 233 70 1232 1551 bl 1348 1588 m25 232 70 1465 1370 bl 1581 1408 m25 233 70 1697 1212 bl 1814 1249 m25 1 0 0 c 1
 1 1 c 1 0 0 c /w 32 def /w2 {w 2 div} def /w3 {w 3 div} def 418 2740 m20 650 2356 m20 883 2096 m20 1116 1867 m20 1348 1650 m20 1581 1463 m20 1814 1290 m 2 Y s 1814 1319 m s 1814 1305 m20 1 0 1 c 1 1 1 c 1 0 1 c /w 27 def /w2 {w 2 div} def /w3 {w 3
 div} def 418 2716 m25 650 2332 m25 883 2036 m25 1116 1794 m25 1348 1588 m25 1581 1408 m25 1814 1249 m25 black 1 1 1 c black /w 46 def /w2 {w 2 div} def /w3 {w 3 div} def 418 2723 m27 650 2343 m27 883 2049 m27 1116 1809 m27 1348 1602 m27 1581 1423
 m27 1814 1261 m27 1 0 0 c 1 1 1 c 1 0 0 c /w 32 def /w2 {w 2 div} def /w3 {w 3 div} def 418 2740 m20 650 2356 m20 883 2096 m20 1116 1867 m20 1348 1650 m20 1581 1463 m20 1814 1290 m 2 Y s 1814 1319 m s 1814 1305 m20 0 0 1 c 1 1 1 c 0 0 1 c 418 2774
 m24 650 2379 m24 883 2085 m24 1116 1832 m24 1348 1633 m24 1581 1454 m24 1814 1288 m24 0 0.4 0 c 6 lw 1 1 1 c 0 0.4 0 c 3 lw 418 2801 m24 6 lw 3 lw 650 2416 m24 6 lw 3 lw 883 2113 m24 6 lw 3 lw 1116 1871 m24 6 lw 3 lw 1348 1664 m24 6 lw 3 lw 1581
 1487 m24 6 lw 3 lw 1814 1328 m24 6 lw black
 gsave  2010 1916 0 1032 C 1102.98 2738.9 t 0 r /Helvetica findfont 91.0879 sf 0 0 m (ALICE Preliminary) show NC gr 
 gsave  2010 1916 0 1032 C 903.973 2792.87 t 0 r /Helvetica findfont 47.2308 sf 0 0 m (\2551) show NC gr 
 gsave  2010 1916 0 1032 C 863.497 2759.14 t 0 r /Helvetica findfont 70.8462 sf 0 0 m (b) show NC gr 
 gsave  2010 1916 0 1032 C 823.02 2759.14 t 0 r /Symbol findfont 70.8462 sf 0 0 m (m) show NC gr 
 gsave  2010 1916 0 1032 C 691.472 2759.14 t 0 r /Helvetica findfont 70.8462 sf 0 0 m (=51 ) show NC gr 
 gsave  2010 1916 0 1032 C 640.876 2738.9 t 0 r /Helvetica findfont 47.2308 sf 0 0 m (int) show NC gr 
 gsave  2010 1916 0 1032 C 600.4 2759.14 t 0 r /Helvetica-Oblique findfont 70.8462 sf 0 0 m (L) show NC gr 
 gsave  2010 1916 0 1032 C 1662.91 2661.32 t 0 r /Helvetica findfont 70.8462 sf 0 0 m (|<0.3) show NC gr 
 gsave  2010 1916 0 1032 C 1608.94 2624.22 t 0 r /Helvetica findfont 47.2308 sf 0 0 m (jet) show NC gr 
 gsave  2010 1916 0 1032 C 1565.09 2661.32 t 0 r /Symbol findfont 70.8462 sf 0 0 m ita (h) show gr NC gr 
 gsave  2010 1916 0 1032 C 1393.06 2661.32 t 0 r /Helvetica findfont 70.8462 sf 0 0 m (=0.4 |) show NC gr 
 gsave  2010 1916 0 1032 C 1335.72 2661.32 t 0 r /Helvetica-Oblique findfont 70.8462 sf 0 0 m (R) show NC gr 
 gsave  2010 1916 0 1032 C 1312.11 2661.32 t 0 r /Helvetica findfont 70.8462 sf 0 0 m ( ) show NC gr 
 gsave  2010 1916 0 1032 C 1281.75 2641.09 t 0 r /Helvetica findfont 47.2308 sf 0 0 m (T) show NC gr 
 gsave  2010 1916 0 1032 C 1237.9 2661.32 t 0 r /Helvetica-Oblique findfont 70.8462 sf 0 0 m (k) show NC gr 
 gsave  2010 1916 0 1032 C 1102.98 2661.32 t 0 r /Helvetica findfont 70.8462 sf 0 0 m (anti\255) show NC gr  3 lw 302 1034 m 1628 X s 302 1080 m -46 Y s 348 1057 m -23 Y s 395 1057 m -23 Y s 441 1057 m -23 Y s 488 1057 m -23 Y s 534 1080 m -46 Y s
 581 1057 m -23 Y s 627 1057 m -23 Y s 674 1057 m -23 Y s 720 1057 m -23 Y s 767 1080 m -46 Y s 813 1057 m -23 Y s 860 1057 m -23 Y s 906 1057 m -23 Y s 953 1057 m -23 Y s 999 1080 m -46 Y s 1046 1057 m -23 Y s 1092 1057 m -23 Y s 1139 1057 m -23 Y s
 1186 1057 m -23 Y s 1232 1080 m -46 Y s 1279 1057 m -23 Y s 1325 1057 m -23 Y s 1372 1057 m -23 Y s 1418 1057 m -23 Y s 1465 1080 m -46 Y s 1511 1057 m -23 Y s 1558 1057 m -23 Y s 1604 1057 m -23 Y s 1651 1057 m -23 Y s 1697 1080 m -46 Y s 1744 1057
 m -23 Y s 1790 1057 m -23 Y s 1837 1057 m -23 Y s 1883 1057 m -23 Y s 1930 1080 m -46 Y s 302 2871 m 1628 X s 302 2825 m 46 Y s 348 2848 m 23 Y s 395 2848 m 23 Y s 441 2848 m 23 Y s 488 2848 m 23 Y s 534 2825 m 46 Y s 581 2848 m 23 Y s 627 2848 m 23
 Y s 674 2848 m 23 Y s 720 2848 m 23 Y s 767 2825 m 46 Y s 813 2848 m 23 Y s 860 2848 m 23 Y s 906 2848 m 23 Y s 953 2848 m 23 Y s 999 2825 m 46 Y s 1046 2848 m 23 Y s 1092 2848 m 23 Y s 1139 2848 m 23 Y s 1186 2848 m 23 Y s 1232 2825 m 46 Y s 1279
 2848 m 23 Y s 1325 2848 m 23 Y s 1372 2848 m 23 Y s 1418 2848 m 23 Y s 1465 2825 m 46 Y s 1511 2848 m 23 Y s 1558 2848 m 23 Y s 1604 2848 m 23 Y s 1651 2848 m 23 Y s 1697 2825 m 46 Y s 1744 2848 m 23 Y s 1790 2848 m 23 Y s 1837 2848 m 23 Y s 1883
 2848 m 23 Y s 1930 2825 m 46 Y s 302 1034 m 1837 Y s 330 1034 m -28 X s 330 1103 m -28 X s 330 1157 m -28 X s 330 1201 m -28 X s 330 1239 m -28 X s 330 1271 m -28 X s 330 1299 m -28 X s 359 1325 m -57 X s 330 1492 m -28 X s 330 1590 m -28 X s 330
 1660 m -28 X s 330 1714 m -28 X s 330 1758 m -28 X s 330 1795 m -28 X s 330 1828 m -28 X s 330 1856 m -28 X s 359 1882 m -57 X s 330 2049 m -28 X s 330 2147 m -28 X s 330 2217 m -28 X s 330 2271 m -28 X s 330 2315 m -28 X s 330 2352 m -28 X s 330
 2384 m -28 X s 330 2413 m -28 X s 359 2438 m -57 X s 330 2606 m -28 X s 330 2704 m -28 X s 330 2773 m -28 X s 330 2827 m -28 X s 330 2871 m -28 X s 1930 1034 m 1837 Y s 1901 1034 m 29 X s 1901 1103 m 29 X s 1901 1157 m 29 X s 1901 1201 m 29 X s 1901
 1239 m 29 X s 1901 1271 m 29 X s 1901 1299 m 29 X s 1872 1325 m 58 X s 1901 1492 m 29 X s 1901 1590 m 29 X s 1901 1660 m 29 X s 1901 1714 m 29 X s 1901 1758 m 29 X s 1901 1795 m 29 X s 1901 1828 m 29 X s 1901 1856 m 29 X s 1872 1882 m 58 X s 1901
 2049 m 29 X s 1901 2147 m 29 X s 1901 2217 m 29 X s 1901 2271 m 29 X s 1901 2315 m 29 X s 1901 2352 m 29 X s 1901 2384 m 29 X s 1901 2413 m 29 X s 1872 2438 m 58 X s 1901 2606 m 29 X s 1901 2704 m 29 X s 1901 2773 m 29 X s 1901 2827 m 29 X s 1901
 2871 m 29 X s 1 1 1 c 2010 1032 0 0 bf black 1 1 1 c 1628 805 302 227 bf black 1628 805 302 227 bl 1 1 1 c 1628 805 302 227 bf black 1628 805 302 227 bl 1 0 0 c 6 lw 1 1 1 c black 1 0 0 c 302 610 m 1628 X s black 3 lw 302 227 m 1628 X s
 gsave  2010 1032 0 0 C 1909.14 91.0719 t 0 r /Helvetica findfont 77.8087 sf 0 0 m (\)) show NC gr 
 gsave  2010 1032 0 0 C 1865.29 91.0719 t 0 r /Helvetica-Oblique findfont 77.8087 sf 0 0 m (c) show NC gr 
 gsave  2010 1032 0 0 C 1639.29 91.0719 t 0 r /Helvetica findfont 77.8087 sf 0 0 m ( \(GeV/) show NC gr 
 gsave  2010 1032 0 0 C 1541.48 53.9685 t 0 r /Helvetica findfont 50.7448 sf 0 0 m (T,jet) show NC gr 
 gsave  2010 1032 0 0 C 1494.25 91.0719 t 0 r /Helvetica-Oblique findfont 77.8087 sf 0 0 m (p) show NC gr  302 252 m -25 Y s 348 240 m -13 Y s 395 240 m -13 Y s 441 240 m -13 Y s 488 240 m -13 Y s 534 252 m -25 Y s 581 240 m -13 Y s 627 240 m -13 Y s
 674 240 m -13 Y s 720 240 m -13 Y s 767 252 m -25 Y s 813 240 m -13 Y s 860 240 m -13 Y s 906 240 m -13 Y s 953 240 m -13 Y s 999 252 m -25 Y s 1046 240 m -13 Y s 1092 240 m -13 Y s 1139 240 m -13 Y s 1186 240 m -13 Y s 1232 252 m -25 Y s 1279 240 m
 -13 Y s 1325 240 m -13 Y s 1372 240 m -13 Y s 1418 240 m -13 Y s 1465 252 m -25 Y s 1511 240 m -13 Y s 1558 240 m -13 Y s 1604 240 m -13 Y s 1651 240 m -13 Y s 1697 252 m -25 Y s 1744 240 m -13 Y s 1790 240 m -13 Y s 1837 240 m -13 Y s 1883 240 m
 -13 Y s 1930 252 m -25 Y s
 gsave  2010 1032 0 0 C 256.351 158.533 t 0 r /Helvetica findfont 77.8087 sf 0 0 m (20) show NC gr 
 gsave  2010 1032 0 0 C 489.09 158.533 t 0 r /Helvetica findfont 77.8087 sf 0 0 m (30) show NC gr 
 gsave  2010 1032 0 0 C 721.829 158.533 t 0 r /Helvetica findfont 77.8087 sf 0 0 m (40) show NC gr 
 gsave  2010 1032 0 0 C 954.569 158.533 t 0 r /Helvetica findfont 77.8087 sf 0 0 m (50) show NC gr 
 gsave  2010 1032 0 0 C 1187.31 158.533 t 0 r /Helvetica findfont 77.8087 sf 0 0 m (60) show NC gr 
 gsave  2010 1032 0 0 C 1420.05 158.533 t 0 r /Helvetica findfont 77.8087 sf 0 0 m (70) show NC gr 
 gsave  2010 1032 0 0 C 1652.79 158.533 t 0 r /Helvetica findfont 77.8087 sf 0 0 m (80) show NC gr 
 gsave  2010 1032 0 0 C 1885.53 158.533 t 0 r /Helvetica findfont 77.8087 sf 0 0 m (90) show NC gr  302 1032 m 1628 X s 302 1007 m 25 Y s 348 1019 m 13 Y s 395 1019 m 13 Y s 441 1019 m 13 Y s 488 1019 m 13 Y s 534 1007 m 25 Y s 581 1019 m 13 Y s 627
 1019 m 13 Y s 674 1019 m 13 Y s 720 1019 m 13 Y s 767 1007 m 25 Y s 813 1019 m 13 Y s 860 1019 m 13 Y s 906 1019 m 13 Y s 953 1019 m 13 Y s 999 1007 m 25 Y s 1046 1019 m 13 Y s 1092 1019 m 13 Y s 1139 1019 m 13 Y s 1186 1019 m 13 Y s 1232 1007 m 25
 Y s 1279 1019 m 13 Y s 1325 1019 m 13 Y s 1372 1019 m 13 Y s 1418 1019 m 13 Y s 1465 1007 m 25 Y s 1511 1019 m 13 Y s 1558 1019 m 13 Y s 1604 1019 m 13 Y s 1651 1019 m 13 Y s 1697 1007 m 25 Y s 1744 1019 m 13 Y s 1790 1019 m 13 Y s 1837 1019 m 13 Y
 s 1883 1019 m 13 Y s 1930 1007 m 25 Y s 302 227 m 805 Y s
 gsave  2010 1032 0 0 C 175.398 728.575 t 90 r /Helvetica findfont 77.8087 sf 0 0 m (Data/MC) show NC gr  349 227 m -47 X s 325 265 m -23 X s 325 304 m -23 X s 325 342 m -23 X s 325 380 m -23 X s 349 419 m -47 X s 325 457 m -23 X s 325 495 m -23 X s
 325 534 m -23 X s 325 572 m -23 X s 349 610 m -47 X s 325 649 m -23 X s 325 687 m -23 X s 325 725 m -23 X s 325 763 m -23 X s 349 802 m -47 X s 325 840 m -23 X s 325 878 m -23 X s 325 917 m -23 X s 325 955 m -23 X s 349 993 m -47 X s 349 993 m -47 X
 s 325 1032 m -23 X s
 gsave  2010 1032 0 0 C 252.978 202.382 t 0 r /Helvetica findfont 67.6597 sf 0 0 m (0) show NC gr 
 gsave  2010 1032 0 0 C 199.009 394.645 t 0 r /Helvetica findfont 67.6597 sf 0 0 m (0.5) show NC gr 
 gsave  2010 1032 0 0 C 266.47 583.535 t 0 r /Helvetica findfont 67.6597 sf 0 0 m (1) show NC gr 
 gsave  2010 1032 0 0 C 199.009 775.798 t 0 r /Helvetica findfont 67.6597 sf 0 0 m (1.5) show NC gr 
 gsave  2010 1032 0 0 C 252.978 968.061 t 0 r /Helvetica findfont 67.6597 sf 0 0 m (2) show NC gr  1930 227 m 805 Y s 1883 227 m 47 X s 1906 265 m 24 X s 1906 304 m 24 X s 1906 342 m 24 X s 1906 380 m 24 X s 1883 419 m 47 X s 1906 457 m 24 X s 1906
 495 m 24 X s 1906 534 m 24 X s 1906 572 m 24 X s 1883 610 m 47 X s 1906 649 m 24 X s 1906 687 m 24 X s 1906 725 m 24 X s 1906 763 m 24 X s 1883 802 m 47 X s 1906 840 m 24 X s 1906 878 m 24 X s 1906 917 m 24 X s 1906 955 m 24 X s 1883 993 m 47 X s
 1883 993 m 47 X s 1906 1032 m 24 X s 0.8 0.8 0.8 c 232 224 302 501 bf black 0.8 0.8 0.8 c 233 192 534 514 bf black 0.8 0.8 0.8 c 232 130 767 541 bf black 0.8 0.8 0.8 c 233 132 999 543 bf black 0.8 0.8 0.8 c 233 119 1232 549 bf black 0.8 0.8 0.8 c
 232 123 1465 551 bf black 0.8 0.8 0.8 c 233 133 1697 547 bf black 0.8 0.8 0.8 c black 1 0 0 c 6 lw 1 1 1 c black 1 0 0 c 302 610 m 1628 X s black 3 lw 1 0.8 0.8 c black 232 130 302 573 bl /w 46 def /w2 {w 2 div} def /w3 {w 3 div} def 418 638 m27 233
 127 534 568 bl 650 632 m27 232 148 767 618 bl 883 692 m27 233 154 999 638 bl 1116 715 m27 233 148 1232 621 bl 1348 695 m27 232 143 1465 608 bl 1581 680 m27 233 146 1697 614 bl 1814 687 m27 1 0 1 c 0.6 0.6 1 c 1 0 1 c 232 121 302 590 bl /w 27 def /w2
 {w 2 div} def /w3 {w 3 div} def 418 650 m25 233 121 534 590 bl 650 650 m25 232 140 767 647 bl 883 717 m25 233 149 999 672 bl 1116 746 m25 233 142 1232 651 bl 1348 722 m25 232 138 1465 640 bl 1581 709 m25 233 138 1697 641 bl 1814 710 m25 1 1 1 c 1 0
 1 c 418 650 m25 650 650 m25 883 701 m 2 Y s 883 730 m 3 Y s 883 717 m25 1116 729 m 4 Y s 1116 760 m 4 Y s 1116 746 m25 1348 700 m 8 Y s 1348 735 m 9 Y s 1348 722 m25 1581 685 m 10 Y s 1581 722 m 11 Y s 1581 709 m25 1814 680 m 16 Y s 1814 723 m 16 Y
 s 1814 710 m25 black 1 1 1 c black /w 46 def /w2 {w 2 div} def /w3 {w 3 div} def 418 638 m27 650 632 m27 883 692 m27 1116 715 m27 1348 675 m s 1348 715 m 1 Y s 1348 695 m27 1581 657 m 2 Y s 1581 700 m 2 Y s 1581 680 m27 1814 659 m 8 Y s 1814 707 m 8
 Y s 1814 687 m27 0 0 1 c 1 1 1 c 0 0 1 c /w 27 def /w2 {w 2 div} def /w3 {w 3 div} def 418 560 m24 650 575 m24 883 628 m24 1116 654 m 2 Y s 1116 683 m 1 Y s 1116 669 m24 1348 620 m 4 Y s 1348 651 m 5 Y s 1348 638 m24 1581 605 m 6 Y s 1581 638 m 6 Y
 s 1581 625 m24 1814 613 m 12 Y s 1814 652 m 11 Y s 1814 638 m24 0 0.4 0 c 1 1 1 c 0 0.4 0 c 418 524 m24 650 526 m24 883 584 m24 1116 603 m24 1348 573 m 2 Y s 1348 602 m 3 Y s 1348 589 m24 1581 557 m 4 Y s 1581 588 m 4 Y s 1581 574 m24 1814 554 m 8 Y
 s 1814 589 m 7 Y s 1814 575 m24 black 302 227 m 1628 X s 302 252 m -25 Y s 348 240 m -13 Y s 395 240 m -13 Y s 441 240 m -13 Y s 488 240 m -13 Y s 534 252 m -25 Y s 581 240 m -13 Y s 627 240 m -13 Y s 674 240 m -13 Y s 720 240 m -13 Y s 767 252 m
 -25 Y s 813 240 m -13 Y s 860 240 m -13 Y s 906 240 m -13 Y s 953 240 m -13 Y s 999 252 m -25 Y s 1046 240 m -13 Y s 1092 240 m -13 Y s 1139 240 m -13 Y s 1186 240 m -13 Y s 1232 252 m -25 Y s 1279 240 m -13 Y s 1325 240 m -13 Y s 1372 240 m -13 Y s
 1418 240 m -13 Y s 1465 252 m -25 Y s 1511 240 m -13 Y s 1558 240 m -13 Y s 1604 240 m -13 Y s 1651 240 m -13 Y s 1697 252 m -25 Y s 1744 240 m -13 Y s 1790 240 m -13 Y s 1837 240 m -13 Y s 1883 240 m -13 Y s 1930 252 m -25 Y s 302 1032 m 1628 X s
 302 1007 m 25 Y s 348 1019 m 13 Y s 395 1019 m 13 Y s 441 1019 m 13 Y s 488 1019 m 13 Y s 534 1007 m 25 Y s 581 1019 m 13 Y s 627 1019 m 13 Y s 674 1019 m 13 Y s 720 1019 m 13 Y s 767 1007 m 25 Y s 813 1019 m 13 Y s 860 1019 m 13 Y s 906 1019 m 13 Y
 s 953 1019 m 13 Y s 999 1007 m 25 Y s 1046 1019 m 13 Y s 1092 1019 m 13 Y s 1139 1019 m 13 Y s 1186 1019 m 13 Y s 1232 1007 m 25 Y s 1279 1019 m 13 Y s 1325 1019 m 13 Y s 1372 1019 m 13 Y s 1418 1019 m 13 Y s 1465 1007 m 25 Y s 1511 1019 m 13 Y s
 1558 1019 m 13 Y s 1604 1019 m 13 Y s 1651 1019 m 13 Y s 1697 1007 m 25 Y s 1744 1019 m 13 Y s 1790 1019 m 13 Y s 1837 1019 m 13 Y s 1883 1019 m 13 Y s 1930 1007 m 25 Y s 302 227 m 805 Y s 349 227 m -47 X s 325 265 m -23 X s 325 304 m -23 X s 325
 342 m -23 X s 325 380 m -23 X s 349 419 m -47 X s 325 457 m -23 X s 325 495 m -23 X s 325 534 m -23 X s 325 572 m -23 X s 349 610 m -47 X s 325 649 m -23 X s 325 687 m -23 X s 325 725 m -23 X s 325 763 m -23 X s 349 802 m -47 X s 325 840 m -23 X s
 325 878 m -23 X s 325 917 m -23 X s 325 955 m -23 X s 349 993 m -47 X s 349 993 m -47 X s 325 1032 m -23 X s 1930 227 m 805 Y s 1883 227 m 47 X s 1906 265 m 24 X s 1906 304 m 24 X s 1906 342 m 24 X s 1906 380 m 24 X s 1883 419 m 47 X s 1906 457 m 24
 X s 1906 495 m 24 X s 1906 534 m 24 X s 1906 572 m 24 X s 1883 610 m 47 X s 1906 649 m 24 X s 1906 687 m 24 X s 1906 725 m 24 X s 1906 763 m 24 X s 1883 802 m 47 X s 1906 840 m 24 X s 1906 878 m 24 X s 1906 917 m 24 X s 1906 955 m 24 X s 1883 993 m
 47 X s 1883 993 m 47 X s 1906 1032 m 24 X s
 gr  gr showpage
end
%%EOF
