%!PS-Adobe-2.0 EPSF-2.0
%%BoundingBox:  0 0 567 584
%%Title: /global/project/projectdirs/alice/mconnors/JetUnfolding/R4_Data_MC_prelim.eps: cspectra
%%Creator: ROOT Version 5.34/09
%%CreationDate: Sun May 11 13:04:36 2014
%%EndComments
%%BeginProlog
80 dict begin
/s {stroke} def /l {lineto} def /m {moveto} def /t {translate} def
/r {rotate} def /rl {roll}  def /R {repeat} def
/d {rlineto} def /rm {rmoveto} def /gr {grestore} def /f {eofill} def
/c {setrgbcolor} def /black {0 setgray} def /sd {setdash} def
/cl {closepath} def /sf {scalefont setfont} def /lw {setlinewidth} def
/box {m dup 0 exch d exch 0 d 0 exch neg d cl} def
/NC{systemdict begin initclip end}def/C{NC box clip newpath}def
/bl {box s} def /bf {box f} def /Y { 0 exch d} def /X { 0 d} def 
/K {{pop pop 0 moveto} exch kshow} bind def
/ita {/ang 15 def gsave [1 0 ang dup sin exch cos div 1 0 0] concat} def 
/mp {newpath /y exch def /x exch def} def
/side {[w .77 mul w .23 mul] .385 w mul sd w 0 l currentpoint t -144 r} def
/mr {mp x y w2 0 360 arc} def /m24 {mr s} def /m20 {mr f} def
/mb {mp x y w2 add m w2 neg 0 d 0 w neg d w 0 d 0 w d cl} def
/mt {mp x y w2 add m w2 neg w neg d w 0 d cl} def
/m21 {mb f} def /m25 {mb s} def /m22 {mt f} def /m26{mt s} def
/m23 {mp x y w2 sub m w2 w d w neg 0 d cl f} def
/m27 {mp x y w2 add m w3 neg w2 neg d w3 w2 neg d w3 w2 d cl s} def
/m28 {mp x w2 sub y w2 sub w3 add m w3 0 d  0 w3 neg d w3 0 d 0 w3 d w3 0 d  0 w3 d w3 neg 0 d 0 w3 d w3 neg 0 d 0 w3 neg d w3 neg 0 d cl s } def
/m29 {mp gsave x w2 sub y w2 add w3 sub m currentpoint t 4 {side} repeat cl fill gr} def
/m30 {mp gsave x w2 sub y w2 add w3 sub m currentpoint t 4 {side} repeat cl s gr} def
/m31 {mp x y w2 sub m 0 w d x w2 sub y m w 0 d x w2 sub y w2 add m w w neg d x w2 sub y w2 sub m w w d s} def
/m32 {mp x y w2 sub m w2 w d w neg 0 d cl s} def
/m33 {mp x y w2 add m w3 neg w2 neg d w3 w2 neg d w3 w2 d cl f} def
/m34 {mp x w2 sub y w2 sub w3 add m w3 0 d  0 w3 neg d w3 0 d 0 w3 d w3 0 d  0 w3 d w3 neg 0 d 0 w3 d w3 neg 0 d 0 w3 neg d w3 neg 0 d cl f } def
/m2 {mp x y w2 sub m 0 w d x w2 sub y m w 0 d s} def
/m5 {mp x w2 sub y w2 sub m w w d x w2 sub y w2 add m w w neg d s} def
/reEncode {exch findfont dup length dict begin {1 index /FID eq  {pop pop} {def} ifelse } forall /Encoding exch def currentdict end dup /FontName get exch definefont pop } def [/Times-Bold /Times-Italic /Times-BoldItalic /Helvetica /Helvetica-Oblique
 /Helvetica-Bold /Helvetica-BoldOblique /Courier /Courier-Oblique /Courier-Bold /Courier-BoldOblique /Times-Roman /AvantGarde-Book /AvantGarde-BookOblique /AvantGarde-Demi /AvantGarde-DemiOblique /Bookman-Demi /Bookman-DemiItalic /Bookman-Light
 /Bookman-LightItalic /Helvetica-Narrow /Helvetica-Narrow-Bold /Helvetica-Narrow-BoldOblique /Helvetica-Narrow-Oblique /NewCenturySchlbk-Roman /NewCenturySchlbk-Bold /NewCenturySchlbk-BoldItalic /NewCenturySchlbk-Italic /Palatino-Bold
 /Palatino-BoldItalic /Palatino-Italic /Palatino-Roman ] {ISOLatin1Encoding reEncode } forall
%%EndProlog
%%BeginSetup
%%EndSetup
newpath  gsave  .25 .25 scale  gsave  0 0 t black[  ] 0 sd 3 lw 1 1 1 c 2268 2336 0 0 bf black 1 1 1 c 2268 1518 0 818 bf black 1 1 1 c 1837 1456 340 819 bf black 1837 1456 340 819 bl 1 1 1 c 1837 1456 340 819 bf black 1837 1456 340 819 bl 1 0 0 c 1
 1 1 c 1 0 0 c 340 2171 m 116 X s 487 2171 m 116 X s /w 37 def /w2 {w 2 div} def /w3 {w 3 div} def 471 2171 m20 603 1867 m 116 X s 749 1867 m 116 X s 734 1867 m20 865 1661 m 116 X s 1011 1661 m 116 X s 996 1661 m20 1127 1479 m 116 X s 1274 1479 m 116
 X s 1259 1479 m20 1390 1308 m 116 X s 1536 1308 m 116 X s 1521 1308 m20 1652 1159 m 116 X s 1799 1159 m 116 X s 1783 1159 m20 1915 1034 m 116 X s 2061 1034 m 116 X s 2046 1034 m20 black 340 819 m 1837 X s
 gsave  2268 1518 0 818 C 1993.76 730.54 t 0 r /Helvetica findfont 49.476 sf 0 0 m ( \(GeV/c\)) show NC gr 
 gsave  2268 1518 0 818 C 1925.28 703.905 t 0 r /Helvetica findfont 34.2526 sf 0 0 m (T,jet) show NC gr 
 gsave  2268 1518 0 818 C 1898.64 730.54 t 0 r /Helvetica findfont 49.476 sf 0 0 m (p) show NC gr  340 856 m -37 Y s 393 838 m -19 Y s 445 838 m -19 Y s 498 838 m -19 Y s 550 838 m -19 Y s 603 856 m -37 Y s 655 838 m -19 Y s 708 838 m -19 Y s 760 838
 m -19 Y s 812 838 m -19 Y s 865 856 m -37 Y s 917 838 m -19 Y s 970 838 m -19 Y s 1022 838 m -19 Y s 1075 838 m -19 Y s 1127 856 m -37 Y s 1180 838 m -19 Y s 1232 838 m -19 Y s 1285 838 m -19 Y s 1337 838 m -19 Y s 1390 856 m -37 Y s 1442 838 m -19
 Y s 1495 838 m -19 Y s 1547 838 m -19 Y s 1600 838 m -19 Y s 1652 856 m -37 Y s 1705 838 m -19 Y s 1757 838 m -19 Y s 1810 838 m -19 Y s 1862 838 m -19 Y s 1915 856 m -37 Y s 1967 838 m -19 Y s 2020 838 m -19 Y s 2072 838 m -19 Y s 2125 838 m -19 Y
 s 2177 856 m -37 Y s
 gsave  2268 1518 0 818 C 312.001 772.393 t 0 r /Helvetica findfont 49.476 sf 0 0 m (20) show NC gr 
 gsave  2268 1518 0 818 C 574.539 772.393 t 0 r /Helvetica findfont 49.476 sf 0 0 m (30) show NC gr 
 gsave  2268 1518 0 818 C 837.077 772.393 t 0 r /Helvetica findfont 49.476 sf 0 0 m (40) show NC gr 
 gsave  2268 1518 0 818 C 1099.61 772.393 t 0 r /Helvetica findfont 49.476 sf 0 0 m (50) show NC gr 
 gsave  2268 1518 0 818 C 1362.15 772.393 t 0 r /Helvetica findfont 49.476 sf 0 0 m (60) show NC gr 
 gsave  2268 1518 0 818 C 1624.69 772.393 t 0 r /Helvetica findfont 49.476 sf 0 0 m (70) show NC gr 
 gsave  2268 1518 0 818 C 1887.23 772.393 t 0 r /Helvetica findfont 49.476 sf 0 0 m (80) show NC gr 
 gsave  2268 1518 0 818 C 2149.76 772.393 t 0 r /Helvetica findfont 49.476 sf 0 0 m (90) show NC gr  340 2275 m 1837 X s 340 2239 m 36 Y s 393 2257 m 18 Y s 445 2257 m 18 Y s 498 2257 m 18 Y s 550 2257 m 18 Y s 603 2239 m 36 Y s 655 2257 m 18 Y s 708
 2257 m 18 Y s 760 2257 m 18 Y s 812 2257 m 18 Y s 865 2239 m 36 Y s 917 2257 m 18 Y s 970 2257 m 18 Y s 1022 2257 m 18 Y s 1075 2257 m 18 Y s 1127 2239 m 36 Y s 1180 2257 m 18 Y s 1232 2257 m 18 Y s 1285 2257 m 18 Y s 1337 2257 m 18 Y s 1390 2239 m
 36 Y s 1442 2257 m 18 Y s 1495 2257 m 18 Y s 1547 2257 m 18 Y s 1600 2257 m 18 Y s 1652 2239 m 36 Y s 1705 2257 m 18 Y s 1757 2257 m 18 Y s 1810 2257 m 18 Y s 1862 2257 m 18 Y s 1915 2239 m 36 Y s 1967 2257 m 18 Y s 2020 2257 m 18 Y s 2072 2257 m 18
 Y s 2125 2257 m 18 Y s 2177 2239 m 36 Y s 340 819 m 1456 Y s
 gsave  2268 1518 0 818 C 117.952 2252.5 t 90 r /Helvetica findfont 34.2526 sf 0 0 m (\2551) show NC gr 
 gsave  2268 1518 0 818 C 140.781 2237.28 t 90 r /Helvetica findfont 49.476 sf 0 0 m (\)) show NC gr 
 gsave  2268 1518 0 818 C 140.781 2206.84 t 90 r /Helvetica-Oblique findfont 49.476 sf 0 0 m (c) show NC gr 
 gsave  2268 1518 0 818 C 140.781 2062.25 t 90 r /Helvetica findfont 49.476 sf 0 0 m ( \(GeV/) show NC gr 
 gsave  2268 1518 0 818 C 175.025 2031.81 t 90 r /Symbol findfont 49.476 sf 0 0 m ita (h) show gr NC gr 
 gsave  2268 1518 0 818 C 175.025 2005.18 t 90 r /Helvetica findfont 49.476 sf 0 0 m (d) show NC gr 
 gsave  2268 1518 0 818 C 201.659 1982.35 t 90 r /Helvetica findfont 34.2526 sf 0 0 m (T) show NC gr 
 gsave  2268 1518 0 818 C 175.025 1951.91 t 90 r /Helvetica-Oblique findfont 49.476 sf 0 0 m (p) show NC gr 
 gsave  2268 1518 0 818 C 175.025 1925.28 t 90 r /Helvetica findfont 49.476 sf 0 0 m (d) show NC gr 
 gsave  2268 1518 0 818 C 117.952 1997.57 t 90 r /Helvetica-Oblique findfont 49.476 sf 0 0 m (N) show NC gr 
 gsave  2268 1518 0 818 C 95.1223 1978.54 t 90 r /Helvetica findfont 34.2526 sf 0 0 m (2) show NC gr 
 gsave  2268 1518 0 818 C 117.952 1951.91 t 90 r /Helvetica findfont 49.476 sf 0 0 m (d) show NC gr  6 lw 129 1925 m 137 Y s
 gsave  2268 1518 0 818 C 140.781 1910.06 t 90 r /Helvetica findfont 49.476 sf 0 0 m ( ) show NC gr 
 gsave  2268 1518 0 818 C 190.245 1860.59 t 90 r /Helvetica findfont 34.2526 sf 0 0 m (coll) show NC gr 
 gsave  2268 1518 0 818 C 175.025 1818.74 t 90 r /Helvetica-Oblique findfont 49.476 sf 0 0 m (N) show NC gr 
 gsave  2268 1518 0 818 C 175.025 1803.52 t 90 r /Helvetica findfont 49.476 sf 0 0 m ( ) show NC gr 
 gsave  2268 1518 0 818 C 190.245 1757.86 t 90 r /Helvetica findfont 34.2526 sf 0 0 m (evt) show NC gr 
 gsave  2268 1518 0 818 C 175.025 1716.01 t 90 r /Helvetica-Oblique findfont 49.476 sf 0 0 m (N) show NC gr 
 gsave  2268 1518 0 818 C 121.757 1803.52 t 90 r /Helvetica findfont 49.476 sf 0 0 m (1) show NC gr  129 1716 m 194 Y s 3 lw 373 819 m -33 X s 373 874 m -33 X s 373 917 m -33 X s 373 952 m -33 X s 373 982 m -33 X s 373 1007 m -33 X s 373 1030 m -33 X
 s 405 1050 m -65 X s
 gsave  2268 1518 0 818 C 289.172 1046.35 t 0 r /Helvetica findfont 34.2526 sf 0 0 m (\2557) show NC gr 
 gsave  2268 1518 0 818 C 235.903 1023.52 t 0 r /Helvetica findfont 49.476 sf 0 0 m (10) show NC gr  373 1183 m -33 X s 373 1260 m -33 X s 373 1315 m -33 X s 373 1358 m -33 X s 373 1393 m -33 X s 373 1423 m -33 X s 373 1448 m -33 X s 373 1471 m -33 X
 s 405 1491 m -65 X s
 gsave  2268 1518 0 818 C 289.172 1491.52 t 0 r /Helvetica findfont 34.2526 sf 0 0 m (\2556) show NC gr 
 gsave  2268 1518 0 818 C 235.903 1464.88 t 0 r /Helvetica findfont 49.476 sf 0 0 m (10) show NC gr  373 1624 m -33 X s 373 1702 m -33 X s 373 1757 m -33 X s 373 1799 m -33 X s 373 1834 m -33 X s 373 1864 m -33 X s 373 1889 m -33 X s 373 1912 m -33 X
 s 405 1932 m -65 X s
 gsave  2268 1518 0 818 C 289.172 1932.89 t 0 r /Helvetica findfont 34.2526 sf 0 0 m (\2555) show NC gr 
 gsave  2268 1518 0 818 C 235.903 1906.25 t 0 r /Helvetica findfont 49.476 sf 0 0 m (10) show NC gr  373 2065 m -33 X s 373 2143 m -33 X s 373 2198 m -33 X s 373 2241 m -33 X s 373 2275 m -33 X s 2177 819 m 1456 Y s 2144 819 m 33 X s 2144 874 m 33 X
 s 2144 917 m 33 X s 2144 952 m 33 X s 2144 982 m 33 X s 2144 1007 m 33 X s 2144 1030 m 33 X s 2112 1050 m 65 X s 2144 1183 m 33 X s 2144 1260 m 33 X s 2144 1315 m 33 X s 2144 1358 m 33 X s 2144 1393 m 33 X s 2144 1423 m 33 X s 2144 1448 m 33 X s
 2144 1471 m 33 X s 2112 1491 m 65 X s 2144 1624 m 33 X s 2144 1702 m 33 X s 2144 1757 m 33 X s 2144 1799 m 33 X s 2144 1834 m 33 X s 2144 1864 m 33 X s 2144 1889 m 33 X s 2144 1912 m 33 X s 2112 1932 m 65 X s 2144 2065 m 33 X s 2144 2143 m 33 X s
 2144 2198 m 33 X s 2144 2241 m 33 X s 2144 2275 m 33 X s 1 1 1 c 1021 410 1111 1577 bf black
 gsave  2268 1518 0 818 C 1833.96 1921.47 t 0 r /Helvetica findfont 60.8936 sf 0 0 m (=5.02 TeV) show NC gr 
 gsave  2268 1518 0 818 C 1773.08 1898.64 t 0 r /Helvetica findfont 41.8643 sf 0 0 m (NN) show NC gr 
 gsave  2268 1518 0 818 C 1738.84 1921.47 t 0 r /Helvetica-Oblique findfont 60.8936 sf 0 0 m (s) show NC gr  6 lw 1716 1956 m 8 -57 d s 0 lw 1724 1899 m 7 72 d s 1731 1971 m 103 X s
 gsave  2268 1518 0 818 C 1365.96 1921.47 t 0 r /Helvetica findfont 60.8936 sf 0 0 m (ALICE p\255Pb ) show NC gr  1 0 0 c 3 lw 1239 1936 m20 0 lw black
 gsave  2268 1518 0 818 C 1365.96 1818.74 t 0 r /Helvetica findfont 60.8936 sf 0 0 m (syst error) show NC gr  0.8 0.8 0.8 c 3 lw 1149 1797 m 179 X 72 Y -179 X f 0 lw 1 1 1 c 3 lw 1149 1869 m 179 X s 1149 1797 m 179 X s 1328 1797 m 72 Y s 1149 1797 m
 72 Y s black
 gsave  2268 1518 0 818 C 1769.28 1708.4 t 0 r /Helvetica findfont 60.8936 sf 0 0 m (=0.7 ) show NC gr 
 gsave  2268 1518 0 818 C 1731.23 1708.4 t 0 r /Helvetica-Oblique findfont 60.8936 sf 0 0 m (k) show NC gr 
 gsave  2268 1518 0 818 C 1365.96 1708.4 t 0 r /Helvetica findfont 60.8936 sf 0 0 m (PYTHIA8 4C ) show NC gr  0 0 1 c 1239 1731 m24 black
 gsave  2268 1518 0 818 C 1365.96 1609.47 t 0 r /Helvetica findfont 60.8936 sf 0 0 m (PYTHIA6 Perugia 2011) show NC gr  0 0.4 0 c 1239 1628 m24 black 1 1 1 c 861 471 386 924 bf black
 gsave  2268 1518 0 818 C 597.368 1324.1 t 0 r /Helvetica findfont 64.6994 sf 0 0 m (POWHEG+PYTHIA8) show NC gr 
 gsave  2268 1518 0 818 C 597.368 1228.98 t 0 r /Helvetica findfont 64.6994 sf 0 0 m (EPS) show NC gr  /w 52 def /w2 {w 2 div} def /w3 {w 3 div} def 493 1253 m27
 gsave  2268 1518 0 818 C 597.368 1141.47 t 0 r /Helvetica findfont 64.6994 sf 0 0 m (EPS Uncertainty) show NC gr  1 0.8 0.8 c 418 1126 m 151 X 66 Y -151 X cl s black 418 1192 m 151 X s 418 1126 m 151 X s 569 1126 m 66 Y s 418 1126 m 66 Y s
 gsave  2268 1518 0 818 C 597.368 1038.74 t 0 r /Helvetica findfont 64.6994 sf 0 0 m (CTEQ6.6) show NC gr  1 0 1 c /w 30 def /w2 {w 2 div} def /w3 {w 3 div} def 493 1065 m25 black
 gsave  2268 1518 0 818 C 597.368 955.028 t 0 r /Helvetica findfont 64.6994 sf 0 0 m (CTEQ Uncertainty) show NC gr  0.6 0.6 1 c 418 938 m 151 X 66 Y -151 X cl s 1 0 1 c 418 1004 m 151 X s 418 938 m 151 X s 569 938 m 66 Y s 418 938 m 66 Y s 1 1 1 c
 0.8 0.8 0.8 c 263 115 340 2107 bf 1 1 1 c 0.8 0.8 0.8 c 262 98 603 1812 bf 1 1 1 c 0.8 0.8 0.8 c 262 66 865 1623 bf 1 1 1 c 0.8 0.8 0.8 c 263 67 1127 1442 bf 1 1 1 c 0.8 0.8 0.8 c 262 60 1390 1275 bf 1 1 1 c 0.8 0.8 0.8 c 263 62 1652 1127 bf 1 1 1 c
 0.8 0.8 0.8 c 262 66 1915 1000 bf 1 1 1 c 0.8 0.8 0.8 c black 1 0.8 0.8 c black 263 61 340 2125 bl /w 52 def /w2 {w 2 div} def /w3 {w 3 div} def 471 2158 m27 262 61 603 1824 bl 734 1857 m27 262 61 865 1591 bl 996 1624 m27 263 61 1127 1400 bl 1259
 1433 m27 262 61 1390 1236 bl 1521 1269 m27 263 62 1652 1094 bl 1783 1127 m27 262 61 1915 966 bl 2046 999 m27 1 0 1 c 0.6 0.6 1 c 1 0 1 c 263 55 340 2123 bl /w 30 def /w2 {w 2 div} def /w3 {w 3 div} def 471 2152 m25 262 56 603 1818 bl 734 1848 m25
 262 55 865 1584 bl 996 1614 m25 263 55 1127 1392 bl 1259 1421 m25 262 55 1390 1229 bl 1521 1259 m25 263 55 1652 1086 bl 1783 1116 m25 262 56 1915 960 bl 2046 990 m25 1 0 0 c 1 1 1 c 1 0 0 c /w 37 def /w2 {w 2 div} def /w3 {w 3 div} def 471 2171 m20
 734 1867 m20 996 1661 m20 1259 1479 m20 1521 1308 m20 1783 1159 m20 2046 1034 m20 1 0 1 c 1 1 1 c 1 0 1 c /w 30 def /w2 {w 2 div} def /w3 {w 3 div} def 471 2152 m25 734 1848 m25 996 1614 m25 1259 1421 m25 1521 1259 m25 1783 1116 m25 2046 990 m25
 black 1 1 1 c black /w 52 def /w2 {w 2 div} def /w3 {w 3 div} def 471 2158 m27 734 1857 m27 996 1624 m27 1259 1433 m27 1521 1269 m27 1783 1127 m27 2046 999 m27 1 0 0 c 1 1 1 c 1 0 0 c /w 37 def /w2 {w 2 div} def /w3 {w 3 div} def 471 2171 m20 734
 1867 m20 996 1661 m20 1259 1479 m20 1521 1308 m20 1783 1159 m20 2046 1034 m20 0 0 1 c 1 1 1 c 0 0 1 c 471 2198 m24 734 1885 m24 996 1652 m24 1259 1452 m24 1521 1294 m24 1783 1152 m24 2046 1021 m24 0 0.4 0 c 6 lw 1 1 1 c 0 0.4 0 c 3 lw 471 2220 m24 6
 lw 3 lw 734 1914 m24 6 lw 3 lw 996 1674 m24 6 lw 3 lw 1259 1483 m24 6 lw 3 lw 1521 1319 m24 6 lw 3 lw 1783 1178 m24 6 lw 3 lw 2046 1053 m24 6 lw black
 gsave  2268 1518 0 818 C 1289.86 2187.81 t 0 r /Helvetica findfont 72.3111 sf 0 0 m (ALICE Preliminary) show NC gr 
 gsave  2268 1518 0 818 C 1563.81 2062.25 t 0 r /Helvetica findfont 38.0585 sf 0 0 m (\2551) show NC gr 
 gsave  2268 1518 0 818 C 1533.37 2035.62 t 0 r /Helvetica findfont 57.0877 sf 0 0 m (b) show NC gr 
 gsave  2268 1518 0 818 C 1499.13 2035.62 t 0 r /Symbol findfont 57.0877 sf 0 0 m (m) show NC gr 
 gsave  2268 1518 0 818 C 1411.62 2035.62 t 0 r /Helvetica findfont 57.0877 sf 0 0 m (=51) show NC gr 
 gsave  2268 1518 0 818 C 1369.76 2020.4 t 0 r /Helvetica findfont 38.0585 sf 0 0 m (int) show NC gr 
 gsave  2268 1518 0 818 C 1335.52 2035.62 t 0 r /Helvetica-Oblique findfont 57.0877 sf 0 0 m (L) show NC gr 
 gsave  2268 1518 0 818 C 1529.57 2111.72 t 0 r /Helvetica findfont 72.3111 sf 0 0 m (|<0.3) show NC gr 
 gsave  2268 1518 0 818 C 1483.91 2111.72 t 0 r /Symbol findfont 72.3111 sf 0 0 m ita (h) show gr NC gr 
 gsave  2268 1518 0 818 C 1236.59 2111.72 t 0 r /Helvetica findfont 72.3111 sf 0 0 m ( R=0.4 |) show NC gr 
 gsave  2268 1518 0 818 C 1206.15 2092.69 t 0 r /Helvetica findfont 45.6702 sf 0 0 m (T) show NC gr 
 gsave  2268 1518 0 818 C 1160.49 2111.72 t 0 r /Helvetica-Oblique findfont 72.3111 sf 0 0 m (k) show NC gr 
 gsave  2268 1518 0 818 C 1019.71 2111.72 t 0 r /Helvetica findfont 72.3111 sf 0 0 m (anti\255) show NC gr  3 lw 1 1 1 c 2268 818 0 0 bf black 1 1 1 c 1837 638 340 180 bf black 1837 638 340 180 bl 1 1 1 c 1837 638 340 180 bf black 1837 638 340 180 bl
 1 0 0 c 6 lw 1 1 1 c black 1 0 0 c 340 484 m 1837 X s black 3 lw 340 180 m 1837 X s
 gsave  2268 818 0 0 C 2157.37 76.0979 t 0 r /Helvetica findfont 61.1343 sf 0 0 m (\)) show NC gr 
 gsave  2268 818 0 0 C 2123.13 76.0979 t 0 r /Helvetica-Oblique findfont 61.1343 sf 0 0 m (c) show NC gr 
 gsave  2268 818 0 0 C 1944.3 76.0979 t 0 r /Helvetica findfont 61.1343 sf 0 0 m ( \(GeV/) show NC gr 
 gsave  2268 818 0 0 C 1860.59 38.0489 t 0 r /Helvetica findfont 42.0298 sf 0 0 m (T,jet) show NC gr 
 gsave  2268 818 0 0 C 1822.54 76.0979 t 0 r /Helvetica-Oblique findfont 61.1343 sf 0 0 m (p) show NC gr  340 200 m -20 Y s 393 190 m -10 Y s 445 190 m -10 Y s 498 190 m -10 Y s 550 190 m -10 Y s 603 200 m -20 Y s 655 190 m -10 Y s 708 190 m -10 Y s
 760 190 m -10 Y s 812 190 m -10 Y s 865 200 m -20 Y s 917 190 m -10 Y s 970 190 m -10 Y s 1022 190 m -10 Y s 1075 190 m -10 Y s 1127 200 m -20 Y s 1180 190 m -10 Y s 1232 190 m -10 Y s 1285 190 m -10 Y s 1337 190 m -10 Y s 1390 200 m -20 Y s 1442
 190 m -10 Y s 1495 190 m -10 Y s 1547 190 m -10 Y s 1600 190 m -10 Y s 1652 200 m -20 Y s 1705 190 m -10 Y s 1757 190 m -10 Y s 1810 190 m -10 Y s 1862 190 m -10 Y s 1915 200 m -20 Y s 1967 190 m -10 Y s 2020 190 m -10 Y s 2072 190 m -10 Y s 2125
 190 m -10 Y s 2177 200 m -20 Y s
 gsave  2268 818 0 0 C 304.391 125.561 t 0 r /Helvetica findfont 61.1343 sf 0 0 m (20) show NC gr 
 gsave  2268 818 0 0 C 566.929 125.561 t 0 r /Helvetica findfont 61.1343 sf 0 0 m (30) show NC gr 
 gsave  2268 818 0 0 C 829.467 125.561 t 0 r /Helvetica findfont 61.1343 sf 0 0 m (40) show NC gr 
 gsave  2268 818 0 0 C 1092 125.561 t 0 r /Helvetica findfont 61.1343 sf 0 0 m (50) show NC gr 
 gsave  2268 818 0 0 C 1354.54 125.561 t 0 r /Helvetica findfont 61.1343 sf 0 0 m (60) show NC gr 
 gsave  2268 818 0 0 C 1617.08 125.561 t 0 r /Helvetica findfont 61.1343 sf 0 0 m (70) show NC gr 
 gsave  2268 818 0 0 C 1879.62 125.561 t 0 r /Helvetica findfont 61.1343 sf 0 0 m (80) show NC gr 
 gsave  2268 818 0 0 C 2142.16 125.561 t 0 r /Helvetica findfont 61.1343 sf 0 0 m (90) show NC gr  340 818 m 1837 X s 340 798 m 20 Y s 393 808 m 10 Y s 445 808 m 10 Y s 498 808 m 10 Y s 550 808 m 10 Y s 603 798 m 20 Y s 655 808 m 10 Y s 708 808 m 10
 Y s 760 808 m 10 Y s 812 808 m 10 Y s 865 798 m 20 Y s 917 808 m 10 Y s 970 808 m 10 Y s 1022 808 m 10 Y s 1075 808 m 10 Y s 1127 798 m 20 Y s 1180 808 m 10 Y s 1232 808 m 10 Y s 1285 808 m 10 Y s 1337 808 m 10 Y s 1390 798 m 20 Y s 1442 808 m 10 Y
 s 1495 808 m 10 Y s 1547 808 m 10 Y s 1600 808 m 10 Y s 1652 798 m 20 Y s 1705 808 m 10 Y s 1757 808 m 10 Y s 1810 808 m 10 Y s 1862 808 m 10 Y s 1915 798 m 20 Y s 1967 808 m 10 Y s 2020 808 m 10 Y s 2072 808 m 10 Y s 2125 808 m 10 Y s 2177 798 m 20
 Y s 340 180 m 638 Y s
 gsave  2268 818 0 0 C 186.44 578.344 t 90 r /Helvetica findfont 61.1343 sf 0 0 m (Data/MC) show NC gr  393 180 m -53 X s 367 195 m -27 X s 367 210 m -27 X s 367 225 m -27 X s 393 241 m -53 X s 367 256 m -27 X s 367 271 m -27 X s 367 286 m -27 X s
 393 301 m -53 X s 367 317 m -27 X s 367 332 m -27 X s 367 347 m -27 X s 393 362 m -53 X s 367 377 m -27 X s 367 392 m -27 X s 367 408 m -27 X s 393 423 m -53 X s 367 438 m -27 X s 367 453 m -27 X s 367 468 m -27 X s 393 484 m -53 X s 367 499 m -27 X
 s 367 514 m -27 X s 367 529 m -27 X s 393 544 m -53 X s 367 559 m -27 X s 367 575 m -27 X s 367 590 m -27 X s 393 605 m -53 X s 367 620 m -27 X s 367 635 m -27 X s 367 651 m -27 X s 393 666 m -53 X s 367 681 m -27 X s 367 696 m -27 X s 367 711 m -27
 X s 393 726 m -53 X s 367 742 m -27 X s 367 757 m -27 X s 367 772 m -27 X s 393 787 m -53 X s 393 787 m -53 X s 367 802 m -27 X s 367 818 m -27 X s
 gsave  2268 818 0 0 C 296.782 163.61 t 0 r /Helvetica findfont 53.4925 sf 0 0 m (0) show NC gr 
 gsave  2268 818 0 0 C 254.928 224.489 t 0 r /Helvetica findfont 53.4925 sf 0 0 m (0.2) show NC gr 
 gsave  2268 818 0 0 C 254.928 285.367 t 0 r /Helvetica findfont 53.4925 sf 0 0 m (0.4) show NC gr 
 gsave  2268 818 0 0 C 254.928 346.245 t 0 r /Helvetica findfont 53.4925 sf 0 0 m (0.6) show NC gr 
 gsave  2268 818 0 0 C 254.928 407.124 t 0 r /Helvetica findfont 53.4925 sf 0 0 m (0.8) show NC gr 
 gsave  2268 818 0 0 C 308.196 464.197 t 0 r /Helvetica findfont 53.4925 sf 0 0 m (1) show NC gr 
 gsave  2268 818 0 0 C 254.928 525.075 t 0 r /Helvetica findfont 53.4925 sf 0 0 m (1.2) show NC gr 
 gsave  2268 818 0 0 C 254.928 585.954 t 0 r /Helvetica findfont 53.4925 sf 0 0 m (1.4) show NC gr 
 gsave  2268 818 0 0 C 254.928 646.832 t 0 r /Helvetica findfont 53.4925 sf 0 0 m (1.6) show NC gr 
 gsave  2268 818 0 0 C 254.928 707.71 t 0 r /Helvetica findfont 53.4925 sf 0 0 m (1.8) show NC gr 
 gsave  2268 818 0 0 C 296.782 764.784 t 0 r /Helvetica findfont 53.4925 sf 0 0 m (2) show NC gr  2177 180 m 638 Y s 2124 180 m 53 X s 2150 195 m 27 X s 2150 210 m 27 X s 2150 225 m 27 X s 2124 241 m 53 X s 2150 256 m 27 X s 2150 271 m 27 X s 2150
 286 m 27 X s 2124 301 m 53 X s 2150 317 m 27 X s 2150 332 m 27 X s 2150 347 m 27 X s 2124 362 m 53 X s 2150 377 m 27 X s 2150 392 m 27 X s 2150 408 m 27 X s 2124 423 m 53 X s 2150 438 m 27 X s 2150 453 m 27 X s 2150 468 m 27 X s 2124 484 m 53 X s
 2150 499 m 27 X s 2150 514 m 27 X s 2150 529 m 27 X s 2124 544 m 53 X s 2150 559 m 27 X s 2150 575 m 27 X s 2150 590 m 27 X s 2124 605 m 53 X s 2150 620 m 27 X s 2150 635 m 27 X s 2150 651 m 27 X s 2124 666 m 53 X s 2150 681 m 27 X s 2150 696 m 27 X
 s 2150 711 m 27 X s 2124 726 m 53 X s 2150 742 m 27 X s 2150 757 m 27 X s 2150 772 m 27 X s 2124 787 m 53 X s 2124 787 m 53 X s 2150 802 m 27 X s 2150 818 m 27 X s 0.8 0.8 0.8 c 263 178 340 397 bf black 0.8 0.8 0.8 c 262 151 603 408 bf black 0.8 0.8
 0.8 c 262 103 865 429 bf black 0.8 0.8 0.8 c 263 105 1127 430 bf black 0.8 0.8 0.8 c 262 95 1390 435 bf black 0.8 0.8 0.8 c 263 97 1652 437 bf black 0.8 0.8 0.8 c 262 105 1915 434 bf black 0.8 0.8 0.8 c black 1 0 0 c 6 lw 1 1 1 c black 1 0 0 c 340
 484 m 1837 X s black 3 lw 1 0.8 0.8 c black 263 103 340 454 bl /w 2 def /w2 {w 2 div} def /w3 {w 3 div} def 471 505 m20 262 101 603 450 bl 734 500 m20 262 117 865 490 bl 996 548 m20 263 123 1127 505 bl 1259 566 m20 262 118 1390 492 bl 1521 551 m20
 263 113 1652 482 bl 1783 539 m20 262 115 1915 487 bl 2046 545 m20 1 0 1 c 0.6 0.6 1 c black 1 0 1 c 263 96 340 467 bl black 471 515 m20 1 0 1 c 262 97 603 467 bl black 734 515 m20 1 0 1 c 262 111 865 513 bl black 996 568 m20 1 0 1 c 263 118 1127 532
 bl black 1259 591 m20 1 0 1 c 262 112 1390 516 bl black 1521 572 m20 1 0 1 c 263 109 1652 507 bl black 1783 562 m20 1 0 1 c 262 109 1915 508 bl black 2046 562 m20 1 0 1 c 1 1 1 c 1 0 1 c /w 30 def /w2 {w 2 div} def /w3 {w 3 div} def 471 515 m25 734
 515 m25 996 568 m25 1259 591 m25 1521 555 m 2 Y s 1521 587 m 2 Y s 1521 572 m25 1783 543 m 3 Y s 1783 577 m 4 Y s 1783 562 m25 2046 539 m 8 Y s 2046 578 m 8 Y s 2046 562 m25 black 1 1 1 c black /w 52 def /w2 {w 2 div} def /w3 {w 3 div} def 471 505
 m27 734 500 m27 996 548 m27 1259 566 m27 1521 551 m27 1783 539 m27 2046 545 m27 0 0 1 c 1 1 1 c 0 0 1 c /w 30 def /w2 {w 2 div} def /w3 {w 3 div} def 471 443 m24 734 456 m24 996 498 m24 1259 530 m24 1521 505 m24 1783 479 m 1 Y s 1783 510 m 1 Y s
 1783 495 m24 2046 486 m 5 Y s 2046 521 m 5 Y s 2046 506 m24 0 0.4 0 c 1 1 1 c 0 0.4 0 c 471 415 m24 734 417 m24 996 463 m24 1259 478 m24 1521 466 m24 1783 455 m24 2046 439 m 2 Y s 2046 471 m 2 Y s 2046 456 m24
 gr  gr showpage
end
%%EOF
