%!PS-Adobe-2.0 EPSF-2.0
%%BoundingBox:  0 0 567 367
%%Title: /global/project/projectdirs/alice/mconnors/JetUnfolding/R4_prelim1.eps: 
%%Creator: ROOT Version 5.34/09
%%CreationDate: Mon May 12 13:44:35 2014
%%EndComments
%%BeginProlog
80 dict begin
/s {stroke} def /l {lineto} def /m {moveto} def /t {translate} def
/r {rotate} def /rl {roll}  def /R {repeat} def
/d {rlineto} def /rm {rmoveto} def /gr {grestore} def /f {eofill} def
/c {setrgbcolor} def /black {0 setgray} def /sd {setdash} def
/cl {closepath} def /sf {scalefont setfont} def /lw {setlinewidth} def
/box {m dup 0 exch d exch 0 d 0 exch neg d cl} def
/NC{systemdict begin initclip end}def/C{NC box clip newpath}def
/bl {box s} def /bf {box f} def /Y { 0 exch d} def /X { 0 d} def 
/K {{pop pop 0 moveto} exch kshow} bind def
/ita {/ang 15 def gsave [1 0 ang dup sin exch cos div 1 0 0] concat} def 
/mp {newpath /y exch def /x exch def} def
/side {[w .77 mul w .23 mul] .385 w mul sd w 0 l currentpoint t -144 r} def
/mr {mp x y w2 0 360 arc} def /m24 {mr s} def /m20 {mr f} def
/mb {mp x y w2 add m w2 neg 0 d 0 w neg d w 0 d 0 w d cl} def
/mt {mp x y w2 add m w2 neg w neg d w 0 d cl} def
/m21 {mb f} def /m25 {mb s} def /m22 {mt f} def /m26{mt s} def
/m23 {mp x y w2 sub m w2 w d w neg 0 d cl f} def
/m27 {mp x y w2 add m w3 neg w2 neg d w3 w2 neg d w3 w2 d cl s} def
/m28 {mp x w2 sub y w2 sub w3 add m w3 0 d  0 w3 neg d w3 0 d 0 w3 d w3 0 d  0 w3 d w3 neg 0 d 0 w3 d w3 neg 0 d 0 w3 neg d w3 neg 0 d cl s } def
/m29 {mp gsave x w2 sub y w2 add w3 sub m currentpoint t 4 {side} repeat cl fill gr} def
/m30 {mp gsave x w2 sub y w2 add w3 sub m currentpoint t 4 {side} repeat cl s gr} def
/m31 {mp x y w2 sub m 0 w d x w2 sub y m w 0 d x w2 sub y w2 add m w w neg d x w2 sub y w2 sub m w w d s} def
/m32 {mp x y w2 sub m w2 w d w neg 0 d cl s} def
/m33 {mp x y w2 add m w3 neg w2 neg d w3 w2 neg d w3 w2 d cl f} def
/m34 {mp x w2 sub y w2 sub w3 add m w3 0 d  0 w3 neg d w3 0 d 0 w3 d w3 0 d  0 w3 d w3 neg 0 d 0 w3 d w3 neg 0 d 0 w3 neg d w3 neg 0 d cl f } def
/m2 {mp x y w2 sub m 0 w d x w2 sub y m w 0 d s} def
/m5 {mp x w2 sub y w2 sub m w w d x w2 sub y w2 add m w w neg d s} def
/reEncode {exch findfont dup length dict begin {1 index /FID eq  {pop pop} {def} ifelse } forall /Encoding exch def currentdict end dup /FontName get exch definefont pop } def [/Times-Bold /Times-Italic /Times-BoldItalic /Helvetica /Helvetica-Oblique
 /Helvetica-Bold /Helvetica-BoldOblique /Courier /Courier-Oblique /Courier-Bold /Courier-BoldOblique /Times-Roman /AvantGarde-Book /AvantGarde-BookOblique /AvantGarde-Demi /AvantGarde-DemiOblique /Bookman-Demi /Bookman-DemiItalic /Bookman-Light
 /Bookman-LightItalic /Helvetica-Narrow /Helvetica-Narrow-Bold /Helvetica-Narrow-BoldOblique /Helvetica-Narrow-Oblique /NewCenturySchlbk-Roman /NewCenturySchlbk-Bold /NewCenturySchlbk-BoldItalic /NewCenturySchlbk-Italic /Palatino-Bold
 /Palatino-BoldItalic /Palatino-Italic /Palatino-Roman ] {ISOLatin1Encoding reEncode } forall
%%EndProlog
%%BeginSetup
%%EndSetup
newpath  gsave  .25 .25 scale  gsave  0 0 t black[  ] 0 sd 3 lw 1 1 1 c 2268 1468 0 0 bf black 1 1 1 c 1815 1173 328 207 bf black 1815 1173 328 207 bl 1 1 1 c 1815 1173 328 207 bf black 1815 1173 328 207 bl 1 0 0 c 1 1 1 c 1 0 0 c 328 1276 m 118 X s
 469 1276 m 118 X s /w 23 def /w2 {w 2 div} def /w3 {w 3 div} def 458 1276 m20 587 1022 m 118 X s 728 1022 m 118 X s 717 1022 m20 846 850 m 119 X s 987 850 m 119 X s 976 850 m20 1106 699 m 118 X s 1247 699 m 118 X s 1235 699 m20 1365 556 m 118 X s
 1506 556 m 118 X s 1495 556 m20 1624 432 m 118 X s 1765 432 m 118 X s 1754 432 m20 1883 327 m 119 X s 2024 327 m 119 X s 2013 327 m20 black 328 207 m 1815 X s
 gsave  2268 1468 0 0 C 2123.61 62.5708 t 0 r /Helvetica findfont 68.259 sf 0 0 m (\)) show NC gr 
 gsave  2268 1468 0 0 C 2085.69 62.5708 t 0 r /Helvetica-Oblique findfont 68.259 sf 0 0 m (c) show NC gr 
 gsave  2268 1468 0 0 C 1886.6 62.5708 t 0 r /Helvetica findfont 68.259 sf 0 0 m ( \(GeV/) show NC gr 
 gsave  2268 1468 0 0 C 1797.49 28.4413 t 0 r /Helvetica findfont 45.506 sf 0 0 m (T,jet) show NC gr 
 gsave  2268 1468 0 0 C 1755.77 62.5708 t 0 r /Helvetica-Oblique findfont 68.259 sf 0 0 m (p) show NC gr  328 242 m -35 Y s 380 224 m -17 Y s 432 224 m -17 Y s 484 224 m -17 Y s 535 224 m -17 Y s 587 242 m -35 Y s 639 224 m -17 Y s 691 224 m -17 Y s
 743 224 m -17 Y s 795 224 m -17 Y s 846 242 m -35 Y s 898 224 m -17 Y s 950 224 m -17 Y s 1002 224 m -17 Y s 1054 224 m -17 Y s 1106 242 m -35 Y s 1158 224 m -17 Y s 1209 224 m -17 Y s 1261 224 m -17 Y s 1313 224 m -17 Y s 1365 242 m -35 Y s 1417
 224 m -17 Y s 1469 224 m -17 Y s 1520 224 m -17 Y s 1572 224 m -17 Y s 1624 242 m -35 Y s 1676 224 m -17 Y s 1728 224 m -17 Y s 1780 224 m -17 Y s 1832 224 m -17 Y s 1883 242 m -35 Y s 1935 224 m -17 Y s 1987 224 m -17 Y s 2039 224 m -17 Y s 2091
 224 m -17 Y s 2143 242 m -35 Y s
 gsave  2268 1468 0 0 C 290.101 142.206 t 0 r /Helvetica findfont 68.259 sf 0 0 m (20) show NC gr 
 gsave  2268 1468 0 0 C 547.968 142.206 t 0 r /Helvetica findfont 68.259 sf 0 0 m (30) show NC gr 
 gsave  2268 1468 0 0 C 807.732 142.206 t 0 r /Helvetica findfont 68.259 sf 0 0 m (40) show NC gr 
 gsave  2268 1468 0 0 C 1067.5 142.206 t 0 r /Helvetica findfont 68.259 sf 0 0 m (50) show NC gr 
 gsave  2268 1468 0 0 C 1325.36 142.206 t 0 r /Helvetica findfont 68.259 sf 0 0 m (60) show NC gr 
 gsave  2268 1468 0 0 C 1585.13 142.206 t 0 r /Helvetica findfont 68.259 sf 0 0 m (70) show NC gr 
 gsave  2268 1468 0 0 C 1844.89 142.206 t 0 r /Helvetica findfont 68.259 sf 0 0 m (80) show NC gr 
 gsave  2268 1468 0 0 C 2104.65 142.206 t 0 r /Helvetica findfont 68.259 sf 0 0 m (90) show NC gr  328 1380 m 1815 X s 328 1345 m 35 Y s 380 1363 m 17 Y s 432 1363 m 17 Y s 484 1363 m 17 Y s 535 1363 m 17 Y s 587 1345 m 35 Y s 639 1363 m 17 Y s 691
 1363 m 17 Y s 743 1363 m 17 Y s 795 1363 m 17 Y s 846 1345 m 35 Y s 898 1363 m 17 Y s 950 1363 m 17 Y s 1002 1363 m 17 Y s 1054 1363 m 17 Y s 1106 1345 m 35 Y s 1158 1363 m 17 Y s 1209 1363 m 17 Y s 1261 1363 m 17 Y s 1313 1363 m 17 Y s 1365 1345 m
 35 Y s 1417 1363 m 17 Y s 1469 1363 m 17 Y s 1520 1363 m 17 Y s 1572 1363 m 17 Y s 1624 1345 m 35 Y s 1676 1363 m 17 Y s 1728 1363 m 17 Y s 1780 1363 m 17 Y s 1832 1363 m 17 Y s 1883 1345 m 35 Y s 1935 1363 m 17 Y s 1987 1363 m 17 Y s 2039 1363 m 17
 Y s 2091 1363 m 17 Y s 2143 1345 m 35 Y s 328 207 m 1173 Y s
 gsave  2268 1468 0 0 C 89.116 1348.12 t 90 r /Helvetica findfont 45.506 sf 0 0 m (\2551) show NC gr 
 gsave  2268 1468 0 0 C 119.453 1329.15 t 90 r /Helvetica findfont 68.259 sf 0 0 m (\)) show NC gr 
 gsave  2268 1468 0 0 C 119.453 1291.23 t 90 r /Helvetica-Oblique findfont 68.259 sf 0 0 m (c) show NC gr 
 gsave  2268 1468 0 0 C 119.453 1092.14 t 90 r /Helvetica findfont 68.259 sf 0 0 m ( \(GeV/) show NC gr 
 gsave  2268 1468 0 0 C 161.167 1048.53 t 90 r /Symbol findfont 68.259 sf 0 0 m ita (h) show gr NC gr 
 gsave  2268 1468 0 0 C 161.167 1014.4 t 90 r /Helvetica findfont 68.259 sf 0 0 m (d) show NC gr 
 gsave  2268 1468 0 0 C 197.193 985.964 t 90 r /Helvetica findfont 45.506 sf 0 0 m (T) show NC gr 
 gsave  2268 1468 0 0 C 161.167 944.25 t 90 r /Helvetica-Oblique findfont 68.259 sf 0 0 m (p) show NC gr 
 gsave  2268 1468 0 0 C 161.167 910.12 t 90 r /Helvetica findfont 68.259 sf 0 0 m (d) show NC gr 
 gsave  2268 1468 0 0 C 89.116 1003.03 t 90 r /Helvetica-Oblique findfont 68.259 sf 0 0 m (N) show NC gr 
 gsave  2268 1468 0 0 C 58.7786 978.379 t 90 r /Helvetica findfont 45.506 sf 0 0 m (2) show NC gr 
 gsave  2268 1468 0 0 C 89.116 944.25 t 90 r /Helvetica findfont 68.259 sf 0 0 m (d) show NC gr  6 lw 100 910 m 182 Y s
 gsave  2268 1468 0 0 C 119.453 887.367 t 90 r /Helvetica findfont 68.259 sf 0 0 m ( ) show NC gr 
 gsave  2268 1468 0 0 C 180.128 826.693 t 90 r /Helvetica findfont 45.506 sf 0 0 m (evt) show NC gr 
 gsave  2268 1468 0 0 C 161.167 771.706 t 90 r /Helvetica-Oblique findfont 68.259 sf 0 0 m (N) show NC gr 
 gsave  2268 1468 0 0 C 91.012 817.212 t 90 r /Helvetica findfont 68.259 sf 0 0 m (1) show NC gr  100 772 m 115 Y s 3 lw 355 208 m -27 X s 355 254 m -27 X s 355 289 m -27 X s 355 319 m -27 X s 355 343 m -27 X s 355 365 m -27 X s 355 383 m -27 X s 382
 400 m -54 X s
 gsave  2268 1468 0 0 C 267.348 401.97 t 0 r /Helvetica findfont 45.506 sf 0 0 m (\2556) show NC gr 
 gsave  2268 1468 0 0 C 193.401 369.736 t 0 r /Helvetica findfont 68.259 sf 0 0 m (10) show NC gr  355 511 m -27 X s 355 576 m -27 X s 355 622 m -27 X s 355 657 m -27 X s 355 687 m -27 X s 355 711 m -27 X s 355 733 m -27 X s 355 751 m -27 X s 382 768
 m -54 X s
 gsave  2268 1468 0 0 C 267.348 769.81 t 0 r /Helvetica findfont 45.506 sf 0 0 m (\2555) show NC gr 
 gsave  2268 1468 0 0 C 193.401 737.577 t 0 r /Helvetica findfont 68.259 sf 0 0 m (10) show NC gr  355 879 m -27 X s 355 944 m -27 X s 355 990 m -27 X s 355 1025 m -27 X s 355 1055 m -27 X s 355 1079 m -27 X s 355 1101 m -27 X s 355 1119 m -27 X s
 382 1136 m -54 X s
 gsave  2268 1468 0 0 C 267.348 1135.75 t 0 r /Helvetica findfont 45.506 sf 0 0 m (\2554) show NC gr 
 gsave  2268 1468 0 0 C 193.401 1105.42 t 0 r /Helvetica findfont 68.259 sf 0 0 m (10) show NC gr  355 1247 m -27 X s 355 1312 m -27 X s 355 1358 m -27 X s 2143 207 m 1173 Y s 2115 208 m 28 X s 2115 254 m 28 X s 2115 289 m 28 X s 2115 319 m 28 X s
 2115 343 m 28 X s 2115 365 m 28 X s 2115 383 m 28 X s 2088 400 m 55 X s 2115 511 m 28 X s 2115 576 m 28 X s 2115 622 m 28 X s 2115 657 m 28 X s 2115 687 m 28 X s 2115 711 m 28 X s 2115 733 m 28 X s 2115 751 m 28 X s 2088 768 m 55 X s 2115 879 m 28 X
 s 2115 944 m 28 X s 2115 990 m 28 X s 2115 1025 m 28 X s 2115 1055 m 28 X s 2115 1079 m 28 X s 2115 1101 m 28 X s 2115 1119 m 28 X s 2088 1136 m 55 X s 2115 1247 m 28 X s 2115 1312 m 28 X s 2115 1358 m 28 X s 1 1 1 c 0.8 0.8 0.8 c 259 92 328 1225 bf
 1 1 1 c 0.8 0.8 0.8 c 259 77 587 979 bf 1 1 1 c 0.8 0.8 0.8 c 260 48 846 822 bf 1 1 1 c 0.8 0.8 0.8 c 259 50 1106 671 bf 1 1 1 c 0.8 0.8 0.8 c 259 43 1365 532 bf 1 1 1 c 0.8 0.8 0.8 c 259 45 1624 409 bf 1 1 1 c 0.8 0.8 0.8 c 260 49 1883 303 bf 1 1 1
 c 0.8 0.8 0.8 c black 1 0 0 c 1 1 1 c 1 0 0 c 328 1276 m 118 X s 469 1276 m 118 X s 458 1276 m20 587 1022 m 118 X s 728 1022 m 118 X s 717 1022 m20 846 850 m 119 X s 987 850 m 119 X s 976 850 m20 1106 699 m 118 X s 1247 699 m 118 X s 1235 699 m20
 1365 556 m 118 X s 1506 556 m 118 X s 1495 556 m20 1624 432 m 118 X s 1765 432 m 118 X s 1754 432 m20 1883 327 m 119 X s 2024 327 m 119 X s 2013 327 m20 black
 gsave  2268 1468 0 0 C 1431.54 1241.94 t 0 r /Helvetica findfont 68.259 sf 0 0 m (ALICE Preliminary) show NC gr 
 gsave  2268 1468 0 0 C 912.016 1274.17 t 0 r /Helvetica findfont 36.0256 sf 0 0 m (\2551) show NC gr 
 gsave  2268 1468 0 0 C 881.679 1247.62 t 0 r /Helvetica findfont 54.9864 sf 0 0 m (b) show NC gr 
 gsave  2268 1468 0 0 C 849.446 1247.62 t 0 r /Symbol findfont 54.9864 sf 0 0 m (m) show NC gr 
 gsave  2268 1468 0 0 C 747.057 1247.62 t 0 r /Helvetica findfont 54.9864 sf 0 0 m (=51 ) show NC gr 
 gsave  2268 1468 0 0 C 709.135 1232.45 t 0 r /Helvetica findfont 36.0256 sf 0 0 m (int) show NC gr 
 gsave  2268 1468 0 0 C 678.798 1247.62 t 0 r /Helvetica-Oblique findfont 54.9864 sf 0 0 m (L) show NC gr  1 1 1 c 795 322 1329 787 bf black
 gsave  2268 1468 0 0 C 1769.05 1014.4 t 0 r /Helvetica findfont 54.9864 sf 0 0 m ( = 5.02 TeV) show NC gr 
 gsave  2268 1468 0 0 C 1719.75 997.34 t 0 r /Helvetica findfont 36.0256 sf 0 0 m (NN) show NC gr 
 gsave  2268 1468 0 0 C 1689.41 1014.4 t 0 r /Helvetica-Oblique findfont 54.9864 sf 0 0 m (s) show NC gr  6 lw 1669 1045 m 7 -48 d s 3 lw 1676 997 m 8 63 d s 1684 1060 m 85 X s
 gsave  2268 1468 0 0 C 1526.35 1014.4 t 0 r /Helvetica findfont 54.9864 sf 0 0 m (p\255Pb ) show NC gr  1 0 0 c 1428 1029 m20 black
 gsave  2268 1468 0 0 C 1526.35 855.134 t 0 r /Helvetica findfont 54.9864 sf 0 0 m (syst error) show NC gr  0.8 0.8 0.8 c 1359 811 m 139 X 113 Y -139 X f 1 1 1 c 1359 924 m 139 X s 1359 811 m 139 X s 1498 811 m 113 Y s 1359 811 m 113 Y s black
 gsave  2268 1468 0 0 C 1867.64 1128.17 t 0 r /Helvetica findfont 54.9864 sf 0 0 m (|< 0.3) show NC gr 
 gsave  2268 1468 0 0 C 1827.83 1099.73 t 0 r /Helvetica findfont 36.0256 sf 0 0 m (jet) show NC gr 
 gsave  2268 1468 0 0 C 1793.7 1128.17 t 0 r /Symbol findfont 54.9864 sf 0 0 m ita (h) show gr NC gr 
 gsave  2268 1468 0 0 C 1628.74 1128.17 t 0 r /Helvetica findfont 54.9864 sf 0 0 m ( = 0.4 |) show NC gr 
 gsave  2268 1468 0 0 C 1585.13 1128.17 t 0 r /Helvetica-Oblique findfont 54.9864 sf 0 0 m (R) show NC gr 
 gsave  2268 1468 0 0 C 1566.17 1128.17 t 0 r /Helvetica findfont 54.9864 sf 0 0 m ( ) show NC gr 
 gsave  2268 1468 0 0 C 1543.41 1113 t 0 r /Helvetica findfont 36.0256 sf 0 0 m (T) show NC gr 
 gsave  2268 1468 0 0 C 1511.18 1128.17 t 0 r /Helvetica-Oblique findfont 54.9864 sf 0 0 m (k) show NC gr 
 gsave  2268 1468 0 0 C 1405 1128.17 t 0 r /Helvetica findfont 54.9864 sf 0 0 m (anti\255) show NC gr  328 207 m 1815 X s 328 242 m -35 Y s 380 224 m -17 Y s 432 224 m -17 Y s 484 224 m -17 Y s 535 224 m -17 Y s 587 242 m -35 Y s 639 224 m -17 Y s
 691 224 m -17 Y s 743 224 m -17 Y s 795 224 m -17 Y s 846 242 m -35 Y s 898 224 m -17 Y s 950 224 m -17 Y s 1002 224 m -17 Y s 1054 224 m -17 Y s 1106 242 m -35 Y s 1158 224 m -17 Y s 1209 224 m -17 Y s 1261 224 m -17 Y s 1313 224 m -17 Y s 1365 242
 m -35 Y s 1417 224 m -17 Y s 1469 224 m -17 Y s 1520 224 m -17 Y s 1572 224 m -17 Y s 1624 242 m -35 Y s 1676 224 m -17 Y s 1728 224 m -17 Y s 1780 224 m -17 Y s 1832 224 m -17 Y s 1883 242 m -35 Y s 1935 224 m -17 Y s 1987 224 m -17 Y s 2039 224 m
 -17 Y s 2091 224 m -17 Y s 2143 242 m -35 Y s 328 1380 m 1815 X s 328 1345 m 35 Y s 380 1363 m 17 Y s 432 1363 m 17 Y s 484 1363 m 17 Y s 535 1363 m 17 Y s 587 1345 m 35 Y s 639 1363 m 17 Y s 691 1363 m 17 Y s 743 1363 m 17 Y s 795 1363 m 17 Y s 846
 1345 m 35 Y s 898 1363 m 17 Y s 950 1363 m 17 Y s 1002 1363 m 17 Y s 1054 1363 m 17 Y s 1106 1345 m 35 Y s 1158 1363 m 17 Y s 1209 1363 m 17 Y s 1261 1363 m 17 Y s 1313 1363 m 17 Y s 1365 1345 m 35 Y s 1417 1363 m 17 Y s 1469 1363 m 17 Y s 1520 1363
 m 17 Y s 1572 1363 m 17 Y s 1624 1345 m 35 Y s 1676 1363 m 17 Y s 1728 1363 m 17 Y s 1780 1363 m 17 Y s 1832 1363 m 17 Y s 1883 1345 m 35 Y s 1935 1363 m 17 Y s 1987 1363 m 17 Y s 2039 1363 m 17 Y s 2091 1363 m 17 Y s 2143 1345 m 35 Y s 328 207 m
 1173 Y s 355 208 m -27 X s 355 254 m -27 X s 355 289 m -27 X s 355 319 m -27 X s 355 343 m -27 X s 355 365 m -27 X s 355 383 m -27 X s 382 400 m -54 X s 355 511 m -27 X s 355 576 m -27 X s 355 622 m -27 X s 355 657 m -27 X s 355 687 m -27 X s 355
 711 m -27 X s 355 733 m -27 X s 355 751 m -27 X s 382 768 m -54 X s 355 879 m -27 X s 355 944 m -27 X s 355 990 m -27 X s 355 1025 m -27 X s 355 1055 m -27 X s 355 1079 m -27 X s 355 1101 m -27 X s 355 1119 m -27 X s 382 1136 m -54 X s 355 1247 m
 -27 X s 355 1312 m -27 X s 355 1358 m -27 X s 2143 207 m 1173 Y s 2115 208 m 28 X s 2115 254 m 28 X s 2115 289 m 28 X s 2115 319 m 28 X s 2115 343 m 28 X s 2115 365 m 28 X s 2115 383 m 28 X s 2088 400 m 55 X s 2115 511 m 28 X s 2115 576 m 28 X s
 2115 622 m 28 X s 2115 657 m 28 X s 2115 687 m 28 X s 2115 711 m 28 X s 2115 733 m 28 X s 2115 751 m 28 X s 2088 768 m 55 X s 2115 879 m 28 X s 2115 944 m 28 X s 2115 990 m 28 X s 2115 1025 m 28 X s 2115 1055 m 28 X s 2115 1079 m 28 X s 2115 1101 m
 28 X s 2115 1119 m 28 X s 2088 1136 m 55 X s 2115 1247 m 28 X s 2115 1312 m 28 X s 2115 1358 m 28 X s
 gr  gr showpage
end
%%EOF
