384 
385 
381 
388 
387 
379 
378 
384 
381 
377 
377 
382 
385 
383 
380 
376 
385 
379 
377 
374 
377 
379 
376 
382 
387 
386 
378 
379 
383 
377 
384 
379 
381 
381 
379 
382 
377 
379 
384 
383 
375 
385 
375 
379 
375 
383 
384 
385 
388 
380 
379 
381 
384 
381 
381 
381 
383 
379 
385 
384 
375 
382 
383 
380 
377 
384 
388 
378 
384 
383 
382 
383 
381 
384 
384 
383 
377 
381 
384 
378 
383 
380 
382 
379 
378 
374 
379 
383 
381 
381 
375 
385 
382 
378 
387 
387 
385 
376 
388 
381 
385 
384 
375 
378 
379 
381 
375 
375 
376 
380 
382 
378 
384 
379 
376 
385 
376 
380 
382 
381 
381 
382 
388 
385 
384 
384 
380 
384 
383 
375 
379 
388 
379 
378 
378 
382 
377 
387 
372 
385 
376 
379 
377 
376 
383 
379 
381 
387 
381 
383 
377 
376 
386 
375 
388 
379 
382 
377 
382 
384 
380 
378 
388 
374 
377 
378 
386 
385 
383 
381 
384 
385 
381 
386 
386 
373 
379 
387 
381 
384 
380 
385 
377 
386 
378 
385 
384 
375 
379 
386 
384 
384 
382 
382 
376 
378 
380 
384 
385 
378 
380 
383 
383 
381 
377 
383 
374 
382 
387 
380 
376 
377 
382 
387 
375 
380 
383 
381 
383 
388 
380 
387 
385 
382 
376 
378 
373 
380 
380 
373 
379 
385 
382 
383 
380 
379 
378 
376 
373 
383 
379 
376 
378 
384 
380 
384 
379 
384 
385 
376 
382 
379 
386 
378 
377 
380 
384 
382 
381 
380 
382 
383 
381 
381 
382 
373 
383 
380 
379 
384 
380 
381 
380 
384 
379 
373 
383 
384 
381 
377 
384 
382 
381 
383 
384 
381 
380 
385 
385 
373 
385 
382 
382 
377 
383 
384 
377 
378 
379 
376 
380 
378 
377 
378 
379 
378 
375 
383 
375 
380 
382 
382 
382 
378 
379 
381 
384 
380 
379 
379 
378 
381 
382 
379 
381 
385 
379 
380 
376 
381 
380 
374 
378 
379 
382 
378 
381 
376 
380 
380 
382 
381 
382 
386 
380 
383 
383 
375 
385 
383 
383 
378 
375 
383 
386 
379 
381 
384 
383 
382 
383 
378 
379 
383 
386 
378 
381 
381 
378 
383 
373 
386 
379 
378 
385 
384 
381 
387 
381 
383 
386 
378 
381 
381 
377 
378 
383 
381 
376 
382 
385 
382 
382 
377 
386 
385 
377 
383 
373 
381 
376 
376 
381 
387 
381 
385 
381 
380 
381 
376 
379 
380 
376 
388 
385 
378 
386 
376 
383 
387 
383 
386 
385 
382 
382 
379 
381 
377 
380 
382 
384 
377 
383 
380 
381 
378 
381 
382 
386 
379 
381 
378 
386 
376 
380 
380 
380 
383 
379 
387 
377 
383 
375 
379 
377 
376 
378 
383 
375 
381 
383 
374 
382 
383 
384 
377 
377 
379 
383 
378 
378 
382 
377 
384 
380 
380 
380 
372 
382 
382 
375 
374 
384 
385 
378 
377 
381 
378 
380 
381 
378 
383 
377 
377 
382 
382 
381 
375 
376 
375 
380 
383 
386 
385 
383 
382 
385 
386 
382 
380 
385 
382 
383 
382 
378 
384 
378 
380 
383 
385 
380 
374 
375 
387 
384 
382 
377 
374 
382 
386 
381 
381 
379 
379 
383 
378 
374 
383 
378 
377 
377 
386 
383 
378 
373 
388 
380 
382 
381 
387 
384 
379 
384 
380 
377 
379 
384 
377 
377 
376 
388 
377 
379 
373 
377 
381 
379 
384 
380 
384 
379 
382 
382 
378 
385 
383 
380 
383 
376 
383 
377 
381 
384 
388 
384 
375 
385 
385 
376 
382 
380 
379 
384 
385 
384 
377 
376 
382 
381 
380 
379 
376 
376 
380 
386 
377 
381 
380 
379 
382 
381 
382 
382 
385 
382 
385 
382 
374 
378 
379 
379 
382 
382 
388 
376 
389 
381 
375 
382 
384 
382 
375 
378 
381 
378 
383 
379 
386 
378 
372 
379 
375 
378 
379 
383 
376 
378 
381 
382 
377 
386 
379 
387 
386 
376 
386 
380 
384 
383 
382 
383 
377 
380 
388 
383 
385 
379 
381 
380 
375 
379 
376 
379 
379 
380 
378 
387 
388 
381 
386 
383 
380 
381 
376 
380 
376 
374 
381 
382 
378 
378 
384 
384 
384 
385 
379 
385 
384 
385 
388 
383 
374 
379 
381 
377 
383 
375 
385 
379 
385 
381 
384 
379 
383 
377 
381 
382 
384 
377 
383 
377 
381 
375 
379 
380 
386 
376 
379 
376 
382 
377 
381 
384 
380 
372 
386 
376 
385 
380 
384 
380 
382 
385 
379 
381 
377 
377 
382 
383 
382 
379 
381 
382 
383 
383 
384 
380 
384 
378 
377 
382 
388 
382 
384 
387 
384 
382 
374 
384 
384 
381 
380 
384 
383 
384 
383 
380 
381 
383 
380 
376 
375 
380 
382 
382 
379 
382 
377 
378 
383 
380 
382 
383 
382 
378 
380 
385 
377 
385 
378 
385 
384 
374 
384 
375 
384 
379 
377 
381 
378 
373 
380 
376 
381 
384 
380 
382 
381 
378 
386 
383 
378 
383 
384 
383 
384 
382 
383 
379 
382 
385 
386 
384 
385 
375 
382 
375 
384 
381 
378 
376 
386 
386 
375 
380 
373 
378 
377 
379 
377 
378 
385 
388 
381 
387 
382 
380 
374 
376 
378 
383 
386 
382 
383 
379 
384 
383 
378 
379 
381 
386 
382 
388 
380 
381 
381 
384 
381 
385 
383 
380 
382 
383 
375 
380 
379 
379 
382 
380 
381 
373 
384 
386 
382 
384 
378 
382 
385 
385 
384 
382 
377 
377 
382 
383 
382 
379 
387 
375 
381 
377 
379 
380 
378 
377 
378 
376 
380 
388 
381 
384 
384 
376 
388 
376 
382 
384 
382 
380 
383 
382 
379 
383 
379 
383 
386 
379 
380 
380 
381 
384 
382 
383 
381 
381 
383 
382 
381 
384 
381 
373 
380 
379 
377 
380 
390 
385 
384 
385 
383 
381 
382 
381 
382 
385 
379 
378 
384 
381 
385 
382 
384 
377 
375 
378 
385 
384 
376 
384 
385 
384 
385 
378 
382 
384 
378 
381 
384 
377 
378 
383 
376 
379 
380 
384 
377 
380 
378 
376 
377 
378 
383 
384 
383 
381 
380 
380 
385 
383 
375 
387 
377 
385 
380 
382 
389 
385 
376 
375 
377 
379 
379 
379 
383 
382 
387 
381 
382 
380 
381 
377 
378 
380 
379 
379 
376 
387 
374 
378 
382 
383 
378 
384 
384 
379 
385 
383 
376 
380 
388 
384 
374 
384 
385 
378 
385 
379 
381 
383 
383 
380 
383 
375 
381 
380 
386 
385 
381 
380 
378 
380 
384 
383 
377 
382 
381 
376 
385 
384 
383 
379 
384 
382 
385 
375 
377 
386 
377 
388 
382 
379 
388 
378 
385 
384 
375 
382 
379 
377 
378 
379 
379 
384 
388 
381 
388 
378 
386 
384 
379 
381 
385 
383 
378 
384 
381 
385 
376 
382 
379 
379 
377 
379 
375 
374 
385 
379 
384 
379 
376 
379 
380 
384 
382 
387 
380 
384 
375 
381 
385 
377 
380 
382 
375 
377 
382 
383 
379 
382 
379 
386 
376 
376 
384 
382 
384 
378 
386 
384 
378 
380 
376 
381 
385 
382 
385 
383 
379 
383 
381 
378 
378 
382 
378 
377 
380 
374 
384 
376 
381 
384 
386 
376 
378 
383 
386 
382 
379 
382 
382 
383 
379 
381 
379 
377 
384 
380 
378 
386 
382 
383 
379 
385 
379 
384 
384 
382 
378 
382 
382 
380 
378 
383 
380 
384 
380 
378 
381 
383 
382 
379 
379 
386 
388 
382 
383 
382 
381 
377 
384 
382 
382 
382 
382 
389 
378 
382 
384 
380 
380 
382 
387 
383 
385 
378 
376 
382 
379 
381 
386 
377 
373 
378 
373 
381 
381 
385 
385 
384 
375 
377 
388 
379 
380 
384 
376 
384 
383 
385 
377 
382 
384 
380 
378 
381 
379 
384 
384 
383 
378 
384 
382 
378 
373 
378 
373 
376 
381 
379 
390 
377 
384 
384 
382 
381 
378 
380 
380 
373 
379 
385 
389 
378 
383 
377 
381 
380 
384 
382 
380 
377 
374 
379 
386 
382 
380 
386 
383 
380 
378 
382 
381 
383 
385 
383 
377 
375 
385 
378 
386 
379 
381 
378 
383 
376 
382 
380 
382 
382 
384 
378 
377 
378 
384 
381 
386 
384 
386 
382 
387 
381 
379 
378 
383 
375 
382 
384 
379 
382 
383 
382 
380 
380 
382 
387 
382 
384 
386 
378 
378 
379 
382 
381 
382 
378 
377 
379 
377 
377 
376 
374 
379 
383 
376 
374 
379 
380 
382 
384 
382 
379 
377 
380 
379 
378 
376 
370 
383 
380 
377 
374 
385 
378 
386 
380 
373 
383 
382 
386 
378 
386 
381 
376 
386 
374 
386 
388 
384 
375 
381 
381 
385 
382 
377 
384 
385 
383 
381 
381 
376 
380 
379 
380 
382 
379 
381 
383 
376 
382 
378 
382 
381 
381 
380 
376 
381 
385 
380 
377 
377 
381 
377 
383 
388 
382 
382 
383 
381 
382 
380 
379 
382 
381 
377 
386 
379 
379 
381 
382 
377 
380 
377 
384 
386 
382 
386 
381 
379 
382 
382 
379 
384 
383 
379 
384 
387 
384 
382 
376 
382 
376 
379 
385 
384 
381 
377 
377 
377 
376 
382 
383 
374 
378 
377 
381 
377 
382 
380 
373 
376 
380 
385 
374 
383 
384 
382 
384 
386 
379 
384 
378 
380 
378 
380 
386 
375 
378 
384 
373 
379 
376 
380 
382 
379 
379 
376 
375 
383 
386 
382 
385 
380 
380 
386 
379 
381 
378 
382 
379 
374 
381 
383 
383 
379 
386 
387 
383 
381 
383 
384 
378 
378 
384 
376 
378 
379 
377 
381 
376 
382 
385 
379 
383 
386 
384 
379 
385 
377 
383 
380 
380 
381 
377 
378 
379 
382 
381 
383 
385 
376 
380 
377 
375 
380 
387 
381 
377 
376 
374 
380 
379 
377 
379 
379 
380 
375 
380 
385 
385 
382 
379 
382 
382 
384 
377 
385 
383 
377 
379 
377 
381 
373 
380 
381 
375 
377 
380 
377 
380 
378 
379 
375 
374 
387 
379 
377 
380 
381 
380 
379 
381 
381 
379 
376 
376 
387 
384 
385 
384 
385 
377 
377 
381 
377 
378 
387 
381 
377 
385 
386 
384 
388 
379 
382 
377 
385 
378 
383 
378 
376 
385 
380 
378 
383 
380 
384 
375 
383 
379 
387 
384 
384 
384 
377 
375 
385 
377 
385 
378 
383 
382 
376 
377 
386 
380 
377 
381 
380 
384 
379 
374 
384 
382 
383 
375 
375 
384 
378 
383 
382 
383 
378 
382 
379 
378 
375 
378 
387 
384 
384 
383 
380 
376 
383 
383 
380 
383 
383 
387 
383 
384 
386 
383 
375 
376 
381 
376 
382 
378 
382 
382 
383 
384 
382 
378 
381 
376 
381 
383 
380 
383 
381 
384 
375 
384 
378 
374 
382 
381 
375 
384 
384 
388 
377 
380 
377 
378 
375 
374 
378 
382 
382 
386 
377 
384 
382 
383 
378 
379 
378 
383 
379 
378 
379 
387 
383 
381 
380 
383 
382 
383 
378 
381 
381 
377 
384 
379 
381 
379 
382 
380 
379 
380 
382 
383 
388 
384 
382 
380 
378 
375 
374 
382 
383 
381 
379 
382 
384 
383 
383 
379 
376 
376 
378 
384 
381 
385 
379 
387 
375 
382 
384 
385 
380 
381 
373 
377 
380 
383 
384 
380 
379 
378 
379 
386 
379 
383 
386 
382 
379 
378 
378 
382 
378 
381 
381 
374 
376 
384 
383 
381 
379 
381 
378 
380 
382 
383 
378 
381 
379 
381 
379 
383 
379 
376 
379 
381 
382 
383 
378 
379 
377 
379 
382 
383 
377 
382 
381 
384 
379 
378 
383 
377 
384 
379 
383 
375 
385 
380 
380 
376 
385 
377 
378 
388 
379 
386 
378 
376 
388 
379 
379 
377 
377 
381 
377 
385 
381 
384 
384 
388 
376 
386 
387 
379 
381 
384 
380 
376 
387 
378 
380 
380 
379 
380 
387 
376 
383 
380 
385 
380 
386 
381 
385 
381 
381 
383 
380 
376 
381 
382 
381 
378 
380 
383 
378 
381 
382 
381 
380 
385 
380 
384 
382 
383 
379 
375 
378 
382 
379 
380 
381 
379 
383 
379 
387 
381 
382 
383 
378 
383 
386 
384 
389 
386 
376 
381 
381 
376 
376 
385 
381 
388 
385 
376 
376 
384 
384 
381 
385 
385 
387 
378 
381 
377 
382 
384 
380 
380 
381 
379 
382 
385 
382 
379 
380 
379 
379 
381 
378 
382 
381 
380 
380 
383 
377 
374 
377 
381 
383 
386 
384 
379 
378 
385 
382 
380 
382 
377 
376 
383 
378 
382 
375 
379 
381 
380 
377 
381 
375 
381 
378 
377 
377 
377 
388 
379 
381 
381 
383 
378 
376 
378 
382 
377 
380 
377 
380 
383 
380 
378 
376 
384 
383 
378 
378 
382 
376 
381 
376 
384 
380 
383 
382 
383 
378 
386 
389 
376 
385 
375 
381 
383 
388 
384 
384 
380 
380 
380 
379 
377 
376 
382 
384 
388 
388 
384 
385 
383 
378 
385 
377 
380 
383 
381 
380 
385 
381 
383 
385 
378 
384 
376 
384 
380 
379 
376 
384 
383 
381 
383 
376 
381 
379 
379 
380 
383 
383 
377 
384 
382 
387 
380 
382 
381 
382 
381 
387 
382 
379 
386 
382 
376 
382 
381 
383 
379 
380 
385 
387 
385 
379 
382 
376 
387 
378 
383 
382 
376 
381 
385 
382 
374 
380 
380 
381 
382 
377 
382 
380 
378 
376 
387 
380 
376 
380 
374 
374 
379 
376 
384 
384 
375 
384 
383 
381 
381 
381 
385 
381 
381 
381 
388 
384 
380 
382 
382 
382 
385 
386 
378 
379 
376 
386 
386 
384 
378 
381 
380 
381 
375 
378 
384 
383 
378 
378 
376 
381 
384 
382 
385 
387 
382 
380 
373 
382 
379 
380 
374 
382 
381 
375 
386 
387 
382 
388 
376 
382 
378 
381 
381 
375 
384 
387 
378 
381 
378 
379 
382 
376 
381 
380 
383 
380 
384 
379 
374 
376 
379 
382 
384 
375 
378 
383 
381 
380 
378 
383 
381 
382 
385 
381 
382 
387 
385 
382 
384 
380 
376 
380 
377 
378 
385 
376 
382 
380 
377 
378 
380 
378 
383 
372 
379 
382 
383 
382 
385 
376 
381 
382 
377 
382 
384 
380 
385 
377 
378 
381 
381 
387 
380 
372 
384 
379 
381 
384 
383 
385 
377 
379 
382 
385 
377 
385 
379 
378 
384 
380 
380 
381 
383 
382 
378 
384 
382 
383 
387 
377 
378 
381 
385 
376 
382 
386 
380 
379 
376 
378 
384 
382 
379 
378 
386 
379 
380 
380 
383 
380 
375 
386 
375 
385 
386 
380 
383 
384 
383 
377 
385 
388 
379 
379 
374 
380 
374 
379 
382 
383 
379 
386 
375 
382 
379 
378 
378 
378 
379 
377 
382 
381 
385 
382 
380 
378 
378 
383 
381 
382 
385 
385 
378 
377 
383 
374 
379 
383 
379 
385 
378 
381 
388 
380 
380 
380 
381 
380 
376 
378 
382 
384 
377 
379 
380 
377 
384 
381 
381 
374 
377 
379 
380 
380 
384 
381 
380 
385 
379 
384 
382 
379 
379 
385 
381 
380 
387 
376 
382 
377 
380 
383 
380 
384 
381 
383 
376 
379 
385 
386 
383 
383 
381 
382 
376 
379 
382 
380 
384 
378 
377 
379 
379 
383 
382 
378 
378 
384 
383 
379 
382 
380 
381 
379 
375 
381 
387 
378 
381 
384 
373 
386 
375 
381 
383 
381 
381 
378 
377 
384 
388 
377 
390 
379 
377 
376 
376 
377 
384 
377 
379 
376 
376 
383 
379 
386 
380 
384 
385 
381 
383 
378 
381 
387 
377 
385 
386 
379 
386 
383 
384 
380 
382 
378 
382 
383 
380 
383 
379 
383 
382 
381 
387 
379 
382 
383 
381 
386 
378 
384 
387 
384 
385 
374 
377 
377 
381 
373 
382 
378 
382 
378 
379 
388 
382 
379 
377 
385 
383 
385 
380 
383 
380 
384 
381 
382 
385 
387 
380 
383 
384 
381 
380 
376 
386 
373 
383 
379 
384 
377 
383 
382 
380 
374 
383 
377 
387 
377 
375 
375 
378 
380 
375 
378 
382 
384 
384 
378 
381 
376 
375 
384 
383 
381 
376 
378 
382 
381 
377 
382 
383 
382 
375 
379 
379 
380 
385 
379 
376 
382 
384 
384 
388 
373 
373 
388 
381 
379 
383 
382 
380 
381 
376 
383 
378 
379 
384 
376 
381 
381 
380 
387 
382 
376 
386 
376 
382 
379 
381 
380 
381 
385 
384 
381 
379 
388 
384 
385 
373 
378 
382 
379 
384 
377 
383 
375 
388 
381 
379 
376 
385 
376 
378 
386 
376 
379 
380 
381 
382 
382 
382 
382 
385 
388 
380 
381 
377 
373 
383 
383 
385 
384 
384 
388 
380 
378 
383 
377 
377 
384 
387 
380 
382 
375 
380 
381 
380 
378 
373 
384 
382 
376 
374 
376 
383 
381 
384 
378 
378 
380 
377 
377 
381 
379 
378 
376 
380 
376 
390 
379 
380 
377 
382 
383 
377 
380 
380 
375 
383 
379 
382 
380 
374 
383 
380 
382 
379 
380 
375 
377 
383 
379 
373 
382 
375 
378 
380 
375 
381 
383 
381 
375 
386 
378 
386 
389 
380 
381 
378 
376 
387 
382 
384 
382 
387 
382 
376 
382 
373 
384 
380 
386 
375 
383 
381 
384 
383 
384 
381 
378 
379 
387 
379 
385 
380 
386 
380 
382 
383 
373 
384 
379 
381 
380 
373 
379 
380 
375 
379 
375 
387 
382 
385 
385 
380 
383 
384 
375 
381 
384 
380 
381 
375 
380 
382 
380 
373 
379 
379 
375 
381 
384 
379 
379 
383 
377 
382 
376 
379 
379 
381 
383 
382 
383 
383 
377 
377 
382 
387 
384 
379 
375 
377 
384 
380 
379 
378 
387 
379 
384 
379 
377 
380 
381 
381 
379 
379 
380 
383 
383 
374 
382 
386 
381 
381 
379 
375 
385 
387 
380 
383 
381 
384 
379 
383 
381 
378 
382 
377 
378 
380 
380 
378 
383 
385 
372 
388 
381 
378 
383 
379 
383 
380 
376 
377 
377 
374 
379 
382 
382 
389 
383 
382 
388 
385 
378 
381 
382 
386 
378 
382 
374 
382 
386 
381 
379 
375 
381 
379 
382 
387 
386 
379 
380 
385 
382 
384 
384 
376 
374 
379 
388 
382 
381 
381 
383 
379 
374 
381 
378 
376 
385 
374 
380 
380 
382 
381 
385 
380 
378 
383 
382 
379 
380 
377 
387 
383 
388 
374 
387 
378 
382 
383 
380 
386 
376 
376 
384 
382 
382 
377 
380 
378 
379 
384 
388 
377 
378 
381 
381 
385 
387 
382 
376 
382 
388 
386 
378 
378 
376 
389 
383 
377 
382 
380 
382 
378 
379 
384 
380 
379 
381 
379 
378 
376 
378 
381 
382 
380 
383 
375 
380 
387 
383 
381 
384 
379 
381 
382 
378 
378 
377 
382 
376 
382 
380 
384 
377 
377 
379 
386 
376 
387 
384 
379 
382 
381 
374 
383 
381 
374 
386 
382 
379 
376 
384 
376 
378 
377 
386 
387 
380 
385 
385 
382 
378 
380 
377 
386 
382 
381 
383 
385 
383 
380 
385 
378 
381 
378 
378 
383 
376 
381 
387 
383 
384 
378 
381 
380 
381 
384 
381 
385 
381 
384 
377 
379 
378 
378 
380 
378 
383 
386 
379 
378 
380 
380 
375 
381 
381 
380 
377 
381 
381 
383 
382 
383 
380 
380 
375 
382 
382 
383 
386 
386 
381 
375 
376 
384 
384 
376 
378 
383 
381 
374 
385 
379 
384 
386 
382 
384 
384 
378 
375 
380 
377 
383 
376 
381 
385 
383 
382 
387 
375 
381 
379 
385 
380 
386 
377 
383 
381 
385 
378 
377 
378 
381 
383 
383 
380 
384 
386 
380 
382 
383 
378 
381 
375 
386 
376 
381 
377 
383 
379 
378 
383 
384 
382 
374 
386 
384 
381 
386 
381 
376 
381 
380 
385 
380 
382 
378 
379 
380 
384 
377 
390 
381 
380 
381 
377 
379 
378 
377 
386 
381 
385 
381 
380 
382 
377 
381 
390 
378 
384 
382 
383 
379 
382 
379 
378 
387 
383 
382 
383 
383 
376 
389 
379 
378 
379 
388 
383 
384 
382 
377 
387 
386 
376 
384 
378 
379 
376 
377 
377 
379 
383 
374 
381 
381 
382 
375 
380 
377 
380 
383 
376 
386 
378 
386 
384 
384 
379 
381 
381 
382 
379 
382 
374 
380 
378 
385 
379 
383 
374 
380 
378 
383 
377 
386 
388 
381 
384 
385 
380 
382 
382 
384 
384 
383 
382 
384 
383 
378 
380 
381 
383 
378 
378 
376 
377 
380 
381 
385 
382 
382 
384 
386 
386 
380 
381 
386 
374 
384 
379 
375 
378 
388 
383 
387 
378 
386 
383 
378 
379 
383 
382 
381 
382 
384 
385 
381 
373 
380 
377 
387 
383 
383 
379 
388 
384 
378 
387 
382 
387 
382 
378 
386 
375 
382 
388 
384 
379 
374 
381 
385 
381 
384 
385 
382 
387 
376 
382 
383 
388 
384 
380 
375 
384 
385 
384 
388 
381 
380 
378 
379 
384 
386 
383 
384 
382 
382 
378 
375 
377 
385 
382 
385 
376 
379 
388 
383 
380 
387 
382 
385 
377 
388 
376 
384 
382 
389 
380 
377 
381 
377 
384 
383 
384 
386 
388 
378 
374 
380 
381 
379 
387 
379 
383 
382 
381 
384 
376 
382 
381 
388 
377 
387 
384 
381 
385 
388 
379 
385 
376 
381 
378 
382 
380 
381 
384 
386 
385 
384 
386 
383 
380 
381 
384 
380 
378 
378 
379 
387 
380 
374 
386 
377 
377 
378 
379 
383 
384 
388 
384 
380 
376 
385 
377 
384 
378 
378 
385 
377 
382 
382 
380 
384 
381 
378 
382 
384 
388 
387 
388 
381 
386 
381 
375 
379 
382 
382 
387 
380 
378 
376 
377 
385 
384 
378 
378 
381 
388 
380 
384 
376 
383 
379 
379 
378 
384 
376 
380 
380 
385 
383 
382 
386 
382 
380 
377 
378 
389 
380 
384 
385 
374 
385 
385 
382 
385 
379 
380 
387 
381 
382 
386 
385 
380 
378 
379 
377 
386 
385 
375 
379 
379 
378 
376 
385 
380 
373 
382 
380 
378 
375 
382 
379 
378 
385 
388 
380 
387 
386 
384 
380 
388 
379 
385 
382 
376 
384 
380 
380 
380 
376 
378 
386 
383 
379 
384 
382 
382 
380 
387 
383 
379 
379 
381 
382 
379 
384 
382 
377 
382 
384 
382 
381 
377 
386 
383 
382 
377 
384 
383 
378 
386 
380 
384 
377 
379 
375 
382 
378 
374 
378 
381 
383 
384 
378 
378 
383 
375 
383 
383 
377 
385 
383 
383 
386 
380 
379 
383 
386 
380 
379 
385 
381 
383 
385 
377 
380 
384 
381 
380 
387 
385 
383 
378 
382 
384 
378 
378 
379 
381 
379 
376 
386 
384 
378 
386 
378 
382 
390 
378 
381 
378 
376 
380 
385 
380 
373 
385 
373 
381 
380 
375 
389 
391 
377 
378 
379 
381 
379 
376 
383 
384 
380 
386 
382 
381 
381 
383 
374 
382 
383 
384 
380 
373 
382 
385 
384 
382 
379 
378 
387 
383 
378 
383 
378 
379 
383 
381 
386 
380 
381 
384 
383 
384 
381 
380 
377 
383 
378 
386 
382 
378 
381 
382 
384 
380 
374 
384 
384 
388 
377 
381 
375 
383 
379 
378 
375 
387 
379 
382 
378 
386 
377 
379 
377 
379 
382 
384 
380 
379 
378 
380 
382 
386 
382 
381 
386 
375 
376 
382 
384 
378 
380 
378 
384 
383 
387 
383 
381 
382 
375 
384 
378 
381 
378 
385 
381 
385 
378 
385 
378 
386 
384 
383 
384 
383 
383 
376 
383 
382 
383 
386 
377 
381 
382 
379 
374 
379 
380 
383 
385 
379 
378 
377 
382 
377 
379 
373 
377 
383 
383 
379 
376 
380 
379 
384 
379 
384 
386 
382 
378 
386 
377 
386 
382 
380 
386 
383 
382 
382 
383 
379 
383 
382 
385 
381 
382 
379 
382 
379 
384 
379 
384 
381 
385 
382 
388 
381 
377 
381 
380 
379 
383 
381 
385 
377 
379 
374 
382 
384 
384 
375 
377 
379 
383 
379 
379 
386 
378 
380 
380 
380 
380 
380 
386 
385 
377 
380 
378 
378 
385 
384 
385 
375 
382 
383 
381 
384 
384 
381 
387 
385 
379 
384 
381 
388 
387 
385 
390 
381 
384 
387 
381 
378 
381 
382 
385 
381 
377 
381 
386 
383 
380 
382 
380 
381 
377 
383 
385 
382 
379 
378 
386 
378 
376 
380 
382 
379 
382 
382 
385 
383 
379 
388 
382 
382 
386 
381 
382 
385 
377 
380 
378 
381 
376 
378 
384 
376 
381 
376 
384 
380 
382 
386 
382 
386 
376 
377 
386 
383 
376 
383 
385 
385 
381 
374 
377 
379 
379 
388 
376 
384 
373 
376 
386 
376 
383 
384 
384 
376 
382 
382 
379 
380 
388 
386 
380 
379 
381 
384 
379 
381 
381 
384 
384 
383 
378 
385 
378 
383 
383 
389 
385 
381 
384 
389 
388 
374 
378 
381 
384 
377 
386 
385 
379 
377 
381 
382 
381 
378 
381 
386 
379 
383 
382 
382 
382 
379 
383 
381 
386 
384 
384 
379 
388 
380 
384 
381 
387 
383 
382 
382 
380 
378 
384 
382 
383 
378 
384 
384 
380 
384 
380 
381 
385 
379 
378 
387 
383 
386 
381 
377 
382 
382 
383 
382 
381 
378 
380 
378 
381 
382 
379 
382 
385 
380 
380 
380 
381 
377 
379 
383 
377 
381 
378 
385 
385 
377 
381 
383 
380 
379 
387 
384 
376 
385 
382 
377 
378 
383 
386 
383 
386 
378 
381 
384 
378 
379 
386 
384 
386 
378 
376 
382 
380 
381 
381 
376 
377 
385 
379 
379 
386 
383 
380 
381 
380 
389 
383 
387 
383 
387 
374 
386 
377 
378 
384 
384 
380 
380 
388 
381 
377 
383 
376 
380 
384 
388 
384 
383 
378 
381 
385 
382 
379 
379 
377 
382 
377 
381 
383 
385 
387 
385 
383 
381 
384 
381 
379 
383 
383 
385 
379 
387 
383 
379 
378 
380 
379 
382 
377 
382 
380 
386 
384 
377 
381 
383 
380 
377 
383 
385 
382 
380 
377 
384 
380 
381 
380 
381 
375 
379 
382 
382 
377 
386 
382 
377 
380 
387 
377 
382 
387 
379 
375 
381 
381 
383 
378 
384 
374 
384 
385 
378 
382 
383 
376 
379 
380 
384 
385 
381 
383 
380 
383 
379 
378 
383 
381 
380 
387 
377 
380 
378 
384 
385 
381 
382 
387 
379 
382 
388 
378 
375 
382 
383 
378 
379 
383 
380 
381 
379 
382 
385 
383 
380 
378 
384 
379 
385 
381 
383 
384 
375 
382 
381 
377 
388 
379 
375 
384 
383 
379 
374 
382 
379 
380 
378 
387 
380 
380 
379 
385 
380 
384 
376 
385 
378 
382 
381 
383 
379 
378 
385 
379 
378 
385 
377 
375 
376 
382 
380 
377 
381 
388 
386 
382 
384 
376 
378 
382 
376 
381 
382 
377 
383 
383 
376 
379 
384 
378 
381 
382 
378 
386 
380 
389 
382 
381 
383 
378 
383 
382 
385 
382 
379 
380 
375 
381 
381 
386 
376 
382 
384 
379 
381 
381 
377 
382 
388 
385 
377 
381 
375 
380 
377 
382 
381 
385 
382 
381 
382 
384 
379 
385 
383 
379 
383 
380 
376 
385 
378 
379 
385 
376 
379 
378 
382 
378 
384 
376 
377 
379 
381 
382 
382 
375 
379 
381 
380 
377 
383 
380 
376 
379 
381 
383 
381 
380 
384 
381 
378 
383 
378 
385 
380 
381 
383 
383 
383 
381 
378 
378 
376 
383 
384 
376 
384 
382 
386 
382 
373 
382 
379 
383 
381 
378 
386 
377 
387 
380 
380 
376 
386 
378 
378 
383 
379 
378 
384 
380 
376 
385 
386 
381 
378 
387 
384 
384 
379 
380 
377 
390 
384 
382 
376 
380 
381 
379 
385 
379 
377 
379 
383 
381 
382 
385 
380 
384 
391 
375 
380 
377 
377 
379 
386 
375 
378 
386 
383 
384 
375 
376 
384 
377 
380 
379 
382 
383 
380 
383 
382 
384 
384 
381 
384 
382 
383 
382 
384 
383 
387 
377 
382 
378 
381 
380 
383 
381 
380 
379 
385 
381 
380 
379 
382 
379 
382 
384 
378 
383 
379 
378 
381 
383 
377 
378 
379 
385 
381 
380 
380 
378 
374 
381 
377 
382 
384 
386 
379 
379 
377 
382 
380 
382 
382 
378 
379 
377 
379 
386 
375 
382 
379 
377 
382 
378 
386 
384 
382 
379 
386 
384 
380 
379 
375 
384 
383 
380 
382 
381 
385 
379 
384 
385 
380 
382 
387 
385 
378 
376 
382 
384 
377 
377 
380 
384 
378 
383 
381 
387 
384 
384 
388 
384 
379 
384 
378 
382 
380 
382 
379 
387 
379 
379 
385 
385 
383 
381 
381 
377 
387 
381 
385 
379 
379 
376 
383 
382 
386 
378 
379 
382 
376 
389 
379 
385 
381 
384 
384 
384 
385 
379 
378 
377 
383 
380 
388 
384 
386 
379 
377 
380 
382 
376 
380 
378 
380 
381 
384 
385 
376 
382 
378 
375 
377 
380 
382 
376 
379 
383 
384 
380 
379 
374 
381 
376 
380 
379 
387 
383 
381 
384 
381 
384 
380 
384 
379 
382 
388 
383 
381 
380 
376 
378 
386 
379 
384 
380 
381 
386 
386 
379 
386 
382 
380 
382 
380 
376 
383 
373 
385 
380 
379 
386 
380 
382 
384 
382 
385 
384 
383 
379 
383 
380 
383 
383 
376 
378 
382 
380 
389 
374 
374 
385 
384 
382 
386 
381 
378 
378 
382 
376 
383 
385 
381 
379 
378 
384 
380 
385 
382 
378 
385 
386 
379 
382 
382 
376 
384 
382 
384 
384 
382 
379 
387 
377 
382 
379 
379 
377 
388 
383 
378 
382 
382 
380 
383 
379 
380 
378 
385 
378 
379 
377 
382 
379 
377 
384 
379 
379 
375 
376 
379 
380 
379 
380 
382 
377 
380 
379 
383 
381 
377 
377 
387 
381 
382 
377 
379 
383 
378 
380 
377 
380 
379 
385 
385 
385 
379 
385 
385 
379 
379 
381 
386 
382 
383 
385 
379 
381 
378 
375 
382 
373 
377 
384 
388 
382 
381 
382 
387 
383 
384 
382 
377 
380 
385 
377 
387 
382 
378 
385 
377 
380 
377 
383 
383 
382 
380 
384 
383 
376 
378 
381 
377 
383 
377 
378 
384 
381 
381 
381 
378 
381 
383 
379 
387 
381 
383 
382 
378 
379 
374 
386 
382 
378 
383 
380 
384 
381 
379 
385 
381 
374 
379 
381 
382 
387 
381 
383 
385 
381 
387 
382 
383 
375 
384 
387 
376 
381 
386 
375 
382 
380 
386 
382 
377 
387 
381 
379 
377 
389 
379 
385 
381 
386 
380 
380 
383 
386 
380 
376 
384 
388 
379 
385 
380 
386 
382 
387 
377 
387 
383 
381 
380 
382 
381 
380 
388 
375 
381 
383 
373 
384 
377 
379 
384 
377 
383 
383 
379 
386 
380 
380 
379 
380 
379 
378 
380 
385 
383 
380 
380 
374 
378 
384 
378 
385 
382 
383 
379 
383 
382 
387 
383 
383 
383 
377 
382 
379 
379 
373 
386 
377 
384 
385 
381 
385 
380 
375 
384 
388 
382 
383 
382 
380 
382 
377 
381 
378 
382 
383 
383 
385 
380 
376 
388 
384 
382 
380 
373 
378 
376 
386 
377 
377 
376 
383 
380 
386 
377 
374 
379 
380 
377 
383 
375 
381 
383 
385 
387 
376 
378 
380 
383 
384 
382 
381 
378 
381 
380 
384 
383 
375 
379 
387 
384 
374 
377 
389 
384 
376 
377 
388 
378 
378 
382 
384 
387 
387 
386 
390 
384 
381 
385 
374 
380 
380 
374 
380 
379 
374 
376 
386 
381 
378 
388 
386 
382 
382 
376 
377 
380 
381 
380 
378 
382 
383 
379 
377 
379 
376 
379 
381 
382 
382 
384 
386 
379 
379 
377 
380 
384 
383 
381 
381 
376 
380 
376 
376 
381 
381 
381 
383 
377 
385 
386 
378 
381 
380 
386 
385 
380 
384 
377 
380 
384 
377 
382 
381 
381 
377 
378 
377 
386 
386 
387 
375 
379 
378 
388 
384 
381 
384 
375 
379 
382 
381 
381 
378 
388 
378 
385 
388 
378 
384 
379 
380 
381 
377 
386 
381 
383 
387 
376 
378 
376 
384 
377 
379 
381 
379 
384 
376 
378 
380 
379 
382 
386 
384 
382 
379 
381 
381 
375 
381 
379 
384 
382 
382 
385 
380 
376 
378 
385 
381 
378 
377 
379 
379 
383 
377 
379 
377 
383 
380 
377 
380 
380 
380 
385 
382 
386 
377 
382 
381 
377 
385 
382 
380 
375 
377 
380 
381 
379 
386 
383 
382 
387 
383 
378 
380 
381 
382 
380 
381 
377 
377 
380 
385 
383 
376 
386 
387 
376 
379 
380 
379 
381 
387 
379 
384 
384 
385 
383 
386 
380 
386 
379 
384 
385 
375 
377 
380 
384 
385 
384 
376 
382 
376 
378 
385 
384 
383 
377 
382 
375 
379 
384 
382 
378 
383 
387 
384 
381 
385 
384 
388 
383 
385 
378 
381 
385 
385 
378 
378 
378 
378 
378 
381 
376 
387 
377 
380 
376 
375 
384 
382 
384 
377 
377 
385 
381 
377 
385 
384 
378 
382 
384 
379 
379 
380 
385 
385 
382 
382 
382 
379 
383 
379 
381 
386 
385 
382 
376 
386 
384 
378 
382 
378 
383 
382 
381 
377 
381 
374 
379 
382 
377 
384 
386 
386 
375 
383 
377 
379 
385 
383 
383 
385 
383 
377 
383 
378 
387 
378 
377 
377 
383 
385 
379 
385 
382 
379 
381 
386 
377 
387 
382 
383 
389 
380 
383 
383 
383 
383 
379 
384 
380 
379 
380 
379 
386 
385 
375 
384 
381 
372 
383 
380 
380 
379 
379 
380 
385 
382 
381 
375 
381 
382 
381 
385 
378 
389 
384 
383 
380 
381 
376 
386 
379 
379 
380 
388 
377 
381 
383 
381 
378 
378 
378 
383 
383 
384 
383 
378 
381 
382 
383 
376 
378 
384 
381 
377 
379 
383 
383 
379 
381 
381 
385 
380 
385 
383 
381 
377 
378 
378 
379 
378 
373 
379 
378 
382 
382 
382 
381 
378 
379 
386 
378 
379 
384 
379 
381 
382 
383 
381 
384 
383 
379 
374 
380 
381 
376 
379 
386 
384 
381 
382 
387 
378 
378 
380 
385 
383 
380 
381 
385 
381 
381 
378 
379 
376 
379 
386 
381 
380 
379 
380 
384 
387 
384 
383 
379 
377 
380 
375 
375 
383 
384 
379 
379 
379 
386 
381 
380 
382 
377 
377 
383 
383 
382 
382 
377 
375 
374 
385 
383 
376 
380 
387 
378 
376 
381 
380 
382 
378 
386 
383 
375 
382 
378 
382 
383 
382 
385 
385 
378 
388 
376 
382 
376 
385 
382 
381 
382 
381 
381 
387 
383 
378 
378 
384 
386 
385 
384 
383 
381 
377 
383 
383 
385 
381 
387 
385 
380 
383 
379 
379 
384 
386 
383 
382 
380 
384 
378 
380 
380 
380 
383 
386 
387 
382 
387 
379 
386 
385 
382 
376 
383 
379 
382 
381 
374 
381 
387 
382 
378 
381 
384 
376 
375 
381 
380 
377 
382 
382 
379 
381 
379 
378 
381 
385 
379 
379 
386 
381 
379 
378 
377 
380 
375 
385 
379 
374 
378 
385 
377 
385 
382 
380 
375 
377 
378 
382 
377 
384 
385 
382 
382 
377 
386 
383 
381 
384 
384 
386 
379 
385 
383 
379 
378 
380 
379 
383 
389 
378 
381 
379 
378 
385 
383 
384 
382 
381 
380 
382 
383 
381 
375 
379 
377 
378 
384 
384 
380 
384 
383 
384 
383 
382 
376 
386 
380 
381 
380 
377 
378 
380 
383 
385 
383 
377 
383 
385 
386 
384 
382 
383 
381 
376 
382 
385 
377 
382 
381 
380 
385 
382 
386 
380 
381 
380 
386 
382 
377 
380 
380 
376 
382 
382 
381 
381 
374 
377 
381 
376 
382 
378 
384 
379 
378 
384 
382 
375 
378 
386 
383 
380 
382 
386 
379 
378 
387 
380 
380 
385 
384 
384 
379 
382 
378 
376 
382 
382 
384 
385 
383 
379 
378 
374 
381 
386 
375 
379 
377 
386 
382 
378 
380 
386 
378 
378 
383 
376 
386 
384 
383 
383 
388 
376 
385 
380 
375 
378 
387 
380 
377 
381 
378 
376 
379 
376 
377 
383 
380 
375 
381 
382 
380 
382 
389 
387 
381 
377 
388 
379 
379 
384 
376 
379 
376 
380 
384 
382 
377 
382 
383 
384 
377 
380 
383 
378 
379 
384 
381 
382 
383 
380 
376 
386 
376 
382 
377 
379 
389 
380 
379 
379 
379 
382 
378 
380 
378 
378 
373 
380 
382 
381 
382 
386 
382 
381 
381 
386 
376 
373 
382 
382 
386 
385 
381 
378 
379 
383 
382 
383 
375 
386 
379 
384 
387 
384 
378 
385 
383 
380 
378 
378 
379 
379 
380 
381 
382 
378 
386 
380 
387 
383 
378 
377 
384 
379 
385 
381 
379 
378 
386 
386 
378 
382 
376 
378 
382 
379 
382 
383 
382 
386 
381 
387 
377 
381 
381 
380 
379 
376 
385 
378 
379 
381 
383 
380 
380 
374 
380 
386 
385 
377 
383 
375 
379 
375 
383 
380 
383 
381 
184
185
181
188
187
179
178
184
181
177
177
182
185
183
180
176
185
179
177
174
177
179
176
182
187
186
178
179
183
177
184
179
181
181
179
182
177
179
184
183
175
185
175
179
175
183
184
185
188
180
179
181
184
181
181
181
183
179
185
184
175
182
183
180
177
184
188
178
184
183
182
183
181
184
184
183
177
181
184
178
183
180
182
179
178
174
179
183
181
181
175
185
182
178
187
187
185
176
188
181
185
184
175
178
179
181
175
175
176
180
182
178
184
179
176
185
176
180
182
181
181
182
188
185
184
184
180
184
183
175
179
188
179
178
178
182
177
187
172
185
176
179
177
176
183
179
181
187
181
183
177
176
186
175
188
179
182
177
182
184
180
178
188
174
177
178
186
185
183
181
184
185
181
186
186
173
179
187
181
184
180
185
177
186
178
185
184
175
179
186
184
184
182
182
176
178
180
184
185
178
180
183
183
181
177
183
174
182
187
180
176
177
182
187
175
180
183
181
183
188
180
187
185
182
176
178
173
180
180
173
179
185
182
183
180
179
178
176
173
183
179
176
178
184
180
184
179
184
185
176
182
179
186
178
177
180
184
182
181
180
182
183
181
181
182
173
183
180
179
184
180
181
180
184
179
173
183
184
181
177
184
182
181
183
184
181
180
185
185
173
185
182
182
177
183
184
177
178
179
176
180
178
177
178
179
178
175
183
175
180
182
182
182
178
179
181
184
180
179
179
178
181
182
179
181
185
179
180
176
181
180
174
178
179
182
178
181
176
180
180
182
181
182
186
180
183
183
175
185
183
183
178
175
183
186
179
181
184
183
182
183
178
179
183
186
178
181
181
178
183
173
186
179
178
185
184
181
187
181
183
186
178
181
181
177
178
183
181
176
182
185
182
182
177
186
185
177
183
173
181
176
176
181
187
181
185
181
180
181
176
179
180
176
188
185
178
186
176
183
187
183
186
185
182
182
179
181
177
180
182
184
177
183
180
181
178
181
182
186
179
181
178
186
176
180
180
180
183
179
187
177
183
175
179
177
176
178
183
175
181
183
174
182
183
184
177
177
179
183
178
178
182
177
184
180
180
180
172
182
182
175
174
184
185
178
177
181
178
180
181
178
183
177
177
182
182
181
175
176
175
180
183
186
185
183
182
185
186
182
180
185
182
183
182
178
184
178
180
183
185
180
174
175
187
184
182
177
174
182
186
181
181
179
179
183
178
174
183
178
177
177
186
183
178
173
188
180
182
181
187
184
179
184
180
177
179
184
177
177
176
188
177
179
173
177
181
179
184
180
184
179
182
182
178
185
183
180
183
176
183
177
181
184
188
184
175
185
185
176
182
180
179
184
185
184
177
176
182
181
180
179
176
176
180
186
177
181
180
179
182
181
182
182
185
182
185
182
174
178
179
179
182
182
188
176
189
181
175
182
184
182
175
178
181
178
183
179
186
178
172
179
175
178
179
183
176
178
181
182
177
186
179
187
186
176
186
180
184
183
182
183
177
180
188
183
185
179
181
180
175
179
176
179
179
180
178
187
188
181
186
183
180
181
176
180
176
174
181
182
178
178
184
184
184
185
179
185
184
185
188
183
174
179
181
177
183
175
185
179
185
181
184
179
183
177
181
182
184
177
183
177
181
175
179
180
186
176
179
176
182
177
181
184
180
172
186
176
185
180
184
180
182
185
179
181
177
177
182
183
182
179
181
182
183
183
184
180
184
178
177
182
188
182
184
187
184
182
174
184
184
181
180
184
183
184
183
180
181
183
180
176
175
180
182
182
179
182
177
178
183
180
182
183
182
178
180
185
177
185
178
185
184
174
184
175
184
179
177
181
178
173
180
176
181
184
180
182
181
178
186
183
178
183
184
183
184
182
183
179
182
185
186
184
185
175
182
175
184
181
178
176
186
186
175
180
173
178
177
179
177
178
185
188
181
187
182
180
174
176
178
183
186
182
183
179
184
183
178
179
181
186
182
188
180
181
181
184
181
185
183
180
182
183
175
180
179
179
182
180
181
173
184
186
182
184
178
182
185
185
184
182
177
177
182
183
182
179
187
175
181
177
179
180
178
177
178
176
180
188
181
184
184
176
188
176
182
184
182
180
183
182
179
183
179
183
186
179
180
180
181
184
182
183
181
181
183
182
181
184
181
173
180
179
177
180
190
185
184
185
183
181
182
181
182
185
179
178
184
181
185
182
184
177
175
178
185
184
176
184
185
184
185
178
182
184
178
181
184
177
178
183
176
179
180
184
177
180
178
176
177
178
183
184
183
181
180
180
185
183
175
187
177
185
180
182
189
185
176
175
177
179
179
179
183
182
187
181
182
180
181
177
178
180
179
179
176
187
174
178
182
183
178
184
184
179
185
183
176
180
188
184
174
184
185
178
185
179
181
183
183
180
183
175
181
180
186
185
181
180
178
180
184
183
177
182
181
176
185
184
183
179
184
182
185
175
177
186
177
188
182
179
188
178
185
184
175
182
179
177
178
179
179
184
188
181
188
178
186
184
179
181
185
183
178
184
181
185
176
182
179
179
177
179
175
174
185
179
184
179
176
179
180
184
182
187
180
184
175
181
185
177
180
182
175
177
182
183
179
182
179
186
176
176
184
182
184
178
186
184
178
180
176
181
185
182
185
183
179
183
181
178
178
182
178
177
180
174
184
176
181
184
186
176
178
183
186
182
179
182
182
183
179
181
179
177
184
180
178
186
182
183
179
185
179
184
184
182
178
182
182
180
178
183
180
184
180
178
181
183
182
179
179
186
188
182
183
182
181
177
184
182
182
182
182
189
178
182
184
180
180
182
187
183
185
178
176
182
179
181
186
177
173
178
173
181
181
185
185
184
175
177
188
179
180
184
176
184
183
185
177
182
184
180
178
181
179
184
184
183
178
184
182
178
173
178
173
176
181
179
190
177
184
184
182
181
178
180
180
173
179
185
189
178
183
177
181
180
184
182
180
177
174
179
186
182
180
186
183
180
178
182
181
183
185
183
177
175
185
178
186
179
181
178
183
176
182
180
182
182
184
178
177
178
184
181
186
184
186
182
187
181
179
178
183
175
182
184
179
182
183
182
180
180
182
187
182
184
186
178
178
179
182
181
182
178
177
179
177
177
176
174
179
183
176
174
179
180
182
184
182
179
177
180
179
178
176
170
183
180
177
174
185
178
186
180
173
183
182
186
178
186
181
176
186
174
186
188
184
175
181
181
185
182
177
184
185
183
181
181
176
180
179
180
182
179
181
183
176
182
178
182
181
181
180
176
181
185
180
177
177
181
177
183
188
182
182
183
181
182
180
179
182
181
177
186
179
179
181
182
177
180
177
184
186
182
186
181
179
182
182
179
184
183
179
184
187
184
182
176
182
176
179
185
184
181
177
177
177
176
182
183
174
178
177
181
177
182
180
173
176
180
185
174
183
184
182
184
186
179
184
178
180
178
180
186
175
178
184
173
179
176
180
182
179
179
176
175
183
186
182
185
180
180
186
179
181
178
182
179
174
181
183
183
179
186
187
183
181
183
184
178
178
184
176
178
179
177
181
176
182
185
179
183
186
184
179
185
177
183
180
180
181
177
178
179
182
181
183
185
176
180
177
175
180
187
181
177
176
174
180
179
177
179
179
180
175
180
185
185
182
179
182
182
184
177
185
183
177
179
177
181
173
180
181
175
177
180
177
180
178
179
175
174
187
179
177
180
181
180
179
181
181
179
176
176
187
184
185
184
185
177
177
181
177
178
187
181
177
185
186
184
188
179
182
177
185
178
183
178
176
185
180
178
183
180
184
175
183
179
187
184
184
184
177
175
185
177
185
178
183
182
176
177
186
180
177
181
180
184
179
174
184
182
183
175
175
184
178
183
182
183
178
182
179
178
175
178
187
184
184
183
180
176
183
183
180
183
183
187
183
184
186
183
175
176
181
176
182
178
182
182
183
184
182
178
181
176
181
183
180
183
181
184
175
184
178
174
182
181
175
184
184
188
177
180
177
178
175
174
178
182
182
186
177
184
182
183
178
179
178
183
179
178
179
187
183
181
180
183
182
183
178
181
181
177
184
179
181
179
182
180
179
180
182
183
188
184
182
180
178
175
174
182
183
181
179
182
184
183
183
179
176
176
178
184
181
185
179
187
175
182
184
185
180
181
173
177
180
183
184
180
179
178
179
186
179
183
186
182
179
178
178
182
178
181
181
174
176
184
183
181
179
181
178
180
182
183
178
181
179
181
179
183
179
176
179
181
182
183
178
179
177
179
182
183
177
182
181
184
179
178
183
177
184
179
183
175
185
180
180
176
185
177
178
188
179
186
178
176
188
179
179
177
177
181
177
185
181
184
184
188
176
186
187
179
181
184
180
176
187
178
180
180
179
180
187
176
183
180
185
180
186
181
185
181
181
183
180
176
181
182
181
178
180
183
178
181
182
181
180
185
180
184
182
183
179
175
178
182
179
180
181
179
183
179
187
181
182
183
178
183
186
184
189
186
176
181
181
176
176
185
181
188
185
176
176
184
184
181
185
185
187
178
181
177
182
184
180
180
181
179
182
185
182
179
180
179
179
181
178
182
181
180
180
183
177
174
177
181
183
186
184
179
178
185
182
180
182
177
176
183
178
182
175
179
181
180
177
181
175
181
178
177
177
177
188
179
181
181
183
178
176
178
182
177
180
177
180
183
180
178
176
184
183
178
178
182
176
181
176
184
180
183
182
183
178
186
189
176
185
175
181
183
188
184
184
180
180
180
179
177
176
182
184
188
188
184
185
183
178
185
177
180
183
181
180
185
181
183
185
178
184
176
184
180
179
176
184
183
181
183
176
181
179
179
180
183
183
177
184
182
187
180
182
181
182
181
187
182
179
186
182
176
182
181
183
179
180
185
187
185
179
182
176
187
178
183
182
176
181
185
182
174
180
180
181
182
177
182
180
178
176
187
180
176
180
174
174
179
176
184
184
175
184
183
181
181
181
185
181
181
181
188
184
180
182
182
182
185
186
178
179
176
186
186
184
178
181
180
181
175
178
184
183
178
178
176
181
184
182
185
187
182
180
173
182
179
180
174
182
181
175
186
187
182
188
176
182
178
181
181
175
184
187
178
181
178
179
182
176
181
180
183
180
184
179
174
176
179
182
184
175
178
183
181
180
178
183
181
182
185
181
182
187
185
182
184
180
176
180
177
178
185
176
182
180
177
178
180
178
183
172
179
182
183
182
185
176
181
182
177
182
184
180
185
177
178
181
181
187
180
172
184
179
181
184
183
185
177
179
182
185
177
185
179
178
184
180
180
181
183
182
178
184
182
183
187
177
178
181
185
176
182
186
180
179
176
178
184
182
179
178
186
179
180
180
183
180
175
186
175
185
186
180
183
184
183
177
185
188
179
179
174
180
174
179
182
183
179
186
175
182
179
178
178
178
179
177
182
181
185
182
180
178
178
183
181
182
185
185
178
177
183
174
179
183
179
185
178
181
188
180
180
180
181
180
176
178
182
184
177
179
180
177
184
181
181
174
177
179
180
180
184
181
180
185
179
184
182
179
179
185
181
180
187
176
182
177
180
183
180
184
181
183
176
179
185
186
183
183
181
182
176
179
182
180
184
178
177
179
179
183
182
178
178
184
183
179
182
180
181
179
175
181
187
178
181
184
173
186
175
181
183
181
181
178
177
184
188
177
190
179
177
176
176
177
184
177
179
176
176
183
179
186
180
184
185
181
183
178
181
187
177
185
186
179
186
183
184
180
182
178
182
183
180
183
179
183
182
181
187
179
182
183
181
186
178
184
187
184
185
174
177
177
181
173
182
178
182
178
179
188
182
179
177
185
183
185
180
183
180
184
181
182
185
187
180
183
184
181
180
176
186
173
183
179
184
177
183
182
180
174
183
177
187
177
175
175
178
180
175
178
182
184
184
178
181
176
175
184
183
181
176
178
182
181
177
182
183
182
175
179
179
180
185
179
176
182
184
184
188
173
173
188
181
179
183
182
180
181
176
183
178
179
184
176
181
181
180
187
182
176
186
176
182
179
181
180
181
185
184
181
179
188
184
185
173
178
182
179
184
177
183
175
188
181
179
176
185
176
178
186
176
179
180
181
182
182
182
182
185
188
180
181
177
173
183
183
185
184
184
188
180
178
183
177
177
184
187
180
182
175
180
181
180
178
173
184
182
176
174
176
183
181
184
178
178
180
177
177
181
179
178
176
180
176
190
179
180
177
182
183
177
180
180
175
183
179
182
180
174
183
180
182
179
180
175
177
183
179
173
182
175
178
180
175
181
183
181
175
186
178
186
189
180
181
178
176
187
182
184
182
187
182
176
182
173
184
180
186
175
183
181
184
183
184
181
178
179
187
179
185
180
186
180
182
183
173
184
179
181
180
173
179
180
175
179
175
187
182
185
185
180
183
184
175
181
184
180
181
175
180
182
180
173
179
179
175
181
184
179
179
183
177
182
176
179
179
181
183
182
183
183
177
177
182
187
184
179
175
177
184
180
179
178
187
179
184
179
177
180
181
181
179
179
180
183
183
174
182
186
181
181
179
175
185
187
180
183
181
184
179
183
181
178
182
177
178
180
180
178
183
185
172
188
181
178
183
179
183
180
176
177
177
174
179
182
182
189
183
182
188
185
178
181
182
186
178
182
174
182
186
181
179
175
181
179
182
187
186
179
180
185
182
184
184
176
174
179
188
182
181
181
183
179
174
181
178
176
185
174
180
180
182
181
185
180
178
183
182
179
180
177
187
183
188
174
187
178
182
183
180
186
176
176
184
182
182
177
180
178
179
184
188
177
178
181
181
185
187
182
176
182
188
186
178
178
176
189
183
177
182
180
182
178
179
184
180
179
181
179
178
176
178
181
182
180
183
175
180
187
183
181
184
179
181
182
178
178
177
182
176
182
180
184
177
177
179
186
176
187
184
179
182
181
174
183
181
174
186
182
179
176
184
176
178
177
186
187
180
185
185
182
178
180
177
186
182
181
183
185
183
180
185
178
181
178
178
183
176
181
187
183
184
178
181
180
181
184
181
185
181
184
177
179
178
178
180
178
183
186
179
178
180
180
175
181
181
180
177
181
181
183
182
183
180
180
175
182
182
183
186
186
181
175
176
184
184
176
178
183
181
174
185
179
184
186
182
184
184
178
175
180
177
183
176
181
185
183
182
187
175
181
179
185
180
186
177
183
181
185
178
177
178
181
183
183
180
184
186
180
182
183
178
181
175
186
176
181
177
183
179
178
183
184
182
174
186
184
181
186
181
176
181
180
185
180
182
178
179
180
184
177
190
181
180
181
177
179
178
177
186
181
185
181
180
182
177
181
190
178
184
182
183
179
182
179
178
187
183
182
183
183
176
189
179
178
179
188
183
184
182
177
187
186
176
184
178
179
176
177
177
179
183
174
181
181
182
175
180
177
180
183
176
186
178
186
184
184
179
181
181
182
179
182
174
180
178
185
179
183
174
180
178
183
177
186
188
181
184
185
180
182
182
184
184
183
182
184
183
178
180
181
183
178
178
176
177
180
181
185
182
182
184
186
186
180
181
186
174
184
179
175
178
188
183
187
178
186
183
178
179
183
182
181
182
184
185
181
173
180
177
187
183
183
179
188
184
178
187
182
187
182
178
186
175
182
188
184
179
174
181
185
181
184
185
182
187
176
182
183
188
184
180
175
184
185
184
188
181
180
178
179
184
186
183
184
182
182
178
175
177
185
182
185
176
179
188
183
180
187
182
185
177
188
176
184
182
189
180
177
181
177
184
183
184
186
188
178
174
180
181
179
187
179
183
182
181
184
176
182
181
188
177
187
184
181
185
188
179
185
176
181
178
182
180
181
184
186
185
184
186
183
180
181
184
180
178
178
179
187
180
174
186
177
177
178
179
183
184
188
184
180
176
185
177
184
178
178
185
177
182
182
180
184
181
178
182
184
188
187
188
181
186
181
175
179
182
182
187
180
178
176
177
185
184
178
178
181
188
180
184
176
183
179
179
178
184
176
180
180
185
183
182
186
182
180
177
178
189
180
184
185
174
185
185
182
185
179
180
187
181
182
186
185
180
178
179
177
186
185
175
179
179
178
176
185
180
173
182
180
178
175
182
179
178
185
188
180
187
186
184
180
188
179
185
182
176
184
180
180
180
176
178
186
183
179
184
182
182
180
187
183
179
179
181
182
179
184
182
177
182
184
182
181
177
186
183
182
177
184
183
178
186
180
184
177
179
175
182
178
174
178
181
183
184
178
178
183
175
183
183
177
185
183
183
186
180
179
183
186
180
179
185
181
183
185
177
180
184
181
180
187
185
183
178
182
184
178
178
179
181
179
176
186
184
178
186
178
182
190
178
181
178
176
180
185
180
173
185
173
181
180
175
189
191
177
178
179
181
179
176
183
184
180
186
182
181
181
183
174
182
183
184
180
173
182
185
184
182
179
178
187
183
178
183
178
179
183
181
186
180
181
184
183
184
181
180
177
183
178
186
182
178
181
182
184
180
174
184
184
188
177
181
175
183
179
178
175
187
179
182
178
186
177
179
177
179
182
184
180
179
178
180
182
186
182
181
186
175
176
182
184
178
180
178
184
183
187
183
181
182
175
184
178
181
178
185
181
185
178
185
178
186
184
183
184
183
183
176
183
182
183
186
177
181
182
179
174
179
180
183
185
179
178
177
182
177
179
173
177
183
183
179
176
180
179
184
179
184
186
182
178
186
177
186
182
180
186
183
182
182
183
179
183
182
185
181
182
179
182
179
184
179
184
181
185
182
188
181
177
181
180
179
183
181
185
177
179
174
182
184
184
175
177
179
183
179
179
186
178
180
180
180
180
180
186
185
177
180
178
178
185
184
185
175
182
183
181
184
184
181
187
185
179
184
181
188
187
185
190
181
184
187
181
178
181
182
185
181
177
181
186
183
180
182
180
181
177
183
185
182
179
178
186
178
176
180
182
179
182
182
185
183
179
188
182
182
186
181
182
185
177
180
178
181
176
178
184
176
181
176
184
180
182
186
182
186
176
177
186
183
176
183
185
185
181
174
177
179
179
188
176
184
173
176
186
176
183
184
184
176
182
182
179
180
188
186
180
179
181
184
179
181
181
184
184
183
178
185
178
183
183
189
185
181
184
189
188
174
178
181
184
177
186
185
179
177
181
182
181
178
181
186
179
183
182
182
182
179
183
181
186
184
184
179
188
180
184
181
187
183
182
182
180
178
184
182
183
178
184
184
180
184
180
181
185
179
178
187
183
186
181
177
182
182
183
182
181
178
180
178
181
182
179
182
185
180
180
180
181
177
179
183
177
181
178
185
185
177
181
183
180
179
187
184
176
185
182
177
178
183
186
183
186
178
181
184
178
179
186
184
186
178
176
182
180
181
181
176
177
185
179
179
186
183
180
181
180
189
183
187
183
187
174
186
177
178
184
184
180
180
188
181
177
183
176
180
184
188
184
183
178
181
185
182
179
179
177
182
177
181
183
185
187
185
183
181
184
181
179
183
183
185
179
187
183
179
178
180
179
182
177
182
180
186
184
177
181
183
180
177
183
185
182
180
177
184
180
181
180
181
175
179
182
182
177
186
182
177
180
187
177
182
187
179
175
181
181
183
178
184
174
184
185
178
182
183
176
179
180
184
185
181
183
180
183
179
178
183
181
180
187
177
180
178
184
185
181
182
187
179
182
188
178
175
182
183
178
179
183
180
181
179
182
185
183
180
178
184
179
185
181
183
184
175
182
181
177
188
179
175
184
183
179
174
182
179
180
178
187
180
180
179
185
180
184
176
185
178
182
181
183
179
178
185
179
178
185
177
175
176
182
180
177
181
188
186
182
184
176
178
182
176
181
182
177
183
183
176
179
184
178
181
182
178
186
180
189
182
181
183
178
183
182
185
182
179
180
175
181
181
186
176
182
184
179
181
181
177
182
188
185
177
181
175
180
177
182
181
185
182
181
182
184
179
185
183
179
183
180
176
185
178
179
185
176
179
178
182
178
184
176
177
179
181
182
182
175
179
181
180
177
183
180
176
179
181
183
181
180
184
181
178
183
178
185
180
181
183
183
183
181
178
178
176
183
184
176
184
182
186
182
173
182
179
183
181
178
186
177
187
180
180
176
186
178
178
183
179
178
184
180
176
185
186
181
178
187
184
184
179
180
177
190
184
182
176
180
181
179
185
179
177
179
183
181
182
185
180
184
191
175
180
177
177
179
186
175
178
186
183
184
175
176
184
177
180
179
182
183
180
183
182
184
184
181
184
182
183
182
184
183
187
177
182
178
181
180
183
181
180
179
185
181
180
179
182
179
182
184
178
183
179
178
181
183
177
178
179
185
181
180
180
178
174
181
177
182
184
186
179
179
177
182
180
182
182
178
179
177
179
186
175
182
179
177
182
178
186
184
182
179
186
184
180
179
175
184
183
180
182
181
185
179
184
185
180
182
187
185
178
176
182
184
177
177
180
184
178
183
181
187
184
184
188
184
179
184
178
182
180
182
179
187
179
179
185
185
183
181
181
177
187
181
185
179
179
176
183
182
186
178
179
182
176
189
179
185
181
184
184
184
185
179
178
177
183
180
188
184
186
179
177
180
182
176
180
178
180
181
184
185
176
182
178
175
177
180
182
176
179
183
184
180
179
174
181
176
180
179
187
183
181
184
181
184
180
184
179
182
188
183
181
180
176
178
186
179
184
180
181
186
186
179
186
182
180
182
180
176
183
173
185
180
179
186
180
182
184
182
185
184
183
179
183
180
183
183
176
178
182
180
189
174
174
185
184
182
186
181
178
178
182
176
183
185
181
179
178
184
180
185
182
178
185
186
179
182
182
176
184
182
184
184
182
179
187
177
182
179
179
177
188
183
178
182
182
180
183
179
180
178
185
178
179
177
182
179
177
184
179
179
175
176
179
180
179
180
182
177
180
179
183
181
177
177
187
181
182
177
179
183
178
180
177
180
179
185
185
185
179
185
185
179
179
181
186
182
183
185
179
181
178
175
182
173
177
184
188
182
181
182
187
183
184
182
177
180
185
177
187
182
178
185
177
180
177
183
183
182
180
184
183
176
178
181
177
183
177
178
184
181
181
181
178
181
183
179
187
181
183
182
178
179
174
186
182
178
183
180
184
181
179
185
181
174
179
181
182
187
181
183
185
181
187
182
183
175
184
187
176
181
186
175
182
180
186
182
177
187
181
179
177
189
179
185
181
186
180
180
183
186
180
176
184
188
179
185
180
186
182
187
177
187
183
181
180
182
181
180
188
175
181
183
173
184
177
179
184
177
183
183
179
186
180
180
179
180
179
178
180
185
183
180
180
174
178
184
178
185
182
183
179
183
182
187
183
183
183
177
182
179
179
173
186
177
184
185
181
185
180
175
184
188
182
183
182
180
182
177
181
178
182
183
183
185
180
176
188
184
182
180
173
178
176
186
177
177
176
183
180
186
177
174
179
180
177
183
175
181
183
185
187
176
178
180
183
184
182
181
178
181
180
184
183
175
179
187
184
174
177
189
184
176
177
188
178
178
182
184
187
187
186
190
184
181
185
174
180
180
174
180
179
174
176
186
181
178
188
186
182
182
176
177
180
181
180
178
182
183
179
177
179
176
179
181
182
182
184
186
179
179
177
180
184
183
181
181
176
180
176
176
181
181
181
183
177
185
186
178
181
180
186
185
180
184
177
180
184
177
182
181
181
177
178
177
186
186
187
175
179
178
188
184
181
184
175
179
182
181
181
178
188
178
185
188
178
184
179
180
181
177
186
181
183
187
176
178
176
184
177
179
181
179
184
176
178
180
179
182
186
184
182
179
181
181
175
181
179
184
182
182
185
180
176
178
185
181
178
177
179
179
183
177
179
177
183
180
177
180
180
180
185
182
186
177
182
181
177
185
182
180
175
177
180
181
179
186
183
182
187
183
178
180
181
182
180
181
177
177
180
185
183
176
186
187
176
179
180
179
181
187
179
184
184
185
183
186
180
186
179
184
185
175
177
180
184
185
184
176
182
176
178
185
184
183
177
182
175
179
184
182
178
183
187
184
181
185
184
188
183
185
178
181
185
185
178
178
178
178
178
181
176
187
177
180
176
175
184
182
184
177
177
185
181
177
185
184
178
182
184
179
179
180
185
185
182
182
182
179
183
179
181
186
185
182
176
186
184
178
182
178
183
182
181
177
181
174
179
182
177
184
186
186
175
183
177
179
185
183
183
185
183
177
183
178
187
178
177
177
183
185
179
185
182
179
181
186
177
187
182
183
189
180
183
183
183
183
179
184
180
179
180
179
186
185
175
184
181
172
183
180
180
179
179
180
185
182
181
175
181
182
181
185
178
189
184
183
180
181
176
186
179
179
180
188
177
181
183
181
178
178
178
183
183
184
183
178
181
182
183
176
178
184
181
177
179
183
183
179
181
181
185
180
185
183
181
177
178
178
179
178
173
179
178
182
182
182
181
178
179
186
178
179
184
179
181
182
183
181
184
183
179
174
180
181
176
179
186
184
181
182
187
178
178
180
185
183
180
181
185
181
181
178
179
176
179
186
181
180
179
180
184
187
184
183
179
177
180
175
175
183
184
179
179
179
186
181
180
182
177
177
183
183
182
182
177
175
174
185
183
176
180
187
178
176
181
180
182
178
186
183
175
182
178
182
183
182
185
185
178
188
176
182
176
185
182
181
182
181
181
187
183
178
178
184
186
185
184
183
181
177
183
183
185
181
187
185
180
183
179
179
184
186
183
182
180
184
178
180
180
180
183
186
187
182
187
179
186
185
182
176
183
179
182
181
174
181
187
182
178
181
184
176
175
181
180
177
182
182
179
181
179
178
181
185
179
179
186
181
179
178
177
180
175
185
179
174
178
185
177
185
182
180
175
177
178
182
177
184
185
182
182
177
186
183
181
184
184
186
179
185
183
179
178
180
179
183
189
178
181
179
178
185
183
184
182
181
180
182
183
181
175
179
177
178
184
184
180
184
183
184
183
182
176
186
180
181
180
177
178
180
183
185
183
177
183
185
186
184
182
183
181
176
182
185
177
182
181
180
185
182
186
180
181
180
186
182
177
180
180
176
182
182
181
181
174
177
181
176
182
178
184
179
178
184
182
175
178
186
183
180
182
186
179
178
187
180
180
185
184
184
179
182
178
176
182
182
184
185
183
179
178
174
181
186
175
179
177
186
182
178
180
186
178
178
183
176
186
184
183
183
188
176
185
180
175
178
187
180
177
181
178
176
179
176
177
183
180
175
181
182
180
182
189
187
181
177
188
179
179
184
176
179
176
180
184
182
177
182
183
184
177
180
183
178
179
184
181
182
183
180
176
186
176
182
177
179
189
180
179
179
179
182
178
180
178
178
173
180
182
181
182
186
182
181
181
186
176
173
182
182
186
185
181
178
179
183
182
183
175
186
179
184
187
184
178
185
183
180
178
178
179
179
180
181
182
178
186
180
187
183
178
177
184
179
185
181
179
178
186
186
178
182
176
178
182
179
182
183
182
186
181
187
177
181
181
180
179
176
185
178
179
181
183
180
180
174
180
186
185
177
183
175
179
175
183
180
183
181
104
105
101
108
107
99
98
104
101
97
97
102
105
103
100
96
105
99
97
94
97
99
96
102
107
106
98
99
103
97
104
99
101
101
99
102
97
99
104
103
95
105
95
99
95
103
104
105
108
100
99
101
104
101
101
101
103
99
105
104
95
102
103
100
97
104
108
98
104
103
102
103
101
104
104
103
97
101
104
98
103
100
102
99
98
94
99
103
101
101
95
105
102
98
107
107
105
96
108
101
105
104
95
98
99
101
95
95
96
100
102
98
104
99
96
105
96
100
102
101
101
102
108
105
104
104
100
104
103
95
99
108
99
98
98
102
97
107
92
105
96
99
97
96
103
99
101
107
101
103
97
96
106
95
108
99
102
97
102
104
100
98
108
94
97
98
106
105
103
101
104
105
101
106
106
93
99
107
101
104
100
105
97
106
98
105
104
95
99
106
104
104
102
102
96
98
100
104
105
98
100
103
103
101
97
103
94
102
107
100
96
97
102
107
95
100
103
101
103
108
100
107
105
102
96
98
93
100
100
93
99
105
102
103
100
99
98
96
93
103
99
96
98
104
100
104
99
104
105
96
102
99
106
98
97
100
104
102
101
100
102
103
101
101
102
93
103
100
99
104
100
101
100
104
99
93
103
104
101
97
104
102
101
103
104
101
100
105
105
93
105
102
102
97
103
104
97
98
99
96
100
98
97
98
99
98
95
103
95
100
102
102
102
98
99
101
104
100
99
99
98
101
102
99
101
105
99
100
96
101
100
94
98
99
102
98
101
96
100
100
102
101
102
106
100
103
103
95
105
103
103
98
95
103
106
99
101
104
103
102
103
98
99
103
106
98
101
101
98
103
93
106
99
98
105
104
101
107
101
103
106
98
101
101
97
98
103
101
96
102
105
102
102
97
106
105
97
103
93
101
96
96
101
107
101
105
101
100
101
96
99
100
96
108
105
98
106
96
103
107
103
106
105
102
102
99
101
97
100
102
104
97
103
100
101
98
101
102
106
99
101
98
106
96
100
100
100
103
99
107
97
103
95
99
97
96
98
103
95
101
103
94
102
103
104
97
97
99
103
98
98
102
97
104
100
100
100
92
102
102
95
94
104
105
98
97
101
98
100
101
98
103
97
97
102
102
101
95
96
95
100
103
106
105
103
102
105
106
102
100
105
102
103
102
98
104
98
100
103
105
100
94
95
107
104
102
97
94
102
106
101
101
99
99
103
98
94
103
98
97
97
106
103
98
93
108
100
102
101
107
104
99
104
100
97
99
104
97
97
96
108
97
99
93
97
101
99
104
100
104
99
102
102
98
105
103
100
103
96
103
97
101
104
108
104
95
105
105
96
102
100
99
104
105
104
97
96
102
101
100
99
96
96
100
106
97
101
100
99
102
101
102
102
105
102
105
102
94
98
99
99
102
102
108
96
109
101
95
102
104
102
95
98
101
98
103
99
106
98
92
99
95
98
99
103
96
98
101
102
97
106
99
107
106
96
106
100
104
103
102
103
97
100
108
103
105
99
101
100
95
99
96
99
99
100
98
107
108
101
106
103
100
101
96
100
96
94
101
102
98
98
104
104
104
105
99
105
104
105
108
103
94
99
101
97
103
95
105
99
105
101
104
99
103
97
101
102
104
97
103
97
101
95
99
100
106
96
99
96
102
97
101
104
100
92
106
96
105
100
104
100
102
105
99
101
97
97
102
103
102
99
101
102
103
103
104
100
104
98
97
102
108
102
104
107
104
102
94
104
104
101
100
104
103
104
103
100
101
103
100
96
95
100
102
102
99
102
97
98
103
100
102
103
102
98
100
105
97
105
98
105
104
94
104
95
104
99
97
101
98
93
100
96
101
104
100
102
101
98
106
103
98
103
104
103
104
102
103
99
102
105
106
104
105
95
102
95
104
101
98
96
106
106
95
100
93
98
97
99
97
98
105
108
101
107
102
100
94
96
98
103
106
102
103
99
104
103
98
99
101
106
102
108
100
101
101
104
101
105
103
100
102
103
95
100
99
99
102
100
101
93
104
106
102
104
98
102
105
105
104
102
97
97
102
103
102
99
107
95
101
97
99
100
98
97
98
96
100
108
101
104
104
96
108
96
102
104
102
100
103
102
99
103
99
103
106
99
100
100
101
104
102
103
101
101
103
102
101
104
101
93
100
99
97
100
110
105
104
105
103
101
102
101
102
105
99
98
104
101
105
102
104
97
95
98
105
104
96
104
105
104
105
98
102
104
98
101
104
97
98
103
96
99
100
104
97
100
98
96
97
98
103
104
103
101
100
100
105
103
95
107
97
105
100
102
109
105
96
95
97
99
99
99
103
102
107
101
102
100
101
97
98
100
99
99
96
107
94
98
102
103
98
104
104
99
105
103
96
100
108
104
94
104
105
98
105
99
101
103
103
100
103
95
101
100
106
105
101
100
98
100
104
103
97
102
101
96
105
104
103
99
104
102
105
95
97
106
97
108
102
99
108
98
105
104
95
102
99
97
98
99
99
104
108
101
108
98
106
104
99
101
105
103
98
104
101
105
96
102
99
99
97
99
95
94
105
99
104
99
96
99
100
104
102
107
100
104
95
101
105
97
100
102
95
97
102
103
99
102
99
106
96
96
104
102
104
98
106
104
98
100
96
101
105
102
105
103
99
103
101
98
98
102
98
97
100
94
104
96
101
104
106
96
98
103
106
102
99
102
102
103
99
101
99
97
104
100
98
106
102
103
99
105
99
104
104
102
98
102
102
100
98
103
100
104
100
98
101
103
102
99
99
106
108
102
103
102
101
97
104
102
102
102
102
109
98
102
104
100
100
102
107
103
105
98
96
102
99
101
106
97
93
98
93
101
101
105
105
104
95
97
108
99
100
104
96
104
103
105
97
102
104
100
98
101
99
104
104
103
98
104
102
98
93
98
93
96
101
99
110
97
104
104
102
101
98
100
100
93
99
105
109
98
103
97
101
100
104
102
100
97
94
99
106
102
100
106
103
100
98
102
101
103
105
103
97
95
105
98
106
99
101
98
103
96
102
100
102
102
104
98
97
98
104
101
106
104
106
102
107
101
99
98
103
95
102
104
99
102
103
102
100
100
102
107
102
104
106
98
98
99
102
101
102
98
97
99
97
97
96
94
99
103
96
94
99
100
102
104
102
99
97
100
99
98
96
90
103
100
97
94
105
98
106
100
93
103
102
106
98
106
101
96
106
94
106
108
104
95
101
101
105
102
97
104
105
103
101
101
96
100
99
100
102
99
101
103
96
102
98
102
101
101
100
96
101
105
100
97
97
101
97
103
108
102
102
103
101
102
100
99
102
101
97
106
99
99
101
102
97
100
97
104
106
102
106
101
99
102
102
99
104
103
99
104
107
104
102
96
102
96
99
105
104
101
97
97
97
96
102
103
94
98
97
101
97
102
100
93
96
100
105
94
103
104
102
104
106
99
104
98
100
98
100
106
95
98
104
93
99
96
100
102
99
99
96
95
103
106
102
105
100
100
106
99
101
98
102
99
94
101
103
103
99
106
107
103
101
103
104
98
98
104
96
98
99
97
101
96
102
105
99
103
106
104
99
105
97
103
100
100
101
97
98
99
102
101
103
105
96
100
97
95
100
107
101
97
96
94
100
99
97
99
99
100
95
100
105
105
102
99
102
102
104
97
105
103
97
99
97
101
93
100
101
95
97
100
97
100
98
99
95
94
107
99
97
100
101
100
99
101
101
99
96
96
107
104
105
104
105
97
97
101
97
98
107
101
97
105
106
104
108
99
102
97
105
98
103
98
96
105
100
98
103
100
104
95
103
99
107
104
104
104
97
95
105
97
105
98
103
102
96
97
106
100
97
101
100
104
99
94
104
102
103
95
95
104
98
103
102
103
98
102
99
98
95
98
107
104
104
103
100
96
103
103
100
103
103
107
103
104
106
103
95
96
101
96
102
98
102
102
103
104
102
98
101
96
101
103
100
103
101
104
95
104
98
94
102
101
95
104
104
108
97
100
97
98
95
94
98
102
102
106
97
104
102
103
98
99
98
103
99
98
99
107
103
101
100
103
102
103
98
101
101
97
104
99
101
99
102
100
99
100
102
103
108
104
102
100
98
95
94
102
103
101
99
102
104
103
103
99
96
96
98
104
101
105
99
107
95
102
104
105
100
101
93
97
100
103
104
100
99
98
99
106
99
103
106
102
99
98
98
102
98
101
101
94
96
104
103
101
99
101
98
100
102
103
98
101
99
101
99
103
99
96
99
101
102
103
98
99
97
99
102
103
97
102
101
104
99
98
103
97
104
99
103
95
105
100
100
96
105
97
98
108
99
106
98
96
108
99
99
97
97
101
97
105
101
104
104
108
96
106
107
99
101
104
100
96
107
98
100
100
99
100
107
96
103
100
105
100
106
101
105
101
101
103
100
96
101
102
101
98
100
103
98
101
102
101
100
105
100
104
102
103
99
95
98
102
99
100
101
99
103
99
107
101
102
103
98
103
106
104
109
106
96
101
101
96
96
105
101
108
105
96
96
104
104
101
105
105
107
98
101
97
102
104
100
100
101
99
102
105
102
99
100
99
99
101
98
102
101
100
100
103
97
94
97
101
103
106
104
99
98
105
102
100
102
97
96
103
98
102
95
99
101
100
97
101
95
101
98
97
97
97
108
99
101
101
103
98
96
98
102
97
100
97
100
103
100
98
96
104
103
98
98
102
96
101
96
104
100
103
102
103
98
106
109
96
105
95
101
103
108
104
104
100
100
100
99
97
96
102
104
108
108
104
105
103
98
105
97
100
103
101
100
105
101
103
105
98
104
96
104
100
99
96
104
103
101
103
96
101
99
99
100
103
103
97
104
102
107
100
102
101
102
101
107
102
99
106
102
96
102
101
103
99
100
105
107
105
99
102
96
107
98
103
102
96
101
105
102
94
100
100
101
102
97
102
100
98
96
107
100
96
100
94
94
99
96
104
104
95
104
103
101
101
101
105
101
101
101
108
104
100
102
102
102
105
106
98
99
96
106
106
104
98
101
100
101
95
98
104
103
98
98
96
101
104
102
105
107
102
100
93
102
99
100
94
102
101
95
106
107
102
108
96
102
98
101
101
95
104
107
98
101
98
99
102
96
101
100
103
100
104
99
94
96
99
102
104
95
98
103
101
100
98
103
101
102
105
101
102
107
105
102
104
100
96
100
97
98
105
96
102
100
97
98
100
98
103
92
99
102
103
102
105
96
101
102
97
102
104
100
105
97
98
101
101
107
100
92
104
99
101
104
103
105
97
99
102
105
97
105
99
98
104
100
100
101
103
102
98
104
102
103
107
97
98
101
105
96
102
106
100
99
96
98
104
102
99
98
106
99
100
100
103
100
95
106
95
105
106
100
103
104
103
97
105
108
99
99
94
100
94
99
102
103
99
106
95
102
99
98
98
98
99
97
102
101
105
102
100
98
98
103
101
102
105
105
98
97
103
94
99
103
99
105
98
101
108
100
100
100
101
100
96
98
102
104
97
99
100
97
104
101
101
94
97
99
100
100
104
101
100
105
99
104
102
99
99
105
101
100
107
96
102
97
100
103
100
104
101
103
96
99
105
106
103
103
101
102
96
99
102
100
104
98
97
99
99
103
102
98
98
104
103
99
102
100
101
99
95
101
107
98
101
104
93
106
95
101
103
101
101
98
97
104
108
97
110
99
97
96
96
97
104
97
99
96
96
103
99
106
100
104
105
101
103
98
101
107
97
105
106
99
106
103
104
100
102
98
102
103
100
103
99
103
102
101
107
99
102
103
101
106
98
104
107
104
105
94
97
97
101
93
102
98
102
98
99
108
102
99
97
105
103
105
100
103
100
104
101
102
105
107
100
103
104
101
100
96
106
93
103
99
104
97
103
102
100
94
103
97
107
97
95
95
98
100
95
98
102
104
104
98
101
96
95
104
103
101
96
98
102
101
97
102
103
102
95
99
99
100
105
99
96
102
104
104
108
93
93
108
101
99
103
102
100
101
96
103
98
99
104
96
101
101
100
107
102
96
106
96
102
99
101
100
101
105
104
101
99
108
104
105
93
98
102
99
104
97
103
95
108
101
99
96
105
96
98
106
96
99
100
101
102
102
102
102
105
108
100
101
97
93
103
103
105
104
104
108
100
98
103
97
97
104
107
100
102
95
100
101
100
98
93
104
102
96
94
96
103
101
104
98
98
100
97
97
101
99
98
96
100
96
110
99
100
97
102
103
97
100
100
95
103
99
102
100
94
103
100
102
99
100
95
97
103
99
93
102
95
98
100
95
101
103
101
95
106
98
106
109
100
101
98
96
107
102
104
102
107
102
96
102
93
104
100
106
95
103
101
104
103
104
101
98
99
107
99
105
100
106
100
102
103
93
104
99
101
100
93
99
100
95
99
95
107
102
105
105
100
103
104
95
101
104
100
101
95
100
102
100
93
99
99
95
101
104
99
99
103
97
102
96
99
99
101
103
102
103
103
97
97
102
107
104
99
95
97
104
100
99
98
107
99
104
99
97
100
101
101
99
99
100
103
103
94
102
106
101
101
99
95
105
107
100
103
101
104
99
103
101
98
102
97
98
100
100
98
103
105
92
108
101
98
103
99
103
100
96
97
97
94
99
102
102
109
103
102
108
105
98
101
102
106
98
102
94
102
106
101
99
95
101
99
102
107
106
99
100
105
102
104
104
96
94
99
108
102
101
101
103
99
94
101
98
96
105
94
100
100
102
101
105
100
98
103
102
99
100
97
107
103
108
94
107
98
102
103
100
106
96
96
104
102
102
97
100
98
99
104
108
97
98
101
101
105
107
102
96
102
108
106
98
98
96
109
103
97
102
100
102
98
99
104
100
99
101
99
98
96
98
101
102
100
103
95
100
107
103
101
104
99
101
102
98
98
97
102
96
102
100
104
97
97
99
106
96
107
104
99
102
101
94
103
101
94
106
102
99
96
104
96
98
97
106
107
100
105
105
102
98
100
97
106
102
101
103
105
103
100
105
98
101
98
98
103
96
101
107
103
104
98
101
100
101
104
101
105
101
104
97
99
98
98
100
98
103
106
99
98
100
100
95
101
101
100
97
101
101
103
102
103
100
100
95
102
102
103
106
106
101
95
96
104
104
96
98
103
101
94
105
99
104
106
102
104
104
98
95
100
97
103
96
101
105
103
102
107
95
101
99
105
100
106
97
103
101
105
98
97
98
101
103
103
100
104
106
100
102
103
98
101
95
106
96
101
97
103
99
98
103
104
102
94
106
104
101
106
101
96
101
100
105
100
102
98
99
100
104
97
110
101
100
101
97
99
98
97
106
101
105
101
100
102
97
101
110
98
104
102
103
99
102
99
98
107
103
102
103
103
96
109
99
98
99
108
103
104
102
97
107
106
96
104
98
99
96
97
97
99
103
94
101
101
102
95
100
97
100
103
96
106
98
106
104
104
99
101
101
102
99
102
94
100
98
105
99
103
94
100
98
103
97
106
108
101
104
105
100
102
102
104
104
103
102
104
103
98
100
101
103
98
98
96
97
100
101
105
102
102
104
106
106
100
101
106
94
104
99
95
98
108
103
107
98
106
103
98
99
103
102
101
102
104
105
101
93
100
97
107
103
103
99
108
104
98
107
102
107
102
98
106
95
102
108
104
99
94
101
105
101
104
105
102
107
96
102
103
108
104
100
95
104
105
104
108
101
100
98
99
104
106
103
104
102
102
98
95
97
105
102
105
96
99
108
103
100
107
102
105
97
108
96
104
102
109
100
97
101
97
104
103
104
106
108
98
94
100
101
99
107
99
103
102
101
104
96
102
101
108
97
107
104
101
105
108
99
105
96
101
98
102
100
101
104
106
105
104
106
103
100
101
104
100
98
98
99
107
100
94
106
97
97
98
99
103
104
108
104
100
96
105
97
104
98
98
105
97
102
102
100
104
101
98
102
104
108
107
108
101
106
101
95
99
102
102
107
100
98
96
97
105
104
98
98
101
108
100
104
96
103
99
99
98
104
96
100
100
105
103
102
106
102
100
97
98
109
100
104
105
94
105
105
102
105
99
100
107
101
102
106
105
100
98
99
97
106
105
95
99
99
98
96
105
100
93
102
100
98
95
102
99
98
105
108
100
107
106
104
100
108
99
105
102
96
104
100
100
100
96
98
106
103
99
104
102
102
100
107
103
99
99
101
102
99
104
102
97
102
104
102
101
97
106
103
102
97
104
103
98
106
100
104
97
99
95
102
98
94
98
101
103
104
98
98
103
95
103
103
97
105
103
103
106
100
99
103
106
100
99
105
101
103
105
97
100
104
101
100
107
105
103
98
102
104
98
98
99
101
99
96
106
104
98
106
98
102
110
98
101
98
96
100
105
100
93
105
93
101
100
95
109
111
97
98
99
101
99
96
103
104
100
106
102
101
101
103
94
102
103
104
100
93
102
105
104
102
99
98
107
103
98
103
98
99
103
101
106
100
101
104
103
104
101
100
97
103
98
106
102
98
101
102
104
100
94
104
104
108
97
101
95
103
99
98
95
107
99
102
98
106
97
99
97
99
102
104
100
99
98
100
102
106
102
101
106
95
96
102
104
98
100
98
104
103
107
103
101
102
95
104
98
101
98
105
101
105
98
105
98
106
104
103
104
103
103
96
103
102
103
106
97
101
102
99
94
99
100
103
105
99
98
97
102
97
99
93
97
103
103
99
96
100
99
104
99
104
106
102
98
106
97
106
102
100
106
103
102
102
103
99
103
102
105
101
102
99
102
99
104
99
104
101
105
102
108
101
97
101
100
99
103
101
105
97
99
94
102
104
104
95
97
99
103
99
99
106
98
100
100
100
100
100
106
105
97
100
98
98
105
104
105
95
102
103
101
104
104
101
107
105
99
104
101
108
107
105
110
101
104
107
101
98
101
102
105
101
97
101
106
103
100
102
100
101
97
103
105
102
99
98
106
98
96
100
102
99
102
102
105
103
99
108
102
102
106
101
102
105
97
100
98
101
96
98
104
96
101
96
104
100
102
106
102
106
96
97
106
103
96
103
105
105
101
94
97
99
99
108
96
104
93
96
106
96
103
104
104
96
102
102
99
100
108
106
100
99
101
104
99
101
101
104
104
103
98
105
98
103
103
109
105
101
104
109
108
94
98
101
104
97
106
105
99
97
101
102
101
98
101
106
99
103
102
102
102
99
103
101
106
104
104
99
108
100
104
101
107
103
102
102
100
98
104
102
103
98
104
104
100
104
100
101
105
99
98
107
103
106
101
97
102
102
103
102
101
98
100
98
101
102
99
102
105
100
100
100
101
97
99
103
97
101
98
105
105
97
101
103
100
99
107
104
96
105
102
97
98
103
106
103
106
98
101
104
98
99
106
104
106
98
96
102
100
101
101
96
97
105
99
99
106
103
100
101
100
109
103
107
103
107
94
106
97
98
104
104
100
100
108
101
97
103
96
100
104
108
104
103
98
101
105
102
99
99
97
102
97
101
103
105
107
105
103
101
104
101
99
103
103
105
99
107
103
99
98
100
99
102
97
102
100
106
104
97
101
103
100
97
103
105
102
100
97
104
100
101
100
101
95
99
102
102
97
106
102
97
100
107
97
102
107
99
95
101
101
103
98
104
94
104
105
98
102
103
96
99
100
104
105
101
103
100
103
99
98
103
101
100
107
97
100
98
104
105
101
102
107
99
102
108
98
95
102
103
98
99
103
100
101
99
102
105
103
100
98
104
99
105
101
103
104
95
102
101
97
108
99
95
104
103
99
94
102
99
100
98
107
100
100
99
105
100
104
96
105
98
102
101
103
99
98
105
99
98
105
97
95
96
102
100
97
101
108
106
102
104
96
98
102
96
101
102
97
103
103
96
99
104
98
101
102
98
106
100
109
102
101
103
98
103
102
105
102
99
100
95
101
101
106
96
102
104
99
101
101
97
102
108
105
97
101
95
100
97
102
101
105
102
101
102
104
99
105
103
99
103
100
96
105
98
99
105
96
99
98
102
98
104
96
97
99
101
102
102
95
99
101
100
97
103
100
96
99
101
103
101
100
104
101
98
103
98
105
100
101
103
103
103
101
98
98
96
103
104
96
104
102
106
102
93
102
99
103
101
98
106
97
107
100
100
96
106
98
98
103
99
98
104
100
96
105
106
101
98
107
104
104
99
100
97
110
104
102
96
100
101
99
105
99
97
99
103
101
102
105
100
104
111
95
100
97
97
99
106
95
98
106
103
104
95
96
104
97
100
99
102
103
100
103
102
104
104
101
104
102
103
102
104
103
107
97
102
98
101
100
103
101
100
99
105
101
100
99
102
99
102
104
98
103
99
98
101
103
97
98
99
105
101
100
100
98
94
101
97
102
104
106
99
99
97
102
100
102
102
98
99
97
99
106
95
102
99
97
102
98
106
104
102
99
106
104
100
99
95
104
103
100
102
101
105
99
104
105
100
102
107
105
98
96
102
104
97
97
100
104
98
103
101
107
104
104
108
104
99
104
98
102
100
102
99
107
99
99
105
105
103
101
101
97
107
101
105
99
99
96
103
102
106
98
99
102
96
109
99
105
101
104
104
104
105
99
98
97
103
100
108
104
106
99
97
100
102
96
100
98
100
101
104
105
96
102
98
95
97
100
102
96
99
103
104
100
99
94
101
96
100
99
107
103
101
104
101
104
100
104
99
102
108
103
101
100
96
98
106
99
104
100
101
106
106
99
106
102
100
102
100
96
103
93
105
100
99
106
100
102
104
102
105
104
103
99
103
100
103
103
96
98
102
100
109
94
94
105
104
102
106
101
98
98
102
96
103
105
101
99
98
104
100
105
102
98
105
106
99
102
102
96
104
102
104
104
102
99
107
97
102
99
99
97
108
103
98
102
102
100
103
99
100
98
105
98
99
97
102
99
97
104
99
99
95
96
99
100
99
100
102
97
100
99
103
101
97
97
107
101
102
97
99
103
98
100
97
100
99
105
105
105
99
105
105
99
99
101
106
102
103
105
99
101
98
95
102
93
97
104
108
102
101
102
107
103
104
102
97
100
105
97
107
102
98
105
97
100
97
103
103
102
100
104
103
96
98
101
97
103
97
98
104
101
101
101
98
101
103
99
107
101
103
102
98
99
94
106
102
98
103
100
104
101
99
105
101
94
99
101
102
107
101
103
105
101
107
102
103
95
104
107
96
101
106
95
102
100
106
102
97
107
101
99
97
109
99
105
101
106
100
100
103
106
100
96
104
108
99
105
100
106
102
107
97
107
103
101
100
102
101
100
108
95
101
103
93
104
97
99
104
97
103
103
99
106
100
100
99
100
99
98
100
105
103
100
100
94
98
104
98
105
102
103
99
103
102
107
103
103
103
97
102
99
99
93
106
97
104
105
101
105
100
95
104
108
102
103
102
100
102
97
101
98
102
103
103
105
100
96
108
104
102
100
93
98
96
106
97
97
96
103
100
106
97
94
99
100
97
103
95
101
103
105
107
96
98
100
103
104
102
101
98
101
100
104
103
95
99
107
104
94
97
109
104
96
97
108
98
98
102
104
107
107
106
110
104
101
105
94
100
100
94
100
99
94
96
106
101
98
108
106
102
102
96
97
100
101
100
98
102
103
99
97
99
96
99
101
102
102
104
106
99
99
97
100
104
103
101
101
96
100
96
96
101
101
101
103
97
105
106
98
101
100
106
105
100
104
97
100
104
97
102
101
101
97
98
97
106
106
107
95
99
98
108
104
101
104
95
99
102
101
101
98
108
98
105
108
98
104
99
100
101
97
106
101
103
107
96
98
96
104
97
99
101
99
104
96
98
100
99
102
106
104
102
99
101
101
95
101
99
104
102
102
105
100
96
98
105
101
98
97
99
99
103
97
99
97
103
100
97
100
100
100
105
102
106
97
102
101
97
105
102
100
95
97
100
101
99
106
103
102
107
103
98
100
101
102
100
101
97
97
100
105
103
96
106
107
96
99
100
99
101
107
99
104
104
105
103
106
100
106
99
104
105
95
97
100
104
105
104
96
102
96
98
105
104
103
97
102
95
99
104
102
98
103
107
104
101
105
104
108
103
105
98
101
105
105
98
98
98
98
98
101
96
107
97
100
96
95
104
102
104
97
97
105
101
97
105
104
98
102
104
99
99
100
105
105
102
102
102
99
103
99
101
106
105
102
96
106
104
98
102
98
103
102
101
97
101
94
99
102
97
104
106
106
95
103
97
99
105
103
103
105
103
97
103
98
107
98
97
97
103
105
99
105
102
99
101
106
97
107
102
103
109
100
103
103
103
103
99
104
100
99
100
99
106
105
95
104
101
92
103
100
100
99
99
100
105
102
101
95
101
102
101
105
98
109
104
103
100
101
96
106
99
99
100
108
97
101
103
101
98
98
98
103
103
104
103
98
101
102
103
96
98
104
101
97
99
103
103
99
101
101
105
100
105
103
101
97
98
98
99
98
93
99
98
102
102
102
101
98
99
106
98
99
104
99
101
102
103
101
104
103
99
94
100
101
96
99
106
104
101
102
107
98
98
100
105
103
100
101
105
101
101
98
99
96
99
106
101
100
99
100
104
107
104
103
99
97
100
95
95
103
104
99
99
99
106
101
100
102
97
97
103
103
102
102
97
95
94
105
103
96
100
107
98
96
101
100
102
98
106
103
95
102
98
102
103
102
105
105
98
108
96
102
96
105
102
101
102
101
101
107
103
98
98
104
106
105
104
103
101
97
103
103
105
101
107
105
100
103
99
99
104
106
103
102
100
104
98
100
100
100
103
106
107
102
107
99
106
105
102
96
103
99
102
101
94
101
107
102
98
101
104
96
95
101
100
97
102
102
99
101
99
98
101
105
99
99
106
101
99
98
97
100
95
105
99
94
98
105
97
105
102
100
95
97
98
102
97
104
105
102
102
97
106
103
101
104
104
106
99
105
103
99
98
100
99
103
109
98
101
99
98
105
103
104
102
101
100
102
103
101
95
99
97
98
104
104
100
104
103
104
103
102
96
106
100
101
100
97
98
100
103
105
103
97
103
105
106
104
102
103
101
96
102
105
97
102
101
100
105
102
106
100
101
100
106
102
97
100
100
96
102
102
101
101
94
97
101
96
102
98
104
99
98
104
102
95
98
106
103
100
102
106
99
98
107
100
100
105
104
104
99
102
98
96
102
102
104
105
103
99
98
94
101
106
95
99
97
106
102
98
100
106
98
98
103
96
106
104
103
103
108
96
105
100
95
98
107
100
97
101
98
96
99
96
97
103
100
95
101
102
100
102
109
107
101
97
108
99
99
104
96
99
96
100
104
102
97
102
103
104
97
100
103
98
99
104
101
102
103
100
96
106
96
102
97
99
109
100
99
99
99
102
98
100
98
98
93
100
102
101
102
106
102
101
101
106
96
93
102
102
106
105
101
98
99
103
102
103
95
106
99
104
107
104
98
105
103
100
98
98
99
99
100
101
102
98
106
100
107
103
98
97
104
99
105
101
99
98
106
106
98
102
96
98
102
99
102
103
102
106
101
107
97
101
101
100
99
96
105
98
99
101
103
100
100
94
100
106
105
97
103
95
99
95
103
100
103
101
