%!PS-Adobe-2.0 EPSF-2.0
%%BoundingBox:  0 0 567 355
%%Title: DeltaPtChargedJetsR040.eps: c2: dpt
%%Creator: ROOT Version 5.34/09
%%CreationDate: Wed Dec  4 11:40:43 2013
%%EndComments
%%BeginProlog
80 dict begin
/s {stroke} def /l {lineto} def /m {moveto} def /t {translate} def
/r {rotate} def /rl {roll}  def /R {repeat} def
/d {rlineto} def /rm {rmoveto} def /gr {grestore} def /f {eofill} def
/c {setrgbcolor} def /black {0 setgray} def /sd {setdash} def
/cl {closepath} def /sf {scalefont setfont} def /lw {setlinewidth} def
/box {m dup 0 exch d exch 0 d 0 exch neg d cl} def
/NC{systemdict begin initclip end}def/C{NC box clip newpath}def
/bl {box s} def /bf {box f} def /Y { 0 exch d} def /X { 0 d} def 
/K {{pop pop 0 moveto} exch kshow} bind def
/ita {/ang 15 def gsave [1 0 ang dup sin exch cos div 1 0 0] concat} def 
/mp {newpath /y exch def /x exch def} def
/side {[w .77 mul w .23 mul] .385 w mul sd w 0 l currentpoint t -144 r} def
/mr {mp x y w2 0 360 arc} def /m24 {mr s} def /m20 {mr f} def
/mb {mp x y w2 add m w2 neg 0 d 0 w neg d w 0 d 0 w d cl} def
/mt {mp x y w2 add m w2 neg w neg d w 0 d cl} def
/m21 {mb f} def /m25 {mb s} def /m22 {mt f} def /m26{mt s} def
/m23 {mp x y w2 sub m w2 w d w neg 0 d cl f} def
/m27 {mp x y w2 add m w3 neg w2 neg d w3 w2 neg d w3 w2 d cl s} def
/m28 {mp x w2 sub y w2 sub w3 add m w3 0 d  0 w3 neg d w3 0 d 0 w3 d w3 0 d  0 w3 d w3 neg 0 d 0 w3 d w3 neg 0 d 0 w3 neg d w3 neg 0 d cl s } def
/m29 {mp gsave x w2 sub y w2 add w3 sub m currentpoint t 4 {side} repeat cl fill gr} def
/m30 {mp gsave x w2 sub y w2 add w3 sub m currentpoint t 4 {side} repeat cl s gr} def
/m31 {mp x y w2 sub m 0 w d x w2 sub y m w 0 d x w2 sub y w2 add m w w neg d x w2 sub y w2 sub m w w d s} def
/m32 {mp x y w2 sub m w2 w d w neg 0 d cl s} def
/m33 {mp x y w2 add m w3 neg w2 neg d w3 w2 neg d w3 w2 d cl f} def
/m34 {mp x w2 sub y w2 sub w3 add m w3 0 d  0 w3 neg d w3 0 d 0 w3 d w3 0 d  0 w3 d w3 neg 0 d 0 w3 d w3 neg 0 d 0 w3 neg d w3 neg 0 d cl f } def
/m2 {mp x y w2 sub m 0 w d x w2 sub y m w 0 d s} def
/m5 {mp x w2 sub y w2 sub m w w d x w2 sub y w2 add m w w neg d s} def
/reEncode {exch findfont dup length dict begin {1 index /FID eq  {pop pop} {def} ifelse } forall /Encoding exch def currentdict end dup /FontName get exch definefont pop } def [/Times-Bold /Times-Italic /Times-BoldItalic /Helvetica /Helvetica-Oblique
 /Helvetica-Bold /Helvetica-BoldOblique /Courier /Courier-Oblique /Courier-Bold /Courier-BoldOblique /Times-Roman /AvantGarde-Book /AvantGarde-BookOblique /AvantGarde-Demi /AvantGarde-DemiOblique /Bookman-Demi /Bookman-DemiItalic /Bookman-Light
 /Bookman-LightItalic /Helvetica-Narrow /Helvetica-Narrow-Bold /Helvetica-Narrow-BoldOblique /Helvetica-Narrow-Oblique /NewCenturySchlbk-Roman /NewCenturySchlbk-Bold /NewCenturySchlbk-BoldItalic /NewCenturySchlbk-Italic /Palatino-Bold
 /Palatino-BoldItalic /Palatino-Italic /Palatino-Roman ] {ISOLatin1Encoding reEncode } forall
%%EndProlog
%%BeginSetup
%%EndSetup
newpath  gsave  .25 .25 scale  gsave  0 0 t black[  ] 0 sd 3 lw 0.999 0.999 0.999 c 2268 1421 0 0 bf black 0.999 0.999 0.999 c 710 682 23 725 bf black 1 1 1 c 533 511 129 827 bf black 533 511 129 827 bl 1 1 1 c 533 511 129 827 bf black 533 511 129
 827 bl 0 0 0.6 c 1 1 1 c black 0 0 0.6 c 129 827 m 533 X s black 129 827 m 533 X s
 gsave  710 682 23 725 C 648.895 765.013 t 0 r /Helvetica findfont 38.7733 sf 0 0 m (\)) show NC gr 
 gsave  710 682 23 725 C 626.127 765.013 t 0 r /Helvetica-Oblique findfont 38.7733 sf 0 0 m (c) show NC gr 
 gsave  710 682 23 725 C 512.285 765.013 t 0 r /Helvetica findfont 38.7733 sf 0 0 m ( \(GeV/) show NC gr 
 gsave  710 682 23 725 C 496.348 742.245 t 0 r /Helvetica findfont 25.0886 sf 0 0 m (T) show NC gr 
 gsave  710 682 23 725 C 471.303 765.013 t 0 r /Helvetica-Oblique findfont 38.7733 sf 0 0 m (p) show NC gr 
 gsave  710 682 23 725 C 457.642 765.013 t 0 r /Helvetica findfont 38.7733 sf 0 0 m ( ) show NC gr 
 gsave  710 682 23 725 C 437.15 765.013 t 0 r /Symbol findfont 38.7733 sf 0 0 m (d) show NC gr  129 842 m -15 Y s 147 835 m -8 Y s 165 835 m -8 Y s 183 835 m -8 Y s 200 835 m -8 Y s 218 842 m -15 Y s 236 835 m -8 Y s 254 835 m -8 Y s 271 835 m -8 Y s
 289 835 m -8 Y s 307 842 m -15 Y s 325 835 m -8 Y s 342 835 m -8 Y s 360 835 m -8 Y s 378 835 m -8 Y s 396 842 m -15 Y s 413 835 m -8 Y s 431 835 m -8 Y s 449 835 m -8 Y s 467 835 m -8 Y s 485 842 m -15 Y s 502 835 m -8 Y s 520 835 m -8 Y s 538 835
 m -8 Y s 556 835 m -8 Y s 573 842 m -15 Y s 591 835 m -8 Y s 609 835 m -8 Y s 627 835 m -8 Y s 644 835 m -8 Y s 662 842 m -15 Y s
 gsave  710 682 23 725 C 104.734 796.888 t 0 r /Helvetica findfont 31.931 sf 0 0 m (\25510) show NC gr 
 gsave  710 682 23 725 C 207.191 796.888 t 0 r /Helvetica findfont 31.931 sf 0 0 m (0) show NC gr 
 gsave  710 682 23 725 C 286.88 796.888 t 0 r /Helvetica findfont 31.931 sf 0 0 m (10) show NC gr 
 gsave  710 682 23 725 C 375.676 796.888 t 0 r /Helvetica findfont 31.931 sf 0 0 m (20) show NC gr 
 gsave  710 682 23 725 C 464.472 796.888 t 0 r /Helvetica findfont 31.931 sf 0 0 m (30) show NC gr 
 gsave  710 682 23 725 C 553.268 796.888 t 0 r /Helvetica findfont 31.931 sf 0 0 m (40) show NC gr 
 gsave  710 682 23 725 C 642.064 796.888 t 0 r /Helvetica findfont 31.931 sf 0 0 m (50) show NC gr  129 827 m 511 Y s
 gsave  710 682 23 725 C 63.7511 1101.98 t 90 r /Helvetica findfont 38.7733 sf 0 0 m (probability/bin) show NC gr  145 827 m -16 X s
 gsave  710 682 23 725 C 102.457 828.764 t 0 r /Helvetica findfont 20.5271 sf 0 0 m (\2558) show NC gr 
 gsave  710 682 23 725 C 68.3047 812.826 t 0 r /Helvetica findfont 31.931 sf 0 0 m (10) show NC gr  137 846 m -8 X s 137 857 m -8 X s 137 865 m -8 X s 137 872 m -8 X s 137 877 m -8 X s 137 881 m -8 X s 137 885 m -8 X s 137 888 m -8 X s 145 891 m -16
 X s
 gsave  710 682 23 725 C 102.457 890.238 t 0 r /Helvetica findfont 20.5271 sf 0 0 m (\2557) show NC gr 
 gsave  710 682 23 725 C 68.3047 876.577 t 0 r /Helvetica findfont 31.931 sf 0 0 m (10) show NC gr  137 910 m -8 X s 137 921 m -8 X s 137 929 m -8 X s 137 935 m -8 X s 137 941 m -8 X s 137 945 m -8 X s 137 949 m -8 X s 137 952 m -8 X s 145 955 m -16
 X s
 gsave  710 682 23 725 C 102.457 956.266 t 0 r /Helvetica findfont 20.5271 sf 0 0 m (\2556) show NC gr 
 gsave  710 682 23 725 C 68.3047 940.328 t 0 r /Helvetica findfont 31.931 sf 0 0 m (10) show NC gr  137 974 m -8 X s 137 985 m -8 X s 137 993 m -8 X s 137 999 m -8 X s 137 1004 m -8 X s 137 1009 m -8 X s 137 1012 m -8 X s 137 1016 m -8 X s 145 1019 m
 -16 X s
 gsave  710 682 23 725 C 102.457 1020.02 t 0 r /Helvetica findfont 20.5271 sf 0 0 m (\2555) show NC gr 
 gsave  710 682 23 725 C 68.3047 1004.08 t 0 r /Helvetica findfont 31.931 sf 0 0 m (10) show NC gr  137 1038 m -8 X s 137 1049 m -8 X s 137 1057 m -8 X s 137 1063 m -8 X s 137 1068 m -8 X s 137 1073 m -8 X s 137 1076 m -8 X s 137 1080 m -8 X s 145
 1083 m -16 X s
 gsave  710 682 23 725 C 102.457 1081.49 t 0 r /Helvetica findfont 20.5271 sf 0 0 m (\2554) show NC gr 
 gsave  710 682 23 725 C 68.3047 1067.83 t 0 r /Helvetica findfont 31.931 sf 0 0 m (10) show NC gr  137 1102 m -8 X s 137 1113 m -8 X s 137 1121 m -8 X s 137 1127 m -8 X s 137 1132 m -8 X s 137 1137 m -8 X s 137 1140 m -8 X s 137 1144 m -8 X s 145
 1147 m -16 X s
 gsave  710 682 23 725 C 102.457 1147.52 t 0 r /Helvetica findfont 20.5271 sf 0 0 m (\2553) show NC gr 
 gsave  710 682 23 725 C 68.3047 1131.58 t 0 r /Helvetica findfont 31.931 sf 0 0 m (10) show NC gr  137 1166 m -8 X s 137 1177 m -8 X s 137 1185 m -8 X s 137 1191 m -8 X s 137 1196 m -8 X s 137 1201 m -8 X s 137 1204 m -8 X s 137 1208 m -8 X s 145
 1210 m -16 X s
 gsave  710 682 23 725 C 102.457 1208.99 t 0 r /Helvetica findfont 20.5271 sf 0 0 m (\2552) show NC gr 
 gsave  710 682 23 725 C 68.3047 1195.33 t 0 r /Helvetica findfont 31.931 sf 0 0 m (10) show NC gr  137 1230 m -8 X s 137 1241 m -8 X s 137 1249 m -8 X s 137 1255 m -8 X s 137 1260 m -8 X s 137 1264 m -8 X s 137 1268 m -8 X s 137 1271 m -8 X s 145
 1274 m -16 X s
 gsave  710 682 23 725 C 104.734 1272.74 t 0 r /Helvetica findfont 20.5271 sf 0 0 m (\2551) show NC gr 
 gsave  710 682 23 725 C 70.5815 1259.08 t 0 r /Helvetica findfont 31.931 sf 0 0 m (10) show NC gr  137 1294 m -8 X s 137 1305 m -8 X s 137 1313 m -8 X s 137 1319 m -8 X s 137 1324 m -8 X s 137 1328 m -8 X s 137 1332 m -8 X s 137 1335 m -8 X s 145
 1338 m -16 X s
 gsave  710 682 23 725 C 122.865 1325.59 t 0 r  -17 0 t /Helvetica findfont 31.931 sf 0 0 m (1) show NC gr  6 lw 1 1 1 c black 158 827 m 11 Y s 158 856 m 4 Y s 3 lw /w 22 def /w2 {w 2 div} def /w3 {w 3 div} def 158 847 m20 6 lw 163 827 m 11 Y s 163
 856 m 4 Y s 3 lw 163 847 m20 6 lw 167 876 m s 3 lw 167 886 m20 6 lw 3 lw 171 911 m20 6 lw 3 lw 176 951 m20 6 lw 3 lw 180 990 m20 6 lw 3 lw 185 1033 m20 6 lw 3 lw 189 1079 m20 6 lw 3 lw 194 1127 m20 6 lw 3 lw 198 1173 m20 6 lw 3 lw 203 1216 m20 6 lw
 3 lw 207 1252 m20 6 lw 3 lw 211 1280 m20 6 lw 3 lw 216 1293 m20 6 lw 3 lw 220 1290 m20 6 lw 3 lw 225 1282 m20 6 lw 3 lw 229 1272 m20 6 lw 3 lw 234 1263 m20 6 lw 3 lw 238 1253 m20 6 lw 3 lw 243 1243 m20 6 lw 3 lw 247 1233 m20 6 lw 3 lw 251 1223 m20 6
 lw 3 lw 256 1214 m20 6 lw 3 lw 260 1205 m20 6 lw 3 lw 265 1196 m20 6 lw 3 lw 269 1187 m20 6 lw 3 lw 274 1178 m20 6 lw 3 lw 278 1170 m20 6 lw 3 lw 282 1161 m20 6 lw 3 lw 287 1153 m20 6 lw 3 lw 291 1145 m20 6 lw 3 lw 296 1137 m20 6 lw 3 lw 300 1129
 m20 6 lw 3 lw 305 1122 m20 6 lw 3 lw 309 1114 m20 6 lw 3 lw 314 1108 m20 6 lw 3 lw 318 1101 m20 6 lw 3 lw 322 1095 m20 6 lw 3 lw 327 1088 m20 6 lw 3 lw 331 1082 m20 6 lw 3 lw 336 1076 m20 6 lw 3 lw 340 1070 m20 6 lw 3 lw 345 1066 m20 6 lw 3 lw 349
 1060 m20 6 lw 3 lw 354 1057 m20 6 lw 3 lw 358 1051 m20 6 lw 3 lw 362 1046 m20 6 lw 3 lw 367 1042 m20 6 lw 3 lw 371 1039 m20 6 lw 3 lw 376 1034 m20 6 lw 3 lw 380 1029 m20 6 lw 3 lw 385 1025 m20 6 lw 3 lw 389 1022 m20 6 lw 3 lw 393 1017 m20 6 lw 3 lw
 398 1015 m20 6 lw 3 lw 402 1011 m20 6 lw 3 lw 407 1007 m20 6 lw 3 lw 411 1005 m20 6 lw 3 lw 416 1001 m20 6 lw 3 lw 420 999 m20 6 lw 3 lw 425 996 m20 6 lw 3 lw 429 991 m20 6 lw 3 lw 433 990 m20 6 lw 3 lw 438 985 m20 6 lw 3 lw 442 981 m20 6 lw 3 lw
 447 982 m20 6 lw 3 lw 451 979 m20 6 lw 3 lw 456 973 m20 6 lw 3 lw 460 974 m20 6 lw 3 lw 465 969 m20 6 lw 3 lw 469 968 m20 6 lw 3 lw 473 967 m20 6 lw 3 lw 478 959 m20 6 lw 3 lw 482 960 m20 6 lw 3 lw 487 958 m20 6 lw 3 lw 491 959 m20 6 lw 3 lw 496 951
 m20 6 lw 3 lw 500 952 m20 6 lw 3 lw 505 950 m20 6 lw 3 lw 509 944 m20 6 lw 3 lw 513 944 m20 6 lw 3 lw 518 946 m20 6 lw 3 lw 522 943 m20 6 lw 3 lw 527 940 m20 6 lw 3 lw 531 936 m20 6 lw 3 lw 536 928 m20 6 lw 3 lw 540 935 m20 6 lw 3 lw 544 926 m20 6
 lw 3 lw 549 927 m20 6 lw 3 lw 553 928 m20 6 lw 3 lw 558 922 m20 6 lw 3 lw 562 924 m20 6 lw 3 lw 567 924 m20 6 lw 3 lw 571 926 m20 6 lw 3 lw 576 926 m20 6 lw 3 lw 580 921 m20 6 lw 3 lw 584 915 m20 6 lw 3 lw 589 909 m20 6 lw 3 lw 593 907 m20 6 lw 3 lw
 598 915 m20 6 lw 3 lw 602 914 m20 6 lw 3 lw 607 898 m20 6 lw 3 lw 611 901 m20 6 lw 3 lw 616 909 m20 6 lw 3 lw 620 909 m20 6 lw 3 lw 624 906 m20 6 lw 3 lw 629 901 m20 6 lw 3 lw 633 904 m20 6 lw 3 lw 638 895 m20 6 lw 3 lw 642 888 m20 6 lw 3 lw 647 898
 m20 6 lw 651 876 m s 3 lw 651 886 m20 6 lw 656 873 m 1 Y s 3 lw 656 883 m20 6 lw 660 876 m s 3 lw 660 886 m20 6 lw 0 0 1 c 1 1 1 c 0 0 1 c 163 852 m 6 Y s 163 876 m s 3 lw /w 18 def /w2 {w 2 div} def /w3 {w 3 div} def 163 867 m21 6 lw 3 lw 167 894
 m21 6 lw 3 lw 171 917 m21 6 lw 3 lw 176 956 m21 6 lw 3 lw 180 993 m21 6 lw 3 lw 185 1036 m21 6 lw 3 lw 189 1082 m21 6 lw 3 lw 194 1130 m21 6 lw 3 lw 198 1176 m21 6 lw 3 lw 203 1219 m21 6 lw 3 lw 207 1255 m21 6 lw 3 lw 211 1282 m21 6 lw 3 lw 216 1295
 m21 6 lw 3 lw 220 1292 m21 6 lw 3 lw 225 1283 m21 6 lw 3 lw 229 1272 m21 6 lw 3 lw 234 1260 m21 6 lw 3 lw 238 1248 m21 6 lw 3 lw 243 1236 m21 6 lw 3 lw 247 1223 m21 6 lw 3 lw 251 1212 m21 6 lw 3 lw 256 1200 m21 6 lw 3 lw 260 1189 m21 6 lw 3 lw 265
 1178 m21 6 lw 3 lw 269 1167 m21 6 lw 3 lw 274 1156 m21 6 lw 3 lw 278 1146 m21 6 lw 3 lw 282 1136 m21 6 lw 3 lw 287 1126 m21 6 lw 3 lw 291 1117 m21 6 lw 3 lw 296 1108 m21 6 lw 3 lw 300 1099 m21 6 lw 3 lw 305 1091 m21 6 lw 3 lw 309 1082 m21 6 lw 3 lw
 314 1074 m21 6 lw 3 lw 318 1067 m21 6 lw 3 lw 322 1060 m21 6 lw 3 lw 327 1053 m21 6 lw 3 lw 331 1047 m21 6 lw 3 lw 336 1041 m21 6 lw 3 lw 340 1034 m21 6 lw 3 lw 345 1029 m21 6 lw 3 lw 349 1024 m21 6 lw 3 lw 354 1019 m21 6 lw 3 lw 358 1013 m21 6 lw 3
 lw 362 1010 m21 6 lw 3 lw 367 1005 m21 6 lw 3 lw 371 999 m21 6 lw 3 lw 376 996 m21 6 lw 3 lw 380 994 m21 6 lw 3 lw 385 989 m21 6 lw 3 lw 389 985 m21 6 lw 3 lw 393 978 m21 6 lw 3 lw 398 979 m21 6 lw 3 lw 402 973 m21 6 lw 3 lw 407 969 m21 6 lw 3 lw
 411 969 m21 6 lw 3 lw 416 965 m21 6 lw 3 lw 420 962 m21 6 lw 3 lw 425 957 m21 6 lw 3 lw 429 950 m21 6 lw 3 lw 433 947 m21 6 lw 3 lw 438 947 m21 6 lw 3 lw 442 954 m21 6 lw 3 lw 447 950 m21 6 lw 3 lw 451 940 m21 6 lw 3 lw 456 938 m21 6 lw 3 lw 460 935
 m21 6 lw 3 lw 465 929 m21 6 lw 3 lw 469 938 m21 6 lw 3 lw 473 929 m21 6 lw 3 lw 478 920 m21 6 lw 3 lw 482 916 m21 6 lw 3 lw 487 922 m21 6 lw 3 lw 491 912 m21 6 lw 3 lw 496 912 m21 6 lw 3 lw 500 916 m21 6 lw 3 lw 505 912 m21 6 lw 3 lw 509 920 m21 6
 lw 3 lw 513 903 m21 6 lw 3 lw 518 900 m21 6 lw 3 lw 522 888 m21 6 lw 3 lw 527 908 m21 6 lw 3 lw 531 903 m21 6 lw 3 lw 536 888 m21 6 lw 3 lw 540 896 m21 6 lw 544 874 m 1 Y s 3 lw 544 884 m21 6 lw 3 lw 549 900 m21 6 lw 3 lw 553 888 m21 6 lw 558 867 m
 2 Y s 3 lw 558 878 m21 6 lw 3 lw 562 888 m21 6 lw 567 874 m 1 Y s 3 lw 567 884 m21 6 lw 3 lw 571 903 m21 6 lw 576 871 m 1 Y s 3 lw 576 881 m21 6 lw 3 lw 580 902 m21 6 lw 584 836 m 11 Y s 584 865 m 2 Y s 3 lw 584 856 m21 6 lw 589 852 m 6 Y s 589 876
 m s 3 lw 589 867 m21 6 lw 593 852 m 6 Y s 593 876 m s 3 lw 593 867 m21 6 lw 598 858 m 4 Y s 3 lw 598 871 m21 6 lw 602 836 m 11 Y s 602 865 m 2 Y s 3 lw 602 856 m21 6 lw 607 858 m 4 Y s 3 lw 607 871 m21 6 lw 611 827 m 12 Y s 611 857 m 3 Y s 3 lw 611
 848 m21 6 lw 616 858 m 4 Y s 3 lw 616 871 m21 6 lw 620 836 m 11 Y s 620 865 m 2 Y s 3 lw 620 856 m21 6 lw 624 836 m 11 Y s 624 865 m 2 Y s 3 lw 624 856 m21 6 lw 629 858 m 4 Y s 3 lw 629 871 m21 6 lw 633 836 m 11 Y s 633 865 m 2 Y s 3 lw 633 856 m21
 6 lw 638 827 m 12 Y s 638 857 m 3 Y s 3 lw 638 848 m21 6 lw 642 845 m 8 Y s 642 871 m 1 Y s 3 lw 642 862 m21 6 lw 647 827 m s 647 845 m 6 Y s 3 lw 647 836 m21 6 lw 651 827 m s 651 845 m 6 Y s 3 lw 651 836 m21 6 lw 656 858 m 4 Y s 3 lw 656 871 m21 6
 lw 660 827 m 12 Y s 660 857 m 3 Y s 3 lw 660 848 m21 6 lw 1 0 0 c 1 1 1 c 1 0 0 c 163 845 m 7 Y s 163 870 m 2 Y s 3 lw 163 861 m22 6 lw 167 866 m 3 Y s 3 lw 167 878 m22 6 lw 3 lw 171 914 m22 6 lw 3 lw 176 952 m22 6 lw 3 lw 180 988 m22 6 lw 3 lw 185
 1033 m22 6 lw 3 lw 189 1079 m22 6 lw 3 lw 194 1127 m22 6 lw 3 lw 198 1173 m22 6 lw 3 lw 203 1216 m22 6 lw 3 lw 207 1252 m22 6 lw 3 lw 211 1280 m22 6 lw 3 lw 216 1293 m22 6 lw 3 lw 220 1290 m22 6 lw 3 lw 225 1282 m22 6 lw 3 lw 229 1272 m22 6 lw 3 lw
 234 1262 m22 6 lw 3 lw 238 1253 m22 6 lw 3 lw 243 1243 m22 6 lw 3 lw 247 1233 m22 6 lw 3 lw 251 1223 m22 6 lw 3 lw 256 1213 m22 6 lw 3 lw 260 1204 m22 6 lw 3 lw 265 1195 m22 6 lw 3 lw 269 1186 m22 6 lw 3 lw 274 1177 m22 6 lw 3 lw 278 1169 m22 6 lw 3
 lw 282 1160 m22 6 lw 3 lw 287 1152 m22 6 lw 3 lw 291 1144 m22 6 lw 3 lw 296 1136 m22 6 lw 3 lw 300 1128 m22 6 lw 3 lw 305 1121 m22 6 lw 3 lw 309 1113 m22 6 lw 3 lw 314 1107 m22 6 lw 3 lw 318 1099 m22 6 lw 3 lw 322 1093 m22 6 lw 3 lw 327 1087 m22 6
 lw 3 lw 331 1081 m22 6 lw 3 lw 336 1075 m22 6 lw 3 lw 340 1069 m22 6 lw 3 lw 345 1065 m22 6 lw 3 lw 349 1059 m22 6 lw 3 lw 354 1055 m22 6 lw 3 lw 358 1048 m22 6 lw 3 lw 362 1045 m22 6 lw 3 lw 367 1041 m22 6 lw 3 lw 371 1036 m22 6 lw 3 lw 376 1032
 m22 6 lw 3 lw 380 1027 m22 6 lw 3 lw 385 1025 m22 6 lw 3 lw 389 1021 m22 6 lw 3 lw 393 1018 m22 6 lw 3 lw 398 1014 m22 6 lw 3 lw 402 1010 m22 6 lw 3 lw 407 1008 m22 6 lw 3 lw 411 1003 m22 6 lw 3 lw 416 999 m22 6 lw 3 lw 420 998 m22 6 lw 3 lw 425 996
 m22 6 lw 3 lw 429 992 m22 6 lw 3 lw 433 988 m22 6 lw 3 lw 438 985 m22 6 lw 3 lw 442 984 m22 6 lw 3 lw 447 979 m22 6 lw 3 lw 451 976 m22 6 lw 3 lw 456 972 m22 6 lw 3 lw 460 973 m22 6 lw 3 lw 465 968 m22 6 lw 3 lw 469 966 m22 6 lw 3 lw 473 963 m22 6
 lw 3 lw 478 965 m22 6 lw 3 lw 482 960 m22 6 lw 3 lw 487 959 m22 6 lw 3 lw 491 955 m22 6 lw 3 lw 496 952 m22 6 lw 3 lw 500 950 m22 6 lw 3 lw 505 942 m22 6 lw 3 lw 509 950 m22 6 lw 3 lw 513 938 m22 6 lw 3 lw 518 942 m22 6 lw 3 lw 522 938 m22 6 lw 3 lw
 527 935 m22 6 lw 3 lw 531 939 m22 6 lw 3 lw 536 935 m22 6 lw 3 lw 540 933 m22 6 lw 3 lw 544 925 m22 6 lw 3 lw 549 930 m22 6 lw 3 lw 553 925 m22 6 lw 3 lw 558 934 m22 6 lw 3 lw 562 922 m22 6 lw 3 lw 567 922 m22 6 lw 3 lw 571 920 m22 6 lw 3 lw 576 924
 m22 6 lw 3 lw 580 911 m22 6 lw 3 lw 584 921 m22 6 lw 3 lw 589 902 m22 6 lw 3 lw 593 904 m22 6 lw 3 lw 598 916 m22 6 lw 3 lw 602 908 m22 6 lw 3 lw 607 909 m22 6 lw 3 lw 611 909 m22 6 lw 3 lw 616 906 m22 6 lw 620 876 m 1 Y s 3 lw 620 886 m22 6 lw 624
 870 m 1 Y s 3 lw 624 881 m22 6 lw 3 lw 629 897 m22 6 lw 3 lw 633 894 m22 6 lw 3 lw 638 890 m22 6 lw 3 lw 642 890 m22 6 lw 3 lw 647 888 m22 6 lw 651 866 m 3 Y s 3 lw 651 878 m22 6 lw 656 852 m 5 Y s 656 875 m 1 Y s 3 lw 656 866 m22 6 lw 3 lw 660 894
 m22 6 lw black
 gsave  710 682 23 725 C 368.845 1306.9 t 0 r /Helvetica findfont 29.6502 sf 0 0 m (Centrality: 0 \255 20%) show NC gr 
 gsave  710 682 23 725 C 450.811 1213.55 t 0 r /Helvetica findfont 29.6502 sf 0 0 m (=1.63 GeV/c) show NC gr 
 gsave  710 682 23 725 C 432.597 1213.55 t 0 r /Symbol findfont 29.6502 sf 0 0 m (s) show NC gr 
 gsave  710 682 23 725 C 432.597 1245.42 t 0 r /Helvetica findfont 29.6502 sf 0 0 m (RC) show NC gr  3 lw /w 22 def /w2 {w 2 div} def /w3 {w 3 div} def 399 1239 m20 6 lw
 gsave  710 682 23 725 C 450.811 1136.14 t 0 r /Helvetica findfont 29.6502 sf 0 0 m (=1.34 GeV/c) show NC gr 
 gsave  710 682 23 725 C 432.597 1136.14 t 0 r /Symbol findfont 29.6502 sf 0 0 m (s) show NC gr 
 gsave  710 682 23 725 C 432.597 1172.56 t 0 r /Helvetica findfont 29.6502 sf 0 0 m (RC w/o lead. jet) show NC gr  0 0 1 c 3 lw /w 18 def /w2 {w 2 div} def /w3 {w 3 div} def 399 1164 m21 6 lw black
 gsave  710 682 23 725 C 450.811 1061 t 0 r /Helvetica findfont 29.6502 sf 0 0 m (=1.61 GeV/c) show NC gr 
 gsave  710 682 23 725 C 432.597 1061 t 0 r /Symbol findfont 29.6502 sf 0 0 m (s) show NC gr 
 gsave  710 682 23 725 C 432.597 1097.43 t 0 r /Helvetica findfont 29.6502 sf 0 0 m (RC partial) show NC gr  1 0 0 c 3 lw 399 1089 m22 6 lw black 3 lw 0.999 0.999 0.999 c 710 682 779 725 bf black 1 1 1 c 533 511 885 827 bf black 533 511 885 827 bl 1
 1 1 c 533 511 885 827 bf black 533 511 885 827 bl 0 0 0.6 c 1 1 1 c black 0 0 0.6 c 885 827 m 533 X s black 885 827 m 533 X s
 gsave  710 682 779 725 C 1404.8 765.013 t 0 r /Helvetica findfont 38.7733 sf 0 0 m (\)) show NC gr 
 gsave  710 682 779 725 C 1382.03 765.013 t 0 r /Helvetica-Oblique findfont 38.7733 sf 0 0 m (c) show NC gr 
 gsave  710 682 779 725 C 1268.19 765.013 t 0 r /Helvetica findfont 38.7733 sf 0 0 m ( \(GeV/) show NC gr 
 gsave  710 682 779 725 C 1252.25 742.245 t 0 r /Helvetica findfont 25.0886 sf 0 0 m (T) show NC gr 
 gsave  710 682 779 725 C 1227.21 765.013 t 0 r /Helvetica-Oblique findfont 38.7733 sf 0 0 m (p) show NC gr 
 gsave  710 682 779 725 C 1213.55 765.013 t 0 r /Helvetica findfont 38.7733 sf 0 0 m ( ) show NC gr 
 gsave  710 682 779 725 C 1193.06 765.013 t 0 r /Symbol findfont 38.7733 sf 0 0 m (d) show NC gr  885 842 m -15 Y s 903 835 m -8 Y s 921 835 m -8 Y s 938 835 m -8 Y s 956 835 m -8 Y s 974 842 m -15 Y s 992 835 m -8 Y s 1010 835 m -8 Y s 1027 835 m -8
 Y s 1045 835 m -8 Y s 1063 842 m -15 Y s 1081 835 m -8 Y s 1098 835 m -8 Y s 1116 835 m -8 Y s 1134 835 m -8 Y s 1152 842 m -15 Y s 1169 835 m -8 Y s 1187 835 m -8 Y s 1205 835 m -8 Y s 1223 835 m -8 Y s 1240 842 m -15 Y s 1258 835 m -8 Y s 1276 835
 m -8 Y s 1294 835 m -8 Y s 1311 835 m -8 Y s 1329 842 m -15 Y s 1347 835 m -8 Y s 1365 835 m -8 Y s 1383 835 m -8 Y s 1400 835 m -8 Y s 1418 842 m -15 Y s
 gsave  710 682 779 725 C 860.639 796.888 t 0 r /Helvetica findfont 31.931 sf 0 0 m (\25510) show NC gr 
 gsave  710 682 779 725 C 963.096 796.888 t 0 r /Helvetica findfont 31.931 sf 0 0 m (0) show NC gr 
 gsave  710 682 779 725 C 1042.79 796.888 t 0 r /Helvetica findfont 31.931 sf 0 0 m (10) show NC gr 
 gsave  710 682 779 725 C 1131.58 796.888 t 0 r /Helvetica findfont 31.931 sf 0 0 m (20) show NC gr 
 gsave  710 682 779 725 C 1220.38 796.888 t 0 r /Helvetica findfont 31.931 sf 0 0 m (30) show NC gr 
 gsave  710 682 779 725 C 1309.17 796.888 t 0 r /Helvetica findfont 31.931 sf 0 0 m (40) show NC gr 
 gsave  710 682 779 725 C 1397.97 796.888 t 0 r /Helvetica findfont 31.931 sf 0 0 m (50) show NC gr  885 827 m 511 Y s
 gsave  710 682 779 725 C 819.657 1101.98 t 90 r /Helvetica findfont 38.7733 sf 0 0 m (probability/bin) show NC gr  901 827 m -16 X s
 gsave  710 682 779 725 C 858.363 828.764 t 0 r /Helvetica findfont 20.5271 sf 0 0 m (\2558) show NC gr 
 gsave  710 682 779 725 C 824.21 812.826 t 0 r /Helvetica findfont 31.931 sf 0 0 m (10) show NC gr  893 846 m -8 X s 893 857 m -8 X s 893 865 m -8 X s 893 872 m -8 X s 893 877 m -8 X s 893 881 m -8 X s 893 885 m -8 X s 893 888 m -8 X s 901 891 m -16
 X s
 gsave  710 682 779 725 C 858.363 890.238 t 0 r /Helvetica findfont 20.5271 sf 0 0 m (\2557) show NC gr 
 gsave  710 682 779 725 C 824.21 876.577 t 0 r /Helvetica findfont 31.931 sf 0 0 m (10) show NC gr  893 910 m -8 X s 893 921 m -8 X s 893 929 m -8 X s 893 935 m -8 X s 893 941 m -8 X s 893 945 m -8 X s 893 949 m -8 X s 893 952 m -8 X s 901 955 m -16
 X s
 gsave  710 682 779 725 C 858.363 956.266 t 0 r /Helvetica findfont 20.5271 sf 0 0 m (\2556) show NC gr 
 gsave  710 682 779 725 C 824.21 940.328 t 0 r /Helvetica findfont 31.931 sf 0 0 m (10) show NC gr  893 974 m -8 X s 893 985 m -8 X s 893 993 m -8 X s 893 999 m -8 X s 893 1004 m -8 X s 893 1009 m -8 X s 893 1012 m -8 X s 893 1016 m -8 X s 901 1019 m
 -16 X s
 gsave  710 682 779 725 C 858.363 1020.02 t 0 r /Helvetica findfont 20.5271 sf 0 0 m (\2555) show NC gr 
 gsave  710 682 779 725 C 824.21 1004.08 t 0 r /Helvetica findfont 31.931 sf 0 0 m (10) show NC gr  893 1038 m -8 X s 893 1049 m -8 X s 893 1057 m -8 X s 893 1063 m -8 X s 893 1068 m -8 X s 893 1073 m -8 X s 893 1076 m -8 X s 893 1080 m -8 X s 901
 1083 m -16 X s
 gsave  710 682 779 725 C 858.363 1081.49 t 0 r /Helvetica findfont 20.5271 sf 0 0 m (\2554) show NC gr 
 gsave  710 682 779 725 C 824.21 1067.83 t 0 r /Helvetica findfont 31.931 sf 0 0 m (10) show NC gr  893 1102 m -8 X s 893 1113 m -8 X s 893 1121 m -8 X s 893 1127 m -8 X s 893 1132 m -8 X s 893 1137 m -8 X s 893 1140 m -8 X s 893 1144 m -8 X s 901
 1147 m -16 X s
 gsave  710 682 779 725 C 858.363 1147.52 t 0 r /Helvetica findfont 20.5271 sf 0 0 m (\2553) show NC gr 
 gsave  710 682 779 725 C 824.21 1131.58 t 0 r /Helvetica findfont 31.931 sf 0 0 m (10) show NC gr  893 1166 m -8 X s 893 1177 m -8 X s 893 1185 m -8 X s 893 1191 m -8 X s 893 1196 m -8 X s 893 1201 m -8 X s 893 1204 m -8 X s 893 1208 m -8 X s 901
 1210 m -16 X s
 gsave  710 682 779 725 C 858.363 1208.99 t 0 r /Helvetica findfont 20.5271 sf 0 0 m (\2552) show NC gr 
 gsave  710 682 779 725 C 824.21 1195.33 t 0 r /Helvetica findfont 31.931 sf 0 0 m (10) show NC gr  893 1230 m -8 X s 893 1241 m -8 X s 893 1249 m -8 X s 893 1255 m -8 X s 893 1260 m -8 X s 893 1264 m -8 X s 893 1268 m -8 X s 893 1271 m -8 X s 901
 1274 m -16 X s
 gsave  710 682 779 725 C 860.639 1272.74 t 0 r /Helvetica findfont 20.5271 sf 0 0 m (\2551) show NC gr 
 gsave  710 682 779 725 C 826.487 1259.08 t 0 r /Helvetica findfont 31.931 sf 0 0 m (10) show NC gr  893 1294 m -8 X s 893 1305 m -8 X s 893 1313 m -8 X s 893 1319 m -8 X s 893 1324 m -8 X s 893 1328 m -8 X s 893 1332 m -8 X s 893 1335 m -8 X s 901
 1338 m -16 X s
 gsave  710 682 779 725 C 878.77 1325.59 t 0 r  -17 0 t /Helvetica findfont 31.931 sf 0 0 m (1) show NC gr  6 lw 1 1 1 c black 932 862 m 4 Y s 3 lw /w 21 def /w2 {w 2 div} def /w3 {w 3 div} def 932 875 m20 6 lw 3 lw 936 918 m20 6 lw 3 lw 941 939 m20
 6 lw 3 lw 945 992 m20 6 lw 3 lw 950 1047 m20 6 lw 3 lw 954 1108 m20 6 lw 3 lw 958 1167 m20 6 lw 3 lw 963 1221 m20 6 lw 3 lw 967 1268 m20 6 lw 3 lw 972 1298 m20 6 lw 3 lw 976 1299 m20 6 lw 3 lw 981 1287 m20 6 lw 3 lw 985 1273 m20 6 lw 3 lw 990 1260
 m20 6 lw 3 lw 994 1248 m20 6 lw 3 lw 998 1236 m20 6 lw 3 lw 1003 1224 m20 6 lw 3 lw 1007 1212 m20 6 lw 3 lw 1012 1201 m20 6 lw 3 lw 1016 1191 m20 6 lw 3 lw 1021 1181 m20 6 lw 3 lw 1025 1171 m20 6 lw 3 lw 1029 1161 m20 6 lw 3 lw 1034 1152 m20 6 lw 3
 lw 1038 1144 m20 6 lw 3 lw 1043 1135 m20 6 lw 3 lw 1047 1127 m20 6 lw 3 lw 1052 1119 m20 6 lw 3 lw 1056 1112 m20 6 lw 3 lw 1061 1104 m20 6 lw 3 lw 1065 1098 m20 6 lw 3 lw 1069 1091 m20 6 lw 3 lw 1074 1085 m20 6 lw 3 lw 1078 1079 m20 6 lw 3 lw 1083
 1073 m20 6 lw 3 lw 1087 1067 m20 6 lw 3 lw 1092 1062 m20 6 lw 3 lw 1096 1057 m20 6 lw 3 lw 1101 1053 m20 6 lw 3 lw 1105 1048 m20 6 lw 3 lw 1109 1042 m20 6 lw 3 lw 1114 1039 m20 6 lw 3 lw 1118 1035 m20 6 lw 3 lw 1123 1031 m20 6 lw 3 lw 1127 1026 m20
 6 lw 3 lw 1132 1024 m20 6 lw 3 lw 1136 1020 m20 6 lw 3 lw 1141 1014 m20 6 lw 3 lw 1145 1011 m20 6 lw 3 lw 1149 1008 m20 6 lw 3 lw 1154 1006 m20 6 lw 3 lw 1158 1002 m20 6 lw 3 lw 1163 998 m20 6 lw 3 lw 1167 995 m20 6 lw 3 lw 1172 994 m20 6 lw 3 lw
 1176 987 m20 6 lw 3 lw 1180 987 m20 6 lw 3 lw 1185 982 m20 6 lw 3 lw 1189 983 m20 6 lw 3 lw 1194 978 m20 6 lw 3 lw 1198 978 m20 6 lw 3 lw 1203 976 m20 6 lw 3 lw 1207 972 m20 6 lw 3 lw 1212 969 m20 6 lw 3 lw 1216 966 m20 6 lw 3 lw 1220 964 m20 6 lw 3
 lw 1225 955 m20 6 lw 3 lw 1229 957 m20 6 lw 3 lw 1234 957 m20 6 lw 3 lw 1238 956 m20 6 lw 3 lw 1243 955 m20 6 lw 3 lw 1247 949 m20 6 lw 3 lw 1252 945 m20 6 lw 3 lw 1256 943 m20 6 lw 3 lw 1260 939 m20 6 lw 3 lw 1265 940 m20 6 lw 3 lw 1269 929 m20 6
 lw 3 lw 1274 939 m20 6 lw 3 lw 1278 924 m20 6 lw 3 lw 1283 926 m20 6 lw 3 lw 1287 930 m20 6 lw 3 lw 1292 931 m20 6 lw 3 lw 1296 931 m20 6 lw 3 lw 1300 924 m20 6 lw 3 lw 1305 918 m20 6 lw 3 lw 1309 918 m20 6 lw 3 lw 1314 915 m20 6 lw 3 lw 1318 922
 m20 6 lw 3 lw 1323 907 m20 6 lw 3 lw 1327 911 m20 6 lw 3 lw 1331 914 m20 6 lw 3 lw 1336 912 m20 6 lw 3 lw 1340 900 m20 6 lw 3 lw 1345 903 m20 6 lw 3 lw 1349 902 m20 6 lw 3 lw 1354 902 m20 6 lw 3 lw 1358 900 m20 6 lw 3 lw 1363 907 m20 6 lw 3 lw 1367
 895 m20 6 lw 1371 881 m s 3 lw 1371 890 m20 6 lw 1376 878 m 1 Y s 3 lw 1376 888 m20 6 lw 3 lw 1380 897 m20 6 lw 3 lw 1385 897 m20 6 lw 3 lw 1389 895 m20 6 lw 3 lw 1394 898 m20 6 lw 1398 862 m 4 Y s 3 lw 1398 875 m20 6 lw 1403 867 m 3 Y s 3 lw 1403
 879 m20 6 lw 1407 850 m 7 Y s 1407 875 m 1 Y s 3 lw 1407 866 m20 6 lw 1411 857 m 5 Y s 1411 880 m 1 Y s 3 lw 1411 871 m20 6 lw 1416 862 m 4 Y s 3 lw 1416 875 m20 6 lw 0 0 1 c 1 1 1 c 0 0 1 c 927 827 m 6 Y s 927 851 m 6 Y s 3 lw /w 18 def /w2 {w 2
 div} def /w3 {w 3 div} def 927 842 m21 6 lw 3 lw 932 898 m21 6 lw 3 lw 936 926 m21 6 lw 3 lw 941 950 m21 6 lw 3 lw 945 994 m21 6 lw 3 lw 950 1051 m21 6 lw 3 lw 954 1112 m21 6 lw 3 lw 958 1171 m21 6 lw 3 lw 963 1225 m21 6 lw 3 lw 967 1271 m21 6 lw 3
 lw 972 1301 m21 6 lw 3 lw 976 1302 m21 6 lw 3 lw 981 1287 m21 6 lw 3 lw 985 1271 m21 6 lw 3 lw 990 1255 m21 6 lw 3 lw 994 1239 m21 6 lw 3 lw 998 1224 m21 6 lw 3 lw 1003 1209 m21 6 lw 3 lw 1007 1195 m21 6 lw 3 lw 1012 1181 m21 6 lw 3 lw 1016 1169 m21
 6 lw 3 lw 1021 1157 m21 6 lw 3 lw 1025 1145 m21 6 lw 3 lw 1029 1134 m21 6 lw 3 lw 1034 1123 m21 6 lw 3 lw 1038 1113 m21 6 lw 3 lw 1043 1103 m21 6 lw 3 lw 1047 1094 m21 6 lw 3 lw 1052 1085 m21 6 lw 3 lw 1056 1077 m21 6 lw 3 lw 1061 1069 m21 6 lw 3 lw
 1065 1061 m21 6 lw 3 lw 1069 1055 m21 6 lw 3 lw 1074 1048 m21 6 lw 3 lw 1078 1043 m21 6 lw 3 lw 1083 1036 m21 6 lw 3 lw 1087 1030 m21 6 lw 3 lw 1092 1024 m21 6 lw 3 lw 1096 1019 m21 6 lw 3 lw 1101 1014 m21 6 lw 3 lw 1105 1010 m21 6 lw 3 lw 1109 1004
 m21 6 lw 3 lw 1114 1000 m21 6 lw 3 lw 1118 996 m21 6 lw 3 lw 1123 991 m21 6 lw 3 lw 1127 987 m21 6 lw 3 lw 1132 981 m21 6 lw 3 lw 1136 978 m21 6 lw 3 lw 1141 977 m21 6 lw 3 lw 1145 974 m21 6 lw 3 lw 1149 968 m21 6 lw 3 lw 1154 967 m21 6 lw 3 lw 1158
 963 m21 6 lw 3 lw 1163 962 m21 6 lw 3 lw 1167 956 m21 6 lw 3 lw 1172 952 m21 6 lw 3 lw 1176 949 m21 6 lw 3 lw 1180 948 m21 6 lw 3 lw 1185 944 m21 6 lw 3 lw 1189 945 m21 6 lw 3 lw 1194 940 m21 6 lw 3 lw 1198 940 m21 6 lw 3 lw 1203 938 m21 6 lw 3 lw
 1207 929 m21 6 lw 3 lw 1212 929 m21 6 lw 3 lw 1216 922 m21 6 lw 3 lw 1220 929 m21 6 lw 3 lw 1225 923 m21 6 lw 3 lw 1229 915 m21 6 lw 3 lw 1234 907 m21 6 lw 3 lw 1238 920 m21 6 lw 3 lw 1243 908 m21 6 lw 3 lw 1247 920 m21 6 lw 3 lw 1252 906 m21 6 lw 3
 lw 1256 909 m21 6 lw 3 lw 1260 907 m21 6 lw 3 lw 1265 901 m21 6 lw 1269 879 m 1 Y s 3 lw 1269 889 m21 6 lw 1274 868 m 3 Y s 3 lw 1274 880 m21 6 lw 3 lw 1278 896 m21 6 lw 1283 863 m 4 Y s 3 lw 1283 876 m21 6 lw 3 lw 1287 899 m21 6 lw 1292 868 m 3 Y s
 3 lw 1292 880 m21 6 lw 1296 879 m 1 Y s 3 lw 1296 889 m21 6 lw 1300 879 m 1 Y s 3 lw 1300 889 m21 6 lw 1305 842 m 10 Y s 1305 870 m 2 Y s 3 lw 1305 861 m21 6 lw 1309 827 m 6 Y s 1309 851 m 6 Y s 3 lw 1309 842 m21 6 lw 1314 858 m 5 Y s 1314 881 m 1 Y
 s 3 lw 1314 872 m21 6 lw 1318 851 m 7 Y s 1318 876 m 1 Y s 3 lw 1318 867 m21 6 lw 1323 851 m 7 Y s 1323 876 m 1 Y s 3 lw 1323 867 m21 6 lw 1327 829 m 15 Y s 1327 862 m 4 Y s 3 lw 1327 853 m21 6 lw 1331 872 m 2 Y s 3 lw 1331 883 m21 6 lw 1336 868 m 3
 Y s 3 lw 1336 880 m21 6 lw 1340 827 m 6 Y s 1340 851 m 6 Y s 3 lw 1340 842 m21 6 lw 1345 851 m 7 Y s 1345 876 m 1 Y s 3 lw 1345 867 m21 6 lw 1349 851 m 7 Y s 1349 876 m 1 Y s 3 lw 1349 867 m21 6 lw 1358 851 m 7 Y s 1358 876 m 1 Y s 3 lw 1358 867 m21
 6 lw 1363 829 m 15 Y s 1363 862 m 4 Y s 3 lw 1363 853 m21 6 lw 1367 827 m 6 Y s 1367 851 m 6 Y s 3 lw 1367 842 m21 6 lw 1371 863 m 4 Y s 3 lw 1371 876 m21 6 lw 1376 863 m 4 Y s 3 lw 1376 876 m21 6 lw 1385 827 m 6 Y s 1385 851 m 6 Y s 3 lw 1385 842
 m21 6 lw 1389 829 m 15 Y s 1389 862 m 4 Y s 3 lw 1389 853 m21 6 lw 1398 851 m 7 Y s 1398 876 m 1 Y s 3 lw 1398 867 m21 6 lw 1403 827 m 6 Y s 1403 851 m 6 Y s 3 lw 1403 842 m21 6 lw 1407 829 m 15 Y s 1407 862 m 4 Y s 3 lw 1407 853 m21 6 lw 1411 827 m
 6 Y s 1411 851 m 6 Y s 3 lw 1411 842 m21 6 lw 1 0 0 c 1 1 1 c 1 0 0 c 927 841 m 10 Y s 927 869 m 2 Y s 3 lw 927 860 m22 6 lw 3 lw 932 895 m22 6 lw 3 lw 936 913 m22 6 lw 3 lw 941 943 m22 6 lw 3 lw 945 991 m22 6 lw 3 lw 950 1048 m22 6 lw 3 lw 954 1109
 m22 6 lw 3 lw 958 1167 m22 6 lw 3 lw 963 1222 m22 6 lw 3 lw 967 1268 m22 6 lw 3 lw 972 1298 m22 6 lw 3 lw 976 1300 m22 6 lw 3 lw 981 1287 m22 6 lw 3 lw 985 1273 m22 6 lw 3 lw 990 1260 m22 6 lw 3 lw 994 1247 m22 6 lw 3 lw 998 1235 m22 6 lw 3 lw 1003
 1223 m22 6 lw 3 lw 1007 1211 m22 6 lw 3 lw 1012 1200 m22 6 lw 3 lw 1016 1189 m22 6 lw 3 lw 1021 1179 m22 6 lw 3 lw 1025 1169 m22 6 lw 3 lw 1029 1160 m22 6 lw 3 lw 1034 1151 m22 6 lw 3 lw 1038 1142 m22 6 lw 3 lw 1043 1133 m22 6 lw 3 lw 1047 1125 m22
 6 lw 3 lw 1052 1117 m22 6 lw 3 lw 1056 1110 m22 6 lw 3 lw 1061 1103 m22 6 lw 3 lw 1065 1096 m22 6 lw 3 lw 1069 1089 m22 6 lw 3 lw 1074 1082 m22 6 lw 3 lw 1078 1077 m22 6 lw 3 lw 1083 1071 m22 6 lw 3 lw 1087 1065 m22 6 lw 3 lw 1092 1060 m22 6 lw 3 lw
 1096 1055 m22 6 lw 3 lw 1101 1050 m22 6 lw 3 lw 1105 1046 m22 6 lw 3 lw 1109 1041 m22 6 lw 3 lw 1114 1037 m22 6 lw 3 lw 1118 1033 m22 6 lw 3 lw 1123 1027 m22 6 lw 3 lw 1127 1025 m22 6 lw 3 lw 1132 1021 m22 6 lw 3 lw 1136 1016 m22 6 lw 3 lw 1141 1015
 m22 6 lw 3 lw 1145 1009 m22 6 lw 3 lw 1149 1006 m22 6 lw 3 lw 1154 1003 m22 6 lw 3 lw 1158 999 m22 6 lw 3 lw 1163 996 m22 6 lw 3 lw 1167 995 m22 6 lw 3 lw 1172 991 m22 6 lw 3 lw 1176 989 m22 6 lw 3 lw 1180 986 m22 6 lw 3 lw 1185 981 m22 6 lw 3 lw
 1189 979 m22 6 lw 3 lw 1194 975 m22 6 lw 3 lw 1198 974 m22 6 lw 3 lw 1203 969 m22 6 lw 3 lw 1207 966 m22 6 lw 3 lw 1212 966 m22 6 lw 3 lw 1216 964 m22 6 lw 3 lw 1220 962 m22 6 lw 3 lw 1225 955 m22 6 lw 3 lw 1229 955 m22 6 lw 3 lw 1234 958 m22 6 lw 3
 lw 1238 955 m22 6 lw 3 lw 1243 948 m22 6 lw 3 lw 1247 937 m22 6 lw 3 lw 1252 949 m22 6 lw 3 lw 1256 941 m22 6 lw 3 lw 1260 939 m22 6 lw 3 lw 1265 945 m22 6 lw 3 lw 1269 940 m22 6 lw 3 lw 1274 933 m22 6 lw 3 lw 1278 935 m22 6 lw 3 lw 1283 933 m22 6
 lw 3 lw 1287 927 m22 6 lw 3 lw 1292 918 m22 6 lw 3 lw 1296 922 m22 6 lw 3 lw 1300 925 m22 6 lw 3 lw 1305 907 m22 6 lw 3 lw 1309 916 m22 6 lw 3 lw 1314 911 m22 6 lw 3 lw 1318 921 m22 6 lw 3 lw 1323 918 m22 6 lw 3 lw 1327 906 m22 6 lw 3 lw 1331 905
 m22 6 lw 3 lw 1336 916 m22 6 lw 3 lw 1340 900 m22 6 lw 3 lw 1345 895 m22 6 lw 3 lw 1349 898 m22 6 lw 3 lw 1354 895 m22 6 lw 1358 875 m 1 Y s 3 lw 1358 885 m22 6 lw 1363 875 m 1 Y s 3 lw 1363 885 m22 6 lw 1367 862 m 4 Y s 3 lw 1367 876 m22 6 lw 3 lw
 1371 895 m22 6 lw 1376 881 m s 3 lw 1376 890 m22 6 lw 3 lw 1380 898 m22 6 lw 3 lw 1385 895 m22 6 lw 3 lw 1389 895 m22 6 lw 1394 875 m 1 Y s 3 lw 1394 885 m22 6 lw 3 lw 1398 893 m22 6 lw 1403 881 m s 3 lw 1403 890 m22 6 lw 1407 875 m 1 Y s 3 lw 1407
 885 m22 6 lw 1411 867 m 3 Y s 3 lw 1411 879 m22 6 lw 1416 857 m 5 Y s 1416 880 m 1 Y s 3 lw 1416 871 m22 6 lw black
 gsave  710 682 779 725 C 1124.75 1306.9 t 0 r /Helvetica findfont 29.6502 sf 0 0 m (Centrality: 20 \255 40%) show NC gr 
 gsave  710 682 779 725 C 1206.72 1213.55 t 0 r /Helvetica findfont 29.6502 sf 0 0 m (=1.31 GeV/c) show NC gr 
 gsave  710 682 779 725 C 1188.5 1213.55 t 0 r /Symbol findfont 29.6502 sf 0 0 m (s) show NC gr 
 gsave  710 682 779 725 C 1188.5 1245.42 t 0 r /Helvetica findfont 29.6502 sf 0 0 m (RC) show NC gr  3 lw /w 21 def /w2 {w 2 div} def /w3 {w 3 div} def 1155 1239 m20 6 lw
 gsave  710 682 779 725 C 1206.72 1136.14 t 0 r /Helvetica findfont 29.6502 sf 0 0 m (=1.03 GeV/c) show NC gr 
 gsave  710 682 779 725 C 1188.5 1136.14 t 0 r /Symbol findfont 29.6502 sf 0 0 m (s) show NC gr 
 gsave  710 682 779 725 C 1188.5 1172.56 t 0 r /Helvetica findfont 29.6502 sf 0 0 m (RC w/o lead. jet) show NC gr  0 0 1 c 3 lw /w 18 def /w2 {w 2 div} def /w3 {w 3 div} def 1155 1164 m21 6 lw black
 gsave  710 682 779 725 C 1206.72 1061 t 0 r /Helvetica findfont 29.6502 sf 0 0 m (=1.29 GeV/c) show NC gr 
 gsave  710 682 779 725 C 1188.5 1061 t 0 r /Symbol findfont 29.6502 sf 0 0 m (s) show NC gr 
 gsave  710 682 779 725 C 1188.5 1097.43 t 0 r /Helvetica findfont 29.6502 sf 0 0 m (RC partial) show NC gr  1 0 0 c 3 lw 1155 1089 m22 6 lw black 3 lw 0.999 0.999 0.999 c 711 682 1534 725 bf black 1 1 1 c 533 511 1641 827 bf black 533 511 1641 827
 bl 1 1 1 c 533 511 1641 827 bf black 533 511 1641 827 bl 0 0 0.6 c 1 1 1 c black 0 0 0.6 c 1641 827 m 533 X s black 1641 827 m 533 X s
 gsave  711 682 1534 725 C 2160.71 765.013 t 0 r /Helvetica findfont 38.7733 sf 0 0 m (\)) show NC gr 
 gsave  711 682 1534 725 C 2137.94 765.013 t 0 r /Helvetica-Oblique findfont 38.7733 sf 0 0 m (c) show NC gr 
 gsave  711 682 1534 725 C 2024.1 765.013 t 0 r /Helvetica findfont 38.7733 sf 0 0 m ( \(GeV/) show NC gr 
 gsave  711 682 1534 725 C 2008.16 742.245 t 0 r /Helvetica findfont 25.0886 sf 0 0 m (T) show NC gr 
 gsave  711 682 1534 725 C 1983.11 765.013 t 0 r /Helvetica-Oblique findfont 38.7733 sf 0 0 m (p) show NC gr 
 gsave  711 682 1534 725 C 1969.45 765.013 t 0 r /Helvetica findfont 38.7733 sf 0 0 m ( ) show NC gr 
 gsave  711 682 1534 725 C 1948.96 765.013 t 0 r /Symbol findfont 38.7733 sf 0 0 m (d) show NC gr  1641 842 m -15 Y s 1659 835 m -8 Y s 1677 835 m -8 Y s 1694 835 m -8 Y s 1712 835 m -8 Y s 1730 842 m -15 Y s 1748 835 m -8 Y s 1765 835 m -8 Y s 1783
 835 m -8 Y s 1801 835 m -8 Y s 1819 842 m -15 Y s 1836 835 m -8 Y s 1854 835 m -8 Y s 1872 835 m -8 Y s 1890 835 m -8 Y s 1908 842 m -15 Y s 1925 835 m -8 Y s 1943 835 m -8 Y s 1961 835 m -8 Y s 1979 835 m -8 Y s 1996 842 m -15 Y s 2014 835 m -8 Y s
 2032 835 m -8 Y s 2050 835 m -8 Y s 2067 835 m -8 Y s 2085 842 m -15 Y s 2103 835 m -8 Y s 2121 835 m -8 Y s 2138 835 m -8 Y s 2156 835 m -8 Y s 2174 842 m -15 Y s
 gsave  711 682 1534 725 C 1616.54 796.888 t 0 r /Helvetica findfont 31.931 sf 0 0 m (\25510) show NC gr 
 gsave  711 682 1534 725 C 1719 796.888 t 0 r /Helvetica findfont 31.931 sf 0 0 m (0) show NC gr 
 gsave  711 682 1534 725 C 1798.69 796.888 t 0 r /Helvetica findfont 31.931 sf 0 0 m (10) show NC gr 
 gsave  711 682 1534 725 C 1887.49 796.888 t 0 r /Helvetica findfont 31.931 sf 0 0 m (20) show NC gr 
 gsave  711 682 1534 725 C 1976.28 796.888 t 0 r /Helvetica findfont 31.931 sf 0 0 m (30) show NC gr 
 gsave  711 682 1534 725 C 2065.08 796.888 t 0 r /Helvetica findfont 31.931 sf 0 0 m (40) show NC gr 
 gsave  711 682 1534 725 C 2153.88 796.888 t 0 r /Helvetica findfont 31.931 sf 0 0 m (50) show NC gr  1641 827 m 511 Y s
 gsave  711 682 1534 725 C 1575.56 1101.98 t 90 r /Helvetica findfont 38.7733 sf 0 0 m (probability/bin) show NC gr  1657 827 m -16 X s
 gsave  711 682 1534 725 C 1614.27 828.764 t 0 r /Helvetica findfont 20.5271 sf 0 0 m (\2558) show NC gr 
 gsave  711 682 1534 725 C 1580.12 812.826 t 0 r /Helvetica findfont 31.931 sf 0 0 m (10) show NC gr  1649 846 m -8 X s 1649 857 m -8 X s 1649 865 m -8 X s 1649 872 m -8 X s 1649 877 m -8 X s 1649 881 m -8 X s 1649 885 m -8 X s 1649 888 m -8 X s 1657
 891 m -16 X s
 gsave  711 682 1534 725 C 1614.27 890.238 t 0 r /Helvetica findfont 20.5271 sf 0 0 m (\2557) show NC gr 
 gsave  711 682 1534 725 C 1580.12 876.577 t 0 r /Helvetica findfont 31.931 sf 0 0 m (10) show NC gr  1649 910 m -8 X s 1649 921 m -8 X s 1649 929 m -8 X s 1649 935 m -8 X s 1649 941 m -8 X s 1649 945 m -8 X s 1649 949 m -8 X s 1649 952 m -8 X s 1657
 955 m -16 X s
 gsave  711 682 1534 725 C 1614.27 956.266 t 0 r /Helvetica findfont 20.5271 sf 0 0 m (\2556) show NC gr 
 gsave  711 682 1534 725 C 1580.12 940.328 t 0 r /Helvetica findfont 31.931 sf 0 0 m (10) show NC gr  1649 974 m -8 X s 1649 985 m -8 X s 1649 993 m -8 X s 1649 999 m -8 X s 1649 1004 m -8 X s 1649 1009 m -8 X s 1649 1012 m -8 X s 1649 1016 m -8 X s
 1657 1019 m -16 X s
 gsave  711 682 1534 725 C 1614.27 1020.02 t 0 r /Helvetica findfont 20.5271 sf 0 0 m (\2555) show NC gr 
 gsave  711 682 1534 725 C 1580.12 1004.08 t 0 r /Helvetica findfont 31.931 sf 0 0 m (10) show NC gr  1649 1038 m -8 X s 1649 1049 m -8 X s 1649 1057 m -8 X s 1649 1063 m -8 X s 1649 1068 m -8 X s 1649 1073 m -8 X s 1649 1076 m -8 X s 1649 1080 m -8
 X s 1657 1083 m -16 X s
 gsave  711 682 1534 725 C 1614.27 1081.49 t 0 r /Helvetica findfont 20.5271 sf 0 0 m (\2554) show NC gr 
 gsave  711 682 1534 725 C 1580.12 1067.83 t 0 r /Helvetica findfont 31.931 sf 0 0 m (10) show NC gr  1649 1102 m -8 X s 1649 1113 m -8 X s 1649 1121 m -8 X s 1649 1127 m -8 X s 1649 1132 m -8 X s 1649 1137 m -8 X s 1649 1140 m -8 X s 1649 1144 m -8
 X s 1657 1147 m -16 X s
 gsave  711 682 1534 725 C 1614.27 1147.52 t 0 r /Helvetica findfont 20.5271 sf 0 0 m (\2553) show NC gr 
 gsave  711 682 1534 725 C 1580.12 1131.58 t 0 r /Helvetica findfont 31.931 sf 0 0 m (10) show NC gr  1649 1166 m -8 X s 1649 1177 m -8 X s 1649 1185 m -8 X s 1649 1191 m -8 X s 1649 1196 m -8 X s 1649 1201 m -8 X s 1649 1204 m -8 X s 1649 1208 m -8
 X s 1657 1210 m -16 X s
 gsave  711 682 1534 725 C 1614.27 1208.99 t 0 r /Helvetica findfont 20.5271 sf 0 0 m (\2552) show NC gr 
 gsave  711 682 1534 725 C 1580.12 1195.33 t 0 r /Helvetica findfont 31.931 sf 0 0 m (10) show NC gr  1649 1230 m -8 X s 1649 1241 m -8 X s 1649 1249 m -8 X s 1649 1255 m -8 X s 1649 1260 m -8 X s 1649 1264 m -8 X s 1649 1268 m -8 X s 1649 1271 m -8
 X s 1657 1274 m -16 X s
 gsave  711 682 1534 725 C 1616.54 1272.74 t 0 r /Helvetica findfont 20.5271 sf 0 0 m (\2551) show NC gr 
 gsave  711 682 1534 725 C 1582.39 1259.08 t 0 r /Helvetica findfont 31.931 sf 0 0 m (10) show NC gr  1649 1294 m -8 X s 1649 1305 m -8 X s 1649 1313 m -8 X s 1649 1319 m -8 X s 1649 1324 m -8 X s 1649 1328 m -8 X s 1649 1332 m -8 X s 1649 1335 m -8
 X s 1657 1338 m -16 X s
 gsave  711 682 1534 725 C 1634.68 1325.59 t 0 r  -17 0 t /Helvetica findfont 31.931 sf 0 0 m (1) show NC gr  6 lw 1 1 1 c black 3 lw /w 22 def /w2 {w 2 div} def /w3 {w 3 div} def 1701 933 m20 6 lw 3 lw 1705 994 m20 6 lw 3 lw 1710 1055 m20 6 lw 3 lw
 1714 1122 m20 6 lw 3 lw 1719 1188 m20 6 lw 3 lw 1723 1248 m20 6 lw 3 lw 1728 1296 m20 6 lw 3 lw 1732 1307 m20 6 lw 3 lw 1737 1290 m20 6 lw 3 lw 1741 1273 m20 6 lw 3 lw 1745 1258 m20 6 lw 3 lw 1750 1243 m20 6 lw 3 lw 1754 1229 m20 6 lw 3 lw 1759 1215
 m20 6 lw 3 lw 1763 1202 m20 6 lw 3 lw 1768 1190 m20 6 lw 3 lw 1772 1179 m20 6 lw 3 lw 1777 1169 m20 6 lw 3 lw 1781 1159 m20 6 lw 3 lw 1785 1149 m20 6 lw 3 lw 1790 1139 m20 6 lw 3 lw 1794 1131 m20 6 lw 3 lw 1799 1122 m20 6 lw 3 lw 1803 1114 m20 6 lw
 3 lw 1808 1107 m20 6 lw 3 lw 1812 1099 m20 6 lw 3 lw 1816 1093 m20 6 lw 3 lw 1821 1086 m20 6 lw 3 lw 1825 1080 m20 6 lw 3 lw 1830 1074 m20 6 lw 3 lw 1834 1068 m20 6 lw 3 lw 1839 1063 m20 6 lw 3 lw 1843 1058 m20 6 lw 3 lw 1848 1053 m20 6 lw 3 lw 1852
 1047 m20 6 lw 3 lw 1856 1042 m20 6 lw 3 lw 1861 1040 m20 6 lw 3 lw 1865 1033 m20 6 lw 3 lw 1870 1030 m20 6 lw 3 lw 1874 1028 m20 6 lw 3 lw 1879 1024 m20 6 lw 3 lw 1883 1018 m20 6 lw 3 lw 1888 1016 m20 6 lw 3 lw 1892 1012 m20 6 lw 3 lw 1896 1007 m20
 6 lw 3 lw 1901 1005 m20 6 lw 3 lw 1905 1001 m20 6 lw 3 lw 1910 996 m20 6 lw 3 lw 1914 993 m20 6 lw 3 lw 1919 991 m20 6 lw 3 lw 1923 992 m20 6 lw 3 lw 1928 983 m20 6 lw 3 lw 1932 985 m20 6 lw 3 lw 1936 979 m20 6 lw 3 lw 1941 981 m20 6 lw 3 lw 1945
 971 m20 6 lw 3 lw 1950 969 m20 6 lw 3 lw 1954 972 m20 6 lw 3 lw 1959 966 m20 6 lw 3 lw 1963 964 m20 6 lw 3 lw 1967 961 m20 6 lw 3 lw 1972 960 m20 6 lw 3 lw 1976 952 m20 6 lw 3 lw 1981 954 m20 6 lw 3 lw 1985 954 m20 6 lw 3 lw 1990 953 m20 6 lw 3 lw
 1994 946 m20 6 lw 3 lw 1999 943 m20 6 lw 3 lw 2003 944 m20 6 lw 3 lw 2007 938 m20 6 lw 3 lw 2012 940 m20 6 lw 3 lw 2016 934 m20 6 lw 3 lw 2021 936 m20 6 lw 3 lw 2025 928 m20 6 lw 3 lw 2030 929 m20 6 lw 3 lw 2034 928 m20 6 lw 3 lw 2039 920 m20 6 lw 3
 lw 2043 921 m20 6 lw 3 lw 2047 926 m20 6 lw 3 lw 2052 914 m20 6 lw 3 lw 2056 904 m20 6 lw 3 lw 2061 918 m20 6 lw 3 lw 2065 912 m20 6 lw 3 lw 2070 917 m20 6 lw 3 lw 2074 912 m20 6 lw 3 lw 2079 913 m20 6 lw 3 lw 2083 916 m20 6 lw 3 lw 2087 906 m20 6
 lw 3 lw 2092 909 m20 6 lw 3 lw 2096 908 m20 6 lw 3 lw 2101 902 m20 6 lw 3 lw 2105 916 m20 6 lw 3 lw 2110 904 m20 6 lw 2114 877 m 2 Y s 3 lw 2114 888 m20 6 lw 2118 873 m 3 Y s 3 lw 2118 885 m20 6 lw 2123 877 m 2 Y s 3 lw 2123 888 m20 6 lw 2127 884 m
 1 Y s 3 lw 2127 894 m20 6 lw 2132 856 m 7 Y s 2132 881 m 1 Y s 3 lw 2132 872 m20 6 lw 2136 862 m 6 Y s 2136 886 m 1 Y s 3 lw 2136 877 m20 6 lw 2141 868 m 4 Y s 3 lw 2141 881 m20 6 lw 3 lw 2145 906 m20 6 lw 2150 873 m 3 Y s 3 lw 2150 885 m20 6 lw
 2154 873 m 3 Y s 3 lw 2154 885 m20 6 lw 2158 873 m 3 Y s 3 lw 2158 885 m20 6 lw 2163 856 m 7 Y s 2163 881 m 1 Y s 3 lw 2163 872 m20 6 lw 2167 836 m 11 Y s 3 lw 2167 827 m20 6 lw 2172 827 m 10 Y s 2172 856 m 5 Y s 3 lw 2172 847 m20 6 lw 0 0 1 c 1 1 1
 c 0 0 1 c 1697 827 m 12 Y s 1697 857 m 6 Y s 3 lw /w 19 def /w2 {w 2 div} def /w3 {w 3 div} def 1697 848 m21 6 lw 3 lw 1701 935 m21 6 lw 3 lw 1705 996 m21 6 lw 3 lw 1710 1060 m21 6 lw 3 lw 1714 1127 m21 6 lw 3 lw 1719 1192 m21 6 lw 3 lw 1723 1252
 m21 6 lw 3 lw 1728 1300 m21 6 lw 3 lw 1732 1310 m21 6 lw 3 lw 1737 1290 m21 6 lw 3 lw 1741 1269 m21 6 lw 3 lw 1745 1249 m21 6 lw 3 lw 1750 1230 m21 6 lw 3 lw 1754 1213 m21 6 lw 3 lw 1759 1196 m21 6 lw 3 lw 1763 1181 m21 6 lw 3 lw 1768 1166 m21 6 lw
 3 lw 1772 1153 m21 6 lw 3 lw 1777 1141 m21 6 lw 3 lw 1781 1129 m21 6 lw 3 lw 1785 1118 m21 6 lw 3 lw 1790 1107 m21 6 lw 3 lw 1794 1097 m21 6 lw 3 lw 1799 1089 m21 6 lw 3 lw 1803 1080 m21 6 lw 3 lw 1808 1071 m21 6 lw 3 lw 1812 1064 m21 6 lw 3 lw 1816
 1056 m21 6 lw 3 lw 1821 1049 m21 6 lw 3 lw 1825 1043 m21 6 lw 3 lw 1830 1035 m21 6 lw 3 lw 1834 1031 m21 6 lw 3 lw 1839 1026 m21 6 lw 3 lw 1843 1019 m21 6 lw 3 lw 1848 1016 m21 6 lw 3 lw 1852 1010 m21 6 lw 3 lw 1856 1007 m21 6 lw 3 lw 1861 1001 m21
 6 lw 3 lw 1865 997 m21 6 lw 3 lw 1870 992 m21 6 lw 3 lw 1874 987 m21 6 lw 3 lw 1879 982 m21 6 lw 3 lw 1883 981 m21 6 lw 3 lw 1888 975 m21 6 lw 3 lw 1892 973 m21 6 lw 3 lw 1896 967 m21 6 lw 3 lw 1901 966 m21 6 lw 3 lw 1905 966 m21 6 lw 3 lw 1910 961
 m21 6 lw 3 lw 1914 955 m21 6 lw 3 lw 1919 957 m21 6 lw 3 lw 1923 954 m21 6 lw 3 lw 1928 950 m21 6 lw 3 lw 1932 944 m21 6 lw 3 lw 1936 940 m21 6 lw 3 lw 1941 940 m21 6 lw 3 lw 1945 940 m21 6 lw 3 lw 1950 933 m21 6 lw 3 lw 1954 928 m21 6 lw 3 lw 1959
 924 m21 6 lw 3 lw 1963 924 m21 6 lw 3 lw 1967 924 m21 6 lw 3 lw 1972 926 m21 6 lw 3 lw 1976 924 m21 6 lw 3 lw 1981 913 m21 6 lw 3 lw 1985 913 m21 6 lw 3 lw 1990 911 m21 6 lw 3 lw 1994 911 m21 6 lw 1999 882 m 2 Y s 3 lw 1999 893 m21 6 lw 3 lw 2003
 902 m21 6 lw 2007 874 m 3 Y s 3 lw 2007 887 m21 6 lw 3 lw 2012 904 m21 6 lw 2016 857 m 7 Y s 2016 883 m 1 Y s 3 lw 2016 874 m21 6 lw 3 lw 2021 912 m21 6 lw 3 lw 2025 906 m21 6 lw 2030 882 m 2 Y s 3 lw 2030 893 m21 6 lw 2034 885 m 1 Y s 3 lw 2034 895
 m21 6 lw 2039 870 m 4 Y s 3 lw 2039 883 m21 6 lw 2043 885 m 1 Y s 3 lw 2043 895 m21 6 lw 2047 885 m 1 Y s 3 lw 2047 895 m21 6 lw 2052 870 m 4 Y s 3 lw 2052 883 m21 6 lw 2056 879 m 2 Y s 3 lw 2056 890 m21 6 lw 2061 888 m 1 Y s 3 lw 2061 898 m21 6 lw
 2065 848 m 10 Y s 2065 876 m 3 Y s 3 lw 2065 867 m21 6 lw 2070 857 m 7 Y s 2070 883 m 1 Y s 3 lw 2070 874 m21 6 lw 2074 857 m 7 Y s 2074 883 m 1 Y s 3 lw 2074 874 m21 6 lw 2079 882 m 2 Y s 3 lw 2079 893 m21 6 lw 2083 835 m 15 Y s 2083 868 m 4 Y s 3
 lw 2083 859 m21 6 lw 2087 870 m 4 Y s 3 lw 2087 883 m21 6 lw 2092 864 m 5 Y s 2092 888 m s 3 lw 2092 879 m21 6 lw 2096 864 m 5 Y s 2096 888 m s 3 lw 2096 879 m21 6 lw 2101 857 m 7 Y s 2101 883 m 1 Y s 3 lw 2101 874 m21 6 lw 2105 827 m 12 Y s 2105
 857 m 6 Y s 3 lw 2105 848 m21 6 lw 2110 835 m 15 Y s 2110 868 m 4 Y s 3 lw 2110 859 m21 6 lw 2114 857 m 7 Y s 2114 883 m 1 Y s 3 lw 2114 874 m21 6 lw 2118 864 m 5 Y s 2118 888 m s 3 lw 2118 879 m21 6 lw 2123 838 m 10 Y s 3 lw 2123 829 m21 6 lw 2127
 827 m 12 Y s 2127 857 m 6 Y s 3 lw 2127 848 m21 6 lw 2132 838 m 10 Y s 3 lw 2132 829 m21 6 lw 2141 827 m 12 Y s 2141 857 m 6 Y s 3 lw 2141 848 m21 6 lw 2145 835 m 15 Y s 2145 868 m 4 Y s 3 lw 2145 859 m21 6 lw 2154 827 m 12 Y s 2154 857 m 6 Y s 3 lw
 2154 848 m21 6 lw 2163 838 m 10 Y s 3 lw 2163 829 m21 6 lw 2167 827 m 12 Y s 2167 857 m 6 Y s 3 lw 2167 848 m21 6 lw 2172 838 m 10 Y s 3 lw 2172 829 m21 6 lw 1 0 0 c 1 1 1 c 1 0 0 c 1697 827 m 11 Y s 1697 856 m 6 Y s 3 lw 1697 847 m22 6 lw 3 lw 1701
 938 m22 6 lw 3 lw 1705 993 m22 6 lw 3 lw 1710 1055 m22 6 lw 3 lw 1714 1123 m22 6 lw 3 lw 1719 1188 m22 6 lw 3 lw 1723 1248 m22 6 lw 3 lw 1728 1297 m22 6 lw 3 lw 1732 1307 m22 6 lw 3 lw 1737 1290 m22 6 lw 3 lw 1741 1273 m22 6 lw 3 lw 1745 1257 m22 6
 lw 3 lw 1750 1241 m22 6 lw 3 lw 1754 1227 m22 6 lw 3 lw 1759 1213 m22 6 lw 3 lw 1763 1200 m22 6 lw 3 lw 1768 1188 m22 6 lw 3 lw 1772 1177 m22 6 lw 3 lw 1777 1166 m22 6 lw 3 lw 1781 1156 m22 6 lw 3 lw 1785 1146 m22 6 lw 3 lw 1790 1137 m22 6 lw 3 lw
 1794 1128 m22 6 lw 3 lw 1799 1120 m22 6 lw 3 lw 1803 1112 m22 6 lw 3 lw 1808 1104 m22 6 lw 3 lw 1812 1097 m22 6 lw 3 lw 1816 1090 m22 6 lw 3 lw 1821 1083 m22 6 lw 3 lw 1825 1077 m22 6 lw 3 lw 1830 1072 m22 6 lw 3 lw 1834 1066 m22 6 lw 3 lw 1839 1061
 m22 6 lw 3 lw 1843 1054 m22 6 lw 3 lw 1848 1050 m22 6 lw 3 lw 1852 1045 m22 6 lw 3 lw 1856 1041 m22 6 lw 3 lw 1861 1037 m22 6 lw 3 lw 1865 1031 m22 6 lw 3 lw 1870 1027 m22 6 lw 3 lw 1874 1024 m22 6 lw 3 lw 1879 1020 m22 6 lw 3 lw 1883 1015 m22 6 lw
 3 lw 1888 1011 m22 6 lw 3 lw 1892 1008 m22 6 lw 3 lw 1896 1008 m22 6 lw 3 lw 1901 1001 m22 6 lw 3 lw 1905 999 m22 6 lw 3 lw 1910 995 m22 6 lw 3 lw 1914 994 m22 6 lw 3 lw 1919 990 m22 6 lw 3 lw 1923 990 m22 6 lw 3 lw 1928 984 m22 6 lw 3 lw 1932 985
 m22 6 lw 3 lw 1936 979 m22 6 lw 3 lw 1941 975 m22 6 lw 3 lw 1945 972 m22 6 lw 3 lw 1950 969 m22 6 lw 3 lw 1954 964 m22 6 lw 3 lw 1959 961 m22 6 lw 3 lw 1963 963 m22 6 lw 3 lw 1967 958 m22 6 lw 3 lw 1972 952 m22 6 lw 3 lw 1976 953 m22 6 lw 3 lw 1981
 953 m22 6 lw 3 lw 1985 952 m22 6 lw 3 lw 1990 949 m22 6 lw 3 lw 1994 930 m22 6 lw 3 lw 1999 942 m22 6 lw 3 lw 2003 942 m22 6 lw 3 lw 2007 934 m22 6 lw 3 lw 2012 939 m22 6 lw 3 lw 2016 937 m22 6 lw 3 lw 2021 936 m22 6 lw 3 lw 2025 940 m22 6 lw 3 lw
 2030 917 m22 6 lw 3 lw 2034 927 m22 6 lw 3 lw 2039 925 m22 6 lw 3 lw 2043 923 m22 6 lw 3 lw 2047 918 m22 6 lw 3 lw 2052 926 m22 6 lw 3 lw 2056 901 m22 6 lw 3 lw 2061 915 m22 6 lw 3 lw 2065 901 m22 6 lw 3 lw 2070 912 m22 6 lw 3 lw 2074 904 m22 6 lw 3
 lw 2079 917 m22 6 lw 3 lw 2083 913 m22 6 lw 3 lw 2087 903 m22 6 lw 3 lw 2092 899 m22 6 lw 3 lw 2096 908 m22 6 lw 2101 873 m 3 Y s 3 lw 2101 885 m22 6 lw 3 lw 2105 903 m22 6 lw 2110 887 m s 3 lw 2110 896 m22 6 lw 3 lw 2114 901 m22 6 lw 2118 881 m 1 Y
 s 3 lw 2118 891 m22 6 lw 2123 827 m 11 Y s 2123 856 m 6 Y s 3 lw 2123 847 m22 6 lw 2127 873 m 3 Y s 3 lw 2127 885 m22 6 lw 2132 873 m 3 Y s 3 lw 2132 885 m22 6 lw 2136 868 m 4 Y s 3 lw 2136 882 m22 6 lw 2141 863 m 5 Y s 2141 886 m 1 Y s 3 lw 2141
 877 m22 6 lw 2145 877 m 2 Y s 3 lw 2145 888 m22 6 lw 2150 873 m 3 Y s 3 lw 2150 885 m22 6 lw 2154 834 m 15 Y s 2154 867 m 4 Y s 3 lw 2154 858 m22 6 lw 2158 863 m 5 Y s 2158 886 m 1 Y s 3 lw 2158 877 m22 6 lw 2163 847 m 10 Y s 2163 875 m 2 Y s 3 lw
 2163 866 m22 6 lw 2167 827 m 11 Y s 2167 856 m 6 Y s 3 lw 2167 847 m22 6 lw 2172 873 m 3 Y s 3 lw 2172 885 m22 6 lw black
 gsave  711 682 1534 725 C 1880.66 1306.9 t 0 r /Helvetica findfont 29.6502 sf 0 0 m (Centrality: 40 \255 60%) show NC gr 
 gsave  711 682 1534 725 C 1962.62 1213.55 t 0 r /Helvetica findfont 29.6502 sf 0 0 m (=1.11 GeV/c) show NC gr 
 gsave  711 682 1534 725 C 1944.41 1213.55 t 0 r /Symbol findfont 29.6502 sf 0 0 m (s) show NC gr 
 gsave  711 682 1534 725 C 1944.41 1245.42 t 0 r /Helvetica findfont 29.6502 sf 0 0 m (RC) show NC gr  3 lw /w 22 def /w2 {w 2 div} def /w3 {w 3 div} def 1911 1239 m20 6 lw
 gsave  711 682 1534 725 C 1962.62 1136.14 t 0 r /Helvetica findfont 29.6502 sf 0 0 m (=0.85 GeV/c) show NC gr 
 gsave  711 682 1534 725 C 1944.41 1136.14 t 0 r /Symbol findfont 29.6502 sf 0 0 m (s) show NC gr 
 gsave  711 682 1534 725 C 1944.41 1172.56 t 0 r /Helvetica findfont 29.6502 sf 0 0 m (RC w/o lead. jet) show NC gr  0 0 1 c 3 lw /w 19 def /w2 {w 2 div} def /w3 {w 3 div} def 1911 1164 m21 6 lw black
 gsave  711 682 1534 725 C 1962.62 1061 t 0 r /Helvetica findfont 29.6502 sf 0 0 m (=1.08 GeV/c) show NC gr 
 gsave  711 682 1534 725 C 1944.41 1061 t 0 r /Symbol findfont 29.6502 sf 0 0 m (s) show NC gr 
 gsave  711 682 1534 725 C 1944.41 1097.43 t 0 r /Helvetica findfont 29.6502 sf 0 0 m (RC partial) show NC gr  1 0 0 c 3 lw 1911 1089 m22 6 lw black 3 lw 0.999 0.999 0.999 c 710 682 23 14 bf black 1 1 1 c 533 511 129 117 bf black 533 511 129 117 bl 1
 1 1 c 533 511 129 117 bf black 533 511 129 117 bl 0 0 0.6 c 1 1 1 c black 0 0 0.6 c 129 117 m 533 X s black 129 117 m 533 X s
 gsave  710 682 23 14 C 648.895 54.6438 t 0 r /Helvetica findfont 38.7733 sf 0 0 m (\)) show NC gr 
 gsave  710 682 23 14 C 626.127 54.6438 t 0 r /Helvetica-Oblique findfont 38.7733 sf 0 0 m (c) show NC gr 
 gsave  710 682 23 14 C 512.285 54.6438 t 0 r /Helvetica findfont 38.7733 sf 0 0 m ( \(GeV/) show NC gr 
 gsave  710 682 23 14 C 496.348 31.8755 t 0 r /Helvetica findfont 25.0886 sf 0 0 m (T) show NC gr 
 gsave  710 682 23 14 C 471.303 54.6438 t 0 r /Helvetica-Oblique findfont 38.7733 sf 0 0 m (p) show NC gr 
 gsave  710 682 23 14 C 457.642 54.6438 t 0 r /Helvetica findfont 38.7733 sf 0 0 m ( ) show NC gr 
 gsave  710 682 23 14 C 437.15 54.6438 t 0 r /Symbol findfont 38.7733 sf 0 0 m (d) show NC gr  129 132 m -15 Y s 147 124 m -7 Y s 165 124 m -7 Y s 183 124 m -7 Y s 200 124 m -7 Y s 218 132 m -15 Y s 236 124 m -7 Y s 254 124 m -7 Y s 271 124 m -7 Y s
 289 124 m -7 Y s 307 132 m -15 Y s 325 124 m -7 Y s 342 124 m -7 Y s 360 124 m -7 Y s 378 124 m -7 Y s 396 132 m -15 Y s 413 124 m -7 Y s 431 124 m -7 Y s 449 124 m -7 Y s 467 124 m -7 Y s 485 132 m -15 Y s 502 124 m -7 Y s 520 124 m -7 Y s 538 124
 m -7 Y s 556 124 m -7 Y s 573 132 m -15 Y s 591 124 m -7 Y s 609 124 m -7 Y s 627 124 m -7 Y s 644 124 m -7 Y s 662 132 m -15 Y s
 gsave  710 682 23 14 C 104.734 86.5193 t 0 r /Helvetica findfont 31.931 sf 0 0 m (\25510) show NC gr 
 gsave  710 682 23 14 C 207.191 86.5193 t 0 r /Helvetica findfont 31.931 sf 0 0 m (0) show NC gr 
 gsave  710 682 23 14 C 286.88 86.5193 t 0 r /Helvetica findfont 31.931 sf 0 0 m (10) show NC gr 
 gsave  710 682 23 14 C 375.676 86.5193 t 0 r /Helvetica findfont 31.931 sf 0 0 m (20) show NC gr 
 gsave  710 682 23 14 C 464.472 86.5193 t 0 r /Helvetica findfont 31.931 sf 0 0 m (30) show NC gr 
 gsave  710 682 23 14 C 553.268 86.5193 t 0 r /Helvetica findfont 31.931 sf 0 0 m (40) show NC gr 
 gsave  710 682 23 14 C 642.064 86.5193 t 0 r /Helvetica findfont 31.931 sf 0 0 m (50) show NC gr  129 117 m 511 Y s
 gsave  710 682 23 14 C 63.7511 391.614 t 90 r /Helvetica findfont 38.7733 sf 0 0 m (probability/bin) show NC gr  145 117 m -16 X s
 gsave  710 682 23 14 C 102.457 118.395 t 0 r /Helvetica findfont 20.5271 sf 0 0 m (\2558) show NC gr 
 gsave  710 682 23 14 C 68.3047 102.457 t 0 r /Helvetica findfont 31.931 sf 0 0 m (10) show NC gr  137 136 m -8 X s 137 147 m -8 X s 137 155 m -8 X s 137 161 m -8 X s 137 166 m -8 X s 137 171 m -8 X s 137 174 m -8 X s 137 178 m -8 X s 145 180 m -16 X
 s
 gsave  710 682 23 14 C 102.457 179.869 t 0 r /Helvetica findfont 20.5271 sf 0 0 m (\2557) show NC gr 
 gsave  710 682 23 14 C 68.3047 166.208 t 0 r /Helvetica findfont 31.931 sf 0 0 m (10) show NC gr  137 200 m -8 X s 137 211 m -8 X s 137 219 m -8 X s 137 225 m -8 X s 137 230 m -8 X s 137 234 m -8 X s 137 238 m -8 X s 137 241 m -8 X s 145 244 m -16 X
 s
 gsave  710 682 23 14 C 102.457 245.897 t 0 r /Helvetica findfont 20.5271 sf 0 0 m (\2556) show NC gr 
 gsave  710 682 23 14 C 68.3047 229.959 t 0 r /Helvetica findfont 31.931 sf 0 0 m (10) show NC gr  137 264 m -8 X s 137 275 m -8 X s 137 283 m -8 X s 137 289 m -8 X s 137 294 m -8 X s 137 298 m -8 X s 137 302 m -8 X s 137 305 m -8 X s 145 308 m -16 X
 s
 gsave  710 682 23 14 C 102.457 309.648 t 0 r /Helvetica findfont 20.5271 sf 0 0 m (\2555) show NC gr 
 gsave  710 682 23 14 C 68.3047 293.71 t 0 r /Helvetica findfont 31.931 sf 0 0 m (10) show NC gr  137 328 m -8 X s 137 339 m -8 X s 137 347 m -8 X s 137 353 m -8 X s 137 358 m -8 X s 137 362 m -8 X s 137 366 m -8 X s 137 369 m -8 X s 145 372 m -16 X
 s
 gsave  710 682 23 14 C 102.457 371.122 t 0 r /Helvetica findfont 20.5271 sf 0 0 m (\2554) show NC gr 
 gsave  710 682 23 14 C 68.3047 357.461 t 0 r /Helvetica findfont 31.931 sf 0 0 m (10) show NC gr  137 391 m -8 X s 137 403 m -8 X s 137 411 m -8 X s 137 417 m -8 X s 137 422 m -8 X s 137 426 m -8 X s 137 430 m -8 X s 137 433 m -8 X s 145 436 m -16 X
 s
 gsave  710 682 23 14 C 102.457 437.15 t 0 r /Helvetica findfont 20.5271 sf 0 0 m (\2553) show NC gr 
 gsave  710 682 23 14 C 68.3047 421.212 t 0 r /Helvetica findfont 31.931 sf 0 0 m (10) show NC gr  137 455 m -8 X s 137 467 m -8 X s 137 475 m -8 X s 137 481 m -8 X s 137 486 m -8 X s 137 490 m -8 X s 137 494 m -8 X s 137 497 m -8 X s 145 500 m -16 X
 s
 gsave  710 682 23 14 C 102.457 498.624 t 0 r /Helvetica findfont 20.5271 sf 0 0 m (\2552) show NC gr 
 gsave  710 682 23 14 C 68.3047 484.964 t 0 r /Helvetica findfont 31.931 sf 0 0 m (10) show NC gr  137 519 m -8 X s 137 531 m -8 X s 137 539 m -8 X s 137 545 m -8 X s 137 550 m -8 X s 137 554 m -8 X s 137 558 m -8 X s 137 561 m -8 X s 145 564 m -16 X
 s
 gsave  710 682 23 14 C 104.734 562.375 t 0 r /Helvetica findfont 20.5271 sf 0 0 m (\2551) show NC gr 
 gsave  710 682 23 14 C 70.5815 548.715 t 0 r /Helvetica findfont 31.931 sf 0 0 m (10) show NC gr  137 583 m -8 X s 137 595 m -8 X s 137 603 m -8 X s 137 609 m -8 X s 137 614 m -8 X s 137 618 m -8 X s 137 622 m -8 X s 137 625 m -8 X s 145 628 m -16 X
 s
 gsave  710 682 23 14 C 122.865 615.216 t 0 r  -17 0 t /Helvetica findfont 31.931 sf 0 0 m (1) show NC gr  6 lw 1 1 1 c black 185 167 m 4 Y s 3 lw /w 22 def /w2 {w 2 div} def /w3 {w 3 div} def 185 180 m20 6 lw 189 182 m 1 Y s 3 lw 189 192 m20 6 lw 3
 lw 194 236 m20 6 lw 3 lw 198 291 m20 6 lw 3 lw 203 359 m20 6 lw 3 lw 207 433 m20 6 lw 3 lw 211 507 m20 6 lw 3 lw 216 577 m20 6 lw 3 lw 220 604 m20 6 lw 3 lw 225 583 m20 6 lw 3 lw 229 562 m20 6 lw 3 lw 234 542 m20 6 lw 3 lw 238 525 m20 6 lw 3 lw 243
 509 m20 6 lw 3 lw 247 494 m20 6 lw 3 lw 251 480 m20 6 lw 3 lw 256 466 m20 6 lw 3 lw 260 455 m20 6 lw 3 lw 265 444 m20 6 lw 3 lw 269 434 m20 6 lw 3 lw 274 424 m20 6 lw 3 lw 278 415 m20 6 lw 3 lw 282 406 m20 6 lw 3 lw 287 398 m20 6 lw 3 lw 291 390 m20
 6 lw 3 lw 296 383 m20 6 lw 3 lw 300 376 m20 6 lw 3 lw 305 370 m20 6 lw 3 lw 309 364 m20 6 lw 3 lw 314 357 m20 6 lw 3 lw 318 352 m20 6 lw 3 lw 322 346 m20 6 lw 3 lw 327 341 m20 6 lw 3 lw 331 336 m20 6 lw 3 lw 336 330 m20 6 lw 3 lw 340 327 m20 6 lw 3
 lw 345 322 m20 6 lw 3 lw 349 318 m20 6 lw 3 lw 354 313 m20 6 lw 3 lw 358 310 m20 6 lw 3 lw 362 306 m20 6 lw 3 lw 367 302 m20 6 lw 3 lw 371 299 m20 6 lw 3 lw 376 295 m20 6 lw 3 lw 380 292 m20 6 lw 3 lw 385 289 m20 6 lw 3 lw 389 286 m20 6 lw 3 lw 393
 280 m20 6 lw 3 lw 398 277 m20 6 lw 3 lw 402 271 m20 6 lw 3 lw 407 269 m20 6 lw 3 lw 411 269 m20 6 lw 3 lw 416 267 m20 6 lw 3 lw 420 264 m20 6 lw 3 lw 425 261 m20 6 lw 3 lw 429 259 m20 6 lw 3 lw 433 262 m20 6 lw 3 lw 438 251 m20 6 lw 3 lw 442 255 m20
 6 lw 3 lw 447 249 m20 6 lw 3 lw 451 244 m20 6 lw 3 lw 456 242 m20 6 lw 3 lw 460 240 m20 6 lw 3 lw 465 241 m20 6 lw 3 lw 469 237 m20 6 lw 3 lw 473 239 m20 6 lw 3 lw 478 224 m20 6 lw 3 lw 482 233 m20 6 lw 3 lw 487 226 m20 6 lw 3 lw 491 228 m20 6 lw 3
 lw 496 214 m20 6 lw 3 lw 500 226 m20 6 lw 3 lw 505 220 m20 6 lw 3 lw 509 212 m20 6 lw 3 lw 513 207 m20 6 lw 3 lw 518 223 m20 6 lw 3 lw 522 207 m20 6 lw 3 lw 527 216 m20 6 lw 3 lw 531 199 m20 6 lw 3 lw 536 216 m20 6 lw 3 lw 540 204 m20 6 lw 3 lw 544
 204 m20 6 lw 3 lw 549 197 m20 6 lw 553 171 m 3 Y s 3 lw 553 183 m20 6 lw 558 185 m 1 Y s 3 lw 558 195 m20 6 lw 3 lw 562 199 m20 6 lw 3 lw 567 204 m20 6 lw 3 lw 571 216 m20 6 lw 576 182 m 1 Y s 3 lw 576 192 m20 6 lw 3 lw 580 199 m20 6 lw 584 179 m 2
 Y s 3 lw 584 190 m20 6 lw 589 132 m 15 Y s 589 165 m 4 Y s 3 lw 589 156 m20 6 lw 593 167 m 4 Y s 3 lw 593 180 m20 6 lw 598 161 m 5 Y s 598 185 m s 3 lw 598 175 m20 6 lw 602 182 m 1 Y s 3 lw 602 192 m20 6 lw 607 154 m 7 Y s 607 180 m 1 Y s 3 lw 607
 170 m20 6 lw 611 167 m 4 Y s 3 lw 611 180 m20 6 lw 616 132 m 15 Y s 616 165 m 4 Y s 3 lw 616 156 m20 6 lw 620 145 m 10 Y s 620 173 m 2 Y s 3 lw 620 164 m20 6 lw 624 171 m 3 Y s 3 lw 624 183 m20 6 lw 629 154 m 7 Y s 629 180 m 1 Y s 3 lw 629 170 m20 6
 lw 633 171 m 3 Y s 3 lw 633 183 m20 6 lw 638 132 m 15 Y s 638 165 m 4 Y s 3 lw 638 156 m20 6 lw 642 117 m s 642 135 m 10 Y s 3 lw 642 126 m20 6 lw 647 167 m 4 Y s 3 lw 647 180 m20 6 lw 651 117 m s 651 135 m 10 Y s 3 lw 651 126 m20 6 lw 656 154 m 7 Y
 s 656 180 m 1 Y s 3 lw 656 170 m20 6 lw 660 145 m 10 Y s 660 173 m 2 Y s 3 lw 660 164 m20 6 lw 0 0 1 c 1 1 1 c 0 0 1 c 180 117 m 2 Y s 180 137 m 10 Y s 3 lw /w 18 def /w2 {w 2 div} def /w3 {w 3 div} def 180 128 m21 6 lw 185 163 m 5 Y s 185 187 m s 3
 lw 185 178 m21 6 lw 3 lw 189 203 m21 6 lw 3 lw 194 240 m21 6 lw 3 lw 198 295 m21 6 lw 3 lw 203 364 m21 6 lw 3 lw 207 437 m21 6 lw 3 lw 211 511 m21 6 lw 3 lw 216 581 m21 6 lw 3 lw 220 607 m21 6 lw 3 lw 225 583 m21 6 lw 3 lw 229 553 m21 6 lw 3 lw 234
 529 m21 6 lw 3 lw 238 508 m21 6 lw 3 lw 243 488 m21 6 lw 3 lw 247 470 m21 6 lw 3 lw 251 454 m21 6 lw 3 lw 256 439 m21 6 lw 3 lw 260 426 m21 6 lw 3 lw 265 413 m21 6 lw 3 lw 269 401 m21 6 lw 3 lw 274 391 m21 6 lw 3 lw 278 380 m21 6 lw 3 lw 282 371 m21
 6 lw 3 lw 287 364 m21 6 lw 3 lw 291 354 m21 6 lw 3 lw 296 347 m21 6 lw 3 lw 300 339 m21 6 lw 3 lw 305 334 m21 6 lw 3 lw 309 326 m21 6 lw 3 lw 314 319 m21 6 lw 3 lw 318 314 m21 6 lw 3 lw 322 307 m21 6 lw 3 lw 327 302 m21 6 lw 3 lw 331 299 m21 6 lw 3
 lw 336 290 m21 6 lw 3 lw 340 289 m21 6 lw 3 lw 345 287 m21 6 lw 3 lw 349 281 m21 6 lw 3 lw 354 276 m21 6 lw 3 lw 358 270 m21 6 lw 3 lw 362 268 m21 6 lw 3 lw 367 264 m21 6 lw 3 lw 371 263 m21 6 lw 3 lw 376 253 m21 6 lw 3 lw 380 249 m21 6 lw 3 lw 385
 250 m21 6 lw 3 lw 389 243 m21 6 lw 3 lw 393 247 m21 6 lw 3 lw 398 244 m21 6 lw 3 lw 402 234 m21 6 lw 3 lw 407 224 m21 6 lw 3 lw 411 231 m21 6 lw 3 lw 416 230 m21 6 lw 3 lw 420 220 m21 6 lw 3 lw 425 210 m21 6 lw 3 lw 429 215 m21 6 lw 3 lw 433 224 m21
 6 lw 3 lw 438 220 m21 6 lw 3 lw 442 215 m21 6 lw 3 lw 447 210 m21 6 lw 3 lw 451 214 m21 6 lw 3 lw 456 219 m21 6 lw 3 lw 460 220 m21 6 lw 3 lw 465 201 m21 6 lw 469 117 m 2 Y s 469 137 m 10 Y s 3 lw 469 128 m21 6 lw 3 lw 473 205 m21 6 lw 478 173 m 3 Y
 s 3 lw 478 186 m21 6 lw 3 lw 482 205 m21 6 lw 3 lw 487 201 m21 6 lw 491 134 m 15 Y s 491 167 m 4 Y s 3 lw 491 158 m21 6 lw 496 184 m 1 Y s 3 lw 496 194 m21 6 lw 500 181 m 2 Y s 3 lw 500 192 m21 6 lw 3 lw 505 199 m21 6 lw 509 169 m 4 Y s 3 lw 509 182
 m21 6 lw 513 134 m 15 Y s 513 167 m 4 Y s 3 lw 513 158 m21 6 lw 518 156 m 7 Y s 518 182 m 1 Y s 3 lw 518 173 m21 6 lw 522 117 m 21 Y s 522 156 m 6 Y s 3 lw 522 147 m21 6 lw 527 163 m 5 Y s 527 187 m s 3 lw 527 178 m21 6 lw 531 134 m 15 Y s 531 167 m
 4 Y s 3 lw 531 158 m21 6 lw 536 134 m 15 Y s 536 167 m 4 Y s 3 lw 536 158 m21 6 lw 540 173 m 3 Y s 3 lw 540 186 m21 6 lw 544 117 m 2 Y s 544 137 m 10 Y s 3 lw 544 128 m21 6 lw 549 169 m 4 Y s 3 lw 549 182 m21 6 lw 553 134 m 15 Y s 553 167 m 4 Y s 3
 lw 553 158 m21 6 lw 558 117 m 2 Y s 558 137 m 10 Y s 3 lw 558 128 m21 6 lw 562 156 m 7 Y s 562 182 m 1 Y s 3 lw 562 173 m21 6 lw 567 147 m 10 Y s 567 175 m 3 Y s 3 lw 567 166 m21 6 lw 571 156 m 7 Y s 571 182 m 1 Y s 3 lw 571 173 m21 6 lw 576 134 m
 15 Y s 576 167 m 4 Y s 3 lw 576 158 m21 6 lw 580 117 m 2 Y s 580 137 m 10 Y s 3 lw 580 128 m21 6 lw 584 147 m 10 Y s 584 175 m 3 Y s 3 lw 584 166 m21 6 lw 589 117 m 21 Y s 589 156 m 6 Y s 3 lw 589 147 m21 6 lw 593 134 m 15 Y s 593 167 m 4 Y s 3 lw
 593 158 m21 6 lw 598 147 m 10 Y s 598 175 m 3 Y s 3 lw 598 166 m21 6 lw 602 117 m 21 Y s 602 156 m 6 Y s 3 lw 602 147 m21 6 lw 611 134 m 15 Y s 611 167 m 4 Y s 3 lw 611 158 m21 6 lw 616 134 m 15 Y s 616 167 m 4 Y s 3 lw 616 158 m21 6 lw 620 117 m 2
 Y s 620 137 m 10 Y s 3 lw 620 128 m21 6 lw 624 117 m 21 Y s 624 156 m 6 Y s 3 lw 624 147 m21 6 lw 633 117 m 21 Y s 633 156 m 6 Y s 3 lw 633 147 m21 6 lw 638 134 m 15 Y s 638 167 m 4 Y s 3 lw 638 158 m21 6 lw 651 117 m 21 Y s 651 156 m 6 Y s 3 lw 651
 147 m21 6 lw 1 0 0 c 1 1 1 c 1 0 0 c 180 117 m s 180 135 m 10 Y s 3 lw 180 126 m22 6 lw 185 117 m 19 Y s 185 155 m 5 Y s 3 lw 185 145 m22 6 lw 3 lw 189 203 m22 6 lw 3 lw 194 239 m22 6 lw 3 lw 198 290 m22 6 lw 3 lw 203 360 m22 6 lw 3 lw 207 433 m22 6
 lw 3 lw 211 508 m22 6 lw 3 lw 216 578 m22 6 lw 3 lw 220 605 m22 6 lw 3 lw 225 583 m22 6 lw 3 lw 229 560 m22 6 lw 3 lw 234 540 m22 6 lw 3 lw 238 522 m22 6 lw 3 lw 243 505 m22 6 lw 3 lw 247 490 m22 6 lw 3 lw 251 476 m22 6 lw 3 lw 256 463 m22 6 lw 3 lw
 260 451 m22 6 lw 3 lw 265 440 m22 6 lw 3 lw 269 430 m22 6 lw 3 lw 274 419 m22 6 lw 3 lw 278 410 m22 6 lw 3 lw 282 402 m22 6 lw 3 lw 287 393 m22 6 lw 3 lw 291 386 m22 6 lw 3 lw 296 378 m22 6 lw 3 lw 300 372 m22 6 lw 3 lw 305 365 m22 6 lw 3 lw 309 359
 m22 6 lw 3 lw 314 353 m22 6 lw 3 lw 318 347 m22 6 lw 3 lw 322 342 m22 6 lw 3 lw 327 336 m22 6 lw 3 lw 331 331 m22 6 lw 3 lw 336 326 m22 6 lw 3 lw 340 323 m22 6 lw 3 lw 345 316 m22 6 lw 3 lw 349 310 m22 6 lw 3 lw 354 310 m22 6 lw 3 lw 358 304 m22 6
 lw 3 lw 362 300 m22 6 lw 3 lw 367 295 m22 6 lw 3 lw 371 295 m22 6 lw 3 lw 376 290 m22 6 lw 3 lw 380 285 m22 6 lw 3 lw 385 282 m22 6 lw 3 lw 389 277 m22 6 lw 3 lw 393 279 m22 6 lw 3 lw 398 274 m22 6 lw 3 lw 402 271 m22 6 lw 3 lw 407 270 m22 6 lw 3 lw
 411 264 m22 6 lw 3 lw 416 260 m22 6 lw 3 lw 420 258 m22 6 lw 3 lw 425 257 m22 6 lw 3 lw 429 252 m22 6 lw 3 lw 433 254 m22 6 lw 3 lw 438 246 m22 6 lw 3 lw 442 244 m22 6 lw 3 lw 447 244 m22 6 lw 3 lw 451 239 m22 6 lw 3 lw 456 246 m22 6 lw 3 lw 460 237
 m22 6 lw 3 lw 465 234 m22 6 lw 3 lw 469 221 m22 6 lw 3 lw 473 228 m22 6 lw 3 lw 478 227 m22 6 lw 3 lw 482 231 m22 6 lw 3 lw 487 220 m22 6 lw 3 lw 491 216 m22 6 lw 3 lw 496 214 m22 6 lw 3 lw 500 213 m22 6 lw 3 lw 505 218 m22 6 lw 3 lw 509 203 m22 6
 lw 513 186 m s 3 lw 513 195 m22 6 lw 3 lw 518 217 m22 6 lw 3 lw 522 197 m22 6 lw 3 lw 527 214 m22 6 lw 3 lw 531 212 m22 6 lw 3 lw 536 199 m22 6 lw 3 lw 540 199 m22 6 lw 3 lw 544 201 m22 6 lw 3 lw 549 216 m22 6 lw 553 154 m 8 Y s 553 180 m 1 Y s 3 lw
 553 171 m22 6 lw 558 176 m 2 Y s 3 lw 558 187 m22 6 lw 3 lw 562 201 m22 6 lw 567 167 m 4 Y s 3 lw 567 180 m22 6 lw 3 lw 571 197 m22 6 lw 576 154 m 8 Y s 576 180 m 1 Y s 3 lw 576 171 m22 6 lw 580 176 m 2 Y s 3 lw 580 187 m22 6 lw 584 186 m s 3 lw 584
 195 m22 6 lw 589 161 m 6 Y s 589 185 m s 3 lw 589 176 m22 6 lw 593 172 m 3 Y s 3 lw 593 184 m22 6 lw 598 176 m 2 Y s 3 lw 598 187 m22 6 lw 602 176 m 2 Y s 3 lw 602 187 m22 6 lw 607 172 m 3 Y s 3 lw 607 184 m22 6 lw 611 172 m 3 Y s 3 lw 611 184 m22 6
 lw 616 133 m 15 Y s 616 166 m 3 Y s 3 lw 616 157 m22 6 lw 620 154 m 8 Y s 620 180 m 1 Y s 3 lw 620 171 m22 6 lw 624 133 m 15 Y s 624 166 m 3 Y s 3 lw 624 157 m22 6 lw 629 145 m 11 Y s 629 174 m 2 Y s 3 lw 629 165 m22 6 lw 633 154 m 8 Y s 633 180 m 1
 Y s 3 lw 633 171 m22 6 lw 638 133 m 15 Y s 638 166 m 3 Y s 3 lw 638 157 m22 6 lw 642 117 m s 642 135 m 10 Y s 3 lw 642 126 m22 6 lw 647 117 m s 647 135 m 10 Y s 3 lw 647 126 m22 6 lw 651 133 m 15 Y s 651 166 m 3 Y s 3 lw 651 157 m22 6 lw 656 154 m 8
 Y s 656 180 m 1 Y s 3 lw 656 171 m22 6 lw black
 gsave  710 682 23 14 C 368.845 596.528 t 0 r /Helvetica findfont 29.6502 sf 0 0 m (Centrality: 60 \255 80%) show NC gr 
 gsave  710 682 23 14 C 450.811 503.178 t 0 r /Helvetica findfont 29.6502 sf 0 0 m (=0.92 GeV/c) show NC gr 
 gsave  710 682 23 14 C 432.597 503.178 t 0 r /Symbol findfont 29.6502 sf 0 0 m (s) show NC gr 
 gsave  710 682 23 14 C 432.597 535.054 t 0 r /Helvetica findfont 29.6502 sf 0 0 m (RC) show NC gr  3 lw /w 22 def /w2 {w 2 div} def /w3 {w 3 div} def 399 529 m20 6 lw
 gsave  710 682 23 14 C 450.811 425.766 t 0 r /Helvetica findfont 29.6502 sf 0 0 m (=0.67 GeV/c) show NC gr 
 gsave  710 682 23 14 C 432.597 425.766 t 0 r /Symbol findfont 29.6502 sf 0 0 m (s) show NC gr 
 gsave  710 682 23 14 C 432.597 462.195 t 0 r /Helvetica findfont 29.6502 sf 0 0 m (RC w/o lead. jet) show NC gr  0 0 1 c 3 lw /w 18 def /w2 {w 2 div} def /w3 {w 3 div} def 399 454 m21 6 lw black
 gsave  710 682 23 14 C 450.811 350.631 t 0 r /Helvetica findfont 29.6502 sf 0 0 m (=0.87 GeV/c) show NC gr 
 gsave  710 682 23 14 C 432.597 350.631 t 0 r /Symbol findfont 29.6502 sf 0 0 m (s) show NC gr 
 gsave  710 682 23 14 C 432.597 387.06 t 0 r /Helvetica findfont 29.6502 sf 0 0 m (RC partial) show NC gr  1 0 0 c 3 lw 399 379 m22 6 lw black 3 lw 0.999 0.999 0.999 c 710 682 779 14 bf black 1 1 1 c 533 511 885 117 bf black 533 511 885 117 bl 1 1 1
 c 533 511 885 117 bf black 533 511 885 117 bl 0 0 0.6 c 1 1 1 c black 0 0 0.6 c 885 117 m 533 X s black 885 117 m 533 X s
 gsave  710 682 779 14 C 1404.8 54.6438 t 0 r /Helvetica findfont 38.7733 sf 0 0 m (\)) show NC gr 
 gsave  710 682 779 14 C 1382.03 54.6438 t 0 r /Helvetica-Oblique findfont 38.7733 sf 0 0 m (c) show NC gr 
 gsave  710 682 779 14 C 1268.19 54.6438 t 0 r /Helvetica findfont 38.7733 sf 0 0 m ( \(GeV/) show NC gr 
 gsave  710 682 779 14 C 1252.25 31.8755 t 0 r /Helvetica findfont 25.0886 sf 0 0 m (T) show NC gr 
 gsave  710 682 779 14 C 1227.21 54.6438 t 0 r /Helvetica-Oblique findfont 38.7733 sf 0 0 m (p) show NC gr 
 gsave  710 682 779 14 C 1213.55 54.6438 t 0 r /Helvetica findfont 38.7733 sf 0 0 m ( ) show NC gr 
 gsave  710 682 779 14 C 1193.06 54.6438 t 0 r /Symbol findfont 38.7733 sf 0 0 m (d) show NC gr  885 132 m -15 Y s 903 124 m -7 Y s 921 124 m -7 Y s 938 124 m -7 Y s 956 124 m -7 Y s 974 132 m -15 Y s 992 124 m -7 Y s 1010 124 m -7 Y s 1027 124 m -7
 Y s 1045 124 m -7 Y s 1063 132 m -15 Y s 1081 124 m -7 Y s 1098 124 m -7 Y s 1116 124 m -7 Y s 1134 124 m -7 Y s 1152 132 m -15 Y s 1169 124 m -7 Y s 1187 124 m -7 Y s 1205 124 m -7 Y s 1223 124 m -7 Y s 1240 132 m -15 Y s 1258 124 m -7 Y s 1276 124
 m -7 Y s 1294 124 m -7 Y s 1311 124 m -7 Y s 1329 132 m -15 Y s 1347 124 m -7 Y s 1365 124 m -7 Y s 1383 124 m -7 Y s 1400 124 m -7 Y s 1418 132 m -15 Y s
 gsave  710 682 779 14 C 860.639 86.5193 t 0 r /Helvetica findfont 31.931 sf 0 0 m (\25510) show NC gr 
 gsave  710 682 779 14 C 963.096 86.5193 t 0 r /Helvetica findfont 31.931 sf 0 0 m (0) show NC gr 
 gsave  710 682 779 14 C 1042.79 86.5193 t 0 r /Helvetica findfont 31.931 sf 0 0 m (10) show NC gr 
 gsave  710 682 779 14 C 1131.58 86.5193 t 0 r /Helvetica findfont 31.931 sf 0 0 m (20) show NC gr 
 gsave  710 682 779 14 C 1220.38 86.5193 t 0 r /Helvetica findfont 31.931 sf 0 0 m (30) show NC gr 
 gsave  710 682 779 14 C 1309.17 86.5193 t 0 r /Helvetica findfont 31.931 sf 0 0 m (40) show NC gr 
 gsave  710 682 779 14 C 1397.97 86.5193 t 0 r /Helvetica findfont 31.931 sf 0 0 m (50) show NC gr  885 117 m 511 Y s
 gsave  710 682 779 14 C 819.657 391.614 t 90 r /Helvetica findfont 38.7733 sf 0 0 m (probability/bin) show NC gr  901 117 m -16 X s
 gsave  710 682 779 14 C 858.363 118.395 t 0 r /Helvetica findfont 20.5271 sf 0 0 m (\2558) show NC gr 
 gsave  710 682 779 14 C 824.21 102.457 t 0 r /Helvetica findfont 31.931 sf 0 0 m (10) show NC gr  893 136 m -8 X s 893 147 m -8 X s 893 155 m -8 X s 893 161 m -8 X s 893 166 m -8 X s 893 171 m -8 X s 893 174 m -8 X s 893 178 m -8 X s 901 180 m -16 X
 s
 gsave  710 682 779 14 C 858.363 179.869 t 0 r /Helvetica findfont 20.5271 sf 0 0 m (\2557) show NC gr 
 gsave  710 682 779 14 C 824.21 166.208 t 0 r /Helvetica findfont 31.931 sf 0 0 m (10) show NC gr  893 200 m -8 X s 893 211 m -8 X s 893 219 m -8 X s 893 225 m -8 X s 893 230 m -8 X s 893 234 m -8 X s 893 238 m -8 X s 893 241 m -8 X s 901 244 m -16 X
 s
 gsave  710 682 779 14 C 858.363 245.897 t 0 r /Helvetica findfont 20.5271 sf 0 0 m (\2556) show NC gr 
 gsave  710 682 779 14 C 824.21 229.959 t 0 r /Helvetica findfont 31.931 sf 0 0 m (10) show NC gr  893 264 m -8 X s 893 275 m -8 X s 893 283 m -8 X s 893 289 m -8 X s 893 294 m -8 X s 893 298 m -8 X s 893 302 m -8 X s 893 305 m -8 X s 901 308 m -16 X
 s
 gsave  710 682 779 14 C 858.363 309.648 t 0 r /Helvetica findfont 20.5271 sf 0 0 m (\2555) show NC gr 
 gsave  710 682 779 14 C 824.21 293.71 t 0 r /Helvetica findfont 31.931 sf 0 0 m (10) show NC gr  893 328 m -8 X s 893 339 m -8 X s 893 347 m -8 X s 893 353 m -8 X s 893 358 m -8 X s 893 362 m -8 X s 893 366 m -8 X s 893 369 m -8 X s 901 372 m -16 X
 s
 gsave  710 682 779 14 C 858.363 371.122 t 0 r /Helvetica findfont 20.5271 sf 0 0 m (\2554) show NC gr 
 gsave  710 682 779 14 C 824.21 357.461 t 0 r /Helvetica findfont 31.931 sf 0 0 m (10) show NC gr  893 391 m -8 X s 893 403 m -8 X s 893 411 m -8 X s 893 417 m -8 X s 893 422 m -8 X s 893 426 m -8 X s 893 430 m -8 X s 893 433 m -8 X s 901 436 m -16 X
 s
 gsave  710 682 779 14 C 858.363 437.15 t 0 r /Helvetica findfont 20.5271 sf 0 0 m (\2553) show NC gr 
 gsave  710 682 779 14 C 824.21 421.212 t 0 r /Helvetica findfont 31.931 sf 0 0 m (10) show NC gr  893 455 m -8 X s 893 467 m -8 X s 893 475 m -8 X s 893 481 m -8 X s 893 486 m -8 X s 893 490 m -8 X s 893 494 m -8 X s 893 497 m -8 X s 901 500 m -16 X
 s
 gsave  710 682 779 14 C 858.363 498.624 t 0 r /Helvetica findfont 20.5271 sf 0 0 m (\2552) show NC gr 
 gsave  710 682 779 14 C 824.21 484.964 t 0 r /Helvetica findfont 31.931 sf 0 0 m (10) show NC gr  893 519 m -8 X s 893 531 m -8 X s 893 539 m -8 X s 893 545 m -8 X s 893 550 m -8 X s 893 554 m -8 X s 893 558 m -8 X s 893 561 m -8 X s 901 564 m -16 X
 s
 gsave  710 682 779 14 C 860.639 562.375 t 0 r /Helvetica findfont 20.5271 sf 0 0 m (\2551) show NC gr 
 gsave  710 682 779 14 C 826.487 548.715 t 0 r /Helvetica findfont 31.931 sf 0 0 m (10) show NC gr  893 583 m -8 X s 893 595 m -8 X s 893 603 m -8 X s 893 609 m -8 X s 893 614 m -8 X s 893 618 m -8 X s 893 622 m -8 X s 893 625 m -8 X s 901 628 m -16
 X s
 gsave  710 682 779 14 C 878.77 615.216 t 0 r  -17 0 t /Helvetica findfont 31.931 sf 0 0 m (1) show NC gr  6 lw 1 1 1 c black 950 167 m 10 Y s 950 195 m 2 Y s 3 lw /w 21 def /w2 {w 2 div} def /w3 {w 3 div} def 950 186 m20 6 lw 3 lw 954 242 m20 6 lw 3
 lw 958 296 m20 6 lw 3 lw 963 372 m20 6 lw 3 lw 967 457 m20 6 lw 3 lw 972 555 m20 6 lw 3 lw 976 612 m20 6 lw 3 lw 981 587 m20 6 lw 3 lw 985 557 m20 6 lw 3 lw 990 533 m20 6 lw 3 lw 994 512 m20 6 lw 3 lw 998 493 m20 6 lw 3 lw 1003 476 m20 6 lw 3 lw
 1007 461 m20 6 lw 3 lw 1012 446 m20 6 lw 3 lw 1016 434 m20 6 lw 3 lw 1021 424 m20 6 lw 3 lw 1025 413 m20 6 lw 3 lw 1029 404 m20 6 lw 3 lw 1034 395 m20 6 lw 3 lw 1038 386 m20 6 lw 3 lw 1043 378 m20 6 lw 3 lw 1047 369 m20 6 lw 3 lw 1052 364 m20 6 lw 3
 lw 1056 356 m20 6 lw 3 lw 1061 350 m20 6 lw 3 lw 1065 342 m20 6 lw 3 lw 1069 341 m20 6 lw 3 lw 1074 333 m20 6 lw 3 lw 1078 328 m20 6 lw 3 lw 1083 325 m20 6 lw 3 lw 1087 317 m20 6 lw 3 lw 1092 314 m20 6 lw 3 lw 1096 310 m20 6 lw 3 lw 1101 308 m20 6
 lw 3 lw 1105 297 m20 6 lw 3 lw 1109 292 m20 6 lw 3 lw 1114 296 m20 6 lw 3 lw 1118 286 m20 6 lw 3 lw 1123 285 m20 6 lw 3 lw 1127 282 m20 6 lw 3 lw 1132 282 m20 6 lw 3 lw 1136 272 m20 6 lw 3 lw 1141 269 m20 6 lw 3 lw 1145 264 m20 6 lw 3 lw 1149 267
 m20 6 lw 3 lw 1154 260 m20 6 lw 3 lw 1158 258 m20 6 lw 3 lw 1163 257 m20 6 lw 3 lw 1167 259 m20 6 lw 3 lw 1172 252 m20 6 lw 3 lw 1176 240 m20 6 lw 3 lw 1180 236 m20 6 lw 3 lw 1185 233 m20 6 lw 3 lw 1189 233 m20 6 lw 3 lw 1194 241 m20 6 lw 3 lw 1198
 243 m20 6 lw 3 lw 1203 234 m20 6 lw 3 lw 1207 221 m20 6 lw 3 lw 1212 236 m20 6 lw 3 lw 1216 223 m20 6 lw 1220 154 m 15 Y s 1220 187 m 4 Y s 3 lw 1220 178 m20 6 lw 3 lw 1225 228 m20 6 lw 1229 197 m 2 Y s 3 lw 1229 208 m20 6 lw 1234 197 m 2 Y s 3 lw
 1234 208 m20 6 lw 1238 188 m 4 Y s 3 lw 1238 201 m20 6 lw 1243 204 m 1 Y s 3 lw 1243 214 m20 6 lw 1247 207 m s 3 lw 1247 216 m20 6 lw 1252 197 m 2 Y s 3 lw 1252 208 m20 6 lw 1256 176 m 7 Y s 1256 201 m 1 Y s 3 lw 1256 192 m20 6 lw 1260 188 m 4 Y s 3
 lw 1260 201 m20 6 lw 1265 176 m 7 Y s 1265 201 m 1 Y s 3 lw 1265 192 m20 6 lw 1269 132 m 25 Y s 1269 176 m 5 Y s 3 lw 1269 167 m20 6 lw 1274 154 m 15 Y s 1274 187 m 4 Y s 3 lw 1274 178 m20 6 lw 1278 132 m 25 Y s 1278 176 m 5 Y s 3 lw 1278 167 m20 6
 lw 1283 117 m 21 Y s 1283 156 m 11 Y s 3 lw 1283 147 m20 6 lw 1287 154 m 15 Y s 1287 187 m 4 Y s 3 lw 1287 178 m20 6 lw 1292 167 m 10 Y s 1292 195 m 2 Y s 3 lw 1292 186 m20 6 lw 1296 176 m 7 Y s 1296 201 m 1 Y s 3 lw 1296 192 m20 6 lw 1300 154 m 15
 Y s 1300 187 m 4 Y s 3 lw 1300 178 m20 6 lw 1305 188 m 4 Y s 3 lw 1305 201 m20 6 lw 1314 117 m 21 Y s 1314 156 m 11 Y s 3 lw 1314 147 m20 6 lw 1318 188 m 4 Y s 3 lw 1318 201 m20 6 lw 1323 117 m 21 Y s 1323 156 m 11 Y s 3 lw 1323 147 m20 6 lw 1327
 167 m 10 Y s 1327 195 m 2 Y s 3 lw 1327 186 m20 6 lw 1331 167 m 10 Y s 1331 195 m 2 Y s 3 lw 1331 186 m20 6 lw 1336 132 m 25 Y s 1336 176 m 5 Y s 3 lw 1336 167 m20 6 lw 1340 132 m 25 Y s 1340 176 m 5 Y s 3 lw 1340 167 m20 6 lw 1345 117 m 21 Y s 1345
 156 m 11 Y s 3 lw 1345 147 m20 6 lw 1349 117 m 21 Y s 1349 156 m 11 Y s 3 lw 1349 147 m20 6 lw 1354 117 m 21 Y s 1354 156 m 11 Y s 3 lw 1354 147 m20 6 lw 1363 117 m 21 Y s 1363 156 m 11 Y s 3 lw 1363 147 m20 6 lw 1367 167 m 10 Y s 1367 195 m 2 Y s 3
 lw 1367 186 m20 6 lw 1371 154 m 15 Y s 1371 187 m 4 Y s 3 lw 1371 178 m20 6 lw 1389 117 m 21 Y s 1389 156 m 11 Y s 3 lw 1389 147 m20 6 lw 1398 117 m 21 Y s 1398 156 m 11 Y s 3 lw 1398 147 m20 6 lw 1403 117 m 21 Y s 1403 156 m 11 Y s 3 lw 1403 147
 m20 6 lw 1407 117 m 21 Y s 1407 156 m 11 Y s 3 lw 1407 147 m20 6 lw 1411 117 m 21 Y s 1411 156 m 11 Y s 3 lw 1411 147 m20 6 lw 0 0 1 c 1 1 1 c 0 0 1 c 3 lw /w 18 def /w2 {w 2 div} def /w3 {w 3 div} def 954 247 m21 6 lw 3 lw 958 301 m21 6 lw 3 lw 963
 377 m21 6 lw 3 lw 967 461 m21 6 lw 3 lw 972 559 m21 6 lw 3 lw 976 614 m21 6 lw 3 lw 981 586 m21 6 lw 3 lw 985 543 m21 6 lw 3 lw 990 513 m21 6 lw 3 lw 994 488 m21 6 lw 3 lw 998 466 m21 6 lw 3 lw 1003 448 m21 6 lw 3 lw 1007 430 m21 6 lw 3 lw 1012 416
 m21 6 lw 3 lw 1016 402 m21 6 lw 3 lw 1021 390 m21 6 lw 3 lw 1025 378 m21 6 lw 3 lw 1029 368 m21 6 lw 3 lw 1034 358 m21 6 lw 3 lw 1038 350 m21 6 lw 3 lw 1043 340 m21 6 lw 3 lw 1047 333 m21 6 lw 3 lw 1052 326 m21 6 lw 3 lw 1056 320 m21 6 lw 3 lw 1061
 315 m21 6 lw 3 lw 1065 304 m21 6 lw 3 lw 1069 303 m21 6 lw 3 lw 1074 299 m21 6 lw 3 lw 1078 291 m21 6 lw 3 lw 1083 283 m21 6 lw 3 lw 1087 281 m21 6 lw 3 lw 1092 269 m21 6 lw 3 lw 1096 269 m21 6 lw 3 lw 1101 270 m21 6 lw 3 lw 1105 257 m21 6 lw 3 lw
 1109 253 m21 6 lw 3 lw 1114 251 m21 6 lw 3 lw 1118 249 m21 6 lw 3 lw 1123 257 m21 6 lw 3 lw 1127 252 m21 6 lw 3 lw 1132 240 m21 6 lw 3 lw 1136 240 m21 6 lw 3 lw 1141 243 m21 6 lw 3 lw 1145 230 m21 6 lw 3 lw 1149 223 m21 6 lw 3 lw 1154 221 m21 6 lw 3
 lw 1158 230 m21 6 lw 1163 203 m 2 Y s 3 lw 1163 214 m21 6 lw 3 lw 1167 221 m21 6 lw 1172 209 m 1 Y s 3 lw 1172 219 m21 6 lw 1176 195 m 3 Y s 3 lw 1176 208 m21 6 lw 1180 185 m 5 Y s 1180 209 m s 3 lw 1180 200 m21 6 lw 1185 156 m 15 Y s 1185 189 m 4 Y
 s 3 lw 1185 180 m21 6 lw 1189 169 m 10 Y s 1189 197 m 3 Y s 3 lw 1189 188 m21 6 lw 1194 191 m 4 Y s 3 lw 1194 204 m21 6 lw 1198 178 m 7 Y s 1198 204 m 1 Y s 3 lw 1198 194 m21 6 lw 1203 206 m 1 Y s 3 lw 1203 216 m21 6 lw 1207 195 m 3 Y s 3 lw 1207
 208 m21 6 lw 1212 156 m 15 Y s 1212 189 m 4 Y s 3 lw 1212 180 m21 6 lw 1216 135 m 25 Y s 1216 178 m 6 Y s 3 lw 1216 169 m21 6 lw 1220 185 m 5 Y s 1220 209 m s 3 lw 1220 200 m21 6 lw 1225 156 m 15 Y s 1225 189 m 4 Y s 3 lw 1225 180 m21 6 lw 1229 117
 m 24 Y s 1229 159 m 10 Y s 3 lw 1229 150 m21 6 lw 1234 185 m 5 Y s 1234 209 m s 3 lw 1234 200 m21 6 lw 1238 156 m 15 Y s 1238 189 m 4 Y s 3 lw 1238 180 m21 6 lw 1252 135 m 25 Y s 1252 178 m 6 Y s 3 lw 1252 169 m21 6 lw 1256 117 m 24 Y s 1256 159 m
 10 Y s 3 lw 1256 150 m21 6 lw 1260 117 m 24 Y s 1260 159 m 10 Y s 3 lw 1260 150 m21 6 lw 1265 156 m 15 Y s 1265 189 m 4 Y s 3 lw 1265 180 m21 6 lw 1292 135 m 25 Y s 1292 178 m 6 Y s 3 lw 1292 169 m21 6 lw 1296 117 m 24 Y s 1296 159 m 10 Y s 3 lw
 1296 150 m21 6 lw 1300 117 m 24 Y s 1300 159 m 10 Y s 3 lw 1300 150 m21 6 lw 1323 117 m 24 Y s 1323 159 m 10 Y s 3 lw 1323 150 m21 6 lw 1327 117 m 24 Y s 1327 159 m 10 Y s 3 lw 1327 150 m21 6 lw 1336 117 m 24 Y s 1336 159 m 10 Y s 3 lw 1336 150 m21
 6 lw 1354 117 m 24 Y s 1354 159 m 10 Y s 3 lw 1354 150 m21 6 lw 1358 117 m 24 Y s 1358 159 m 10 Y s 3 lw 1358 150 m21 6 lw 1367 117 m 24 Y s 1367 159 m 10 Y s 3 lw 1367 150 m21 6 lw 1385 135 m 25 Y s 1385 178 m 6 Y s 3 lw 1385 169 m21 6 lw 1394 117
 m 24 Y s 1394 159 m 10 Y s 3 lw 1394 150 m21 6 lw 1403 117 m 24 Y s 1403 159 m 10 Y s 3 lw 1403 150 m21 6 lw 1416 117 m 24 Y s 1416 159 m 10 Y s 3 lw 1416 150 m21 6 lw 1 0 0 c 1 1 1 c 1 0 0 c 950 134 m 25 Y s 950 177 m 6 Y s 3 lw 950 168 m22 6 lw 3
 lw 954 248 m22 6 lw 3 lw 958 300 m22 6 lw 3 lw 963 375 m22 6 lw 3 lw 967 460 m22 6 lw 3 lw 972 557 m22 6 lw 3 lw 976 613 m22 6 lw 3 lw 981 586 m22 6 lw 3 lw 985 550 m22 6 lw 3 lw 990 523 m22 6 lw 3 lw 994 500 m22 6 lw 3 lw 998 480 m22 6 lw 3 lw 1003
 462 m22 6 lw 3 lw 1007 447 m22 6 lw 3 lw 1012 432 m22 6 lw 3 lw 1016 419 m22 6 lw 3 lw 1021 409 m22 6 lw 3 lw 1025 398 m22 6 lw 3 lw 1029 387 m22 6 lw 3 lw 1034 378 m22 6 lw 3 lw 1038 370 m22 6 lw 3 lw 1043 362 m22 6 lw 3 lw 1047 354 m22 6 lw 3 lw
 1052 347 m22 6 lw 3 lw 1056 340 m22 6 lw 3 lw 1061 332 m22 6 lw 3 lw 1065 327 m22 6 lw 3 lw 1069 323 m22 6 lw 3 lw 1074 318 m22 6 lw 3 lw 1078 313 m22 6 lw 3 lw 1083 307 m22 6 lw 3 lw 1087 300 m22 6 lw 3 lw 1092 297 m22 6 lw 3 lw 1096 289 m22 6 lw 3
 lw 1101 284 m22 6 lw 3 lw 1105 280 m22 6 lw 3 lw 1109 272 m22 6 lw 3 lw 1114 280 m22 6 lw 3 lw 1118 272 m22 6 lw 3 lw 1123 275 m22 6 lw 3 lw 1127 260 m22 6 lw 3 lw 1132 264 m22 6 lw 3 lw 1136 256 m22 6 lw 3 lw 1141 250 m22 6 lw 3 lw 1145 255 m22 6
 lw 3 lw 1149 255 m22 6 lw 3 lw 1154 248 m22 6 lw 3 lw 1158 241 m22 6 lw 3 lw 1163 248 m22 6 lw 3 lw 1167 238 m22 6 lw 3 lw 1172 232 m22 6 lw 1176 208 m 1 Y s 3 lw 1176 218 m22 6 lw 3 lw 1180 235 m22 6 lw 1185 205 m 1 Y s 3 lw 1185 215 m22 6 lw 1189
 208 m 1 Y s 3 lw 1189 218 m22 6 lw 3 lw 1194 229 m22 6 lw 3 lw 1198 229 m22 6 lw 3 lw 1203 222 m22 6 lw 1207 205 m 1 Y s 3 lw 1207 215 m22 6 lw 1212 208 m 1 Y s 3 lw 1212 218 m22 6 lw 1216 190 m 4 Y s 3 lw 1216 203 m22 6 lw 1220 184 m 5 Y s 1220 208
 m s 3 lw 1220 199 m22 6 lw 1225 134 m 25 Y s 1225 177 m 6 Y s 3 lw 1225 168 m22 6 lw 1229 177 m 7 Y s 1229 203 m 1 Y s 3 lw 1229 194 m22 6 lw 1234 194 m 3 Y s 3 lw 1234 207 m22 6 lw 1238 190 m 4 Y s 3 lw 1238 203 m22 6 lw 1243 184 m 5 Y s 1243 208 m
 s 3 lw 1243 199 m22 6 lw 1247 190 m 4 Y s 3 lw 1247 203 m22 6 lw 1252 184 m 5 Y s 1252 208 m s 3 lw 1252 199 m22 6 lw 1256 177 m 7 Y s 1256 203 m 1 Y s 3 lw 1256 194 m22 6 lw 1260 168 m 10 Y s 1260 196 m 3 Y s 3 lw 1260 187 m22 6 lw 1265 134 m 25 Y
 s 1265 177 m 6 Y s 3 lw 1265 168 m22 6 lw 1269 155 m 15 Y s 1269 188 m 4 Y s 3 lw 1269 179 m22 6 lw 1274 134 m 25 Y s 1274 177 m 6 Y s 3 lw 1274 168 m22 6 lw 1278 117 m 23 Y s 1278 158 m 10 Y s 3 lw 1278 149 m22 6 lw 1283 155 m 15 Y s 1283 188 m 4 Y
 s 3 lw 1283 179 m22 6 lw 1287 155 m 15 Y s 1287 188 m 4 Y s 3 lw 1287 179 m22 6 lw 1292 117 m 23 Y s 1292 158 m 10 Y s 3 lw 1292 149 m22 6 lw 1300 117 m 23 Y s 1300 158 m 10 Y s 3 lw 1300 149 m22 6 lw 1305 117 m 23 Y s 1305 158 m 10 Y s 3 lw 1305
 149 m22 6 lw 1318 134 m 25 Y s 1318 177 m 6 Y s 3 lw 1318 168 m22 6 lw 1327 134 m 25 Y s 1327 177 m 6 Y s 3 lw 1327 168 m22 6 lw 1331 117 m 23 Y s 1331 158 m 10 Y s 3 lw 1331 149 m22 6 lw 1336 117 m 23 Y s 1336 158 m 10 Y s 3 lw 1336 149 m22 6 lw
 1340 134 m 25 Y s 1340 177 m 6 Y s 3 lw 1340 168 m22 6 lw 1349 117 m 23 Y s 1349 158 m 10 Y s 3 lw 1349 149 m22 6 lw 1354 155 m 15 Y s 1354 188 m 4 Y s 3 lw 1354 179 m22 6 lw 1367 134 m 25 Y s 1367 177 m 6 Y s 3 lw 1367 168 m22 6 lw 1376 117 m 23 Y
 s 1376 158 m 10 Y s 3 lw 1376 149 m22 6 lw 1389 117 m 23 Y s 1389 158 m 10 Y s 3 lw 1389 149 m22 6 lw 1394 134 m 25 Y s 1394 177 m 6 Y s 3 lw 1394 168 m22 6 lw 1398 134 m 25 Y s 1398 177 m 6 Y s 3 lw 1398 168 m22 6 lw black
 gsave  710 682 779 14 C 1124.75 596.528 t 0 r /Helvetica findfont 29.6502 sf 0 0 m (Centrality: 80 \255 100%) show NC gr 
 gsave  710 682 779 14 C 1206.72 503.178 t 0 r /Helvetica findfont 29.6502 sf 0 0 m (=0.70 GeV/c) show NC gr 
 gsave  710 682 779 14 C 1188.5 503.178 t 0 r /Symbol findfont 29.6502 sf 0 0 m (s) show NC gr 
 gsave  710 682 779 14 C 1188.5 535.054 t 0 r /Helvetica findfont 29.6502 sf 0 0 m (RC) show NC gr  3 lw /w 21 def /w2 {w 2 div} def /w3 {w 3 div} def 1155 529 m20 6 lw
 gsave  710 682 779 14 C 1206.72 425.766 t 0 r /Helvetica findfont 29.6502 sf 0 0 m (=0.49 GeV/c) show NC gr 
 gsave  710 682 779 14 C 1188.5 425.766 t 0 r /Symbol findfont 29.6502 sf 0 0 m (s) show NC gr 
 gsave  710 682 779 14 C 1188.5 462.195 t 0 r /Helvetica findfont 29.6502 sf 0 0 m (RC w/o lead. jet) show NC gr  0 0 1 c 3 lw /w 18 def /w2 {w 2 div} def /w3 {w 3 div} def 1155 454 m21 6 lw black
 gsave  710 682 779 14 C 1206.72 350.631 t 0 r /Helvetica findfont 29.6502 sf 0 0 m (=0.58 GeV/c) show NC gr 
 gsave  710 682 779 14 C 1188.5 350.631 t 0 r /Symbol findfont 29.6502 sf 0 0 m (s) show NC gr 
 gsave  710 682 779 14 C 1188.5 387.06 t 0 r /Helvetica findfont 29.6502 sf 0 0 m (RC partial) show NC gr  1 0 0 c 3 lw 1155 379 m22 6 lw black 3 lw 0.999 0.999 0.999 c 711 682 1534 14 bf
 gr  gr showpage
end
%%EOF
