%!PS-Adobe-2.0 EPSF-2.0
%%BoundingBox:  0 0 567 398
%%Title: : 
%%Creator: ROOT Version 5.34/09
%%CreationDate: Fri Mar 28 16:17:06 2014
%%EndComments
%%BeginProlog
80 dict begin
/s {stroke} def /l {lineto} def /m {moveto} def /t {translate} def
/r {rotate} def /rl {roll}  def /R {repeat} def
/d {rlineto} def /rm {rmoveto} def /gr {grestore} def /f {eofill} def
/c {setrgbcolor} def /black {0 setgray} def /sd {setdash} def
/cl {closepath} def /sf {scalefont setfont} def /lw {setlinewidth} def
/box {m dup 0 exch d exch 0 d 0 exch neg d cl} def
/NC{systemdict begin initclip end}def/C{NC box clip newpath}def
/bl {box s} def /bf {box f} def /Y { 0 exch d} def /X { 0 d} def 
/K {{pop pop 0 moveto} exch kshow} bind def
/ita {/ang 15 def gsave [1 0 ang dup sin exch cos div 1 0 0] concat} def 
/mp {newpath /y exch def /x exch def} def
/side {[w .77 mul w .23 mul] .385 w mul sd w 0 l currentpoint t -144 r} def
/mr {mp x y w2 0 360 arc} def /m24 {mr s} def /m20 {mr f} def
/mb {mp x y w2 add m w2 neg 0 d 0 w neg d w 0 d 0 w d cl} def
/mt {mp x y w2 add m w2 neg w neg d w 0 d cl} def
/m21 {mb f} def /m25 {mb s} def /m22 {mt f} def /m26{mt s} def
/m23 {mp x y w2 sub m w2 w d w neg 0 d cl f} def
/m27 {mp x y w2 add m w3 neg w2 neg d w3 w2 neg d w3 w2 d cl s} def
/m28 {mp x w2 sub y w2 sub w3 add m w3 0 d  0 w3 neg d w3 0 d 0 w3 d w3 0 d  0 w3 d w3 neg 0 d 0 w3 d w3 neg 0 d 0 w3 neg d w3 neg 0 d cl s } def
/m29 {mp gsave x w2 sub y w2 add w3 sub m currentpoint t 4 {side} repeat cl fill gr} def
/m30 {mp gsave x w2 sub y w2 add w3 sub m currentpoint t 4 {side} repeat cl s gr} def
/m31 {mp x y w2 sub m 0 w d x w2 sub y m w 0 d x w2 sub y w2 add m w w neg d x w2 sub y w2 sub m w w d s} def
/m32 {mp x y w2 sub m w2 w d w neg 0 d cl s} def
/m33 {mp x y w2 add m w3 neg w2 neg d w3 w2 neg d w3 w2 d cl f} def
/m34 {mp x w2 sub y w2 sub w3 add m w3 0 d  0 w3 neg d w3 0 d 0 w3 d w3 0 d  0 w3 d w3 neg 0 d 0 w3 d w3 neg 0 d 0 w3 neg d w3 neg 0 d cl f } def
/m2 {mp x y w2 sub m 0 w d x w2 sub y m w 0 d s} def
/m5 {mp x w2 sub y w2 sub m w w d x w2 sub y w2 add m w w neg d s} def
/reEncode {exch findfont dup length dict begin {1 index /FID eq  {pop pop} {def} ifelse } forall /Encoding exch def currentdict end dup /FontName get exch definefont pop } def [/Times-Bold /Times-Italic /Times-BoldItalic /Helvetica /Helvetica-Oblique
 /Helvetica-Bold /Helvetica-BoldOblique /Courier /Courier-Oblique /Courier-Bold /Courier-BoldOblique /Times-Roman /AvantGarde-Book /AvantGarde-BookOblique /AvantGarde-Demi /AvantGarde-DemiOblique /Bookman-Demi /Bookman-DemiItalic /Bookman-Light
 /Bookman-LightItalic /Helvetica-Narrow /Helvetica-Narrow-Bold /Helvetica-Narrow-BoldOblique /Helvetica-Narrow-Oblique /NewCenturySchlbk-Roman /NewCenturySchlbk-Bold /NewCenturySchlbk-BoldItalic /NewCenturySchlbk-Italic /Palatino-Bold
 /Palatino-BoldItalic /Palatino-Italic /Palatino-Roman ] {ISOLatin1Encoding reEncode } forall
%%EndProlog
%%BeginSetup
%%EndSetup
newpath  gsave  .25 .25 scale  gsave  0 0 t black[  ] 0 sd 3 lw 0.999 0.999 0.999 c 2268 1594 0 0 bf black 0.999 0.999 0.999 c 1814 1276 227 159 bf black 1814 1276 227 159 bl 0 0 1 c 1 1 1 c 0 0 1 c 363 758 m 71 Y s 363 846 m 34 Y s 317 838 m 38 X s
 371 838 m 37 X s /w 16 def /w2 {w 2 div} def /w3 {w 3 div} def 363 838 m20 454 1013 m 12 Y s 454 1042 m 8 Y s 408 1033 m 37 X s 462 1033 m 37 X s 454 1033 m20 544 1098 m 5 Y s 544 1119 m 3 Y s 499 1111 m 37 X s 552 1111 m 38 X s 544 1111 m20 635
 1093 m 5 Y s 635 1114 m 4 Y s 590 1106 m 37 X s 643 1106 m 37 X s 635 1106 m20 726 1100 m 4 Y s 726 1121 m 3 Y s 680 1113 m 37 X s 734 1113 m 37 X s 726 1113 m20 816 1087 m 6 Y s 816 1109 m 4 Y s 771 1101 m 37 X s 825 1101 m 37 X s 816 1101 m20 907
 1068 m 7 Y s 907 1092 m 5 Y s 862 1083 m 37 X s 915 1083 m 37 X s 907 1083 m20 998 995 m 14 Y s 998 1026 m 10 Y s 952 1017 m 38 X s 1006 1017 m 37 X s 998 1017 m20 1089 999 m 14 Y s 1089 1030 m 9 Y s 1043 1022 m 37 X s 1097 1022 m 37 X s 1089 1022
 m20 1179 951 m 21 Y s 1179 988 m 14 Y s 1134 980 m 37 X s 1187 980 m 38 X s 1179 980 m20 1270 872 m 36 Y s 1270 924 m 21 Y s 1225 916 m 37 X s 1278 916 m 37 X s 1270 916 m20 1361 758 m 71 Y s 1361 846 m 34 Y s 1315 838 m 37 X s 1369 838 m 37 X s
 1361 838 m20 1451 872 m 36 Y s 1451 924 m 21 Y s 1406 916 m 37 X s 1460 916 m 37 X s 1451 916 m20 1542 687 m 105 Y s 1542 808 m 42 Y s 1497 800 m 37 X s 1550 800 m 37 X s 1542 800 m20 1633 800 m 56 Y s 1633 872 m 30 Y s 1587 864 m 38 X s 1641 864 m
 37 X s 1633 864 m20 1723 830 m 47 Y s 1723 893 m 26 Y s 1678 885 m 37 X s 1732 885 m 37 X s 1723 885 m20 1814 758 m 71 Y s 1814 846 m 34 Y s 1769 838 m 37 X s 1822 838 m 38 X s 1814 838 m20 1996 758 m 71 Y s 1996 846 m 34 Y s 1950 838 m 37 X s 2004
 838 m 37 X s 1996 838 m20 black 227 159 m 1814 X s
 gsave  2268 1594 0 0 C 1971.93 22.595 t 0 r /Helvetica findfont 34.9195 sf 0 0 m (T,jet) show NC gr 
 gsave  2268 1594 0 0 C 1926.74 51.3523 t 0 r /Helvetica findfont 51.3523 sf 0 0 m (/p) show NC gr 
 gsave  2268 1594 0 0 C 1785.01 22.595 t 0 r /Helvetica findfont 34.9195 sf 0 0 m (T,leading) show NC gr 
 gsave  2268 1594 0 0 C 1698.73 51.3523 t 0 r /Helvetica findfont 51.3523 sf 0 0 m ( = p) show NC gr 
 gsave  2268 1594 0 0 C 1587.81 34.9195 t 0 r /Helvetica findfont 34.9195 sf 0 0 m (leading) show NC gr 
 gsave  2268 1594 0 0 C 1563.16 51.3523 t 0 r /Helvetica findfont 51.3523 sf 0 0 m (z) show NC gr  227 198 m -39 Y s 263 179 m -20 Y s 299 179 m -20 Y s 336 179 m -20 Y s 372 179 m -20 Y s 408 198 m -39 Y s 444 179 m -20 Y s 481 179 m -20 Y s 517 179
 m -20 Y s 553 179 m -20 Y s 590 198 m -39 Y s 626 179 m -20 Y s 662 179 m -20 Y s 698 179 m -20 Y s 735 179 m -20 Y s 771 198 m -39 Y s 807 179 m -20 Y s 844 179 m -20 Y s 880 179 m -20 Y s 916 179 m -20 Y s 952 198 m -39 Y s 989 179 m -20 Y s 1025
 179 m -20 Y s 1061 179 m -20 Y s 1098 179 m -20 Y s 1134 198 m -39 Y s 1170 179 m -20 Y s 1206 179 m -20 Y s 1243 179 m -20 Y s 1279 179 m -20 Y s 1315 198 m -39 Y s 1352 179 m -20 Y s 1388 179 m -20 Y s 1424 179 m -20 Y s 1460 179 m -20 Y s 1497
 198 m -39 Y s 1533 179 m -20 Y s 1569 179 m -20 Y s 1606 179 m -20 Y s 1642 179 m -20 Y s 1678 198 m -39 Y s 1714 179 m -20 Y s 1751 179 m -20 Y s 1787 179 m -20 Y s 1823 179 m -20 Y s 1860 198 m -39 Y s 1896 179 m -20 Y s 1932 179 m -20 Y s 1968
 179 m -20 Y s 2005 179 m -20 Y s 2041 198 m -39 Y s
 gsave  2268 1594 0 0 C 211.571 106.813 t 0 r /Helvetica findfont 51.3523 sf 0 0 m (0) show NC gr 
 gsave  2268 1594 0 0 C 375.899 106.813 t 0 r /Helvetica findfont 51.3523 sf 0 0 m (0.1) show NC gr 
 gsave  2268 1594 0 0 C 554.605 106.813 t 0 r /Helvetica findfont 51.3523 sf 0 0 m (0.2) show NC gr 
 gsave  2268 1594 0 0 C 735.365 106.813 t 0 r /Helvetica findfont 51.3523 sf 0 0 m (0.3) show NC gr 
 gsave  2268 1594 0 0 C 916.125 106.813 t 0 r /Helvetica findfont 51.3523 sf 0 0 m (0.4) show NC gr 
 gsave  2268 1594 0 0 C 1098.94 106.813 t 0 r /Helvetica findfont 51.3523 sf 0 0 m (0.5) show NC gr 
 gsave  2268 1594 0 0 C 1279.7 106.813 t 0 r /Helvetica findfont 51.3523 sf 0 0 m (0.6) show NC gr 
 gsave  2268 1594 0 0 C 1460.46 106.813 t 0 r /Helvetica findfont 51.3523 sf 0 0 m (0.7) show NC gr 
 gsave  2268 1594 0 0 C 1641.22 106.813 t 0 r /Helvetica findfont 51.3523 sf 0 0 m (0.8) show NC gr 
 gsave  2268 1594 0 0 C 1824.03 106.813 t 0 r /Helvetica findfont 51.3523 sf 0 0 m (0.9) show NC gr 
 gsave  2268 1594 0 0 C 2029.44 106.813 t 0 r /Helvetica findfont 51.3523 sf 0 0 m (1) show NC gr  227 159 m 1276 Y s
 gsave  2268 1594 0 0 C 82.1636 1382.4 t 90 r /Helvetica findfont 51.3523 sf 0 0 m (dz) show NC gr 
 gsave  2268 1594 0 0 C 98.5964 1343.38 t 90 r /Helvetica findfont 34.9195 sf 0 0 m (jet) show NC gr 
 gsave  2268 1594 0 0 C 82.1636 1265.32 t 90 r /Helvetica findfont 51.3523 sf 0 0 m ( dN) show NC gr 
 gsave  2268 1594 0 0 C 98.5964 1226.29 t 90 r /Helvetica findfont 34.9195 sf 0 0 m (jet) show NC gr 
 gsave  2268 1594 0 0 C 82.1636 1148.24 t 90 r /Helvetica findfont 51.3523 sf 0 0 m (1/N) show NC gr  281 159 m -54 X s
 gsave  2268 1594 0 0 C 176.652 158.165 t 0 r /Helvetica findfont 34.9195 sf 0 0 m (\2554) show NC gr 
 gsave  2268 1594 0 0 C 121.191 135.57 t 0 r /Helvetica findfont 51.3523 sf 0 0 m (10) show NC gr  254 223 m -27 X s 254 261 m -27 X s 254 287 m -27 X s 254 308 m -27 X s 254 325 m -27 X s 254 339 m -27 X s 254 351 m -27 X s 254 362 m -27 X s 281 372
 m -54 X s
 gsave  2268 1594 0 0 C 176.652 373.845 t 0 r /Helvetica findfont 34.9195 sf 0 0 m (\2553) show NC gr 
 gsave  2268 1594 0 0 C 121.191 349.195 t 0 r /Helvetica findfont 51.3523 sf 0 0 m (10) show NC gr  254 436 m -27 X s 254 473 m -27 X s 254 500 m -27 X s 254 520 m -27 X s 254 537 m -27 X s 254 552 m -27 X s 254 564 m -27 X s 254 575 m -27 X s 281
 584 m -54 X s
 gsave  2268 1594 0 0 C 176.652 583.362 t 0 r /Helvetica findfont 34.9195 sf 0 0 m (\2552) show NC gr 
 gsave  2268 1594 0 0 C 121.191 560.767 t 0 r /Helvetica findfont 51.3523 sf 0 0 m (10) show NC gr  254 648 m -27 X s 254 686 m -27 X s 254 712 m -27 X s 254 733 m -27 X s 254 750 m -27 X s 254 764 m -27 X s 254 776 m -27 X s 254 787 m -27 X s 281
 797 m -54 X s
 gsave  2268 1594 0 0 C 182.814 796.987 t 0 r /Helvetica findfont 34.9195 sf 0 0 m (\2551) show NC gr 
 gsave  2268 1594 0 0 C 127.354 774.392 t 0 r /Helvetica findfont 51.3523 sf 0 0 m (10) show NC gr  254 861 m -27 X s 254 898 m -27 X s 254 925 m -27 X s 254 946 m -27 X s 254 962 m -27 X s 254 977 m -27 X s 254 989 m -27 X s 254 1000 m -27 X s 281
 1010 m -54 X s
 gsave  2268 1594 0 0 C 209.083 987.333 t 0 r  -28 0 t /Helvetica findfont 51.3523 sf 0 0 m (1) show NC gr  254 1073 m -27 X s 254 1111 m -27 X s 254 1137 m -27 X s 254 1158 m -27 X s 254 1175 m -27 X s 254 1189 m -27 X s 254 1201 m -27 X s 254 1212
 m -27 X s 281 1222 m -54 X s
 gsave  2268 1594 0 0 C 209.083 1199.86 t 0 r  -57 0 t /Helvetica findfont 51.3523 sf 0 0 m (10) show NC gr  254 1286 m -27 X s 254 1323 m -27 X s 254 1350 m -27 X s 254 1371 m -27 X s 254 1387 m -27 X s 254 1402 m -27 X s 254 1414 m -27 X s 254 1425
 m -27 X s 281 1435 m -54 X s
 gsave  2268 1594 0 0 C 188.976 1433.76 t 0 r /Helvetica findfont 34.9195 sf 0 0 m (2) show NC gr 
 gsave  2268 1594 0 0 C 133.516 1411.16 t 0 r /Helvetica findfont 51.3523 sf 0 0 m (10) show NC gr 
 gsave  2268 1594 0 0 C 840.123 1351.59 t 0 r /Helvetica-Bold findfont 55.4605 sf 0 0 m ( projection for lhc13c merged output) show NC gr 
 gsave  2268 1594 0 0 C 712.77 1333.11 t 0 r /Helvetica-Bold findfont 36.9736 sf 0 0 m (leading) show NC gr 
 gsave  2268 1594 0 0 C 589.524 1351.59 t 0 r /Helvetica-Bold findfont 55.4605 sf 0 0 m (Jet z) show NC gr  1 1 1 c 681 240 680 398 bf black
 gsave  2268 1594 0 0 C 1172.89 509.415 t 0 r /Helvetica-Bold findfont 65.7309 sf 0 0 m ( < 250) show NC gr 
 gsave  2268 1594 0 0 C 1037.32 540.226 t 0 r /Helvetica-Bold findfont 43.1359 sf 0 0 m (ch+em) show NC gr 
 gsave  2268 1594 0 0 C 1037.32 474.495 t 0 r /Helvetica-Bold findfont 43.1359 sf 0 0 m (T,jet) show NC gr 
 gsave  2268 1594 0 0 C 850.394 509.415 t 0 r /Helvetica-Bold findfont 65.7309 sf 0 0 m (50 < p) show NC gr  0 0 1 c 765 518 m20 black
 gsave  2268 1594 0 0 C 1031.15 373.845 t 0 r /Helvetica-Bold findfont 55.4605 sf 0 0 m ( R = 0.4) show NC gr 
 gsave  2268 1594 0 0 C 1008.56 355.358 t 0 r /Helvetica-Bold findfont 36.9736 sf 0 0 m (T) show NC gr 
 gsave  2268 1594 0 0 C 860.664 373.845 t 0 r /Helvetica-Bold findfont 55.4605 sf 0 0 m (anti\255k) show NC gr 
 gr  gr showpage
end
%%EOF
