%!PS-Adobe-2.0 EPSF-2.0
%%BoundingBox:  0 0 567 398
%%Title: /Users/cgy606/Documents/Train/LEGOTrain/020814/lhc13b/lhc13b_JetPhiR2.eps: 
%%Creator: ROOT Version 5.34/09
%%CreationDate: Fri Mar 28 14:54:15 2014
%%EndComments
%%BeginProlog
80 dict begin
/s {stroke} def /l {lineto} def /m {moveto} def /t {translate} def
/r {rotate} def /rl {roll}  def /R {repeat} def
/d {rlineto} def /rm {rmoveto} def /gr {grestore} def /f {eofill} def
/c {setrgbcolor} def /black {0 setgray} def /sd {setdash} def
/cl {closepath} def /sf {scalefont setfont} def /lw {setlinewidth} def
/box {m dup 0 exch d exch 0 d 0 exch neg d cl} def
/NC{systemdict begin initclip end}def/C{NC box clip newpath}def
/bl {box s} def /bf {box f} def /Y { 0 exch d} def /X { 0 d} def 
/K {{pop pop 0 moveto} exch kshow} bind def
/ita {/ang 15 def gsave [1 0 ang dup sin exch cos div 1 0 0] concat} def 
/mp {newpath /y exch def /x exch def} def
/side {[w .77 mul w .23 mul] .385 w mul sd w 0 l currentpoint t -144 r} def
/mr {mp x y w2 0 360 arc} def /m24 {mr s} def /m20 {mr f} def
/mb {mp x y w2 add m w2 neg 0 d 0 w neg d w 0 d 0 w d cl} def
/mt {mp x y w2 add m w2 neg w neg d w 0 d cl} def
/m21 {mb f} def /m25 {mb s} def /m22 {mt f} def /m26{mt s} def
/m23 {mp x y w2 sub m w2 w d w neg 0 d cl f} def
/m27 {mp x y w2 add m w3 neg w2 neg d w3 w2 neg d w3 w2 d cl s} def
/m28 {mp x w2 sub y w2 sub w3 add m w3 0 d  0 w3 neg d w3 0 d 0 w3 d w3 0 d  0 w3 d w3 neg 0 d 0 w3 d w3 neg 0 d 0 w3 neg d w3 neg 0 d cl s } def
/m29 {mp gsave x w2 sub y w2 add w3 sub m currentpoint t 4 {side} repeat cl fill gr} def
/m30 {mp gsave x w2 sub y w2 add w3 sub m currentpoint t 4 {side} repeat cl s gr} def
/m31 {mp x y w2 sub m 0 w d x w2 sub y m w 0 d x w2 sub y w2 add m w w neg d x w2 sub y w2 sub m w w d s} def
/m32 {mp x y w2 sub m w2 w d w neg 0 d cl s} def
/m33 {mp x y w2 add m w3 neg w2 neg d w3 w2 neg d w3 w2 d cl f} def
/m34 {mp x w2 sub y w2 sub w3 add m w3 0 d  0 w3 neg d w3 0 d 0 w3 d w3 0 d  0 w3 d w3 neg 0 d 0 w3 d w3 neg 0 d 0 w3 neg d w3 neg 0 d cl f } def
/m2 {mp x y w2 sub m 0 w d x w2 sub y m w 0 d s} def
/m5 {mp x w2 sub y w2 sub m w w d x w2 sub y w2 add m w w neg d s} def
/reEncode {exch findfont dup length dict begin {1 index /FID eq  {pop pop} {def} ifelse } forall /Encoding exch def currentdict end dup /FontName get exch definefont pop } def [/Times-Bold /Times-Italic /Times-BoldItalic /Helvetica /Helvetica-Oblique
 /Helvetica-Bold /Helvetica-BoldOblique /Courier /Courier-Oblique /Courier-Bold /Courier-BoldOblique /Times-Roman /AvantGarde-Book /AvantGarde-BookOblique /AvantGarde-Demi /AvantGarde-DemiOblique /Bookman-Demi /Bookman-DemiItalic /Bookman-Light
 /Bookman-LightItalic /Helvetica-Narrow /Helvetica-Narrow-Bold /Helvetica-Narrow-BoldOblique /Helvetica-Narrow-Oblique /NewCenturySchlbk-Roman /NewCenturySchlbk-Bold /NewCenturySchlbk-BoldItalic /NewCenturySchlbk-Italic /Palatino-Bold
 /Palatino-BoldItalic /Palatino-Italic /Palatino-Roman ] {ISOLatin1Encoding reEncode } forall
%%EndProlog
%%BeginSetup
%%EndSetup
newpath  gsave  .25 .25 scale  gsave  0 0 t black[  ] 0 sd 3 lw 0.999 0.999 0.999 c 2268 1594 0 0 bf black 0.999 0.999 0.999 c 1814 1276 227 159 bf black 1814 1276 227 159 bl 0 0 1 c 1 1 1 c 0 0 1 c 227 278 m 3 X s 247 278 m 4 X s /w 16 def /w2 {w 2
 div} def /w3 {w 3 div} def 239 278 m20 251 555 m 3 X s 271 555 m 4 X s 263 555 m20 275 551 m 3 X s 295 551 m 3 X s 286 551 m20 298 542 m 4 X s 319 542 m 3 X s 310 542 m20 322 530 m 4 X s 342 530 m 4 X s 334 530 m20 346 509 m 4 X s 366 509 m 4 X s
 358 509 m20 370 492 m 4 X s 390 492 m 4 X s 382 492 m20 394 461 m 4 X s 414 461 m 4 X s 406 461 m20 418 462 m 3 X s 438 462 m 4 X s 430 462 m20 442 468 m 3 X s 462 468 m 3 X s 454 468 m20 465 483 m 4 X s 486 483 m 3 X s 477 483 m20 489 500 m 4 X s
 510 500 m 3 X s 501 500 m20 513 510 m 4 X s 533 510 m 4 X s 525 510 m20 537 531 m 4 X s 557 531 m 4 X s 549 531 m20 561 545 m 4 X s 581 545 m 4 X s 573 545 m20 585 552 m 4 X s 605 552 m 4 X s 597 552 m20 609 560 m 3 X s 629 560 m 4 X s 621 560 m20
 633 566 m 3 X s 653 566 m 3 X s 645 566 m20 656 573 m 4 X s 677 573 m 3 X s 668 573 m20 680 570 m 4 X s 700 570 m 4 X s 692 570 m20 704 538 m 4 X s 724 538 m 4 X s 716 538 m20 728 534 m 4 X s 748 534 m 4 X s 740 534 m20 752 532 m 4 X s 772 532 m 4 X
 s 764 532 m20 776 528 m 4 X s 796 528 m 4 X s 788 528 m20 800 507 m 3 X s 820 507 m 4 X s 812 507 m20 824 493 m 3 X s 844 493 m 3 X s 835 493 m20 847 459 m 4 X s 868 459 m 3 X s 859 459 m20 871 467 m 4 X s 891 467 m 4 X s 883 467 m20 895 466 m 4 X s
 915 466 m 4 X s 907 466 m20 919 506 m 4 X s 939 506 m 4 X s 931 506 m20 943 518 m 4 X s 963 518 m 4 X s 955 518 m20 967 522 m 3 X s 987 522 m 4 X s 979 522 m20 991 541 m 3 X s 1011 541 m 4 X s 1003 541 m20 1015 563 m 3 X s 1035 563 m 3 X s 1026 563
 m20 1038 572 m 4 X s 1059 572 m 3 X s 1050 572 m20 1062 578 m 4 X s 1082 578 m 4 X s 1074 578 m20 1086 586 m 4 X s 1106 586 m 4 X s 1098 586 m20 1110 599 m 4 X s 1130 599 m 4 X s 1122 599 m20 1134 572 m 4 X s 1154 572 m 4 X s 1146 572 m20 1158 574 m
 3 X s 1178 574 m 4 X s 1170 574 m20 1182 548 m 3 X s 1202 548 m 3 X s 1194 548 m20 1205 542 m 4 X s 1226 542 m 3 X s 1217 542 m20 1229 512 m 4 X s 1249 512 m 4 X s 1241 512 m20 1253 500 m 4 X s 1273 500 m 4 X s 1265 500 m20 1277 476 m 4 X s 1297 476
 m 4 X s 1289 476 m20 1301 457 m 4 X s 1321 457 m 4 X s 1313 457 m20 1325 449 m 4 X s 1345 449 m 4 X s 1337 449 m20 1349 462 m 3 X s 1369 462 m 4 X s 1361 462 m20 1373 496 m 3 X s 1393 496 m 3 X s 1385 496 m20 1396 520 m 4 X s 1417 520 m 3 X s 1408
 520 m20 1420 532 m 4 X s 1440 532 m 4 X s 1432 532 m20 1444 542 m 4 X s 1464 542 m 4 X s 1456 542 m20 1468 553 m 4 X s 1488 553 m 4 X s 1480 553 m20 1492 574 m 4 X s 1512 574 m 4 X s 1504 574 m20 1516 589 m 4 X s 1536 589 m 4 X s 1528 589 m20 1540
 590 m 3 X s 1560 590 m 4 X s 1552 590 m20 1564 586 m 3 X s 1584 586 m 3 X s 1575 586 m20 1587 573 m 4 X s 1608 573 m 3 X s 1599 573 m20 1611 560 m 4 X s 1631 560 m 4 X s 1623 560 m20 1635 550 m 4 X s 1655 550 m 4 X s 1647 550 m20 1659 542 m 4 X s
 1679 542 m 4 X s 1671 542 m20 1683 518 m 4 X s 1703 518 m 4 X s 1695 518 m20 1707 495 m 3 X s 1727 495 m 4 X s 1719 495 m20 1731 454 m 3 X s 1751 454 m 3 X s 1743 454 m20 1754 449 m 4 X s 1775 449 m 3 X s 1766 449 m20 1778 449 m 4 X s 1799 449 m 3 X
 s 1790 449 m20 1802 466 m 4 X s 1822 466 m 4 X s 1814 466 m20 1826 505 m 4 X s 1846 505 m 4 X s 1838 505 m20 1850 506 m 4 X s 1870 506 m 4 X s 1862 506 m20 1874 524 m 4 X s 1894 524 m 4 X s 1886 524 m20 1898 539 m 3 X s 1918 539 m 4 X s 1910 539 m20
 1922 547 m 3 X s 1942 547 m 3 X s 1934 547 m20 1945 569 m 4 X s 1966 569 m 3 X s 1957 569 m20 1969 586 m 4 X s 1989 586 m 4 X s 1981 586 m20 1993 592 m 4 X s 2013 592 m 4 X s 2005 592 m20 2017 591 m 4 X s 2037 591 m 4 X s 2029 591 m20 black 227 159
 m 1814 X s
 gsave  2268 1594 0 0 C 2008.9 63.6768 t 0 r /Symbol findfont 51.3523 sf 0 0 m (j) show NC gr  248 198 m -39 Y s 312 179 m -20 Y s 376 179 m -20 Y s 440 179 m -20 Y s 504 198 m -39 Y s 568 179 m -20 Y s 632 179 m -20 Y s 696 179 m -20 Y s 760 198 m
 -39 Y s 824 179 m -20 Y s 888 179 m -20 Y s 952 179 m -20 Y s 1015 198 m -39 Y s 1079 179 m -20 Y s 1143 179 m -20 Y s 1207 179 m -20 Y s 1271 198 m -39 Y s 1335 179 m -20 Y s 1399 179 m -20 Y s 1463 179 m -20 Y s 1527 198 m -39 Y s 1591 179 m -20 Y
 s 1655 179 m -20 Y s 1718 179 m -20 Y s 1782 198 m -39 Y s 1846 179 m -20 Y s 1910 179 m -20 Y s 1974 179 m -20 Y s 2038 198 m -39 Y s 248 198 m -39 Y s 2038 198 m -39 Y s
 gsave  2268 1594 0 0 C 211.571 106.813 t 0 r /Helvetica findfont 51.3523 sf 0 0 m (1.6) show NC gr 
 gsave  2268 1594 0 0 C 468.333 106.813 t 0 r /Helvetica findfont 51.3523 sf 0 0 m (1.8) show NC gr 
 gsave  2268 1594 0 0 C 743.581 106.813 t 0 r /Helvetica findfont 51.3523 sf 0 0 m (2) show NC gr 
 gsave  2268 1594 0 0 C 979.801 106.813 t 0 r /Helvetica findfont 51.3523 sf 0 0 m (2.2) show NC gr 
 gsave  2268 1594 0 0 C 1234.51 106.813 t 0 r /Helvetica findfont 51.3523 sf 0 0 m (2.4) show NC gr 
 gsave  2268 1594 0 0 C 1491.27 106.813 t 0 r /Helvetica findfont 51.3523 sf 0 0 m (2.6) show NC gr 
 gsave  2268 1594 0 0 C 1745.98 106.813 t 0 r /Helvetica findfont 51.3523 sf 0 0 m (2.8) show NC gr 
 gsave  2268 1594 0 0 C 2023.28 106.813 t 0 r /Helvetica findfont 51.3523 sf 0 0 m (3) show NC gr  227 159 m 1276 Y s
 gsave  2268 1594 0 0 C 106.813 1405 t 90 r /Symbol findfont 51.3523 sf 0 0 m (j) show NC gr 
 gsave  2268 1594 0 0 C 106.813 1361.86 t 90 r /Helvetica findfont 51.3523 sf 0 0 m (/d) show NC gr 
 gsave  2268 1594 0 0 C 123.245 1322.83 t 90 r /Helvetica findfont 34.9195 sf 0 0 m (jet) show NC gr 
 gsave  2268 1594 0 0 C 106.813 1244.78 t 90 r /Helvetica findfont 51.3523 sf 0 0 m ( dN) show NC gr 
 gsave  2268 1594 0 0 C 123.245 1158.51 t 90 r /Helvetica findfont 34.9195 sf 0 0 m (event) show NC gr 
 gsave  2268 1594 0 0 C 106.813 1080.45 t 90 r /Helvetica findfont 51.3523 sf 0 0 m (1/N) show NC gr  281 159 m -54 X s 254 202 m -27 X s 254 244 m -27 X s 254 287 m -27 X s 254 329 m -27 X s 281 372 m -54 X s 254 414 m -27 X s 254 457 m -27 X s 254
 499 m -27 X s 254 542 m -27 X s 281 584 m -54 X s 254 627 m -27 X s 254 669 m -27 X s 254 712 m -27 X s 254 754 m -27 X s 281 797 m -54 X s 254 839 m -27 X s 254 882 m -27 X s 254 925 m -27 X s 254 967 m -27 X s 281 1010 m -54 X s 254 1052 m -27 X s
 254 1095 m -27 X s 254 1137 m -27 X s 254 1180 m -27 X s 281 1222 m -54 X s 254 1265 m -27 X s 254 1307 m -27 X s 254 1350 m -27 X s 254 1392 m -27 X s 281 1435 m -54 X s
 gsave  2268 1594 0 0 C 186.922 141.732 t 0 r /Helvetica findfont 51.3523 sf 0 0 m (0) show NC gr 
 gsave  2268 1594 0 0 C 143.786 355.358 t 0 r /Helvetica findfont 51.3523 sf 0 0 m (0.5) show NC gr 
 gsave  2268 1594 0 0 C 195.139 564.875 t 0 r /Helvetica findfont 51.3523 sf 0 0 m (1) show NC gr 
 gsave  2268 1594 0 0 C 143.786 778.5 t 0 r /Helvetica findfont 51.3523 sf 0 0 m (1.5) show NC gr 
 gsave  2268 1594 0 0 C 186.922 990.072 t 0 r /Helvetica findfont 51.3523 sf 0 0 m (2) show NC gr 
 gsave  2268 1594 0 0 C 143.786 1203.7 t 0 r /Helvetica findfont 51.3523 sf 0 0 m (2.5) show NC gr 
 gsave  2268 1594 0 0 C 186.922 1417.32 t 0 r /Helvetica findfont 51.3523 sf 0 0 m (3) show NC gr 
 gsave  2268 1594 0 0 C 503.252 1329 t 0 r /Helvetica-Bold findfont 55.4605 sf 0 0 m ( distribution of R = 0.2 jets for lhc13b merged output) show NC gr 
 gsave  2268 1594 0 0 C 470.387 1329 t 0 r /Symbol findfont 55.4605 sf 0 0 m (j) show NC gr 
 gr  gr showpage
end
%%EOF
