%!PS-Adobe-2.0 EPSF-2.0
%%BoundingBox:  0 0 567 398
%%Title: : 
%%Creator: ROOT Version 5.34/09
%%CreationDate: Fri Mar 28 14:54:16 2014
%%EndComments
%%BeginProlog
80 dict begin
/s {stroke} def /l {lineto} def /m {moveto} def /t {translate} def
/r {rotate} def /rl {roll}  def /R {repeat} def
/d {rlineto} def /rm {rmoveto} def /gr {grestore} def /f {eofill} def
/c {setrgbcolor} def /black {0 setgray} def /sd {setdash} def
/cl {closepath} def /sf {scalefont setfont} def /lw {setlinewidth} def
/box {m dup 0 exch d exch 0 d 0 exch neg d cl} def
/NC{systemdict begin initclip end}def/C{NC box clip newpath}def
/bl {box s} def /bf {box f} def /Y { 0 exch d} def /X { 0 d} def 
/K {{pop pop 0 moveto} exch kshow} bind def
/ita {/ang 15 def gsave [1 0 ang dup sin exch cos div 1 0 0] concat} def 
/mp {newpath /y exch def /x exch def} def
/side {[w .77 mul w .23 mul] .385 w mul sd w 0 l currentpoint t -144 r} def
/mr {mp x y w2 0 360 arc} def /m24 {mr s} def /m20 {mr f} def
/mb {mp x y w2 add m w2 neg 0 d 0 w neg d w 0 d 0 w d cl} def
/mt {mp x y w2 add m w2 neg w neg d w 0 d cl} def
/m21 {mb f} def /m25 {mb s} def /m22 {mt f} def /m26{mt s} def
/m23 {mp x y w2 sub m w2 w d w neg 0 d cl f} def
/m27 {mp x y w2 add m w3 neg w2 neg d w3 w2 neg d w3 w2 d cl s} def
/m28 {mp x w2 sub y w2 sub w3 add m w3 0 d  0 w3 neg d w3 0 d 0 w3 d w3 0 d  0 w3 d w3 neg 0 d 0 w3 d w3 neg 0 d 0 w3 neg d w3 neg 0 d cl s } def
/m29 {mp gsave x w2 sub y w2 add w3 sub m currentpoint t 4 {side} repeat cl fill gr} def
/m30 {mp gsave x w2 sub y w2 add w3 sub m currentpoint t 4 {side} repeat cl s gr} def
/m31 {mp x y w2 sub m 0 w d x w2 sub y m w 0 d x w2 sub y w2 add m w w neg d x w2 sub y w2 sub m w w d s} def
/m32 {mp x y w2 sub m w2 w d w neg 0 d cl s} def
/m33 {mp x y w2 add m w3 neg w2 neg d w3 w2 neg d w3 w2 d cl f} def
/m34 {mp x w2 sub y w2 sub w3 add m w3 0 d  0 w3 neg d w3 0 d 0 w3 d w3 0 d  0 w3 d w3 neg 0 d 0 w3 d w3 neg 0 d 0 w3 neg d w3 neg 0 d cl f } def
/m2 {mp x y w2 sub m 0 w d x w2 sub y m w 0 d s} def
/m5 {mp x w2 sub y w2 sub m w w d x w2 sub y w2 add m w w neg d s} def
/reEncode {exch findfont dup length dict begin {1 index /FID eq  {pop pop} {def} ifelse } forall /Encoding exch def currentdict end dup /FontName get exch definefont pop } def [/Times-Bold /Times-Italic /Times-BoldItalic /Helvetica /Helvetica-Oblique
 /Helvetica-Bold /Helvetica-BoldOblique /Courier /Courier-Oblique /Courier-Bold /Courier-BoldOblique /Times-Roman /AvantGarde-Book /AvantGarde-BookOblique /AvantGarde-Demi /AvantGarde-DemiOblique /Bookman-Demi /Bookman-DemiItalic /Bookman-Light
 /Bookman-LightItalic /Helvetica-Narrow /Helvetica-Narrow-Bold /Helvetica-Narrow-BoldOblique /Helvetica-Narrow-Oblique /NewCenturySchlbk-Roman /NewCenturySchlbk-Bold /NewCenturySchlbk-BoldItalic /NewCenturySchlbk-Italic /Palatino-Bold
 /Palatino-BoldItalic /Palatino-Italic /Palatino-Roman ] {ISOLatin1Encoding reEncode } forall
%%EndProlog
%%BeginSetup
%%EndSetup
newpath  gsave  .25 .25 scale  gsave  0 0 t black[  ] 0 sd 3 lw 0.999 0.999 0.999 c 2268 1594 0 0 bf black 0.999 0.999 0.999 c 1814 1276 227 159 bf black 1814 1276 227 159 bl 0 0 1 c 1 1 1 c 0 0 1 c 317 375 m 38 X s 371 375 m 37 X s /w 16 def /w2 {w
 2 div} def /w3 {w 3 div} def 363 375 m20 408 461 m 37 X s 462 461 m 37 X s 454 461 m20 499 514 m 37 X s 552 514 m 38 X s 544 514 m20 590 549 m 37 X s 643 549 m 37 X s 635 549 m20 680 584 m 37 X s 734 584 m 37 X s 726 584 m20 771 606 m 37 X s 825 606
 m 37 X s 816 606 m20 907 621 m 1 Y s 907 638 m 1 Y s 862 630 m 37 X s 915 630 m 37 X s 907 630 m20 998 632 m 5 Y s 998 653 m 4 Y s 952 645 m 38 X s 1006 645 m 37 X s 998 645 m20 1089 679 m 11 Y s 1089 706 m 11 Y s 1043 698 m 37 X s 1097 698 m 37 X s
 1089 698 m20 1179 686 m 15 Y s 1179 717 m 15 Y s 1134 709 m 37 X s 1187 709 m 38 X s 1179 709 m20 1270 733 m 35 Y s 1270 784 m 35 Y s 1225 776 m 37 X s 1278 776 m 37 X s 1270 776 m20 1361 696 m 45 Y s 1361 757 m 45 Y s 1315 749 m 37 X s 1369 749 m
 37 X s 1361 749 m20 1451 777 m 25 Y s 1451 818 m 25 Y s 1406 810 m 37 X s 1460 810 m 37 X s 1451 810 m20 1542 712 m 61 Y s 1542 789 m 61 Y s 1497 781 m 37 X s 1550 781 m 37 X s 1542 781 m20 1633 716 m 70 Y s 1633 802 m 69 Y s 1587 794 m 38 X s 1641
 794 m 37 X s 1633 794 m20 1723 652 m 77 Y s 1723 745 m 77 Y s 1678 737 m 37 X s 1732 737 m 37 X s 1723 737 m20 1905 986 m 52 Y s 1905 1055 m 52 Y s 1860 1047 m 37 X s 1913 1047 m 37 X s 1905 1047 m20 1950 622 m 37 X s 2004 622 m 37 X s 1996 622 m20
 black 227 159 m 1814 X s
 gsave  2268 1594 0 0 C 1891.82 47.2441 t 0 r /Helvetica findfont 51.3523 sf 0 0 m ( \(GeV\)) show NC gr 
 gsave  2268 1594 0 0 C 1787.06 67.785 t 0 r /Helvetica findfont 34.9195 sf 0 0 m (ch+em) show NC gr 
 gsave  2268 1594 0 0 C 1787.06 18.4868 t 0 r /Helvetica findfont 34.9195 sf 0 0 m (T,jet) show NC gr 
 gsave  2268 1594 0 0 C 1758.3 47.2441 t 0 r /Helvetica findfont 51.3523 sf 0 0 m (p) show NC gr  227 198 m -39 Y s 263 179 m -20 Y s 299 179 m -20 Y s 336 179 m -20 Y s 372 179 m -20 Y s 408 198 m -39 Y s 444 179 m -20 Y s 481 179 m -20 Y s 517 179
 m -20 Y s 553 179 m -20 Y s 590 198 m -39 Y s 626 179 m -20 Y s 662 179 m -20 Y s 698 179 m -20 Y s 735 179 m -20 Y s 771 198 m -39 Y s 807 179 m -20 Y s 844 179 m -20 Y s 880 179 m -20 Y s 916 179 m -20 Y s 952 198 m -39 Y s 989 179 m -20 Y s 1025
 179 m -20 Y s 1061 179 m -20 Y s 1098 179 m -20 Y s 1134 198 m -39 Y s 1170 179 m -20 Y s 1206 179 m -20 Y s 1243 179 m -20 Y s 1279 179 m -20 Y s 1315 198 m -39 Y s 1352 179 m -20 Y s 1388 179 m -20 Y s 1424 179 m -20 Y s 1460 179 m -20 Y s 1497
 198 m -39 Y s 1533 179 m -20 Y s 1569 179 m -20 Y s 1606 179 m -20 Y s 1642 179 m -20 Y s 1678 198 m -39 Y s 1714 179 m -20 Y s 1751 179 m -20 Y s 1787 179 m -20 Y s 1823 179 m -20 Y s 1860 198 m -39 Y s 1896 179 m -20 Y s 1932 179 m -20 Y s 1968
 179 m -20 Y s 2005 179 m -20 Y s 2041 198 m -39 Y s
 gsave  2268 1594 0 0 C 211.571 106.813 t 0 r /Helvetica findfont 51.3523 sf 0 0 m (0) show NC gr 
 gsave  2268 1594 0 0 C 377.953 106.813 t 0 r /Helvetica findfont 51.3523 sf 0 0 m (10) show NC gr 
 gsave  2268 1594 0 0 C 560.767 106.813 t 0 r /Helvetica findfont 51.3523 sf 0 0 m (20) show NC gr 
 gsave  2268 1594 0 0 C 741.527 106.813 t 0 r /Helvetica findfont 51.3523 sf 0 0 m (30) show NC gr 
 gsave  2268 1594 0 0 C 922.287 106.813 t 0 r /Helvetica findfont 51.3523 sf 0 0 m (40) show NC gr 
 gsave  2268 1594 0 0 C 1105.1 106.813 t 0 r /Helvetica findfont 51.3523 sf 0 0 m (50) show NC gr 
 gsave  2268 1594 0 0 C 1285.86 106.813 t 0 r /Helvetica findfont 51.3523 sf 0 0 m (60) show NC gr 
 gsave  2268 1594 0 0 C 1466.62 106.813 t 0 r /Helvetica findfont 51.3523 sf 0 0 m (70) show NC gr 
 gsave  2268 1594 0 0 C 1647.38 106.813 t 0 r /Helvetica findfont 51.3523 sf 0 0 m (80) show NC gr 
 gsave  2268 1594 0 0 C 1830.2 106.813 t 0 r /Helvetica findfont 51.3523 sf 0 0 m (90) show NC gr 
 gsave  2268 1594 0 0 C 1996.58 106.813 t 0 r /Helvetica findfont 51.3523 sf 0 0 m (100) show NC gr  227 159 m 1276 Y s
 gsave  2268 1594 0 0 C 92.4341 992.126 t 90 r /Helvetica findfont 51.3523 sf 0 0 m (<# of Constituents>) show NC gr  281 159 m -54 X s 254 191 m -27 X s 254 223 m -27 X s 254 255 m -27 X s 254 287 m -27 X s 281 319 m -54 X s 254 351 m -27 X s 254
 383 m -27 X s 254 414 m -27 X s 254 446 m -27 X s 281 478 m -54 X s 254 510 m -27 X s 254 542 m -27 X s 254 574 m -27 X s 254 606 m -27 X s 281 638 m -54 X s 254 669 m -27 X s 254 701 m -27 X s 254 733 m -27 X s 254 765 m -27 X s 281 797 m -54 X s
 254 829 m -27 X s 254 861 m -27 X s 254 893 m -27 X s 254 925 m -27 X s 281 956 m -54 X s 254 988 m -27 X s 254 1020 m -27 X s 254 1052 m -27 X s 254 1084 m -27 X s 281 1116 m -54 X s 254 1148 m -27 X s 254 1180 m -27 X s 254 1211 m -27 X s 254 1243
 m -27 X s 281 1275 m -54 X s 254 1307 m -27 X s 254 1339 m -27 X s 254 1371 m -27 X s 254 1403 m -27 X s 281 1435 m -54 X s
 gsave  2268 1594 0 0 C 186.922 141.732 t 0 r /Helvetica findfont 51.3523 sf 0 0 m (0) show NC gr 
 gsave  2268 1594 0 0 C 186.922 301.951 t 0 r /Helvetica findfont 51.3523 sf 0 0 m (5) show NC gr 
 gsave  2268 1594 0 0 C 158.165 460.116 t 0 r /Helvetica findfont 51.3523 sf 0 0 m (10) show NC gr 
 gsave  2268 1594 0 0 C 158.165 620.336 t 0 r /Helvetica findfont 51.3523 sf 0 0 m (15) show NC gr 
 gsave  2268 1594 0 0 C 158.165 778.5 t 0 r /Helvetica findfont 51.3523 sf 0 0 m (20) show NC gr 
 gsave  2268 1594 0 0 C 158.165 938.72 t 0 r /Helvetica findfont 51.3523 sf 0 0 m (25) show NC gr 
 gsave  2268 1594 0 0 C 158.165 1098.94 t 0 r /Helvetica findfont 51.3523 sf 0 0 m (30) show NC gr 
 gsave  2268 1594 0 0 C 158.165 1257.1 t 0 r /Helvetica findfont 51.3523 sf 0 0 m (35) show NC gr 
 gsave  2268 1594 0 0 C 158.165 1417.32 t 0 r /Helvetica findfont 51.3523 sf 0 0 m (40) show NC gr  1 1 1 c black 317 315 m 38 X s 371 315 m 37 X s 363 315 m21 408 365 m 37 X s 462 365 m 37 X s 454 365 m21 499 391 m 37 X s 552 391 m 38 X s 544 391
 m21 590 403 m 37 X s 643 403 m 37 X s 635 403 m21 680 415 m 37 X s 734 415 m 37 X s 726 415 m21 771 421 m 37 X s 825 421 m 37 X s 816 421 m21 862 430 m 37 X s 915 430 m 37 X s 907 430 m21 998 427 m 2 Y s 998 445 m 2 Y s 952 437 m 38 X s 1006 437 m
 37 X s 998 437 m21 1089 459 m 7 Y s 1089 482 m 7 Y s 1043 474 m 37 X s 1097 474 m 37 X s 1089 474 m21 1179 442 m 6 Y s 1179 465 m 7 Y s 1134 457 m 37 X s 1187 457 m 38 X s 1179 457 m21 1270 443 m 16 Y s 1270 476 m 16 Y s 1225 467 m 37 X s 1278 467 m
 37 X s 1270 467 m21 1361 437 m 22 Y s 1361 475 m 23 Y s 1315 467 m 37 X s 1369 467 m 37 X s 1361 467 m21 1451 475 m 25 Y s 1451 517 m 25 Y s 1406 509 m 37 X s 1460 509 m 37 X s 1451 509 m21 1542 458 m 60 Y s 1542 534 m 60 Y s 1497 526 m 37 X s 1550
 526 m 37 X s 1542 526 m21 1633 431 m 13 Y s 1633 461 m 13 Y s 1587 453 m 38 X s 1641 453 m 37 X s 1633 453 m21 1723 408 m 46 Y s 1723 470 m 46 Y s 1678 462 m 37 X s 1732 462 m 37 X s 1723 462 m21 1905 520 m 40 Y s 1905 577 m 40 Y s 1860 569 m 37 X s
 1913 569 m 37 X s 1905 569 m21 1950 558 m 37 X s 2004 558 m 37 X s 1996 558 m21 1 0 0 c 1 1 1 c 1 0 0 c 317 236 m 38 X s 371 236 m 37 X s 363 236 m24 408 271 m 37 X s 462 271 m 37 X s 454 271 m24 499 299 m 37 X s 552 299 m 38 X s 544 299 m24 590 322
 m 37 X s 643 322 m 37 X s 635 322 m24 680 344 m 37 X s 734 344 m 37 X s 726 344 m24 771 360 m 37 X s 825 360 m 37 X s 816 360 m24 862 375 m 37 X s 915 375 m 37 X s 907 375 m24 998 374 m 1 Y s 998 391 m 1 Y s 952 383 m 38 X s 1006 383 m 37 X s 998
 383 m24 1089 385 m 6 Y s 1089 407 m 6 Y s 1043 399 m 37 X s 1097 399 m 37 X s 1089 399 m24 1179 412 m 8 Y s 1179 436 m 8 Y s 1134 428 m 37 X s 1187 428 m 38 X s 1179 428 m24 1270 453 m 23 Y s 1270 492 m 23 Y s 1225 484 m 37 X s 1278 484 m 37 X s
 1270 484 m24 1361 423 m 26 Y s 1361 466 m 26 Y s 1315 457 m 37 X s 1369 457 m 37 X s 1361 457 m24 1451 448 m 21 Y s 1451 485 m 21 Y s 1406 477 m 37 X s 1460 477 m 37 X s 1451 477 m24 1542 386 m 36 Y s 1542 439 m 36 Y s 1497 430 m 37 X s 1550 430 m
 37 X s 1542 430 m24 1633 455 m 53 Y s 1633 525 m 53 Y s 1587 516 m 38 X s 1641 516 m 37 X s 1633 516 m24 1723 407 m 35 Y s 1723 459 m 34 Y s 1678 450 m 37 X s 1732 450 m 37 X s 1723 450 m24 1905 608 m 37 Y s 1905 662 m 37 Y s 1860 654 m 37 X s 1913
 654 m 37 X s 1905 654 m24 1950 239 m 37 X s 2004 239 m 37 X s 1996 239 m24 black
 gsave  2268 1594 0 0 C 406.71 1308.46 t 0 r /Helvetica-Bold findfont 45.19 sf 0 0 m (Jet R = 0.4 constituent count distribution for lhc13b merged output) show NC gr  1 1 1 c 680 239 340 717 bf black
 gsave  2268 1594 0 0 C 509.415 893.53 t 0 r /Helvetica-Bold findfont 63.6768 sf 0 0 m (Total) show NC gr  0 0 1 c 425 917 m20 black
 gsave  2268 1594 0 0 C 509.415 819.582 t 0 r /Helvetica-Bold findfont 63.6768 sf 0 0 m (Charged) show NC gr  425 837 m21
 gsave  2268 1594 0 0 C 509.415 733.31 t 0 r /Helvetica-Bold findfont 63.6768 sf 0 0 m (Neutral) show NC gr  1 0 0 c 425 757 m24
 gr  gr showpage
end
%%EOF
