%!PS-Adobe-2.0 EPSF-2.0
%%BoundingBox:  0 0 567 398
%%Title: : 
%%Creator: ROOT Version 5.34/09
%%CreationDate: Fri Mar 28 14:54:16 2014
%%EndComments
%%BeginProlog
80 dict begin
/s {stroke} def /l {lineto} def /m {moveto} def /t {translate} def
/r {rotate} def /rl {roll}  def /R {repeat} def
/d {rlineto} def /rm {rmoveto} def /gr {grestore} def /f {eofill} def
/c {setrgbcolor} def /black {0 setgray} def /sd {setdash} def
/cl {closepath} def /sf {scalefont setfont} def /lw {setlinewidth} def
/box {m dup 0 exch d exch 0 d 0 exch neg d cl} def
/NC{systemdict begin initclip end}def/C{NC box clip newpath}def
/bl {box s} def /bf {box f} def /Y { 0 exch d} def /X { 0 d} def 
/K {{pop pop 0 moveto} exch kshow} bind def
/ita {/ang 15 def gsave [1 0 ang dup sin exch cos div 1 0 0] concat} def 
/mp {newpath /y exch def /x exch def} def
/side {[w .77 mul w .23 mul] .385 w mul sd w 0 l currentpoint t -144 r} def
/mr {mp x y w2 0 360 arc} def /m24 {mr s} def /m20 {mr f} def
/mb {mp x y w2 add m w2 neg 0 d 0 w neg d w 0 d 0 w d cl} def
/mt {mp x y w2 add m w2 neg w neg d w 0 d cl} def
/m21 {mb f} def /m25 {mb s} def /m22 {mt f} def /m26{mt s} def
/m23 {mp x y w2 sub m w2 w d w neg 0 d cl f} def
/m27 {mp x y w2 add m w3 neg w2 neg d w3 w2 neg d w3 w2 d cl s} def
/m28 {mp x w2 sub y w2 sub w3 add m w3 0 d  0 w3 neg d w3 0 d 0 w3 d w3 0 d  0 w3 d w3 neg 0 d 0 w3 d w3 neg 0 d 0 w3 neg d w3 neg 0 d cl s } def
/m29 {mp gsave x w2 sub y w2 add w3 sub m currentpoint t 4 {side} repeat cl fill gr} def
/m30 {mp gsave x w2 sub y w2 add w3 sub m currentpoint t 4 {side} repeat cl s gr} def
/m31 {mp x y w2 sub m 0 w d x w2 sub y m w 0 d x w2 sub y w2 add m w w neg d x w2 sub y w2 sub m w w d s} def
/m32 {mp x y w2 sub m w2 w d w neg 0 d cl s} def
/m33 {mp x y w2 add m w3 neg w2 neg d w3 w2 neg d w3 w2 d cl f} def
/m34 {mp x w2 sub y w2 sub w3 add m w3 0 d  0 w3 neg d w3 0 d 0 w3 d w3 0 d  0 w3 d w3 neg 0 d 0 w3 d w3 neg 0 d 0 w3 neg d w3 neg 0 d cl f } def
/m2 {mp x y w2 sub m 0 w d x w2 sub y m w 0 d s} def
/m5 {mp x w2 sub y w2 sub m w w d x w2 sub y w2 add m w w neg d s} def
/reEncode {exch findfont dup length dict begin {1 index /FID eq  {pop pop} {def} ifelse } forall /Encoding exch def currentdict end dup /FontName get exch definefont pop } def [/Times-Bold /Times-Italic /Times-BoldItalic /Helvetica /Helvetica-Oblique
 /Helvetica-Bold /Helvetica-BoldOblique /Courier /Courier-Oblique /Courier-Bold /Courier-BoldOblique /Times-Roman /AvantGarde-Book /AvantGarde-BookOblique /AvantGarde-Demi /AvantGarde-DemiOblique /Bookman-Demi /Bookman-DemiItalic /Bookman-Light
 /Bookman-LightItalic /Helvetica-Narrow /Helvetica-Narrow-Bold /Helvetica-Narrow-BoldOblique /Helvetica-Narrow-Oblique /NewCenturySchlbk-Roman /NewCenturySchlbk-Bold /NewCenturySchlbk-BoldItalic /NewCenturySchlbk-Italic /Palatino-Bold
 /Palatino-BoldItalic /Palatino-Italic /Palatino-Roman ] {ISOLatin1Encoding reEncode } forall
%%EndProlog
%%BeginSetup
%%EndSetup
newpath  gsave  .25 .25 scale  gsave  0 0 t black[  ] 0 sd 3 lw 0.999 0.999 0.999 c 2268 1594 0 0 bf black 0.999 0.999 0.999 c 1814 1276 227 159 bf black 1814 1276 227 159 bl 0 0 1 c 1 1 1 c 0 0 1 c 317 292 m 38 X s 371 292 m 37 X s /w 16 def /w2 {w
 2 div} def /w3 {w 3 div} def 363 292 m20 408 333 m 37 X s 462 333 m 37 X s 454 333 m20 499 368 m 37 X s 552 368 m 38 X s 544 368 m20 590 400 m 37 X s 643 400 m 37 X s 635 400 m20 680 431 m 37 X s 734 431 m 37 X s 726 431 m20 771 449 m 37 X s 825 449
 m 37 X s 816 449 m20 862 477 m 37 X s 915 477 m 37 X s 907 477 m20 998 496 m 2 Y s 998 515 m 2 Y s 952 506 m 38 X s 1006 506 m 37 X s 998 506 m20 1089 503 m 6 Y s 1089 525 m 6 Y s 1043 517 m 37 X s 1097 517 m 37 X s 1089 517 m20 1179 490 m 10 Y s
 1179 516 m 10 Y s 1134 508 m 37 X s 1187 508 m 38 X s 1179 508 m20 1270 517 m 16 Y s 1270 549 m 16 Y s 1225 541 m 37 X s 1278 541 m 37 X s 1270 541 m20 1361 574 m 25 Y s 1361 615 m 25 Y s 1315 607 m 37 X s 1369 607 m 37 X s 1361 607 m20 1451 481 m
 41 Y s 1451 539 m 42 Y s 1406 531 m 37 X s 1460 531 m 37 X s 1451 531 m20 1542 594 m 37 Y s 1542 647 m 37 Y s 1497 639 m 37 X s 1550 639 m 37 X s 1542 639 m20 1633 487 m 67 Y s 1633 570 m 66 Y s 1587 562 m 38 X s 1641 562 m 37 X s 1633 562 m20 1723
 511 m 31 Y s 1723 558 m 31 Y s 1678 550 m 37 X s 1732 550 m 37 X s 1723 550 m20 1814 544 m 60 Y s 1814 621 m 60 Y s 1769 613 m 37 X s 1822 613 m 38 X s 1814 613 m20 1860 845 m 37 X s 1913 845 m 37 X s 1905 845 m20 1950 494 m 37 X s 2004 494 m 37 X s
 1996 494 m20 black 227 159 m 1814 X s
 gsave  2268 1594 0 0 C 1891.82 47.2441 t 0 r /Helvetica findfont 51.3523 sf 0 0 m ( \(GeV\)) show NC gr 
 gsave  2268 1594 0 0 C 1787.06 67.785 t 0 r /Helvetica findfont 34.9195 sf 0 0 m (ch+em) show NC gr 
 gsave  2268 1594 0 0 C 1787.06 18.4868 t 0 r /Helvetica findfont 34.9195 sf 0 0 m (T,jet) show NC gr 
 gsave  2268 1594 0 0 C 1758.3 47.2441 t 0 r /Helvetica findfont 51.3523 sf 0 0 m (p) show NC gr  227 198 m -39 Y s 263 179 m -20 Y s 299 179 m -20 Y s 336 179 m -20 Y s 372 179 m -20 Y s 408 198 m -39 Y s 444 179 m -20 Y s 481 179 m -20 Y s 517 179
 m -20 Y s 553 179 m -20 Y s 590 198 m -39 Y s 626 179 m -20 Y s 662 179 m -20 Y s 698 179 m -20 Y s 735 179 m -20 Y s 771 198 m -39 Y s 807 179 m -20 Y s 844 179 m -20 Y s 880 179 m -20 Y s 916 179 m -20 Y s 952 198 m -39 Y s 989 179 m -20 Y s 1025
 179 m -20 Y s 1061 179 m -20 Y s 1098 179 m -20 Y s 1134 198 m -39 Y s 1170 179 m -20 Y s 1206 179 m -20 Y s 1243 179 m -20 Y s 1279 179 m -20 Y s 1315 198 m -39 Y s 1352 179 m -20 Y s 1388 179 m -20 Y s 1424 179 m -20 Y s 1460 179 m -20 Y s 1497
 198 m -39 Y s 1533 179 m -20 Y s 1569 179 m -20 Y s 1606 179 m -20 Y s 1642 179 m -20 Y s 1678 198 m -39 Y s 1714 179 m -20 Y s 1751 179 m -20 Y s 1787 179 m -20 Y s 1823 179 m -20 Y s 1860 198 m -39 Y s 1896 179 m -20 Y s 1932 179 m -20 Y s 1968
 179 m -20 Y s 2005 179 m -20 Y s 2041 198 m -39 Y s
 gsave  2268 1594 0 0 C 211.571 106.813 t 0 r /Helvetica findfont 51.3523 sf 0 0 m (0) show NC gr 
 gsave  2268 1594 0 0 C 377.953 106.813 t 0 r /Helvetica findfont 51.3523 sf 0 0 m (10) show NC gr 
 gsave  2268 1594 0 0 C 560.767 106.813 t 0 r /Helvetica findfont 51.3523 sf 0 0 m (20) show NC gr 
 gsave  2268 1594 0 0 C 741.527 106.813 t 0 r /Helvetica findfont 51.3523 sf 0 0 m (30) show NC gr 
 gsave  2268 1594 0 0 C 922.287 106.813 t 0 r /Helvetica findfont 51.3523 sf 0 0 m (40) show NC gr 
 gsave  2268 1594 0 0 C 1105.1 106.813 t 0 r /Helvetica findfont 51.3523 sf 0 0 m (50) show NC gr 
 gsave  2268 1594 0 0 C 1285.86 106.813 t 0 r /Helvetica findfont 51.3523 sf 0 0 m (60) show NC gr 
 gsave  2268 1594 0 0 C 1466.62 106.813 t 0 r /Helvetica findfont 51.3523 sf 0 0 m (70) show NC gr 
 gsave  2268 1594 0 0 C 1647.38 106.813 t 0 r /Helvetica findfont 51.3523 sf 0 0 m (80) show NC gr 
 gsave  2268 1594 0 0 C 1830.2 106.813 t 0 r /Helvetica findfont 51.3523 sf 0 0 m (90) show NC gr 
 gsave  2268 1594 0 0 C 1996.58 106.813 t 0 r /Helvetica findfont 51.3523 sf 0 0 m (100) show NC gr  227 159 m 1276 Y s
 gsave  2268 1594 0 0 C 92.4341 992.126 t 90 r /Helvetica findfont 51.3523 sf 0 0 m (<# of Constituents>) show NC gr  281 159 m -54 X s 254 191 m -27 X s 254 223 m -27 X s 254 255 m -27 X s 254 287 m -27 X s 281 319 m -54 X s 254 351 m -27 X s 254
 383 m -27 X s 254 414 m -27 X s 254 446 m -27 X s 281 478 m -54 X s 254 510 m -27 X s 254 542 m -27 X s 254 574 m -27 X s 254 606 m -27 X s 281 638 m -54 X s 254 669 m -27 X s 254 701 m -27 X s 254 733 m -27 X s 254 765 m -27 X s 281 797 m -54 X s
 254 829 m -27 X s 254 861 m -27 X s 254 893 m -27 X s 254 925 m -27 X s 281 956 m -54 X s 254 988 m -27 X s 254 1020 m -27 X s 254 1052 m -27 X s 254 1084 m -27 X s 281 1116 m -54 X s 254 1148 m -27 X s 254 1180 m -27 X s 254 1211 m -27 X s 254 1243
 m -27 X s 281 1275 m -54 X s 254 1307 m -27 X s 254 1339 m -27 X s 254 1371 m -27 X s 254 1403 m -27 X s 281 1435 m -54 X s
 gsave  2268 1594 0 0 C 186.922 141.732 t 0 r /Helvetica findfont 51.3523 sf 0 0 m (0) show NC gr 
 gsave  2268 1594 0 0 C 186.922 301.951 t 0 r /Helvetica findfont 51.3523 sf 0 0 m (5) show NC gr 
 gsave  2268 1594 0 0 C 158.165 460.116 t 0 r /Helvetica findfont 51.3523 sf 0 0 m (10) show NC gr 
 gsave  2268 1594 0 0 C 158.165 620.336 t 0 r /Helvetica findfont 51.3523 sf 0 0 m (15) show NC gr 
 gsave  2268 1594 0 0 C 158.165 778.5 t 0 r /Helvetica findfont 51.3523 sf 0 0 m (20) show NC gr 
 gsave  2268 1594 0 0 C 158.165 938.72 t 0 r /Helvetica findfont 51.3523 sf 0 0 m (25) show NC gr 
 gsave  2268 1594 0 0 C 158.165 1098.94 t 0 r /Helvetica findfont 51.3523 sf 0 0 m (30) show NC gr 
 gsave  2268 1594 0 0 C 158.165 1257.1 t 0 r /Helvetica findfont 51.3523 sf 0 0 m (35) show NC gr 
 gsave  2268 1594 0 0 C 158.165 1417.32 t 0 r /Helvetica findfont 51.3523 sf 0 0 m (40) show NC gr  1 1 1 c black 317 252 m 38 X s 371 252 m 37 X s 363 252 m21 408 268 m 37 X s 462 268 m 37 X s 454 268 m21 499 283 m 37 X s 552 283 m 38 X s 544 283
 m21 590 298 m 37 X s 643 298 m 37 X s 635 298 m21 680 311 m 37 X s 734 311 m 37 X s 726 311 m21 771 319 m 37 X s 825 319 m 37 X s 816 319 m21 862 329 m 37 X s 915 329 m 37 X s 907 329 m21 952 340 m 38 X s 1006 340 m 37 X s 998 340 m21 1089 336 m 1 Y
 s 1089 354 m s 1043 345 m 37 X s 1097 345 m 37 X s 1089 345 m21 1179 336 m 2 Y s 1179 355 m 2 Y s 1134 346 m 37 X s 1187 346 m 38 X s 1179 346 m21 1270 347 m 7 Y s 1270 370 m 6 Y s 1225 362 m 37 X s 1278 362 m 37 X s 1270 362 m21 1361 379 m 10 Y s
 1361 405 m 11 Y s 1315 397 m 37 X s 1369 397 m 37 X s 1361 397 m21 1451 318 m 11 Y s 1451 345 m 11 Y s 1406 337 m 37 X s 1460 337 m 37 X s 1451 337 m21 1542 364 m 9 Y s 1542 389 m 10 Y s 1497 381 m 37 X s 1550 381 m 37 X s 1542 381 m21 1633 337 m 25
 Y s 1633 379 m 25 Y s 1587 371 m 38 X s 1641 371 m 37 X s 1633 371 m21 1723 334 m 6 Y s 1723 356 m 6 Y s 1678 348 m 37 X s 1732 348 m 37 X s 1723 348 m21 1814 400 m 31 Y s 1814 448 m 31 Y s 1769 439 m 37 X s 1822 439 m 38 X s 1814 439 m21 1860 494 m
 37 X s 1913 494 m 37 X s 1905 494 m21 1950 367 m 37 X s 2004 367 m 37 X s 1996 367 m21 1 0 0 c 1 1 1 c 1 0 0 c 317 215 m 38 X s 371 215 m 37 X s 363 215 m24 408 240 m 37 X s 462 240 m 37 X s 454 240 m24 499 260 m 37 X s 552 260 m 38 X s 544 260 m24
 590 278 m 37 X s 643 278 m 37 X s 635 278 m24 680 296 m 37 X s 734 296 m 37 X s 726 296 m24 771 305 m 37 X s 825 305 m 37 X s 816 305 m24 862 324 m 37 X s 915 324 m 37 X s 907 324 m24 998 333 m 1 Y s 998 350 m 1 Y s 952 342 m 38 X s 1006 342 m 37 X
 s 998 342 m24 1089 337 m 2 Y s 1089 355 m 2 Y s 1043 347 m 37 X s 1097 347 m 37 X s 1089 347 m24 1179 325 m 4 Y s 1179 345 m 4 Y s 1134 337 m 37 X s 1187 337 m 38 X s 1179 337 m24 1270 336 m 10 Y s 1270 363 m 10 Y s 1225 354 m 37 X s 1278 354 m 37 X
 s 1270 354 m24 1361 360 m 17 Y s 1361 393 m 17 Y s 1315 385 m 37 X s 1369 385 m 37 X s 1361 385 m24 1451 333 m 28 Y s 1451 377 m 28 Y s 1406 369 m 37 X s 1460 369 m 37 X s 1451 369 m24 1542 394 m 31 Y s 1542 441 m 32 Y s 1497 433 m 37 X s 1550 433 m
 37 X s 1542 433 m24 1633 314 m 44 Y s 1633 375 m 44 Y s 1587 367 m 38 X s 1641 367 m 37 X s 1633 367 m24 1723 348 m 21 Y s 1723 385 m 22 Y s 1678 377 m 37 X s 1732 377 m 37 X s 1723 377 m24 1814 310 m 30 Y s 1814 357 m 30 Y s 1769 348 m 37 X s 1822
 348 m 38 X s 1814 348 m24 1860 526 m 37 X s 1913 526 m 37 X s 1905 526 m24 1950 303 m 37 X s 2004 303 m 37 X s 1996 303 m24 black
 gsave  2268 1594 0 0 C 406.71 1308.46 t 0 r /Helvetica-Bold findfont 45.19 sf 0 0 m (Jet R = 0.2 constituent count distribution for lhc13b merged output) show NC gr  1 1 1 c 680 239 340 717 bf black
 gsave  2268 1594 0 0 C 509.415 893.53 t 0 r /Helvetica-Bold findfont 63.6768 sf 0 0 m (Total) show NC gr  0 0 1 c 425 917 m20 black
 gsave  2268 1594 0 0 C 509.415 819.582 t 0 r /Helvetica-Bold findfont 63.6768 sf 0 0 m (Charged) show NC gr  425 837 m21
 gsave  2268 1594 0 0 C 509.415 733.31 t 0 r /Helvetica-Bold findfont 63.6768 sf 0 0 m (Neutral) show NC gr  1 0 0 c 425 757 m24
 gr  gr showpage
end
%%EOF
