%!PS-Adobe-2.0 EPSF-2.0
%%BoundingBox:  0 0 567 398
%%Title: /Users/cgy606/Documents/Train/LEGOTrain/020814/lhc13b/lhc13b_JetPtR2.eps: 
%%Creator: ROOT Version 5.34/09
%%CreationDate: Fri Mar 28 14:54:16 2014
%%EndComments
%%BeginProlog
80 dict begin
/s {stroke} def /l {lineto} def /m {moveto} def /t {translate} def
/r {rotate} def /rl {roll}  def /R {repeat} def
/d {rlineto} def /rm {rmoveto} def /gr {grestore} def /f {eofill} def
/c {setrgbcolor} def /black {0 setgray} def /sd {setdash} def
/cl {closepath} def /sf {scalefont setfont} def /lw {setlinewidth} def
/box {m dup 0 exch d exch 0 d 0 exch neg d cl} def
/NC{systemdict begin initclip end}def/C{NC box clip newpath}def
/bl {box s} def /bf {box f} def /Y { 0 exch d} def /X { 0 d} def 
/K {{pop pop 0 moveto} exch kshow} bind def
/ita {/ang 15 def gsave [1 0 ang dup sin exch cos div 1 0 0] concat} def 
/mp {newpath /y exch def /x exch def} def
/side {[w .77 mul w .23 mul] .385 w mul sd w 0 l currentpoint t -144 r} def
/mr {mp x y w2 0 360 arc} def /m24 {mr s} def /m20 {mr f} def
/mb {mp x y w2 add m w2 neg 0 d 0 w neg d w 0 d 0 w d cl} def
/mt {mp x y w2 add m w2 neg w neg d w 0 d cl} def
/m21 {mb f} def /m25 {mb s} def /m22 {mt f} def /m26{mt s} def
/m23 {mp x y w2 sub m w2 w d w neg 0 d cl f} def
/m27 {mp x y w2 add m w3 neg w2 neg d w3 w2 neg d w3 w2 d cl s} def
/m28 {mp x w2 sub y w2 sub w3 add m w3 0 d  0 w3 neg d w3 0 d 0 w3 d w3 0 d  0 w3 d w3 neg 0 d 0 w3 d w3 neg 0 d 0 w3 neg d w3 neg 0 d cl s } def
/m29 {mp gsave x w2 sub y w2 add w3 sub m currentpoint t 4 {side} repeat cl fill gr} def
/m30 {mp gsave x w2 sub y w2 add w3 sub m currentpoint t 4 {side} repeat cl s gr} def
/m31 {mp x y w2 sub m 0 w d x w2 sub y m w 0 d x w2 sub y w2 add m w w neg d x w2 sub y w2 sub m w w d s} def
/m32 {mp x y w2 sub m w2 w d w neg 0 d cl s} def
/m33 {mp x y w2 add m w3 neg w2 neg d w3 w2 neg d w3 w2 d cl f} def
/m34 {mp x w2 sub y w2 sub w3 add m w3 0 d  0 w3 neg d w3 0 d 0 w3 d w3 0 d  0 w3 d w3 neg 0 d 0 w3 d w3 neg 0 d 0 w3 neg d w3 neg 0 d cl f } def
/m2 {mp x y w2 sub m 0 w d x w2 sub y m w 0 d s} def
/m5 {mp x w2 sub y w2 sub m w w d x w2 sub y w2 add m w w neg d s} def
/reEncode {exch findfont dup length dict begin {1 index /FID eq  {pop pop} {def} ifelse } forall /Encoding exch def currentdict end dup /FontName get exch definefont pop } def [/Times-Bold /Times-Italic /Times-BoldItalic /Helvetica /Helvetica-Oblique
 /Helvetica-Bold /Helvetica-BoldOblique /Courier /Courier-Oblique /Courier-Bold /Courier-BoldOblique /Times-Roman /AvantGarde-Book /AvantGarde-BookOblique /AvantGarde-Demi /AvantGarde-DemiOblique /Bookman-Demi /Bookman-DemiItalic /Bookman-Light
 /Bookman-LightItalic /Helvetica-Narrow /Helvetica-Narrow-Bold /Helvetica-Narrow-BoldOblique /Helvetica-Narrow-Oblique /NewCenturySchlbk-Roman /NewCenturySchlbk-Bold /NewCenturySchlbk-BoldItalic /NewCenturySchlbk-Italic /Palatino-Bold
 /Palatino-BoldItalic /Palatino-Italic /Palatino-Roman ] {ISOLatin1Encoding reEncode } forall
%%EndProlog
%%BeginSetup
%%EndSetup
newpath  gsave  .25 .25 scale  gsave  0 0 t black[  ] 0 sd 3 lw 0.999 0.999 0.999 c 2268 1594 0 0 bf black 0.999 0.999 0.999 c 1814 1276 227 159 bf black 1814 1276 227 159 bl 1 1 1 c black 287 1282 m 22 X s 326 1282 m 22 X s /w 16 def /w2 {w 2 div}
 def /w3 {w 3 div} def 317 1282 m21 348 1097 m 22 X s 386 1097 m 22 X s 378 1097 m21 408 994 m 22 X s 447 994 m 22 X s 438 994 m21 469 920 m 22 X s 507 920 m 22 X s 499 920 m21 529 864 m 22 X s 568 864 m 22 X s 559 864 m21 590 811 m 22 X s 628 811 m
 22 X s 620 811 m21 650 770 m 22 X s 689 770 m 22 X s 680 770 m21 711 729 m 22 X s 749 729 m 22 X s 741 729 m21 771 694 m 22 X s 809 694 m 22 X s 801 694 m21 862 633 m 3 Y s 862 653 m 2 Y s 831 645 m 23 X s 870 645 m 22 X s 862 645 m21 922 619 m 4 Y
 s 922 640 m 3 Y s 892 632 m 22 X s 930 632 m 22 X s 922 632 m21 983 598 m 7 Y s 983 621 m 4 Y s 952 613 m 22 X s 991 613 m 22 X s 983 613 m21 1043 549 m 13 Y s 1043 578 m 9 Y s 1013 570 m 22 X s 1051 570 m 22 X s 1043 570 m21 1104 529 m 16 Y s 1104
 562 m 10 Y s 1073 554 m 22 X s 1112 554 m 22 X s 1104 554 m21 1164 501 m 22 Y s 1164 540 m 12 Y s 1134 531 m 22 X s 1172 531 m 22 X s 1164 531 m21 1225 536 m 15 Y s 1225 568 m 9 Y s 1194 560 m 22 X s 1233 560 m 22 X s 1225 560 m21 1285 489 m 25 Y s
 1285 530 m 14 Y s 1255 522 m 22 X s 1293 522 m 22 X s 1285 522 m21 1346 159 m 220 Y s 1346 396 m 40 Y s 1315 388 m 22 X s 1354 388 m 22 X s 1346 388 m21 1406 159 m 220 Y s 1406 396 m 40 Y s 1376 388 m 22 X s 1414 388 m 22 X s 1406 388 m21 1466 351 m
 76 Y s 1466 444 m 29 Y s 1436 436 m 22 X s 1475 436 m 22 X s 1466 436 m21 1527 351 m 76 Y s 1527 444 m 29 Y s 1497 436 m 22 X s 1535 436 m 22 X s 1527 436 m21 1587 159 m 220 Y s 1587 396 m 40 Y s 1557 388 m 22 X s 1596 388 m 22 X s 1587 388 m21 1829
 351 m 76 Y s 1829 444 m 29 Y s 1799 436 m 22 X s 1838 436 m 22 X s 1829 436 m21 1890 351 m 76 Y s 1890 444 m 29 Y s 1860 436 m 22 X s 1898 436 m 22 X s 1890 436 m21 227 159 m 1814 X s
 gsave  2268 1594 0 0 C 1891.82 47.2441 t 0 r /Helvetica findfont 51.3523 sf 0 0 m ( \(GeV\)) show NC gr 
 gsave  2268 1594 0 0 C 1787.06 67.785 t 0 r /Helvetica findfont 34.9195 sf 0 0 m (ch+em) show NC gr 
 gsave  2268 1594 0 0 C 1787.06 18.4868 t 0 r /Helvetica findfont 34.9195 sf 0 0 m (T,jet) show NC gr 
 gsave  2268 1594 0 0 C 1758.3 47.2441 t 0 r /Helvetica findfont 51.3523 sf 0 0 m (p) show NC gr  227 198 m -39 Y s 287 179 m -20 Y s 348 179 m -20 Y s 408 179 m -20 Y s 469 198 m -39 Y s 529 179 m -20 Y s 590 179 m -20 Y s 650 179 m -20 Y s 711 198
 m -39 Y s 771 179 m -20 Y s 831 179 m -20 Y s 892 179 m -20 Y s 952 198 m -39 Y s 1013 179 m -20 Y s 1073 179 m -20 Y s 1134 179 m -20 Y s 1194 198 m -39 Y s 1255 179 m -20 Y s 1315 179 m -20 Y s 1376 179 m -20 Y s 1436 198 m -39 Y s 1497 179 m -20
 Y s 1557 179 m -20 Y s 1618 179 m -20 Y s 1678 198 m -39 Y s 1739 179 m -20 Y s 1799 179 m -20 Y s 1860 179 m -20 Y s 1920 198 m -39 Y s 1920 198 m -39 Y s 1980 179 m -20 Y s 2041 179 m -20 Y s
 gsave  2268 1594 0 0 C 211.571 106.813 t 0 r /Helvetica findfont 51.3523 sf 0 0 m (0) show NC gr 
 gsave  2268 1594 0 0 C 439.576 106.813 t 0 r /Helvetica findfont 51.3523 sf 0 0 m (20) show NC gr 
 gsave  2268 1594 0 0 C 679.904 106.813 t 0 r /Helvetica findfont 51.3523 sf 0 0 m (40) show NC gr 
 gsave  2268 1594 0 0 C 922.287 106.813 t 0 r /Helvetica findfont 51.3523 sf 0 0 m (60) show NC gr 
 gsave  2268 1594 0 0 C 1164.67 106.813 t 0 r /Helvetica findfont 51.3523 sf 0 0 m (80) show NC gr 
 gsave  2268 1594 0 0 C 1392.67 106.813 t 0 r /Helvetica findfont 51.3523 sf 0 0 m (100) show NC gr 
 gsave  2268 1594 0 0 C 1633 106.813 t 0 r /Helvetica findfont 51.3523 sf 0 0 m (120) show NC gr 
 gsave  2268 1594 0 0 C 1875.39 106.813 t 0 r /Helvetica findfont 51.3523 sf 0 0 m (140) show NC gr  227 159 m 1276 Y s
 gsave  2268 1594 0 0 C 80.1096 1405 t 90 r /Symbol findfont 51.3523 sf 0 0 m (j) show NC gr 
 gsave  2268 1594 0 0 C 80.1096 1378.3 t 90 r /Helvetica findfont 51.3523 sf 0 0 m (d) show NC gr 
 gsave  2268 1594 0 0 C 80.1096 1349.54 t 90 r /Symbol findfont 51.3523 sf 0 0 m (h) show NC gr 
 gsave  2268 1594 0 0 C 80.1096 1322.83 t 90 r /Helvetica findfont 51.3523 sf 0 0 m (d) show NC gr 
 gsave  2268 1594 0 0 C 108.867 1300.24 t 90 r /Helvetica findfont 34.9195 sf 0 0 m (T) show NC gr 
 gsave  2268 1594 0 0 C 80.1096 1226.29 t 90 r /Helvetica findfont 51.3523 sf 0 0 m (/dp) show NC gr 
 gsave  2268 1594 0 0 C 98.5964 1187.26 t 90 r /Helvetica findfont 34.9195 sf 0 0 m (jet) show NC gr 
 gsave  2268 1594 0 0 C 80.1096 1109.21 t 90 r /Helvetica findfont 51.3523 sf 0 0 m ( dN) show NC gr 
 gsave  2268 1594 0 0 C 96.5423 1022.94 t 90 r /Helvetica findfont 34.9195 sf 0 0 m (event) show NC gr 
 gsave  2268 1594 0 0 C 80.1096 944.882 t 90 r /Helvetica findfont 51.3523 sf 0 0 m (1/N) show NC gr  281 159 m -54 X s
 gsave  2268 1594 0 0 C 162.273 158.165 t 0 r /Helvetica findfont 34.9195 sf 0 0 m (\25511) show NC gr 
 gsave  2268 1594 0 0 C 106.813 135.57 t 0 r /Helvetica findfont 51.3523 sf 0 0 m (10) show NC gr  254 207 m -27 X s 254 235 m -27 X s 254 255 m -27 X s 254 271 m -27 X s 254 283 m -27 X s 254 294 m -27 X s 254 303 m -27 X s 254 312 m -27 X s 281 319
 m -54 X s
 gsave  2268 1594 0 0 C 158.165 320.438 t 0 r /Helvetica findfont 34.9195 sf 0 0 m (\25510) show NC gr 
 gsave  2268 1594 0 0 C 102.705 295.789 t 0 r /Helvetica findfont 51.3523 sf 0 0 m (10) show NC gr  254 367 m -27 X s 254 395 m -27 X s 254 415 m -27 X s 254 430 m -27 X s 254 443 m -27 X s 254 454 m -27 X s 254 463 m -27 X s 254 471 m -27 X s 281
 478 m -54 X s
 gsave  2268 1594 0 0 C 176.652 478.603 t 0 r /Helvetica findfont 34.9195 sf 0 0 m (\2559) show NC gr 
 gsave  2268 1594 0 0 C 121.191 453.954 t 0 r /Helvetica findfont 51.3523 sf 0 0 m (10) show NC gr  254 526 m -27 X s 254 554 m -27 X s 254 574 m -27 X s 254 590 m -27 X s 254 602 m -27 X s 254 613 m -27 X s 254 622 m -27 X s 254 630 m -27 X s 281
 638 m -54 X s
 gsave  2268 1594 0 0 C 176.652 638.822 t 0 r /Helvetica findfont 34.9195 sf 0 0 m (\2558) show NC gr 
 gsave  2268 1594 0 0 C 121.191 614.173 t 0 r /Helvetica findfont 51.3523 sf 0 0 m (10) show NC gr  254 686 m -27 X s 254 714 m -27 X s 254 734 m -27 X s 254 749 m -27 X s 254 762 m -27 X s 254 772 m -27 X s 254 782 m -27 X s 254 790 m -27 X s 281
 797 m -54 X s
 gsave  2268 1594 0 0 C 176.652 794.933 t 0 r /Helvetica findfont 34.9195 sf 0 0 m (\2557) show NC gr 
 gsave  2268 1594 0 0 C 121.191 772.338 t 0 r /Helvetica findfont 51.3523 sf 0 0 m (10) show NC gr  254 845 m -27 X s 254 873 m -27 X s 254 893 m -27 X s 254 908 m -27 X s 254 921 m -27 X s 254 932 m -27 X s 254 941 m -27 X s 254 949 m -27 X s 281
 956 m -54 X s
 gsave  2268 1594 0 0 C 176.652 957.206 t 0 r /Helvetica findfont 34.9195 sf 0 0 m (\2556) show NC gr 
 gsave  2268 1594 0 0 C 121.191 932.557 t 0 r /Helvetica findfont 51.3523 sf 0 0 m (10) show NC gr  254 1004 m -27 X s 254 1032 m -27 X s 254 1052 m -27 X s 254 1068 m -27 X s 254 1080 m -27 X s 254 1091 m -27 X s 254 1100 m -27 X s 254 1108 m -27 X
 s 281 1116 m -54 X s
 gsave  2268 1594 0 0 C 176.652 1117.43 t 0 r /Helvetica findfont 34.9195 sf 0 0 m (\2555) show NC gr 
 gsave  2268 1594 0 0 C 121.191 1092.78 t 0 r /Helvetica findfont 51.3523 sf 0 0 m (10) show NC gr  254 1164 m -27 X s 254 1192 m -27 X s 254 1212 m -27 X s 254 1227 m -27 X s 254 1240 m -27 X s 254 1250 m -27 X s 254 1260 m -27 X s 254 1268 m -27 X
 s 281 1275 m -54 X s
 gsave  2268 1594 0 0 C 176.652 1273.54 t 0 r /Helvetica findfont 34.9195 sf 0 0 m (\2554) show NC gr 
 gsave  2268 1594 0 0 C 121.191 1250.94 t 0 r /Helvetica findfont 51.3523 sf 0 0 m (10) show NC gr  254 1323 m -27 X s 254 1351 m -27 X s 254 1371 m -27 X s 254 1387 m -27 X s 254 1399 m -27 X s 254 1410 m -27 X s 254 1419 m -27 X s 254 1427 m -27 X
 s 281 1435 m -54 X s
 gsave  2268 1594 0 0 C 176.652 1435.81 t 0 r /Helvetica findfont 34.9195 sf 0 0 m (\2553) show NC gr 
 gsave  2268 1594 0 0 C 121.191 1411.16 t 0 r /Helvetica findfont 51.3523 sf 0 0 m (10) show NC gr 
 gsave  2268 1594 0 0 C 523.793 1275.59 t 0 r /Helvetica-Bold findfont 55.4605 sf 0 0 m ( distribution of R = 0.2 jets for lhc13b merged output) show NC gr 
 gsave  2268 1594 0 0 C 501.198 1246.83 t 0 r /Helvetica-Bold findfont 36.9736 sf 0 0 m (T) show NC gr 
 gsave  2268 1594 0 0 C 468.333 1275.59 t 0 r /Helvetica-Bold findfont 55.4605 sf 0 0 m (p) show NC gr 
 gr  gr showpage
end
%%EOF
