%!PS-Adobe-2.0 EPSF-2.0
%%BoundingBox:  0 0 567 398
%%Title: : 
%%Creator: ROOT Version 5.34/09
%%CreationDate: Fri Mar 28 14:54:16 2014
%%EndComments
%%BeginProlog
80 dict begin
/s {stroke} def /l {lineto} def /m {moveto} def /t {translate} def
/r {rotate} def /rl {roll}  def /R {repeat} def
/d {rlineto} def /rm {rmoveto} def /gr {grestore} def /f {eofill} def
/c {setrgbcolor} def /black {0 setgray} def /sd {setdash} def
/cl {closepath} def /sf {scalefont setfont} def /lw {setlinewidth} def
/box {m dup 0 exch d exch 0 d 0 exch neg d cl} def
/NC{systemdict begin initclip end}def/C{NC box clip newpath}def
/bl {box s} def /bf {box f} def /Y { 0 exch d} def /X { 0 d} def 
/K {{pop pop 0 moveto} exch kshow} bind def
/ita {/ang 15 def gsave [1 0 ang dup sin exch cos div 1 0 0] concat} def 
/mp {newpath /y exch def /x exch def} def
/side {[w .77 mul w .23 mul] .385 w mul sd w 0 l currentpoint t -144 r} def
/mr {mp x y w2 0 360 arc} def /m24 {mr s} def /m20 {mr f} def
/mb {mp x y w2 add m w2 neg 0 d 0 w neg d w 0 d 0 w d cl} def
/mt {mp x y w2 add m w2 neg w neg d w 0 d cl} def
/m21 {mb f} def /m25 {mb s} def /m22 {mt f} def /m26{mt s} def
/m23 {mp x y w2 sub m w2 w d w neg 0 d cl f} def
/m27 {mp x y w2 add m w3 neg w2 neg d w3 w2 neg d w3 w2 d cl s} def
/m28 {mp x w2 sub y w2 sub w3 add m w3 0 d  0 w3 neg d w3 0 d 0 w3 d w3 0 d  0 w3 d w3 neg 0 d 0 w3 d w3 neg 0 d 0 w3 neg d w3 neg 0 d cl s } def
/m29 {mp gsave x w2 sub y w2 add w3 sub m currentpoint t 4 {side} repeat cl fill gr} def
/m30 {mp gsave x w2 sub y w2 add w3 sub m currentpoint t 4 {side} repeat cl s gr} def
/m31 {mp x y w2 sub m 0 w d x w2 sub y m w 0 d x w2 sub y w2 add m w w neg d x w2 sub y w2 sub m w w d s} def
/m32 {mp x y w2 sub m w2 w d w neg 0 d cl s} def
/m33 {mp x y w2 add m w3 neg w2 neg d w3 w2 neg d w3 w2 d cl f} def
/m34 {mp x w2 sub y w2 sub w3 add m w3 0 d  0 w3 neg d w3 0 d 0 w3 d w3 0 d  0 w3 d w3 neg 0 d 0 w3 d w3 neg 0 d 0 w3 neg d w3 neg 0 d cl f } def
/m2 {mp x y w2 sub m 0 w d x w2 sub y m w 0 d s} def
/m5 {mp x w2 sub y w2 sub m w w d x w2 sub y w2 add m w w neg d s} def
/reEncode {exch findfont dup length dict begin {1 index /FID eq  {pop pop} {def} ifelse } forall /Encoding exch def currentdict end dup /FontName get exch definefont pop } def [/Times-Bold /Times-Italic /Times-BoldItalic /Helvetica /Helvetica-Oblique
 /Helvetica-Bold /Helvetica-BoldOblique /Courier /Courier-Oblique /Courier-Bold /Courier-BoldOblique /Times-Roman /AvantGarde-Book /AvantGarde-BookOblique /AvantGarde-Demi /AvantGarde-DemiOblique /Bookman-Demi /Bookman-DemiItalic /Bookman-Light
 /Bookman-LightItalic /Helvetica-Narrow /Helvetica-Narrow-Bold /Helvetica-Narrow-BoldOblique /Helvetica-Narrow-Oblique /NewCenturySchlbk-Roman /NewCenturySchlbk-Bold /NewCenturySchlbk-BoldItalic /NewCenturySchlbk-Italic /Palatino-Bold
 /Palatino-BoldItalic /Palatino-Italic /Palatino-Roman ] {ISOLatin1Encoding reEncode } forall
%%EndProlog
%%BeginSetup
%%EndSetup
newpath  gsave  .25 .25 scale  gsave  0 0 t black[  ] 0 sd 3 lw 0.999 0.999 0.999 c 2268 1594 0 0 bf black 0.999 0.999 0.999 c 1814 1276 227 159 bf black 1814 1276 227 159 bl 0 0 1 c 1 1 1 c 0 0 1 c 227 223 m 37 X s 280 223 m 37 X s /w 16 def /w2 {w
 2 div} def /w3 {w 3 div} def 272 223 m20 317 271 m 38 X s 371 271 m 37 X s 363 271 m20 408 314 m 37 X s 462 314 m 37 X s 454 314 m20 499 342 m 37 X s 552 342 m 38 X s 544 342 m20 590 363 m 37 X s 643 363 m 37 X s 635 363 m20 680 379 m 37 X s 734 379
 m 37 X s 726 379 m20 771 405 m 37 X s 825 405 m 37 X s 816 405 m20 862 414 m 37 X s 915 414 m 37 X s 907 414 m20 998 413 m 1 Y s 998 431 m 1 Y s 952 422 m 38 X s 1006 422 m 37 X s 998 422 m20 1089 434 m 3 Y s 1089 454 m 3 Y s 1043 446 m 37 X s 1097
 446 m 37 X s 1089 446 m20 1179 463 m 12 Y s 1179 491 m 13 Y s 1134 483 m 37 X s 1187 483 m 38 X s 1179 483 m20 1270 459 m 14 Y s 1270 490 m 14 Y s 1225 481 m 37 X s 1278 481 m 37 X s 1270 481 m20 1361 438 m 14 Y s 1361 468 m 14 Y s 1315 460 m 37 X s
 1369 460 m 37 X s 1361 460 m20 1451 505 m 41 Y s 1451 562 m 41 Y s 1406 554 m 37 X s 1460 554 m 37 X s 1451 554 m20 1542 439 m 32 Y s 1542 487 m 32 Y s 1497 479 m 37 X s 1550 479 m 37 X s 1542 479 m20 1633 508 m 50 Y s 1633 575 m 50 Y s 1587 567 m
 38 X s 1641 567 m 37 X s 1633 567 m20 1723 561 m 46 Y s 1723 623 m 47 Y s 1678 615 m 37 X s 1732 615 m 37 X s 1723 615 m20 1814 516 m 54 Y s 1814 586 m 54 Y s 1769 578 m 37 X s 1822 578 m 38 X s 1814 578 m20 1905 374 m 59 Y s 1905 450 m 59 Y s 1860
 442 m 37 X s 1913 442 m 37 X s 1905 442 m20 1996 620 m 169 Y s 1996 806 m 170 Y s 1950 798 m 37 X s 2004 798 m 37 X s 1996 798 m20 black 227 159 m 1814 X s
 gsave  2268 1594 0 0 C 1891.82 47.2441 t 0 r /Helvetica findfont 51.3523 sf 0 0 m ( \(GeV\)) show NC gr 
 gsave  2268 1594 0 0 C 1787.06 67.785 t 0 r /Helvetica findfont 34.9195 sf 0 0 m (ch+em) show NC gr 
 gsave  2268 1594 0 0 C 1787.06 18.4868 t 0 r /Helvetica findfont 34.9195 sf 0 0 m (T,jet) show NC gr 
 gsave  2268 1594 0 0 C 1758.3 47.2441 t 0 r /Helvetica findfont 51.3523 sf 0 0 m (p) show NC gr  227 198 m -39 Y s 263 179 m -20 Y s 299 179 m -20 Y s 336 179 m -20 Y s 372 179 m -20 Y s 408 198 m -39 Y s 444 179 m -20 Y s 481 179 m -20 Y s 517 179
 m -20 Y s 553 179 m -20 Y s 590 198 m -39 Y s 626 179 m -20 Y s 662 179 m -20 Y s 698 179 m -20 Y s 735 179 m -20 Y s 771 198 m -39 Y s 807 179 m -20 Y s 844 179 m -20 Y s 880 179 m -20 Y s 916 179 m -20 Y s 952 198 m -39 Y s 989 179 m -20 Y s 1025
 179 m -20 Y s 1061 179 m -20 Y s 1098 179 m -20 Y s 1134 198 m -39 Y s 1170 179 m -20 Y s 1206 179 m -20 Y s 1243 179 m -20 Y s 1279 179 m -20 Y s 1315 198 m -39 Y s 1352 179 m -20 Y s 1388 179 m -20 Y s 1424 179 m -20 Y s 1460 179 m -20 Y s 1497
 198 m -39 Y s 1533 179 m -20 Y s 1569 179 m -20 Y s 1606 179 m -20 Y s 1642 179 m -20 Y s 1678 198 m -39 Y s 1714 179 m -20 Y s 1751 179 m -20 Y s 1787 179 m -20 Y s 1823 179 m -20 Y s 1860 198 m -39 Y s 1896 179 m -20 Y s 1932 179 m -20 Y s 1968
 179 m -20 Y s 2005 179 m -20 Y s 2041 198 m -39 Y s
 gsave  2268 1594 0 0 C 211.571 106.813 t 0 r /Helvetica findfont 51.3523 sf 0 0 m (0) show NC gr 
 gsave  2268 1594 0 0 C 377.953 106.813 t 0 r /Helvetica findfont 51.3523 sf 0 0 m (10) show NC gr 
 gsave  2268 1594 0 0 C 560.767 106.813 t 0 r /Helvetica findfont 51.3523 sf 0 0 m (20) show NC gr 
 gsave  2268 1594 0 0 C 741.527 106.813 t 0 r /Helvetica findfont 51.3523 sf 0 0 m (30) show NC gr 
 gsave  2268 1594 0 0 C 922.287 106.813 t 0 r /Helvetica findfont 51.3523 sf 0 0 m (40) show NC gr 
 gsave  2268 1594 0 0 C 1105.1 106.813 t 0 r /Helvetica findfont 51.3523 sf 0 0 m (50) show NC gr 
 gsave  2268 1594 0 0 C 1285.86 106.813 t 0 r /Helvetica findfont 51.3523 sf 0 0 m (60) show NC gr 
 gsave  2268 1594 0 0 C 1466.62 106.813 t 0 r /Helvetica findfont 51.3523 sf 0 0 m (70) show NC gr 
 gsave  2268 1594 0 0 C 1647.38 106.813 t 0 r /Helvetica findfont 51.3523 sf 0 0 m (80) show NC gr 
 gsave  2268 1594 0 0 C 1830.2 106.813 t 0 r /Helvetica findfont 51.3523 sf 0 0 m (90) show NC gr 
 gsave  2268 1594 0 0 C 1996.58 106.813 t 0 r /Helvetica findfont 51.3523 sf 0 0 m (100) show NC gr  227 159 m 1276 Y s
 gsave  2268 1594 0 0 C 78.0555 1257.1 t 90 r /Helvetica findfont 51.3523 sf 0 0 m (> \(GeV\)) show NC gr 
 gsave  2268 1594 0 0 C 104.759 1057.86 t 90 r /Helvetica findfont 34.9195 sf 0 0 m (T,constituent) show NC gr 
 gsave  2268 1594 0 0 C 78.0555 1000.34 t 90 r /Helvetica findfont 51.3523 sf 0 0 m (<p) show NC gr  281 159 m -54 X s 254 191 m -27 X s 254 223 m -27 X s 254 255 m -27 X s 281 287 m -54 X s 254 319 m -27 X s 254 351 m -27 X s 254 383 m -27 X s 281
 414 m -54 X s 254 446 m -27 X s 254 478 m -27 X s 254 510 m -27 X s 281 542 m -54 X s 254 574 m -27 X s 254 606 m -27 X s 254 638 m -27 X s 281 669 m -54 X s 254 701 m -27 X s 254 733 m -27 X s 254 765 m -27 X s 281 797 m -54 X s 254 829 m -27 X s
 254 861 m -27 X s 254 893 m -27 X s 281 925 m -54 X s 254 956 m -27 X s 254 988 m -27 X s 254 1020 m -27 X s 281 1052 m -54 X s 254 1084 m -27 X s 254 1116 m -27 X s 254 1148 m -27 X s 281 1180 m -54 X s 254 1211 m -27 X s 254 1243 m -27 X s 254
 1275 m -27 X s 281 1307 m -54 X s 254 1339 m -27 X s 254 1371 m -27 X s 254 1403 m -27 X s 281 1435 m -54 X s
 gsave  2268 1594 0 0 C 186.922 141.732 t 0 r /Helvetica findfont 51.3523 sf 0 0 m (0) show NC gr 
 gsave  2268 1594 0 0 C 186.922 267.032 t 0 r /Helvetica findfont 51.3523 sf 0 0 m (2) show NC gr 
 gsave  2268 1594 0 0 C 186.922 394.385 t 0 r /Helvetica findfont 51.3523 sf 0 0 m (4) show NC gr 
 gsave  2268 1594 0 0 C 186.922 523.793 t 0 r /Helvetica findfont 51.3523 sf 0 0 m (6) show NC gr 
 gsave  2268 1594 0 0 C 186.922 651.147 t 0 r /Helvetica findfont 51.3523 sf 0 0 m (8) show NC gr 
 gsave  2268 1594 0 0 C 158.165 778.5 t 0 r /Helvetica findfont 51.3523 sf 0 0 m (10) show NC gr 
 gsave  2268 1594 0 0 C 158.165 905.854 t 0 r /Helvetica findfont 51.3523 sf 0 0 m (12) show NC gr 
 gsave  2268 1594 0 0 C 158.165 1033.21 t 0 r /Helvetica findfont 51.3523 sf 0 0 m (14) show NC gr 
 gsave  2268 1594 0 0 C 158.165 1162.62 t 0 r /Helvetica findfont 51.3523 sf 0 0 m (16) show NC gr 
 gsave  2268 1594 0 0 C 158.165 1289.97 t 0 r /Helvetica findfont 51.3523 sf 0 0 m (18) show NC gr 
 gsave  2268 1594 0 0 C 158.165 1417.32 t 0 r /Helvetica findfont 51.3523 sf 0 0 m (20) show NC gr  1 1 1 c black 227 226 m 37 X s 280 226 m 37 X s 272 226 m21 317 288 m 38 X s 371 288 m 37 X s 363 288 m21 408 348 m 37 X s 462 348 m 37 X s 454 348
 m21 499 387 m 37 X s 552 387 m 38 X s 544 387 m21 590 417 m 37 X s 643 417 m 37 X s 635 417 m21 680 443 m 37 X s 734 443 m 37 X s 726 443 m21 771 473 m 37 X s 825 473 m 37 X s 816 473 m21 907 485 m 2 Y s 907 503 m 2 Y s 862 495 m 37 X s 915 495 m 37
 X s 907 495 m21 998 499 m 6 Y s 998 522 m 6 Y s 952 513 m 38 X s 1006 513 m 37 X s 998 513 m21 1089 508 m 10 Y s 1089 534 m 10 Y s 1043 526 m 37 X s 1097 526 m 37 X s 1089 526 m21 1179 557 m 19 Y s 1179 593 m 20 Y s 1134 585 m 37 X s 1187 585 m 38 X
 s 1179 585 m21 1270 581 m 30 Y s 1270 627 m 30 Y s 1225 619 m 37 X s 1278 619 m 37 X s 1270 619 m21 1361 506 m 23 Y s 1361 546 m 22 Y s 1315 537 m 37 X s 1369 537 m 37 X s 1361 537 m21 1451 620 m 63 Y s 1451 700 m 63 Y s 1406 692 m 37 X s 1460 692 m
 37 X s 1451 692 m21 1542 500 m 54 Y s 1542 570 m 55 Y s 1497 562 m 37 X s 1550 562 m 37 X s 1542 562 m21 1633 611 m 63 Y s 1633 690 m 63 Y s 1587 682 m 38 X s 1641 682 m 37 X s 1633 682 m21 1723 663 m 82 Y s 1723 761 m 82 Y s 1678 753 m 37 X s 1732
 753 m 37 X s 1723 753 m21 1814 516 m 58 Y s 1814 591 m 58 Y s 1769 583 m 37 X s 1822 583 m 38 X s 1814 583 m21 1905 450 m 112 Y s 1905 579 m 112 Y s 1860 571 m 37 X s 1913 571 m 37 X s 1905 571 m21 1996 689 m 226 Y s 1996 932 m 225 Y s 1950 923 m 37
 X s 2004 923 m 37 X s 1996 923 m21 1 0 0 c 1 1 1 c 1 0 0 c 227 217 m 37 X s 280 217 m 37 X s 272 217 m24 317 241 m 38 X s 371 241 m 37 X s 363 241 m24 408 267 m 37 X s 462 267 m 37 X s 454 267 m24 499 286 m 37 X s 552 286 m 38 X s 544 286 m24 590
 299 m 37 X s 643 299 m 37 X s 635 299 m24 680 308 m 37 X s 734 308 m 37 X s 726 308 m24 771 332 m 37 X s 825 332 m 37 X s 816 332 m24 862 331 m 37 X s 915 331 m 37 X s 907 331 m24 998 323 m 2 Y s 998 341 m 2 Y s 952 333 m 38 X s 1006 333 m 37 X s
 998 333 m24 1089 352 m 6 Y s 1089 374 m 6 Y s 1043 366 m 37 X s 1097 366 m 37 X s 1089 366 m24 1179 348 m 20 Y s 1179 384 m 20 Y s 1134 376 m 37 X s 1187 376 m 38 X s 1179 376 m24 1270 319 m 11 Y s 1270 346 m 11 Y s 1225 338 m 37 X s 1278 338 m 37 X
 s 1270 338 m24 1361 348 m 22 Y s 1361 386 m 21 Y s 1315 378 m 37 X s 1369 378 m 37 X s 1361 378 m24 1451 375 m 56 Y s 1451 448 m 56 Y s 1406 439 m 37 X s 1460 439 m 37 X s 1451 439 m24 1542 361 m 43 Y s 1542 421 m 43 Y s 1497 413 m 37 X s 1550 413 m
 37 X s 1542 413 m24 1633 357 m 83 Y s 1633 457 m 83 Y s 1587 449 m 38 X s 1641 449 m 37 X s 1633 449 m24 1723 435 m 54 Y s 1723 506 m 54 Y s 1678 498 m 37 X s 1732 498 m 37 X s 1723 498 m24 1814 451 m 112 Y s 1814 579 m 112 Y s 1769 571 m 37 X s
 1822 571 m 38 X s 1814 571 m24 1905 282 m 34 Y s 1905 333 m 34 Y s 1860 324 m 37 X s 1913 324 m 37 X s 1905 324 m24 1996 364 m 237 Y s 1996 617 m 237 Y s 1950 609 m 37 X s 2004 609 m 37 X s 1996 609 m24 black
 gsave  2268 1594 0 0 C 1035.26 1308.46 t 0 r /Helvetica-Bold findfont 45.19 sf 0 0 m ( distribution for lhc13b merged output) show NC gr 
 gsave  2268 1594 0 0 C 1016.78 1285.86 t 0 r /Helvetica-Bold findfont 28.7573 sf 0 0 m (T) show NC gr 
 gsave  2268 1594 0 0 C 497.09 1308.46 t 0 r /Helvetica-Bold findfont 45.19 sf 0 0 m (Jet R = 0.2 constituent p) show NC gr  1 1 1 c 680 239 340 717 bf black
 gsave  2268 1594 0 0 C 509.415 893.53 t 0 r /Helvetica-Bold findfont 63.6768 sf 0 0 m (Total) show NC gr  0 0 1 c 425 917 m20 black
 gsave  2268 1594 0 0 C 509.415 819.582 t 0 r /Helvetica-Bold findfont 63.6768 sf 0 0 m (Charged) show NC gr  425 837 m21
 gsave  2268 1594 0 0 C 509.415 733.31 t 0 r /Helvetica-Bold findfont 63.6768 sf 0 0 m (Neutral) show NC gr  1 0 0 c 425 757 m24
 gr  gr showpage
end
%%EOF
