%!PS-Adobe-2.0 EPSF-2.0
%%BoundingBox:  0 0 567 398
%%Title: /Users/cgy606/Documents/Train/LEGOTrain/020814/lhc13b/lhc13b_JetEtaR4.eps: 
%%Creator: ROOT Version 5.34/09
%%CreationDate: Fri Mar 28 14:54:15 2014
%%EndComments
%%BeginProlog
80 dict begin
/s {stroke} def /l {lineto} def /m {moveto} def /t {translate} def
/r {rotate} def /rl {roll}  def /R {repeat} def
/d {rlineto} def /rm {rmoveto} def /gr {grestore} def /f {eofill} def
/c {setrgbcolor} def /black {0 setgray} def /sd {setdash} def
/cl {closepath} def /sf {scalefont setfont} def /lw {setlinewidth} def
/box {m dup 0 exch d exch 0 d 0 exch neg d cl} def
/NC{systemdict begin initclip end}def/C{NC box clip newpath}def
/bl {box s} def /bf {box f} def /Y { 0 exch d} def /X { 0 d} def 
/K {{pop pop 0 moveto} exch kshow} bind def
/ita {/ang 15 def gsave [1 0 ang dup sin exch cos div 1 0 0] concat} def 
/mp {newpath /y exch def /x exch def} def
/side {[w .77 mul w .23 mul] .385 w mul sd w 0 l currentpoint t -144 r} def
/mr {mp x y w2 0 360 arc} def /m24 {mr s} def /m20 {mr f} def
/mb {mp x y w2 add m w2 neg 0 d 0 w neg d w 0 d 0 w d cl} def
/mt {mp x y w2 add m w2 neg w neg d w 0 d cl} def
/m21 {mb f} def /m25 {mb s} def /m22 {mt f} def /m26{mt s} def
/m23 {mp x y w2 sub m w2 w d w neg 0 d cl f} def
/m27 {mp x y w2 add m w3 neg w2 neg d w3 w2 neg d w3 w2 d cl s} def
/m28 {mp x w2 sub y w2 sub w3 add m w3 0 d  0 w3 neg d w3 0 d 0 w3 d w3 0 d  0 w3 d w3 neg 0 d 0 w3 d w3 neg 0 d 0 w3 neg d w3 neg 0 d cl s } def
/m29 {mp gsave x w2 sub y w2 add w3 sub m currentpoint t 4 {side} repeat cl fill gr} def
/m30 {mp gsave x w2 sub y w2 add w3 sub m currentpoint t 4 {side} repeat cl s gr} def
/m31 {mp x y w2 sub m 0 w d x w2 sub y m w 0 d x w2 sub y w2 add m w w neg d x w2 sub y w2 sub m w w d s} def
/m32 {mp x y w2 sub m w2 w d w neg 0 d cl s} def
/m33 {mp x y w2 add m w3 neg w2 neg d w3 w2 neg d w3 w2 d cl f} def
/m34 {mp x w2 sub y w2 sub w3 add m w3 0 d  0 w3 neg d w3 0 d 0 w3 d w3 0 d  0 w3 d w3 neg 0 d 0 w3 d w3 neg 0 d 0 w3 neg d w3 neg 0 d cl f } def
/m2 {mp x y w2 sub m 0 w d x w2 sub y m w 0 d s} def
/m5 {mp x w2 sub y w2 sub m w w d x w2 sub y w2 add m w w neg d s} def
/reEncode {exch findfont dup length dict begin {1 index /FID eq  {pop pop} {def} ifelse } forall /Encoding exch def currentdict end dup /FontName get exch definefont pop } def [/Times-Bold /Times-Italic /Times-BoldItalic /Helvetica /Helvetica-Oblique
 /Helvetica-Bold /Helvetica-BoldOblique /Courier /Courier-Oblique /Courier-Bold /Courier-BoldOblique /Times-Roman /AvantGarde-Book /AvantGarde-BookOblique /AvantGarde-Demi /AvantGarde-DemiOblique /Bookman-Demi /Bookman-DemiItalic /Bookman-Light
 /Bookman-LightItalic /Helvetica-Narrow /Helvetica-Narrow-Bold /Helvetica-Narrow-BoldOblique /Helvetica-Narrow-Oblique /NewCenturySchlbk-Roman /NewCenturySchlbk-Bold /NewCenturySchlbk-BoldItalic /NewCenturySchlbk-Italic /Palatino-Bold
 /Palatino-BoldItalic /Palatino-Italic /Palatino-Roman ] {ISOLatin1Encoding reEncode } forall
%%EndProlog
%%BeginSetup
%%EndSetup
newpath  gsave  .25 .25 scale  gsave  0 0 t black[  ] 0 sd 3 lw 0.999 0.999 0.999 c 2268 1594 0 0 bf black 0.999 0.999 0.999 c 1814 1276 227 159 bf black 1814 1276 227 159 bl 0 0 1 c 1 1 1 c 0 0 1 c 227 546 m 12 X s 256 546 m 12 X s /w 16 def /w2 {w
 2 div} def /w3 {w 3 div} def 247 546 m20 268 1068 m 12 X s 297 1068 m 12 X s 289 1068 m20 309 1063 m 13 X s 338 1063 m 12 X s 330 1063 m20 350 1061 m 13 X s 379 1061 m 13 X s 371 1061 m20 392 1054 m 12 X s 421 1054 m 12 X s 412 1054 m20 433 1054 m
 12 X s 462 1054 m 12 X s 454 1054 m20 474 1051 m 13 X s 503 1051 m 12 X s 495 1051 m20 515 1067 m 13 X s 544 1067 m 13 X s 536 1067 m20 557 1050 m 12 X s 585 1050 m 13 X s 577 1050 m20 598 1058 m 12 X s 627 1058 m 12 X s 618 1058 m20 639 1053 m 12 X
 s 668 1053 m 12 X s 660 1053 m20 680 1055 m 13 X s 709 1055 m 13 X s 701 1055 m20 722 1047 m 12 X s 750 1047 m 13 X s 742 1047 m20 763 1035 m 12 X s 792 1035 m 12 X s 783 1035 m20 804 1036 m 12 X s 833 1036 m 12 X s 825 1036 m20 845 1035 m 13 X s
 874 1035 m 12 X s 866 1035 m20 886 1035 m 13 X s 915 1035 m 13 X s 907 1035 m20 928 1032 m 12 X s 957 1032 m 12 X s 948 1032 m20 969 1023 m 12 X s 998 1023 m 12 X s 990 1023 m20 1010 1048 m 13 X s 1039 1048 m 12 X s 1031 1048 m20 1051 1029 m 13 X s
 1080 1029 m 13 X s 1072 1029 m20 1093 1036 m 12 X s 1121 1036 m 13 X s 1113 1036 m20 1134 1042 m 12 X s 1163 1042 m 12 X s 1154 1042 m20 1175 1033 m 12 X s 1204 1033 m 12 X s 1196 1033 m20 1216 1033 m 13 X s 1245 1033 m 13 X s 1237 1033 m20 1258
 1035 m 12 X s 1286 1035 m 13 X s 1278 1035 m20 1299 1041 m 12 X s 1328 1041 m 12 X s 1319 1041 m20 1340 1049 m 12 X s 1369 1049 m 12 X s 1361 1049 m20 1381 1049 m 13 X s 1410 1049 m 12 X s 1402 1049 m20 1422 1039 m 13 X s 1451 1039 m 13 X s 1443
 1039 m20 1464 1061 m 12 X s 1493 1061 m 12 X s 1484 1061 m20 1505 1059 m 12 X s 1534 1059 m 12 X s 1526 1059 m20 1546 1059 m 13 X s 1575 1059 m 12 X s 1567 1059 m20 1587 1074 m 13 X s 1616 1074 m 13 X s 1608 1074 m20 1629 1082 m 12 X s 1657 1082 m
 13 X s 1649 1082 m20 1670 1086 m 12 X s 1699 1086 m 12 X s 1690 1086 m20 1711 1095 m 12 X s 1740 1095 m 12 X s 1732 1095 m20 1752 1101 m 13 X s 1781 1101 m 13 X s 1773 1101 m20 1794 1103 m 12 X s 1822 1103 m 13 X s 1814 1103 m20 1835 1108 m 12 X s
 1864 1108 m 12 X s 1855 1108 m20 1876 1102 m 12 X s 1905 1102 m 12 X s 1897 1102 m20 1917 1116 m 13 X s 1946 1116 m 12 X s 1938 1116 m20 1958 1121 m 13 X s 1987 1121 m 13 X s 1979 1121 m20 2000 577 m 12 X s 2029 577 m 12 X s 2020 577 m20 black 227
 159 m 1814 X s
 gsave  2268 1594 0 0 C 2010.96 63.6768 t 0 r /Symbol findfont 51.3523 sf 0 0 m (h) show NC gr  250 198 m -39 Y s 309 179 m -20 Y s 368 179 m -20 Y s 427 179 m -20 Y s 486 179 m -20 Y s 545 198 m -39 Y s 604 179 m -20 Y s 663 179 m -20 Y s 722 179 m
 -20 Y s 780 179 m -20 Y s 839 198 m -39 Y s 898 179 m -20 Y s 957 179 m -20 Y s 1016 179 m -20 Y s 1075 179 m -20 Y s 1134 198 m -39 Y s 1193 179 m -20 Y s 1252 179 m -20 Y s 1311 179 m -20 Y s 1369 179 m -20 Y s 1428 198 m -39 Y s 1487 179 m -20 Y
 s 1546 179 m -20 Y s 1605 179 m -20 Y s 1664 179 m -20 Y s 1723 198 m -39 Y s 1782 179 m -20 Y s 1841 179 m -20 Y s 1900 179 m -20 Y s 1958 179 m -20 Y s 2017 198 m -39 Y s 250 198 m -39 Y s 2017 198 m -39 Y s
 gsave  2268 1594 0 0 C 205.409 106.813 t 0 r /Helvetica findfont 51.3523 sf 0 0 m (\2550.3) show NC gr 
 gsave  2268 1594 0 0 C 501.198 106.813 t 0 r /Helvetica findfont 51.3523 sf 0 0 m (\2550.2) show NC gr 
 gsave  2268 1594 0 0 C 799.041 106.813 t 0 r /Helvetica findfont 51.3523 sf 0 0 m (\2550.1) show NC gr 
 gsave  2268 1594 0 0 C 1119.48 106.813 t 0 r /Helvetica findfont 51.3523 sf 0 0 m (0) show NC gr 
 gsave  2268 1594 0 0 C 1396.78 106.813 t 0 r /Helvetica findfont 51.3523 sf 0 0 m (0.1) show NC gr 
 gsave  2268 1594 0 0 C 1686.41 106.813 t 0 r /Helvetica findfont 51.3523 sf 0 0 m (0.2) show NC gr 
 gsave  2268 1594 0 0 C 1982.2 106.813 t 0 r /Helvetica findfont 51.3523 sf 0 0 m (0.3) show NC gr  227 159 m 1276 Y s
 gsave  2268 1594 0 0 C 106.813 1407.05 t 90 r /Symbol findfont 51.3523 sf 0 0 m (h) show NC gr 
 gsave  2268 1594 0 0 C 106.813 1363.92 t 90 r /Helvetica findfont 51.3523 sf 0 0 m (/d) show NC gr 
 gsave  2268 1594 0 0 C 123.245 1324.89 t 90 r /Helvetica findfont 34.9195 sf 0 0 m (jet) show NC gr 
 gsave  2268 1594 0 0 C 106.813 1246.83 t 90 r /Helvetica findfont 51.3523 sf 0 0 m ( dN) show NC gr 
 gsave  2268 1594 0 0 C 123.245 1160.56 t 90 r /Helvetica findfont 34.9195 sf 0 0 m (event) show NC gr 
 gsave  2268 1594 0 0 C 106.813 1082.51 t 90 r /Helvetica findfont 51.3523 sf 0 0 m (1/N) show NC gr  281 159 m -54 X s 254 191 m -27 X s 254 223 m -27 X s 254 255 m -27 X s 254 287 m -27 X s 281 319 m -54 X s 254 351 m -27 X s 254 383 m -27 X s 254
 414 m -27 X s 254 446 m -27 X s 281 478 m -54 X s 254 510 m -27 X s 254 542 m -27 X s 254 574 m -27 X s 254 606 m -27 X s 281 638 m -54 X s 254 669 m -27 X s 254 701 m -27 X s 254 733 m -27 X s 254 765 m -27 X s 281 797 m -54 X s 254 829 m -27 X s
 254 861 m -27 X s 254 893 m -27 X s 254 925 m -27 X s 281 956 m -54 X s 254 988 m -27 X s 254 1020 m -27 X s 254 1052 m -27 X s 254 1084 m -27 X s 281 1116 m -54 X s 254 1148 m -27 X s 254 1180 m -27 X s 254 1211 m -27 X s 254 1243 m -27 X s 281
 1275 m -54 X s 254 1307 m -27 X s 254 1339 m -27 X s 254 1371 m -27 X s 254 1403 m -27 X s 281 1435 m -54 X s
 gsave  2268 1594 0 0 C 186.922 141.732 t 0 r /Helvetica findfont 51.3523 sf 0 0 m (0) show NC gr 
 gsave  2268 1594 0 0 C 143.786 301.951 t 0 r /Helvetica findfont 51.3523 sf 0 0 m (0.5) show NC gr 
 gsave  2268 1594 0 0 C 195.139 458.062 t 0 r /Helvetica findfont 51.3523 sf 0 0 m (1) show NC gr 
 gsave  2268 1594 0 0 C 143.786 620.336 t 0 r /Helvetica findfont 51.3523 sf 0 0 m (1.5) show NC gr 
 gsave  2268 1594 0 0 C 186.922 776.446 t 0 r /Helvetica findfont 51.3523 sf 0 0 m (2) show NC gr 
 gsave  2268 1594 0 0 C 143.786 938.72 t 0 r /Helvetica findfont 51.3523 sf 0 0 m (2.5) show NC gr 
 gsave  2268 1594 0 0 C 186.922 1098.94 t 0 r /Helvetica findfont 51.3523 sf 0 0 m (3) show NC gr 
 gsave  2268 1594 0 0 C 143.786 1257.1 t 0 r /Helvetica findfont 51.3523 sf 0 0 m (3.5) show NC gr 
 gsave  2268 1594 0 0 C 186.922 1415.27 t 0 r /Helvetica findfont 51.3523 sf 0 0 m (4) show NC gr 
 gsave  2268 1594 0 0 C 501.198 1355.7 t 0 r /Helvetica-Bold findfont 55.4605 sf 0 0 m ( distribution of R = 0.4 jets for lhc13b merged output) show NC gr 
 gsave  2268 1594 0 0 C 470.387 1355.7 t 0 r /Symbol findfont 55.4605 sf 0 0 m (h) show NC gr 
 gr  gr showpage
end
%%EOF
