%!PS-Adobe-2.0 EPSF-2.0
%%BoundingBox:  0 0 567 367
%%Title: WorkDir/lego383_lhc13_JSR_TotalSys.eps: 
%%Creator: ROOT Version 5.34/09
%%CreationDate: Wed May 14 20:27:02 2014
%%EndComments
%%BeginProlog
80 dict begin
/s {stroke} def /l {lineto} def /m {moveto} def /t {translate} def
/r {rotate} def /rl {roll}  def /R {repeat} def
/d {rlineto} def /rm {rmoveto} def /gr {grestore} def /f {eofill} def
/c {setrgbcolor} def /black {0 setgray} def /sd {setdash} def
/cl {closepath} def /sf {scalefont setfont} def /lw {setlinewidth} def
/box {m dup 0 exch d exch 0 d 0 exch neg d cl} def
/NC{systemdict begin initclip end}def/C{NC box clip newpath}def
/bl {box s} def /bf {box f} def /Y { 0 exch d} def /X { 0 d} def 
/K {{pop pop 0 moveto} exch kshow} bind def
/ita {/ang 15 def gsave [1 0 ang dup sin exch cos div 1 0 0] concat} def 
/mp {newpath /y exch def /x exch def} def
/side {[w .77 mul w .23 mul] .385 w mul sd w 0 l currentpoint t -144 r} def
/mr {mp x y w2 0 360 arc} def /m24 {mr s} def /m20 {mr f} def
/mb {mp x y w2 add m w2 neg 0 d 0 w neg d w 0 d 0 w d cl} def
/mt {mp x y w2 add m w2 neg w neg d w 0 d cl} def
/m21 {mb f} def /m25 {mb s} def /m22 {mt f} def /m26{mt s} def
/m23 {mp x y w2 sub m w2 w d w neg 0 d cl f} def
/m27 {mp x y w2 add m w3 neg w2 neg d w3 w2 neg d w3 w2 d cl s} def
/m28 {mp x w2 sub y w2 sub w3 add m w3 0 d  0 w3 neg d w3 0 d 0 w3 d w3 0 d  0 w3 d w3 neg 0 d 0 w3 d w3 neg 0 d 0 w3 neg d w3 neg 0 d cl s } def
/m29 {mp gsave x w2 sub y w2 add w3 sub m currentpoint t 4 {side} repeat cl fill gr} def
/m30 {mp gsave x w2 sub y w2 add w3 sub m currentpoint t 4 {side} repeat cl s gr} def
/m31 {mp x y w2 sub m 0 w d x w2 sub y m w 0 d x w2 sub y w2 add m w w neg d x w2 sub y w2 sub m w w d s} def
/m32 {mp x y w2 sub m w2 w d w neg 0 d cl s} def
/m33 {mp x y w2 add m w3 neg w2 neg d w3 w2 neg d w3 w2 d cl f} def
/m34 {mp x w2 sub y w2 sub w3 add m w3 0 d  0 w3 neg d w3 0 d 0 w3 d w3 0 d  0 w3 d w3 neg 0 d 0 w3 d w3 neg 0 d 0 w3 neg d w3 neg 0 d cl f } def
/m2 {mp x y w2 sub m 0 w d x w2 sub y m w 0 d s} def
/m5 {mp x w2 sub y w2 sub m w w d x w2 sub y w2 add m w w neg d s} def
/reEncode {exch findfont dup length dict begin {1 index /FID eq  {pop pop} {def} ifelse } forall /Encoding exch def currentdict end dup /FontName get exch definefont pop } def [/Times-Bold /Times-Italic /Times-BoldItalic /Helvetica /Helvetica-Oblique
 /Helvetica-Bold /Helvetica-BoldOblique /Courier /Courier-Oblique /Courier-Bold /Courier-BoldOblique /Times-Roman /AvantGarde-Book /AvantGarde-BookOblique /AvantGarde-Demi /AvantGarde-DemiOblique /Bookman-Demi /Bookman-DemiItalic /Bookman-Light
 /Bookman-LightItalic /Helvetica-Narrow /Helvetica-Narrow-Bold /Helvetica-Narrow-BoldOblique /Helvetica-Narrow-Oblique /NewCenturySchlbk-Roman /NewCenturySchlbk-Bold /NewCenturySchlbk-BoldItalic /NewCenturySchlbk-Italic /Palatino-Bold
 /Palatino-BoldItalic /Palatino-Italic /Palatino-Roman ] {ISOLatin1Encoding reEncode } forall
%%EndProlog
%%BeginSetup
%%EndSetup
newpath  gsave  .25 .25 scale  gsave  0 0 t black[  ] 0 sd 3 lw 1 1 1 c 2268 1468 0 0 bf black 1 1 1 c 1814 1159 227 235 bf black 1814 1159 227 235 bl 1 0 0 c 9 lw 1 1 1 c 1 0 0 c 328 697 m 2 Y s 328 730 m 2 Y s 227 714 m 85 X s 343 714 m 85 X s 3 lw
 /w 30 def /w2 {w 2 div} def /w3 {w 3 div} def 328 714 m20 9 lw 529 654 m 16 Y s 529 701 m 17 Y s 428 686 m 86 X s 544 686 m 86 X s 3 lw 529 686 m20 9 lw 731 674 m 32 Y s 731 736 m 32 Y s 630 721 m 86 X s 746 721 m 85 X s 3 lw 731 721 m20 9 lw 932
 650 m 33 Y s 932 714 m 33 Y s 831 699 m 86 X s 947 699 m 86 X s 3 lw 932 699 m20 9 lw 1134 723 m 63 Y s 1134 817 m 63 Y s 1033 802 m 86 X s 1149 802 m 86 X s 3 lw 1134 802 m20 9 lw 1335 690 m 118 Y s 1335 839 m 118 Y s 1235 824 m 85 X s 1351 824 m
 85 X s 3 lw 1335 824 m20 9 lw 1537 673 m 155 Y s 1537 859 m 156 Y s 1436 844 m 86 X s 1552 844 m 86 X s 3 lw 1537 844 m20 9 lw black 3 lw 227 235 m 1814 X s
 gsave  2268 1468 0 0 C 2021.23 91.012 t 0 r /Helvetica findfont 68.259 sf 0 0 m (\)) show NC gr 
 gsave  2268 1468 0 0 C 1983.3 91.012 t 0 r /Helvetica-Oblique findfont 68.259 sf 0 0 m (c) show NC gr 
 gsave  2268 1468 0 0 C 1784.22 91.012 t 0 r /Helvetica findfont 68.259 sf 0 0 m ( \(GeV/) show NC gr 
 gsave  2268 1468 0 0 C 1695.1 56.8825 t 0 r /Helvetica findfont 45.506 sf 0 0 m (T,jet) show NC gr 
 gsave  2268 1468 0 0 C 1653.39 91.012 t 0 r /Helvetica-Oblique findfont 68.259 sf 0 0 m (p) show NC gr  227 270 m -35 Y s 267 252 m -17 Y s 307 252 m -17 Y s 348 252 m -17 Y s 388 252 m -17 Y s 428 270 m -35 Y s 469 252 m -17 Y s 509 252 m -17 Y s
 549 252 m -17 Y s 590 252 m -17 Y s 630 270 m -35 Y s 670 252 m -17 Y s 711 252 m -17 Y s 751 252 m -17 Y s 791 252 m -17 Y s 831 270 m -35 Y s 872 252 m -17 Y s 912 252 m -17 Y s 952 252 m -17 Y s 993 252 m -17 Y s 1033 270 m -35 Y s 1073 252 m -17
 Y s 1114 252 m -17 Y s 1154 252 m -17 Y s 1194 252 m -17 Y s 1235 270 m -35 Y s 1275 252 m -17 Y s 1315 252 m -17 Y s 1356 252 m -17 Y s 1396 252 m -17 Y s 1436 270 m -35 Y s 1477 252 m -17 Y s 1517 252 m -17 Y s 1557 252 m -17 Y s 1597 252 m -17 Y
 s 1638 270 m -35 Y s 1678 252 m -17 Y s 1718 252 m -17 Y s 1759 252 m -17 Y s 1799 252 m -17 Y s 1839 270 m -35 Y s 1880 252 m -17 Y s 1920 252 m -17 Y s 1960 252 m -17 Y s 2001 252 m -17 Y s 2041 270 m -35 Y s
 gsave  2268 1468 0 0 C 187.712 170.648 t 0 r /Helvetica findfont 68.259 sf 0 0 m (20) show NC gr 
 gsave  2268 1468 0 0 C 388.697 170.648 t 0 r /Helvetica findfont 68.259 sf 0 0 m (30) show NC gr 
 gsave  2268 1468 0 0 C 591.578 170.648 t 0 r /Helvetica findfont 68.259 sf 0 0 m (40) show NC gr 
 gsave  2268 1468 0 0 C 792.563 170.648 t 0 r /Helvetica findfont 68.259 sf 0 0 m (50) show NC gr 
 gsave  2268 1468 0 0 C 993.548 170.648 t 0 r /Helvetica findfont 68.259 sf 0 0 m (60) show NC gr 
 gsave  2268 1468 0 0 C 1196.43 170.648 t 0 r /Helvetica findfont 68.259 sf 0 0 m (70) show NC gr 
 gsave  2268 1468 0 0 C 1397.41 170.648 t 0 r /Helvetica findfont 68.259 sf 0 0 m (80) show NC gr 
 gsave  2268 1468 0 0 C 1598.4 170.648 t 0 r /Helvetica findfont 68.259 sf 0 0 m (90) show NC gr 
 gsave  2268 1468 0 0 C 1782.32 170.648 t 0 r /Helvetica findfont 68.259 sf 0 0 m (100) show NC gr 
 gsave  2268 1468 0 0 C 1983.3 170.648 t 0 r /Helvetica findfont 68.259 sf 0 0 m (110) show NC gr  227 1394 m 1814 X s 227 1359 m 35 Y s 267 1377 m 17 Y s 307 1377 m 17 Y s 348 1377 m 17 Y s 388 1377 m 17 Y s 428 1359 m 35 Y s 469 1377 m 17 Y s 509
 1377 m 17 Y s 549 1377 m 17 Y s 590 1377 m 17 Y s 630 1359 m 35 Y s 670 1377 m 17 Y s 711 1377 m 17 Y s 751 1377 m 17 Y s 791 1377 m 17 Y s 831 1359 m 35 Y s 872 1377 m 17 Y s 912 1377 m 17 Y s 952 1377 m 17 Y s 993 1377 m 17 Y s 1033 1359 m 35 Y s
 1073 1377 m 17 Y s 1114 1377 m 17 Y s 1154 1377 m 17 Y s 1194 1377 m 17 Y s 1235 1359 m 35 Y s 1275 1377 m 17 Y s 1315 1377 m 17 Y s 1356 1377 m 17 Y s 1396 1377 m 17 Y s 1436 1359 m 35 Y s 1477 1377 m 17 Y s 1517 1377 m 17 Y s 1557 1377 m 17 Y s
 1597 1377 m 17 Y s 1638 1359 m 35 Y s 1678 1377 m 17 Y s 1718 1377 m 17 Y s 1759 1377 m 17 Y s 1799 1377 m 17 Y s 1839 1359 m 35 Y s 1880 1377 m 17 Y s 1920 1377 m 17 Y s 1960 1377 m 17 Y s 2001 1377 m 17 Y s 2041 1359 m 35 Y s 227 235 m 1159 Y s
 gsave  2268 1468 0 0 C 68.259 913.913 t 90 r /Helvetica findfont 68.259 sf 0 0 m (=0.4 Yield Ratio) show NC gr 
 gsave  2268 1468 0 0 C 68.259 860.822 t 90 r /Helvetica-Oblique findfont 68.259 sf 0 0 m (R) show NC gr 
 gsave  2268 1468 0 0 C 68.259 705.343 t 90 r /Helvetica findfont 68.259 sf 0 0 m (=0.2/) show NC gr 
 gsave  2268 1468 0 0 C 68.259 652.253 t 90 r /Helvetica-Oblique findfont 68.259 sf 0 0 m (R) show NC gr  281 389 m -54 X s 254 428 m -27 X s 254 467 m -27 X s 254 505 m -27 X s 281 544 m -54 X s 254 583 m -27 X s 254 621 m -27 X s 254 660 m -27 X s
 281 699 m -54 X s 254 737 m -27 X s 254 776 m -27 X s 254 814 m -27 X s 281 853 m -54 X s 254 892 m -27 X s 254 930 m -27 X s 254 969 m -27 X s 281 1008 m -54 X s 254 1046 m -27 X s 254 1085 m -27 X s 254 1124 m -27 X s 281 1162 m -54 X s 254 1201 m
 -27 X s 254 1240 m -27 X s 254 1278 m -27 X s 281 1317 m -54 X s 281 389 m -54 X s 254 351 m -27 X s 254 312 m -27 X s 254 273 m -27 X s 281 1317 m -54 X s 254 1356 m -27 X s
 gsave  2268 1468 0 0 C 121.349 365.944 t 0 r /Helvetica findfont 68.259 sf 0 0 m (0.2) show NC gr 
 gsave  2268 1468 0 0 C 121.349 519.527 t 0 r /Helvetica findfont 68.259 sf 0 0 m (0.4) show NC gr 
 gsave  2268 1468 0 0 C 121.349 675.006 t 0 r /Helvetica findfont 68.259 sf 0 0 m (0.6) show NC gr 
 gsave  2268 1468 0 0 C 121.349 828.589 t 0 r /Helvetica findfont 68.259 sf 0 0 m (0.8) show NC gr 
 gsave  2268 1468 0 0 C 189.608 982.172 t 0 r /Helvetica findfont 68.259 sf 0 0 m (1) show NC gr 
 gsave  2268 1468 0 0 C 121.349 1135.75 t 0 r /Helvetica findfont 68.259 sf 0 0 m (1.2) show NC gr 
 gsave  2268 1468 0 0 C 121.349 1291.23 t 0 r /Helvetica findfont 68.259 sf 0 0 m (1.4) show NC gr  2041 235 m 1159 Y s 1987 389 m 54 X s 2014 428 m 27 X s 2014 467 m 27 X s 2014 505 m 27 X s 1987 544 m 54 X s 2014 583 m 27 X s 2014 621 m 27 X s 2014
 660 m 27 X s 1987 699 m 54 X s 2014 737 m 27 X s 2014 776 m 27 X s 2014 814 m 27 X s 1987 853 m 54 X s 2014 892 m 27 X s 2014 930 m 27 X s 2014 969 m 27 X s 1987 1008 m 54 X s 2014 1046 m 27 X s 2014 1085 m 27 X s 2014 1124 m 27 X s 1987 1162 m 54 X
 s 2014 1201 m 27 X s 2014 1240 m 27 X s 2014 1278 m 27 X s 1987 1317 m 54 X s 1987 389 m 54 X s 2014 351 m 27 X s 2014 312 m 27 X s 2014 273 m 27 X s 1987 1317 m 54 X s 2014 1356 m 27 X s 0.8 0.8 0.8 c 201 253 227 581 bf black 0.8 0.8 0.8 c 202 240
 428 574 bf black 0.8 0.8 0.8 c 201 163 630 649 bf black 0.8 0.8 0.8 c 202 119 831 643 bf black 0.8 0.8 0.8 c 202 249 1033 717 bf black 0.8 0.8 0.8 c 201 201 1235 698 bf black 0.8 0.8 0.8 c 202 224 1436 723 bf black 0.8 0.8 0.8 c black 1 0 0 c 9 lw 1
 1 1 c 1 0 0 c 328 697 m 2 Y s 328 730 m 2 Y s 227 714 m 85 X s 343 714 m 85 X s 3 lw 328 714 m20 9 lw 529 654 m 16 Y s 529 701 m 17 Y s 428 686 m 86 X s 544 686 m 86 X s 3 lw 529 686 m20 9 lw 731 674 m 32 Y s 731 736 m 32 Y s 630 721 m 86 X s 746
 721 m 85 X s 3 lw 731 721 m20 9 lw 932 650 m 33 Y s 932 714 m 33 Y s 831 699 m 86 X s 947 699 m 86 X s 3 lw 932 699 m20 9 lw 1134 723 m 63 Y s 1134 817 m 63 Y s 1033 802 m 86 X s 1149 802 m 86 X s 3 lw 1134 802 m20 9 lw 1335 690 m 118 Y s 1335 839 m
 118 Y s 1235 824 m 85 X s 1351 824 m 85 X s 3 lw 1335 824 m20 9 lw 1537 673 m 155 Y s 1537 859 m 156 Y s 1436 844 m 86 X s 1552 844 m 86 X s 3 lw 1537 844 m20 9 lw 0 0 1 c 3 lw 320 761 m -93 X s 227 757 m 8 Y s 335 761 m 93 X s 428 757 m 8 Y s 328
 769 m s 324 769 m 7 X s 328 753 m s 324 753 m 7 X s 522 759 m -94 X s 428 755 m 8 Y s 537 759 m 93 X s 630 755 m 8 Y s 723 760 m -93 X s 630 756 m 8 Y s 738 760 m 93 X s 831 756 m 8 Y s 925 781 m -94 X s 831 777 m 8 Y s 940 781 m 93 X s 1033 777 m 8
 Y s 1126 776 m -93 X s 1033 772 m 7 Y s 1141 776 m 94 X s 1235 772 m 7 Y s 1328 787 m -93 X s 1235 784 m 7 Y s 1343 787 m 93 X s 1436 784 m 7 Y s 1529 786 m -93 X s 1436 782 m 7 Y s 1545 786 m 93 X s 1638 782 m 7 Y s 1731 803 m -93 X s 1638 799 m 7
 Y s 1746 803 m 93 X s 1839 799 m 7 Y s 1933 788 m -94 X s 1839 784 m 8 Y s 1948 788 m 93 X s 2041 784 m 8 Y s black 0 0 1 c /w 15 def /w2 {w 2 div} def /w3 {w 3 div} def 328 761 529 759 731 760 932 781 1134 776 1335 787 1537 786 1739 803 1940 788 9
 { m25} R 1 0 1 c 320 846 m -93 X s 227 843 m 7 Y s 335 846 m 93 X s 428 843 m 7 Y s 522 849 m -94 X s 428 845 m 8 Y s 537 849 m 93 X s 630 845 m 8 Y s 723 850 m -93 X s 630 846 m 8 Y s 738 850 m 93 X s 831 846 m 8 Y s 925 853 m -94 X s 831 849 m 8 Y
 s 940 853 m 93 X s 1033 849 m 8 Y s 1126 851 m -93 X s 1033 848 m 7 Y s 1141 851 m 94 X s 1235 848 m 7 Y s 1328 855 m -93 X s 1235 851 m 8 Y s 1343 855 m 93 X s 1436 851 m 8 Y s 1529 858 m -93 X s 1436 854 m 8 Y s 1545 858 m 93 X s 1638 854 m 8 Y s
 1731 857 m -93 X s 1638 853 m 8 Y s 1746 857 m 93 X s 1839 853 m 8 Y s 1933 860 m -94 X s 1839 856 m 7 Y s 1948 860 m 93 X s 2041 856 m 7 Y s black 1 0 1 c 328 846 529 849 731 850 932 853 1134 851 1335 855 1537 858 1739 857 1940 860 9 { m25} R black
 gsave  2268 1468 0 0 C 426.619 1624.94 t 0 r /Helvetica-Bold findfont 51.1943 sf 0 0 m (ALICE Preliminary) show NC gr 
 gsave  2268 1468 0 0 C 1554.79 1124.38 t 0 r /Helvetica findfont 51.1943 sf 0 0 m (|<0.5) show NC gr 
 gsave  2268 1468 0 0 C 1516.87 1097.83 t 0 r /Helvetica findfont 34.1295 sf 0 0 m (jet) show NC gr 
 gsave  2268 1468 0 0 C 1484.63 1124.38 t 0 r /Symbol findfont 51.1943 sf 0 0 m ita (h) show gr NC gr 
 gsave  2268 1468 0 0 C 1475.15 1124.38 t 0 r /Helvetica findfont 51.1943 sf 0 0 m (|) show NC gr  6 lw 1 1 1 c black 101 69 227 626 bl 1 1 1 c black 100 55 328 565 bl 1 1 1 c black 101 68 428 617 bl 1 1 1 c black 101 61 529 586 bl 1 1 1 c black 201
 71 630 598 bl 1 1 1 c black 202 75 831 630 bl 1 1 1 c black 202 83 1033 673 bl 1 1 1 c black 302 62 1235 564 bl 1 1 1 c black 403 86 1537 691 bl 1 1 1 c black 277 676 m 46 Y s 273 722 m 8 X s 277 645 m -46 Y s 273 599 m 8 X s 378 608 m 63 Y s 374
 671 m 8 X s 378 577 m -63 Y s 374 514 m 8 X s 479 666 m 22 Y s 475 688 m 8 X s 479 636 m -22 Y s 475 614 m 8 X s 580 632 m 24 Y s 576 656 m 7 X s 580 601 m -23 Y s 576 578 m 7 X s 731 649 m 27 Y s 727 676 m 8 X s 731 619 m -28 Y s 727 591 m 8 X s
 932 683 m 62 Y s 928 745 m 8 X s 932 653 m -62 Y s 928 591 m 8 X s 1134 730 m 113 Y s 1130 843 m 8 X s 1134 699 m -113 Y s 1130 586 m 8 X s 1386 610 m 102 Y s 1382 712 m 8 X s 1386 580 m -102 Y s 1382 478 m 8 X s 1739 749 m 223 Y s 1735 972 m 7 X s
 1739 719 m -223 Y s 1735 496 m 7 X s 1 1 1 c black 3 lw /w 30 def /w2 {w 2 div} def /w3 {w 3 div} def 277 661 378 593 479 651 580 617 731 634 932 668 1134 715 1386 595 1739 734 9 { m21} R 6 lw 3 lw 1 1 1 c 680 367 340 954 bf black
 gsave  2268 1468 0 0 C 752.745 1270.38 t 0 r /Helvetica findfont 54.9864 sf 0 0 m ( = 5.02 TeV) show NC gr 
 gsave  2268 1468 0 0 C 703.447 1253.31 t 0 r /Helvetica findfont 36.0256 sf 0 0 m (NN) show NC gr 
 gsave  2268 1468 0 0 C 673.11 1270.38 t 0 r /Helvetica-Oblique findfont 54.9864 sf 0 0 m (s) show NC gr  6 lw 652 1301 m 8 -48 d s 3 lw 660 1253 m 7 63 d s 667 1316 m 86 X s
 gsave  2268 1468 0 0 C 510.047 1270.38 t 0 r /Helvetica findfont 54.9864 sf 0 0 m (p\255Pb ) show NC gr  1 0 0 c 425 1284 m20 black
 gsave  2268 1468 0 0 C 510.047 1198.33 t 0 r /Helvetica findfont 54.9864 sf 0 0 m (syst error) show NC gr  0.8 0.8 0.8 c 366 1185 m 119 X 51 Y -119 X f black 366 1236 m 119 X s 366 1185 m 119 X s 485 1185 m 51 Y s 366 1185 m 51 Y s
 gsave  2268 1468 0 0 C 648.461 1120.59 t 0 r /Helvetica findfont 54.9864 sf 0 0 m ( = 2.76 TeV) show NC gr 
 gsave  2268 1468 0 0 C 618.123 1120.59 t 0 r /Helvetica-Oblique findfont 54.9864 sf 0 0 m (s) show NC gr  6 lw 601 1151 m 6 -32 d s 0 lw 607 1119 m 5 47 d s 612 1166 m 36 X s
 gsave  2268 1468 0 0 C 510.047 1120.59 t 0 r /Helvetica findfont 54.9864 sf 0 0 m (pp ) show NC gr  3 lw 425 1137 m21 0 lw
 gsave  2268 1468 0 0 C 510.047 1044.74 t 0 r /Helvetica findfont 54.9864 sf 0 0 m (NLO) show NC gr  0 0 1 c 3 lw /w 15 def /w2 {w 2 div} def /w3 {w 3 div} def 425 1064 m25 0 lw black
 gsave  2268 1468 0 0 C 510.047 970.795 t 0 r /Helvetica findfont 54.9864 sf 0 0 m (LO) show NC gr  1 0 1 c 3 lw 425 991 m25 0 lw black
 gsave  2268 1468 0 0 C 1336.74 1188.84 t 0 r /Helvetica findfont 68.259 sf 0 0 m (ALICE Preliminary) show NC gr  3 lw 227 235 m 1814 X s 227 270 m -35 Y s 267 252 m -17 Y s 307 252 m -17 Y s 348 252 m -17 Y s 388 252 m -17 Y s 428 270 m -35 Y s 469
 252 m -17 Y s 509 252 m -17 Y s 549 252 m -17 Y s 590 252 m -17 Y s 630 270 m -35 Y s 670 252 m -17 Y s 711 252 m -17 Y s 751 252 m -17 Y s 791 252 m -17 Y s 831 270 m -35 Y s 872 252 m -17 Y s 912 252 m -17 Y s 952 252 m -17 Y s 993 252 m -17 Y s
 1033 270 m -35 Y s 1073 252 m -17 Y s 1114 252 m -17 Y s 1154 252 m -17 Y s 1194 252 m -17 Y s 1235 270 m -35 Y s 1275 252 m -17 Y s 1315 252 m -17 Y s 1356 252 m -17 Y s 1396 252 m -17 Y s 1436 270 m -35 Y s 1477 252 m -17 Y s 1517 252 m -17 Y s
 1557 252 m -17 Y s 1597 252 m -17 Y s 1638 270 m -35 Y s 1678 252 m -17 Y s 1718 252 m -17 Y s 1759 252 m -17 Y s 1799 252 m -17 Y s 1839 270 m -35 Y s 1880 252 m -17 Y s 1920 252 m -17 Y s 1960 252 m -17 Y s 2001 252 m -17 Y s 2041 270 m -35 Y s
 227 1394 m 1814 X s 227 1359 m 35 Y s 267 1377 m 17 Y s 307 1377 m 17 Y s 348 1377 m 17 Y s 388 1377 m 17 Y s 428 1359 m 35 Y s 469 1377 m 17 Y s 509 1377 m 17 Y s 549 1377 m 17 Y s 590 1377 m 17 Y s 630 1359 m 35 Y s 670 1377 m 17 Y s 711 1377 m 17
 Y s 751 1377 m 17 Y s 791 1377 m 17 Y s 831 1359 m 35 Y s 872 1377 m 17 Y s 912 1377 m 17 Y s 952 1377 m 17 Y s 993 1377 m 17 Y s 1033 1359 m 35 Y s 1073 1377 m 17 Y s 1114 1377 m 17 Y s 1154 1377 m 17 Y s 1194 1377 m 17 Y s 1235 1359 m 35 Y s 1275
 1377 m 17 Y s 1315 1377 m 17 Y s 1356 1377 m 17 Y s 1396 1377 m 17 Y s 1436 1359 m 35 Y s 1477 1377 m 17 Y s 1517 1377 m 17 Y s 1557 1377 m 17 Y s 1597 1377 m 17 Y s 1638 1359 m 35 Y s 1678 1377 m 17 Y s 1718 1377 m 17 Y s 1759 1377 m 17 Y s 1799
 1377 m 17 Y s 1839 1359 m 35 Y s 1880 1377 m 17 Y s 1920 1377 m 17 Y s 1960 1377 m 17 Y s 2001 1377 m 17 Y s 2041 1359 m 35 Y s 227 235 m 1159 Y s 281 389 m -54 X s 254 428 m -27 X s 254 467 m -27 X s 254 505 m -27 X s 281 544 m -54 X s 254 583 m
 -27 X s 254 621 m -27 X s 254 660 m -27 X s 281 699 m -54 X s 254 737 m -27 X s 254 776 m -27 X s 254 814 m -27 X s 281 853 m -54 X s 254 892 m -27 X s 254 930 m -27 X s 254 969 m -27 X s 281 1008 m -54 X s 254 1046 m -27 X s 254 1085 m -27 X s 254
 1124 m -27 X s 281 1162 m -54 X s 254 1201 m -27 X s 254 1240 m -27 X s 254 1278 m -27 X s 281 1317 m -54 X s 281 389 m -54 X s 254 351 m -27 X s 254 312 m -27 X s 254 273 m -27 X s 281 1317 m -54 X s 254 1356 m -27 X s 2041 235 m 1159 Y s 1987 389
 m 54 X s 2014 428 m 27 X s 2014 467 m 27 X s 2014 505 m 27 X s 1987 544 m 54 X s 2014 583 m 27 X s 2014 621 m 27 X s 2014 660 m 27 X s 1987 699 m 54 X s 2014 737 m 27 X s 2014 776 m 27 X s 2014 814 m 27 X s 1987 853 m 54 X s 2014 892 m 27 X s 2014
 930 m 27 X s 2014 969 m 27 X s 1987 1008 m 54 X s 2014 1046 m 27 X s 2014 1085 m 27 X s 2014 1124 m 27 X s 1987 1162 m 54 X s 2014 1201 m 27 X s 2014 1240 m 27 X s 2014 1278 m 27 X s 1987 1317 m 54 X s 1987 389 m 54 X s 2014 351 m 27 X s 2014 312 m
 27 X s 2014 273 m 27 X s 1987 1317 m 54 X s 2014 1356 m 27 X s
 gr  gr showpage
end
%%EOF
