%!PS-Adobe-2.0 EPSF-2.0
%%BoundingBox:  0 0 567 398
%%Title: /Users/cgy606/Documents/Train/LEGOTrain/020814/lhc13c/lhc13c_JetEtaR2.eps: 
%%Creator: ROOT Version 5.34/09
%%CreationDate: Fri Mar 28 14:55:20 2014
%%EndComments
%%BeginProlog
80 dict begin
/s {stroke} def /l {lineto} def /m {moveto} def /t {translate} def
/r {rotate} def /rl {roll}  def /R {repeat} def
/d {rlineto} def /rm {rmoveto} def /gr {grestore} def /f {eofill} def
/c {setrgbcolor} def /black {0 setgray} def /sd {setdash} def
/cl {closepath} def /sf {scalefont setfont} def /lw {setlinewidth} def
/box {m dup 0 exch d exch 0 d 0 exch neg d cl} def
/NC{systemdict begin initclip end}def/C{NC box clip newpath}def
/bl {box s} def /bf {box f} def /Y { 0 exch d} def /X { 0 d} def 
/K {{pop pop 0 moveto} exch kshow} bind def
/ita {/ang 15 def gsave [1 0 ang dup sin exch cos div 1 0 0] concat} def 
/mp {newpath /y exch def /x exch def} def
/side {[w .77 mul w .23 mul] .385 w mul sd w 0 l currentpoint t -144 r} def
/mr {mp x y w2 0 360 arc} def /m24 {mr s} def /m20 {mr f} def
/mb {mp x y w2 add m w2 neg 0 d 0 w neg d w 0 d 0 w d cl} def
/mt {mp x y w2 add m w2 neg w neg d w 0 d cl} def
/m21 {mb f} def /m25 {mb s} def /m22 {mt f} def /m26{mt s} def
/m23 {mp x y w2 sub m w2 w d w neg 0 d cl f} def
/m27 {mp x y w2 add m w3 neg w2 neg d w3 w2 neg d w3 w2 d cl s} def
/m28 {mp x w2 sub y w2 sub w3 add m w3 0 d  0 w3 neg d w3 0 d 0 w3 d w3 0 d  0 w3 d w3 neg 0 d 0 w3 d w3 neg 0 d 0 w3 neg d w3 neg 0 d cl s } def
/m29 {mp gsave x w2 sub y w2 add w3 sub m currentpoint t 4 {side} repeat cl fill gr} def
/m30 {mp gsave x w2 sub y w2 add w3 sub m currentpoint t 4 {side} repeat cl s gr} def
/m31 {mp x y w2 sub m 0 w d x w2 sub y m w 0 d x w2 sub y w2 add m w w neg d x w2 sub y w2 sub m w w d s} def
/m32 {mp x y w2 sub m w2 w d w neg 0 d cl s} def
/m33 {mp x y w2 add m w3 neg w2 neg d w3 w2 neg d w3 w2 d cl f} def
/m34 {mp x w2 sub y w2 sub w3 add m w3 0 d  0 w3 neg d w3 0 d 0 w3 d w3 0 d  0 w3 d w3 neg 0 d 0 w3 d w3 neg 0 d 0 w3 neg d w3 neg 0 d cl f } def
/m2 {mp x y w2 sub m 0 w d x w2 sub y m w 0 d s} def
/m5 {mp x w2 sub y w2 sub m w w d x w2 sub y w2 add m w w neg d s} def
/reEncode {exch findfont dup length dict begin {1 index /FID eq  {pop pop} {def} ifelse } forall /Encoding exch def currentdict end dup /FontName get exch definefont pop } def [/Times-Bold /Times-Italic /Times-BoldItalic /Helvetica /Helvetica-Oblique
 /Helvetica-Bold /Helvetica-BoldOblique /Courier /Courier-Oblique /Courier-Bold /Courier-BoldOblique /Times-Roman /AvantGarde-Book /AvantGarde-BookOblique /AvantGarde-Demi /AvantGarde-DemiOblique /Bookman-Demi /Bookman-DemiItalic /Bookman-Light
 /Bookman-LightItalic /Helvetica-Narrow /Helvetica-Narrow-Bold /Helvetica-Narrow-BoldOblique /Helvetica-Narrow-Oblique /NewCenturySchlbk-Roman /NewCenturySchlbk-Bold /NewCenturySchlbk-BoldItalic /NewCenturySchlbk-Italic /Palatino-Bold
 /Palatino-BoldItalic /Palatino-Italic /Palatino-Roman ] {ISOLatin1Encoding reEncode } forall
%%EndProlog
%%BeginSetup
%%EndSetup
newpath  gsave  .25 .25 scale  gsave  0 0 t black[  ] 0 sd 3 lw 0.999 0.999 0.999 c 2268 1594 0 0 bf black 0.999 0.999 0.999 c 1814 1276 227 159 bf black 1814 1276 227 159 bl 0 0 1 c 1 1 1 c 0 0 1 c 227 380 m 4 X s 248 380 m 4 X s /w 16 def /w2 {w 2
 div} def /w3 {w 3 div} def 239 380 m20 252 473 m 4 X s 273 473 m 4 X s 265 473 m20 277 475 m 5 X s 298 475 m 4 X s 290 475 m20 302 474 m 5 X s 323 474 m 5 X s 315 474 m20 328 474 m 4 X s 348 474 m 5 X s 340 474 m20 353 474 m 4 X s 374 474 m 4 X s
 365 474 m20 378 472 m 4 X s 399 472 m 4 X s 391 472 m20 403 477 m 5 X s 424 477 m 4 X s 416 477 m20 428 478 m 5 X s 449 478 m 5 X s 441 478 m20 454 476 m 4 X s 474 476 m 5 X s 466 476 m20 479 473 m 4 X s 500 473 m 4 X s 491 473 m20 504 470 m 4 X s
 525 470 m 4 X s 517 470 m20 529 471 m 5 X s 550 471 m 4 X s 542 471 m20 554 474 m 5 X s 575 474 m 5 X s 567 474 m20 580 477 m 4 X s 600 477 m 5 X s 592 477 m20 605 471 m 4 X s 626 471 m 4 X s 617 471 m20 630 472 m 4 X s 651 472 m 4 X s 643 472 m20
 655 469 m 5 X s 676 469 m 4 X s 668 469 m20 680 468 m 5 X s 701 468 m 5 X s 693 468 m20 706 470 m 4 X s 726 470 m 5 X s 718 470 m20 731 462 m 4 X s 752 462 m 4 X s 743 462 m20 756 461 m 4 X s 777 461 m 4 X s 769 461 m20 781 462 m 4 X s 802 462 m 4 X
 s 794 462 m20 806 461 m 5 X s 827 461 m 4 X s 819 461 m20 831 463 m 5 X s 852 463 m 5 X s 844 463 m20 857 466 m 4 X s 878 466 m 4 X s 869 466 m20 882 464 m 4 X s 903 464 m 4 X s 894 464 m20 907 470 m 4 X s 928 470 m 4 X s 920 470 m20 932 463 m 5 X s
 953 463 m 4 X s 945 463 m20 957 464 m 5 X s 978 464 m 5 X s 970 464 m20 983 463 m 4 X s 1003 463 m 5 X s 995 463 m20 1008 461 m 4 X s 1029 461 m 4 X s 1020 461 m20 1033 459 m 4 X s 1054 459 m 4 X s 1046 459 m20 1058 465 m 5 X s 1079 465 m 4 X s 1071
 465 m20 1083 461 m 5 X s 1104 461 m 5 X s 1096 461 m20 1109 463 m 4 X s 1129 463 m 5 X s 1121 463 m20 1134 458 m 4 X s 1155 458 m 4 X s 1146 458 m20 1159 459 m 4 X s 1180 459 m 4 X s 1172 459 m20 1184 455 m 5 X s 1205 455 m 4 X s 1197 455 m20 1209
 456 m 5 X s 1230 456 m 5 X s 1222 456 m20 1235 451 m 4 X s 1255 451 m 5 X s 1247 451 m20 1260 454 m 4 X s 1281 454 m 4 X s 1272 454 m20 1285 458 m 4 X s 1306 458 m 4 X s 1298 458 m20 1310 462 m 5 X s 1331 462 m 4 X s 1323 462 m20 1335 463 m 5 X s
 1356 463 m 5 X s 1348 463 m20 1361 464 m 4 X s 1381 464 m 5 X s 1373 464 m20 1386 473 m 4 X s 1407 473 m 4 X s 1398 473 m20 1411 470 m 4 X s 1432 470 m 4 X s 1424 470 m20 1436 467 m 5 X s 1457 467 m 4 X s 1449 467 m20 1461 471 m 5 X s 1482 471 m 5 X
 s 1474 471 m20 1487 472 m 4 X s 1507 472 m 5 X s 1499 472 m20 1512 472 m 4 X s 1533 472 m 4 X s 1524 472 m20 1537 471 m 4 X s 1558 471 m 4 X s 1550 471 m20 1562 469 m 5 X s 1583 469 m 4 X s 1575 469 m20 1587 470 m 5 X s 1608 470 m 5 X s 1600 470 m20
 1613 478 m 4 X s 1633 478 m 5 X s 1625 478 m20 1638 478 m 4 X s 1659 478 m 4 X s 1650 478 m20 1663 473 m 4 X s 1684 473 m 4 X s 1676 473 m20 1688 475 m 5 X s 1709 475 m 4 X s 1701 475 m20 1713 477 m 5 X s 1734 477 m 5 X s 1726 477 m20 1739 474 m 4 X
 s 1759 474 m 5 X s 1751 474 m20 1764 477 m 4 X s 1785 477 m 4 X s 1776 477 m20 1789 480 m 4 X s 1810 480 m 4 X s 1802 480 m20 1814 480 m 5 X s 1835 480 m 4 X s 1827 480 m20 1839 480 m 5 X s 1860 480 m 5 X s 1852 480 m20 1865 480 m 4 X s 1885 480 m 5
 X s 1877 480 m20 1890 482 m 4 X s 1911 482 m 4 X s 1902 482 m20 1915 481 m 4 X s 1936 481 m 4 X s 1928 481 m20 1940 479 m 5 X s 1961 479 m 4 X s 1953 479 m20 1965 483 m 5 X s 1986 483 m 5 X s 1978 483 m20 1991 475 m 4 X s 2011 475 m 5 X s 2003 475
 m20 2016 386 m 4 X s 2037 386 m 4 X s 2028 386 m20 black 227 159 m 1814 X s
 gsave  2268 1594 0 0 C 2010.96 63.6768 t 0 r /Symbol findfont 51.3523 sf 0 0 m (h) show NC gr  414 198 m -39 Y s 504 179 m -20 Y s 594 179 m -20 Y s 684 179 m -20 Y s 774 198 m -39 Y s 864 179 m -20 Y s 954 179 m -20 Y s 1044 179 m -20 Y s 1134 198
 m -39 Y s 1224 179 m -20 Y s 1314 179 m -20 Y s 1404 179 m -20 Y s 1494 198 m -39 Y s 1584 179 m -20 Y s 1674 179 m -20 Y s 1764 179 m -20 Y s 1854 198 m -39 Y s 414 198 m -39 Y s 324 179 m -20 Y s 234 179 m -20 Y s 1854 198 m -39 Y s 1944 179 m -20
 Y s 2034 179 m -20 Y s
 gsave  2268 1594 0 0 C 367.682 106.813 t 0 r /Helvetica findfont 51.3523 sf 0 0 m (\2550.4) show NC gr 
 gsave  2268 1594 0 0 C 729.202 106.813 t 0 r /Helvetica findfont 51.3523 sf 0 0 m (\2550.2) show NC gr 
 gsave  2268 1594 0 0 C 1119.48 106.813 t 0 r /Helvetica findfont 51.3523 sf 0 0 m (0) show NC gr 
 gsave  2268 1594 0 0 C 1458.4 106.813 t 0 r /Helvetica findfont 51.3523 sf 0 0 m (0.2) show NC gr 
 gsave  2268 1594 0 0 C 1817.87 106.813 t 0 r /Helvetica findfont 51.3523 sf 0 0 m (0.4) show NC gr  227 159 m 1276 Y s
 gsave  2268 1594 0 0 C 106.813 1407.05 t 90 r /Symbol findfont 51.3523 sf 0 0 m (h) show NC gr 
 gsave  2268 1594 0 0 C 106.813 1363.92 t 90 r /Helvetica findfont 51.3523 sf 0 0 m (/d) show NC gr 
 gsave  2268 1594 0 0 C 123.245 1324.89 t 90 r /Helvetica findfont 34.9195 sf 0 0 m (jet) show NC gr 
 gsave  2268 1594 0 0 C 106.813 1246.83 t 90 r /Helvetica findfont 51.3523 sf 0 0 m ( dN) show NC gr 
 gsave  2268 1594 0 0 C 123.245 1160.56 t 90 r /Helvetica findfont 34.9195 sf 0 0 m (event) show NC gr 
 gsave  2268 1594 0 0 C 106.813 1082.51 t 90 r /Helvetica findfont 51.3523 sf 0 0 m (1/N) show NC gr  281 159 m -54 X s 254 191 m -27 X s 254 223 m -27 X s 254 255 m -27 X s 254 287 m -27 X s 281 319 m -54 X s 254 351 m -27 X s 254 383 m -27 X s 254
 414 m -27 X s 254 446 m -27 X s 281 478 m -54 X s 254 510 m -27 X s 254 542 m -27 X s 254 574 m -27 X s 254 606 m -27 X s 281 638 m -54 X s 254 669 m -27 X s 254 701 m -27 X s 254 733 m -27 X s 254 765 m -27 X s 281 797 m -54 X s 254 829 m -27 X s
 254 861 m -27 X s 254 893 m -27 X s 254 925 m -27 X s 281 956 m -54 X s 254 988 m -27 X s 254 1020 m -27 X s 254 1052 m -27 X s 254 1084 m -27 X s 281 1116 m -54 X s 254 1148 m -27 X s 254 1180 m -27 X s 254 1211 m -27 X s 254 1243 m -27 X s 281
 1275 m -54 X s 254 1307 m -27 X s 254 1339 m -27 X s 254 1371 m -27 X s 254 1403 m -27 X s 281 1435 m -54 X s
 gsave  2268 1594 0 0 C 186.922 141.732 t 0 r /Helvetica findfont 51.3523 sf 0 0 m (0) show NC gr 
 gsave  2268 1594 0 0 C 143.786 301.951 t 0 r /Helvetica findfont 51.3523 sf 0 0 m (0.5) show NC gr 
 gsave  2268 1594 0 0 C 195.139 458.062 t 0 r /Helvetica findfont 51.3523 sf 0 0 m (1) show NC gr 
 gsave  2268 1594 0 0 C 143.786 620.336 t 0 r /Helvetica findfont 51.3523 sf 0 0 m (1.5) show NC gr 
 gsave  2268 1594 0 0 C 186.922 776.446 t 0 r /Helvetica findfont 51.3523 sf 0 0 m (2) show NC gr 
 gsave  2268 1594 0 0 C 143.786 938.72 t 0 r /Helvetica findfont 51.3523 sf 0 0 m (2.5) show NC gr 
 gsave  2268 1594 0 0 C 186.922 1098.94 t 0 r /Helvetica findfont 51.3523 sf 0 0 m (3) show NC gr 
 gsave  2268 1594 0 0 C 143.786 1257.1 t 0 r /Helvetica findfont 51.3523 sf 0 0 m (3.5) show NC gr 
 gsave  2268 1594 0 0 C 186.922 1415.27 t 0 r /Helvetica findfont 51.3523 sf 0 0 m (4) show NC gr 
 gsave  2268 1594 0 0 C 488.874 1355.7 t 0 r /Helvetica-Bold findfont 55.4605 sf 0 0 m ( distribution of R = 0.2 jets for lhc13c merged output) show NC gr 
 gsave  2268 1594 0 0 C 458.062 1355.7 t 0 r /Symbol findfont 55.4605 sf 0 0 m (h) show NC gr 
 gr  gr showpage
end
%%EOF
