%!PS-Adobe-2.0 EPSF-2.0
%%BoundingBox:  0 0 567 456
%%Title: /Users/cgy606/Documents/Train/LEGOTrain/020814/lhc13c/lhc13c_JetEtaPhiR4.eps: 
%%Creator: ROOT Version 5.34/09
%%CreationDate: Fri Mar 28 14:55:20 2014
%%EndComments
%%BeginProlog
80 dict begin
/s {stroke} def /l {lineto} def /m {moveto} def /t {translate} def
/r {rotate} def /rl {roll}  def /R {repeat} def
/d {rlineto} def /rm {rmoveto} def /gr {grestore} def /f {eofill} def
/c {setrgbcolor} def /black {0 setgray} def /sd {setdash} def
/cl {closepath} def /sf {scalefont setfont} def /lw {setlinewidth} def
/box {m dup 0 exch d exch 0 d 0 exch neg d cl} def
/NC{systemdict begin initclip end}def/C{NC box clip newpath}def
/bl {box s} def /bf {box f} def /Y { 0 exch d} def /X { 0 d} def 
/K {{pop pop 0 moveto} exch kshow} bind def
/ita {/ang 15 def gsave [1 0 ang dup sin exch cos div 1 0 0] concat} def 
/mp {newpath /y exch def /x exch def} def
/side {[w .77 mul w .23 mul] .385 w mul sd w 0 l currentpoint t -144 r} def
/mr {mp x y w2 0 360 arc} def /m24 {mr s} def /m20 {mr f} def
/mb {mp x y w2 add m w2 neg 0 d 0 w neg d w 0 d 0 w d cl} def
/mt {mp x y w2 add m w2 neg w neg d w 0 d cl} def
/m21 {mb f} def /m25 {mb s} def /m22 {mt f} def /m26{mt s} def
/m23 {mp x y w2 sub m w2 w d w neg 0 d cl f} def
/m27 {mp x y w2 add m w3 neg w2 neg d w3 w2 neg d w3 w2 d cl s} def
/m28 {mp x w2 sub y w2 sub w3 add m w3 0 d  0 w3 neg d w3 0 d 0 w3 d w3 0 d  0 w3 d w3 neg 0 d 0 w3 d w3 neg 0 d 0 w3 neg d w3 neg 0 d cl s } def
/m29 {mp gsave x w2 sub y w2 add w3 sub m currentpoint t 4 {side} repeat cl fill gr} def
/m30 {mp gsave x w2 sub y w2 add w3 sub m currentpoint t 4 {side} repeat cl s gr} def
/m31 {mp x y w2 sub m 0 w d x w2 sub y m w 0 d x w2 sub y w2 add m w w neg d x w2 sub y w2 sub m w w d s} def
/m32 {mp x y w2 sub m w2 w d w neg 0 d cl s} def
/m33 {mp x y w2 add m w3 neg w2 neg d w3 w2 neg d w3 w2 d cl f} def
/m34 {mp x w2 sub y w2 sub w3 add m w3 0 d  0 w3 neg d w3 0 d 0 w3 d w3 0 d  0 w3 d w3 neg 0 d 0 w3 d w3 neg 0 d 0 w3 neg d w3 neg 0 d cl f } def
/m2 {mp x y w2 sub m 0 w d x w2 sub y m w 0 d s} def
/m5 {mp x w2 sub y w2 sub m w w d x w2 sub y w2 add m w w neg d s} def
/reEncode {exch findfont dup length dict begin {1 index /FID eq  {pop pop} {def} ifelse } forall /Encoding exch def currentdict end dup /FontName get exch definefont pop } def [/Times-Bold /Times-Italic /Times-BoldItalic /Helvetica /Helvetica-Oblique
 /Helvetica-Bold /Helvetica-BoldOblique /Courier /Courier-Oblique /Courier-Bold /Courier-BoldOblique /Times-Roman /AvantGarde-Book /AvantGarde-BookOblique /AvantGarde-Demi /AvantGarde-DemiOblique /Bookman-Demi /Bookman-DemiItalic /Bookman-Light
 /Bookman-LightItalic /Helvetica-Narrow /Helvetica-Narrow-Bold /Helvetica-Narrow-BoldOblique /Helvetica-Narrow-Oblique /NewCenturySchlbk-Roman /NewCenturySchlbk-Bold /NewCenturySchlbk-BoldItalic /NewCenturySchlbk-Italic /Palatino-Bold
 /Palatino-BoldItalic /Palatino-Italic /Palatino-Roman ] {ISOLatin1Encoding reEncode } forall
%%EndProlog
%%BeginSetup
%%EndSetup
newpath  gsave  .25 .25 scale  gsave  0 0 t black[  ] 0 sd 3 lw 0.999 0.999 0.999 c 2268 1824 0 0 bf black 0.999 0.999 0.999 c 1814 1459 227 182 bf black 1814 1459 227 182 bl 1 1 1 c 0 0.0800001 1 c 41 27 227 182 bf 0 1 0.986667 c 41 27 268 182 bf 0
 0.733333 1 c 41 27 309 182 bf 42 27 350 182 bf 0 1 0.986667 c 41 27 392 182 bf 0 0.733333 1 c 41 27 433 182 bf 41 27 474 182 bf 42 27 515 182 bf 41 27 557 182 bf 41 27 598 182 bf 41 27 639 182 bf 42 27 680 182 bf 41 27 722 182 bf 41 27 763 182 bf 41
 27 804 182 bf 0 1 0.986667 c 41 27 845 182 bf 0 0.733333 1 c 42 27 886 182 bf 41 27 928 182 bf 41 27 969 182 bf 41 27 1010 182 bf 42 27 1051 182 bf 41 27 1093 182 bf 41 27 1134 182 bf 0 1 0.986667 c 41 27 1175 182 bf 0 0.733333 1 c 42 27 1216 182 bf
 41 27 1258 182 bf 41 27 1299 182 bf 41 27 1340 182 bf 41 27 1381 182 bf 0 1 0.986667 c 42 27 1422 182 bf 41 27 1464 182 bf 0 0.733333 1 c 41 27 1505 182 bf 0 1 0.986667 c 41 27 1546 182 bf 0 0.733333 1 c 42 27 1587 182 bf 0 1 0.986667 c 41 27 1629
 182 bf 41 27 1670 182 bf 41 27 1711 182 bf 42 27 1752 182 bf 41 27 1794 182 bf 41 27 1835 182 bf 41 27 1876 182 bf 41 27 1917 182 bf 42 27 1958 182 bf 0 0.0800001 1 c 41 27 2000 182 bf 0 0.546666 1 c 41 26 227 209 bf 0 1 0.0533333 c 41 26 268 209 bf
 0 1 0.333333 c 41 26 309 209 bf 0 1 0.0533333 c 42 26 350 209 bf 0 1 0.333333 c 41 26 392 209 bf 41 26 433 209 bf 41 26 474 209 bf 42 26 515 209 bf 0 1 0.0533333 c 41 26 557 209 bf 41 26 598 209 bf 0 1 0.333333 c 41 26 639 209 bf 42 26 680 209 bf 0
 1 0.0533333 c 41 26 722 209 bf 0 1 0.333333 c 41 26 763 209 bf 41 26 804 209 bf 41 26 845 209 bf 42 26 886 209 bf 41 26 928 209 bf 41 26 969 209 bf 41 26 1010 209 bf 42 26 1051 209 bf 41 26 1093 209 bf 0 1 0.0533333 c 41 26 1134 209 bf 41 26 1175
 209 bf 0 1 0.333333 c 42 26 1216 209 bf 41 26 1258 209 bf 0 1 0.0533333 c 41 26 1299 209 bf 0 1 0.333333 c 41 26 1340 209 bf 41 26 1381 209 bf 42 26 1422 209 bf 0 1 0.0533333 c 41 26 1464 209 bf 0 1 0.333333 c 41 26 1505 209 bf 0 1 0.0533333 c 41 26
 1546 209 bf 42 26 1587 209 bf 41 26 1629 209 bf 41 26 1670 209 bf 41 26 1711 209 bf 42 26 1752 209 bf 41 26 1794 209 bf 41 26 1835 209 bf 41 26 1876 209 bf 41 26 1917 209 bf 42 26 1958 209 bf 0 0.546666 1 c 41 26 2000 209 bf 41 27 227 235 bf 0 1
 0.0533333 c 41 27 268 235 bf 0 1 0.333333 c 41 27 309 235 bf 0 1 0.0533333 c 42 27 350 235 bf 41 27 392 235 bf 0 1 0.333333 c 41 27 433 235 bf 0 1 0.0533333 c 41 27 474 235 bf 0 1 0.333333 c 42 27 515 235 bf 41 27 557 235 bf 41 27 598 235 bf 41 27
 639 235 bf 0 1 0.0533333 c 42 27 680 235 bf 41 27 722 235 bf 0 1 0.333333 c 41 27 763 235 bf 41 27 804 235 bf 41 27 845 235 bf 42 27 886 235 bf 41 27 928 235 bf 0 1 0.0533333 c 41 27 969 235 bf 0 1 0.333333 c 41 27 1010 235 bf 42 27 1051 235 bf 41
 27 1093 235 bf 41 27 1134 235 bf 41 27 1175 235 bf 42 27 1216 235 bf 41 27 1258 235 bf 0 1 0.0533333 c 41 27 1299 235 bf 41 27 1340 235 bf 41 27 1381 235 bf 42 27 1422 235 bf 41 27 1464 235 bf 0 1 0.333333 c 41 27 1505 235 bf 0 1 0.0533333 c 41 27
 1546 235 bf 42 27 1587 235 bf 41 27 1629 235 bf 41 27 1670 235 bf 41 27 1711 235 bf 42 27 1752 235 bf 0.133333 1 0 c 41 27 1794 235 bf 0 1 0.0533333 c 41 27 1835 235 bf 41 27 1876 235 bf 41 27 1917 235 bf 0.133333 1 0 c 42 27 1958 235 bf 0 0.546666
 1 c 41 27 2000 235 bf 41 26 227 262 bf 0 1 0.0533333 c 41 26 268 262 bf 0 1 0.333333 c 41 26 309 262 bf 0 1 0.0533333 c 42 26 350 262 bf 41 26 392 262 bf 41 26 433 262 bf 0 1 0.333333 c 41 26 474 262 bf 42 26 515 262 bf 41 26 557 262 bf 41 26 598
 262 bf 41 26 639 262 bf 0 1 0.0533333 c 42 26 680 262 bf 41 26 722 262 bf 41 26 763 262 bf 0 1 0.333333 c 41 26 804 262 bf 0 1 0.0533333 c 41 26 845 262 bf 0 1 0.333333 c 42 26 886 262 bf 0 1 0.0533333 c 41 26 928 262 bf 0 1 0.333333 c 41 26 969 262
 bf 41 26 1010 262 bf 42 26 1051 262 bf 41 26 1093 262 bf 0 1 0.0533333 c 41 26 1134 262 bf 41 26 1175 262 bf 0 1 0.333333 c 42 26 1216 262 bf 41 26 1258 262 bf 41 26 1299 262 bf 0 1 0.0533333 c 41 26 1340 262 bf 41 26 1381 262 bf 42 26 1422 262 bf 0
 1 0.333333 c 41 26 1464 262 bf 0 1 0.0533333 c 41 26 1505 262 bf 41 26 1546 262 bf 42 26 1587 262 bf 41 26 1629 262 bf 41 26 1670 262 bf 41 26 1711 262 bf 42 26 1752 262 bf 41 26 1794 262 bf 41 26 1835 262 bf 41 26 1876 262 bf 0.133333 1 0 c 41 26
 1917 262 bf 42 26 1958 262 bf 0 0.546666 1 c 41 26 2000 262 bf 41 27 227 288 bf 0 1 0.0533333 c 41 27 268 288 bf 41 27 309 288 bf 42 27 350 288 bf 41 27 392 288 bf 41 27 433 288 bf 41 27 474 288 bf 42 27 515 288 bf 0 1 0.333333 c 41 27 557 288 bf 41
 27 598 288 bf 0 1 0.0533333 c 41 27 639 288 bf 0 1 0.333333 c 42 27 680 288 bf 41 27 722 288 bf 41 27 763 288 bf 0 1 0.0533333 c 41 27 804 288 bf 0 1 0.333333 c 41 27 845 288 bf 42 27 886 288 bf 41 27 928 288 bf 41 27 969 288 bf 41 27 1010 288 bf 42
 27 1051 288 bf 41 27 1093 288 bf 41 27 1134 288 bf 41 27 1175 288 bf 42 27 1216 288 bf 41 27 1258 288 bf 41 27 1299 288 bf 41 27 1340 288 bf 41 27 1381 288 bf 0 1 0.0533333 c 42 27 1422 288 bf 41 27 1464 288 bf 41 27 1505 288 bf 41 27 1546 288 bf 42
 27 1587 288 bf 41 27 1629 288 bf 41 27 1670 288 bf 41 27 1711 288 bf 42 27 1752 288 bf 41 27 1794 288 bf 0.133333 1 0 c 41 27 1835 288 bf 0 1 0.0533333 c 41 27 1876 288 bf 0.133333 1 0 c 41 27 1917 288 bf 42 27 1958 288 bf 0 0.546666 1 c 41 27 2000
 288 bf 41 27 227 315 bf 0 1 0.0533333 c 41 27 268 315 bf 41 27 309 315 bf 0 1 0.333333 c 42 27 350 315 bf 0 1 0.0533333 c 41 27 392 315 bf 0 1 0.333333 c 41 27 433 315 bf 41 27 474 315 bf 42 27 515 315 bf 41 27 557 315 bf 0 1 0.0533333 c 41 27 598
 315 bf 0 1 0.333333 c 41 27 639 315 bf 42 27 680 315 bf 0 1 0.0533333 c 41 27 722 315 bf 0 1 0.333333 c 41 27 763 315 bf 41 27 804 315 bf 41 27 845 315 bf 42 27 886 315 bf 41 27 928 315 bf 41 27 969 315 bf 0 1 0.0533333 c 41 27 1010 315 bf 0 1
 0.333333 c 42 27 1051 315 bf 41 27 1093 315 bf 41 27 1134 315 bf 0 1 0.0533333 c 41 27 1175 315 bf 0 1 0.333333 c 42 27 1216 315 bf 0 1 0.0533333 c 41 27 1258 315 bf 0 1 0.333333 c 41 27 1299 315 bf 41 27 1340 315 bf 41 27 1381 315 bf 42 27 1422 315
 bf 0 1 0.0533333 c 41 27 1464 315 bf 0 1 0.333333 c 41 27 1505 315 bf 41 27 1546 315 bf 0 1 0.0533333 c 42 27 1587 315 bf 41 27 1629 315 bf 41 27 1670 315 bf 0.133333 1 0 c 41 27 1711 315 bf 0 1 0.0533333 c 42 27 1752 315 bf 41 27 1794 315 bf 41 27
 1835 315 bf 0.133333 1 0 c 41 27 1876 315 bf 0 1 0.0533333 c 41 27 1917 315 bf 0.133333 1 0 c 42 27 1958 315 bf 0 0.546666 1 c 41 27 2000 315 bf 41 26 227 342 bf 0 1 0.0533333 c 41 26 268 342 bf 41 26 309 342 bf 42 26 350 342 bf 41 26 392 342 bf 41
 26 433 342 bf 41 26 474 342 bf 42 26 515 342 bf 0 1 0.333333 c 41 26 557 342 bf 41 26 598 342 bf 41 26 639 342 bf 0 1 0.0533333 c 42 26 680 342 bf 0 1 0.333333 c 41 26 722 342 bf 41 26 763 342 bf 0 1 0.0533333 c 41 26 804 342 bf 0 1 0.333333 c 41 26
 845 342 bf 42 26 886 342 bf 41 26 928 342 bf 41 26 969 342 bf 41 26 1010 342 bf 42 26 1051 342 bf 41 26 1093 342 bf 0 1 0.0533333 c 41 26 1134 342 bf 41 26 1175 342 bf 0 1 0.333333 c 42 26 1216 342 bf 41 26 1258 342 bf 0 1 0.0533333 c 41 26 1299 342
 bf 41 26 1340 342 bf 41 26 1381 342 bf 42 26 1422 342 bf 0 1 0.333333 c 41 26 1464 342 bf 0 1 0.0533333 c 41 26 1505 342 bf 41 26 1546 342 bf 42 26 1587 342 bf 41 26 1629 342 bf 41 26 1670 342 bf 41 26 1711 342 bf 0.133333 1 0 c 42 26 1752 342 bf 0
 1 0.0533333 c 41 26 1794 342 bf 41 26 1835 342 bf 41 26 1876 342 bf 41 26 1917 342 bf 42 26 1958 342 bf 0 0.546666 1 c 41 26 2000 342 bf 41 27 227 368 bf 0 1 0.0533333 c 41 27 268 368 bf 41 27 309 368 bf 0 1 0.333333 c 42 27 350 368 bf 41 27 392 368
 bf 0 1 0.0533333 c 41 27 433 368 bf 41 27 474 368 bf 42 27 515 368 bf 0 1 0.333333 c 41 27 557 368 bf 0 1 0.0533333 c 41 27 598 368 bf 41 27 639 368 bf 0 1 0.333333 c 42 27 680 368 bf 41 27 722 368 bf 41 27 763 368 bf 41 27 804 368 bf 0 1 0.0533333
 c 41 27 845 368 bf 42 27 886 368 bf 0 1 0.333333 c 41 27 928 368 bf 41 27 969 368 bf 41 27 1010 368 bf 42 27 1051 368 bf 41 27 1093 368 bf 41 27 1134 368 bf 41 27 1175 368 bf 42 27 1216 368 bf 0 1 0.0533333 c 41 27 1258 368 bf 41 27 1299 368 bf 41
 27 1340 368 bf 0 1 0.333333 c 41 27 1381 368 bf 0 1 0.0533333 c 42 27 1422 368 bf 41 27 1464 368 bf 41 27 1505 368 bf 41 27 1546 368 bf 42 27 1587 368 bf 41 27 1629 368 bf 41 27 1670 368 bf 41 27 1711 368 bf 42 27 1752 368 bf 41 27 1794 368 bf 41 27
 1835 368 bf 0.133333 1 0 c 41 27 1876 368 bf 41 27 1917 368 bf 42 27 1958 368 bf 0 0.733333 1 c 41 27 2000 368 bf 0 0.546666 1 c 41 26 227 395 bf 0 1 0.0533333 c 41 26 268 395 bf 41 26 309 395 bf 42 26 350 395 bf 41 26 392 395 bf 0 1 0.333333 c 41
 26 433 395 bf 0 1 0.0533333 c 41 26 474 395 bf 0 1 0.333333 c 42 26 515 395 bf 0 1 0.0533333 c 41 26 557 395 bf 0 1 0.333333 c 41 26 598 395 bf 41 26 639 395 bf 42 26 680 395 bf 41 26 722 395 bf 41 26 763 395 bf 41 26 804 395 bf 0 1 0.0533333 c 41
 26 845 395 bf 42 26 886 395 bf 0 1 0.333333 c 41 26 928 395 bf 0 1 0.0533333 c 41 26 969 395 bf 0 1 0.333333 c 41 26 1010 395 bf 0 1 0.0533333 c 42 26 1051 395 bf 41 26 1093 395 bf 0 1 0.333333 c 41 26 1134 395 bf 0 1 0.0533333 c 41 26 1175 395 bf
 42 26 1216 395 bf 41 26 1258 395 bf 41 26 1299 395 bf 0 1 0.333333 c 41 26 1340 395 bf 0 1 0.0533333 c 41 26 1381 395 bf 0 1 0.333333 c 42 26 1422 395 bf 0 1 0.0533333 c 41 26 1464 395 bf 41 26 1505 395 bf 0 1 0.333333 c 41 26 1546 395 bf 0 1
 0.0533333 c 42 26 1587 395 bf 41 26 1629 395 bf 0.133333 1 0 c 41 26 1670 395 bf 0 1 0.0533333 c 41 26 1711 395 bf 0.133333 1 0 c 42 26 1752 395 bf 41 26 1794 395 bf 41 26 1835 395 bf 0 1 0.0533333 c 41 26 1876 395 bf 41 26 1917 395 bf 0.133333 1 0
 c 42 26 1958 395 bf 0 0.546666 1 c 41 26 2000 395 bf 41 27 227 421 bf 0 1 0.0533333 c 41 27 268 421 bf 41 27 309 421 bf 42 27 350 421 bf 41 27 392 421 bf 0 1 0.333333 c 41 27 433 421 bf 41 27 474 421 bf 0 1 0.0533333 c 42 27 515 421 bf 41 27 557 421
 bf 0 1 0.333333 c 41 27 598 421 bf 0 1 0.0533333 c 41 27 639 421 bf 0 1 0.333333 c 42 27 680 421 bf 41 27 722 421 bf 41 27 763 421 bf 41 27 804 421 bf 41 27 845 421 bf 42 27 886 421 bf 41 27 928 421 bf 41 27 969 421 bf 41 27 1010 421 bf 42 27 1051
 421 bf 41 27 1093 421 bf 41 27 1134 421 bf 41 27 1175 421 bf 42 27 1216 421 bf 0 1 0.0533333 c 41 27 1258 421 bf 0 1 0.333333 c 41 27 1299 421 bf 0 1 0.0533333 c 41 27 1340 421 bf 41 27 1381 421 bf 42 27 1422 421 bf 41 27 1464 421 bf 41 27 1505 421
 bf 41 27 1546 421 bf 42 27 1587 421 bf 41 27 1629 421 bf 41 27 1670 421 bf 41 27 1711 421 bf 0.133333 1 0 c 42 27 1752 421 bf 0 1 0.0533333 c 41 27 1794 421 bf 0.133333 1 0 c 41 27 1835 421 bf 0 1 0.0533333 c 41 27 1876 421 bf 41 27 1917 421 bf 42
 27 1958 421 bf 0 0.546666 1 c 41 27 2000 421 bf 41 26 227 448 bf 0 1 0.0533333 c 41 26 268 448 bf 41 26 309 448 bf 42 26 350 448 bf 41 26 392 448 bf 0 1 0.333333 c 41 26 433 448 bf 41 26 474 448 bf 0 1 0.0533333 c 42 26 515 448 bf 0 1 0.333333 c 41
 26 557 448 bf 0 1 0.0533333 c 41 26 598 448 bf 0 1 0.333333 c 41 26 639 448 bf 42 26 680 448 bf 0 1 0.0533333 c 41 26 722 448 bf 41 26 763 448 bf 0 1 0.333333 c 41 26 804 448 bf 41 26 845 448 bf 42 26 886 448 bf 41 26 928 448 bf 41 26 969 448 bf 0 1
 0.0533333 c 41 26 1010 448 bf 0 1 0.333333 c 42 26 1051 448 bf 0 1 0.0533333 c 41 26 1093 448 bf 41 26 1134 448 bf 0 1 0.333333 c 41 26 1175 448 bf 42 26 1216 448 bf 41 26 1258 448 bf 41 26 1299 448 bf 0 1 0.0533333 c 41 26 1340 448 bf 0 1 0.333333
 c 41 26 1381 448 bf 0 1 0.0533333 c 42 26 1422 448 bf 41 26 1464 448 bf 41 26 1505 448 bf 0 1 0.333333 c 41 26 1546 448 bf 0 1 0.0533333 c 42 26 1587 448 bf 41 26 1629 448 bf 41 26 1670 448 bf 41 26 1711 448 bf 42 26 1752 448 bf 41 26 1794 448 bf 41
 26 1835 448 bf 41 26 1876 448 bf 0.133333 1 0 c 41 26 1917 448 bf 0 1 0.0533333 c 42 26 1958 448 bf 0 0.546666 1 c 41 26 2000 448 bf 41 27 227 474 bf 0 1 0.0533333 c 41 27 268 474 bf 41 27 309 474 bf 0 1 0.333333 c 42 27 350 474 bf 41 27 392 474 bf
 0 1 0.0533333 c 41 27 433 474 bf 0 1 0.333333 c 41 27 474 474 bf 0 1 0.0533333 c 42 27 515 474 bf 0 1 0.333333 c 41 27 557 474 bf 41 27 598 474 bf 41 27 639 474 bf 42 27 680 474 bf 41 27 722 474 bf 0 1 0.0533333 c 41 27 763 474 bf 0 1 0.333333 c 41
 27 804 474 bf 0 1 0.0533333 c 41 27 845 474 bf 0 1 0.333333 c 42 27 886 474 bf 0 1 0.0533333 c 41 27 928 474 bf 0 1 0.333333 c 41 27 969 474 bf 41 27 1010 474 bf 0 1 0.0533333 c 42 27 1051 474 bf 41 27 1093 474 bf 0 1 0.333333 c 41 27 1134 474 bf 41
 27 1175 474 bf 42 27 1216 474 bf 41 27 1258 474 bf 41 27 1299 474 bf 41 27 1340 474 bf 0 1 0.0533333 c 41 27 1381 474 bf 42 27 1422 474 bf 41 27 1464 474 bf 41 27 1505 474 bf 41 27 1546 474 bf 42 27 1587 474 bf 41 27 1629 474 bf 41 27 1670 474 bf 41
 27 1711 474 bf 42 27 1752 474 bf 41 27 1794 474 bf 41 27 1835 474 bf 41 27 1876 474 bf 0.133333 1 0 c 41 27 1917 474 bf 42 27 1958 474 bf 0 0.546666 1 c 41 27 2000 474 bf 41 26 227 501 bf 0 1 0.0533333 c 41 26 268 501 bf 41 26 309 501 bf 42 26 350
 501 bf 41 26 392 501 bf 41 26 433 501 bf 0 1 0.333333 c 41 26 474 501 bf 0 1 0.0533333 c 42 26 515 501 bf 0 1 0.333333 c 41 26 557 501 bf 41 26 598 501 bf 41 26 639 501 bf 42 26 680 501 bf 41 26 722 501 bf 41 26 763 501 bf 41 26 804 501 bf 41 26 845
 501 bf 42 26 886 501 bf 41 26 928 501 bf 41 26 969 501 bf 41 26 1010 501 bf 0 1 0.0533333 c 42 26 1051 501 bf 0 1 0.333333 c 41 26 1093 501 bf 0 1 0.0533333 c 41 26 1134 501 bf 0 1 0.333333 c 41 26 1175 501 bf 42 26 1216 501 bf 41 26 1258 501 bf 41
 26 1299 501 bf 41 26 1340 501 bf 0 1 0.0533333 c 41 26 1381 501 bf 42 26 1422 501 bf 0 1 0.333333 c 41 26 1464 501 bf 0 1 0.0533333 c 41 26 1505 501 bf 41 26 1546 501 bf 42 26 1587 501 bf 41 26 1629 501 bf 41 26 1670 501 bf 0.133333 1 0 c 41 26 1711
 501 bf 0 1 0.0533333 c 42 26 1752 501 bf 41 26 1794 501 bf 41 26 1835 501 bf 41 26 1876 501 bf 0.133333 1 0 c 41 26 1917 501 bf 0 1 0.0533333 c 42 26 1958 501 bf 0 0.546666 1 c 41 26 2000 501 bf 41 27 227 527 bf 0 1 0.0533333 c 41 27 268 527 bf 0 1
 0.333333 c 41 27 309 527 bf 42 27 350 527 bf 0 1 0.0533333 c 41 27 392 527 bf 0 1 0.333333 c 41 27 433 527 bf 41 27 474 527 bf 0 1 0.0533333 c 42 27 515 527 bf 0 1 0.333333 c 41 27 557 527 bf 41 27 598 527 bf 41 27 639 527 bf 42 27 680 527 bf 41 27
 722 527 bf 41 27 763 527 bf 41 27 804 527 bf 0 1 0.0533333 c 41 27 845 527 bf 0 1 0.333333 c 42 27 886 527 bf 41 27 928 527 bf 41 27 969 527 bf 41 27 1010 527 bf 42 27 1051 527 bf 41 27 1093 527 bf 0 1 0.0533333 c 41 27 1134 527 bf 0 1 0.333333 c 41
 27 1175 527 bf 42 27 1216 527 bf 41 27 1258 527 bf 41 27 1299 527 bf 41 27 1340 527 bf 0 1 0.0533333 c 41 27 1381 527 bf 0 1 0.333333 c 42 27 1422 527 bf 0 1 0.0533333 c 41 27 1464 527 bf 41 27 1505 527 bf 41 27 1546 527 bf 42 27 1587 527 bf 41 27
 1629 527 bf 41 27 1670 527 bf 41 27 1711 527 bf 42 27 1752 527 bf 41 27 1794 527 bf 41 27 1835 527 bf 41 27 1876 527 bf 41 27 1917 527 bf 0.133333 1 0 c 42 27 1958 527 bf 0 0.733333 1 c 41 27 2000 527 bf 0 0.546666 1 c 41 26 227 554 bf 0 1 0.0533333
 c 41 26 268 554 bf 0 1 0.333333 c 41 26 309 554 bf 42 26 350 554 bf 41 26 392 554 bf 41 26 433 554 bf 0 1 0.0533333 c 41 26 474 554 bf 0 1 0.333333 c 42 26 515 554 bf 0 1 0.0533333 c 41 26 557 554 bf 0 1 0.333333 c 41 26 598 554 bf 41 26 639 554 bf
 42 26 680 554 bf 0 1 0.0533333 c 41 26 722 554 bf 41 26 763 554 bf 0 1 0.333333 c 41 26 804 554 bf 41 26 845 554 bf 0 1 0.0533333 c 42 26 886 554 bf 0 1 0.333333 c 41 26 928 554 bf 41 26 969 554 bf 41 26 1010 554 bf 42 26 1051 554 bf 41 26 1093 554
 bf 41 26 1134 554 bf 41 26 1175 554 bf 42 26 1216 554 bf 0 1 0.0533333 c 41 26 1258 554 bf 0 1 0.333333 c 41 26 1299 554 bf 41 26 1340 554 bf 41 26 1381 554 bf 0 1 0.0533333 c 42 26 1422 554 bf 41 26 1464 554 bf 41 26 1505 554 bf 41 26 1546 554 bf 0
 1 0.333333 c 42 26 1587 554 bf 0 1 0.0533333 c 41 26 1629 554 bf 41 26 1670 554 bf 41 26 1711 554 bf 42 26 1752 554 bf 41 26 1794 554 bf 41 26 1835 554 bf 41 26 1876 554 bf 41 26 1917 554 bf 0.133333 1 0 c 42 26 1958 554 bf 0 0.546666 1 c 41 26 2000
 554 bf 41 27 227 580 bf 0 1 0.0533333 c 41 27 268 580 bf 41 27 309 580 bf 0 1 0.333333 c 42 27 350 580 bf 0 1 0.0533333 c 41 27 392 580 bf 0 1 0.333333 c 41 27 433 580 bf 0 1 0.0533333 c 41 27 474 580 bf 0 1 0.333333 c 42 27 515 580 bf 0 1 0.0533333
 c 41 27 557 580 bf 41 27 598 580 bf 41 27 639 580 bf 0 1 0.333333 c 42 27 680 580 bf 41 27 722 580 bf 0 1 0.0533333 c 41 27 763 580 bf 41 27 804 580 bf 0 1 0.333333 c 41 27 845 580 bf 42 27 886 580 bf 0 1 0.0533333 c 41 27 928 580 bf 0 1 0.333333 c
 41 27 969 580 bf 41 27 1010 580 bf 42 27 1051 580 bf 0 1 0.0533333 c 41 27 1093 580 bf 41 27 1134 580 bf 0 1 0.333333 c 41 27 1175 580 bf 42 27 1216 580 bf 41 27 1258 580 bf 41 27 1299 580 bf 0 1 0.0533333 c 41 27 1340 580 bf 0 1 0.333333 c 41 27
 1381 580 bf 0 1 0.0533333 c 42 27 1422 580 bf 0 1 0.333333 c 41 27 1464 580 bf 0 1 0.0533333 c 41 27 1505 580 bf 41 27 1546 580 bf 42 27 1587 580 bf 41 27 1629 580 bf 41 27 1670 580 bf 41 27 1711 580 bf 42 27 1752 580 bf 0.133333 1 0 c 41 27 1794
 580 bf 0 1 0.0533333 c 41 27 1835 580 bf 41 27 1876 580 bf 41 27 1917 580 bf 0.133333 1 0 c 42 27 1958 580 bf 0 0.546666 1 c 41 27 2000 580 bf 41 26 227 607 bf 0 1 0.0533333 c 41 26 268 607 bf 41 26 309 607 bf 42 26 350 607 bf 0 1 0.333333 c 41 26
 392 607 bf 0 1 0.0533333 c 41 26 433 607 bf 41 26 474 607 bf 42 26 515 607 bf 0 1 0.333333 c 41 26 557 607 bf 41 26 598 607 bf 0 1 0.0533333 c 41 26 639 607 bf 0 1 0.333333 c 42 26 680 607 bf 0 1 0.0533333 c 41 26 722 607 bf 0 1 0.333333 c 41 26 763
 607 bf 0 1 0.0533333 c 41 26 804 607 bf 0 1 0.333333 c 41 26 845 607 bf 42 26 886 607 bf 41 26 928 607 bf 41 26 969 607 bf 0 1 0.0533333 c 41 26 1010 607 bf 0 1 0.333333 c 42 26 1051 607 bf 41 26 1093 607 bf 41 26 1134 607 bf 41 26 1175 607 bf 42 26
 1216 607 bf 0 1 0.0533333 c 41 26 1258 607 bf 41 26 1299 607 bf 41 26 1340 607 bf 41 26 1381 607 bf 42 26 1422 607 bf 41 26 1464 607 bf 0 1 0.333333 c 41 26 1505 607 bf 0 1 0.0533333 c 41 26 1546 607 bf 42 26 1587 607 bf 41 26 1629 607 bf 41 26 1670
 607 bf 0.133333 1 0 c 41 26 1711 607 bf 0 1 0.0533333 c 42 26 1752 607 bf 41 26 1794 607 bf 0.133333 1 0 c 41 26 1835 607 bf 41 26 1876 607 bf 0 1 0.0533333 c 41 26 1917 607 bf 0.133333 1 0 c 42 26 1958 607 bf 0 0.546666 1 c 41 26 2000 607 bf 41 27
 227 633 bf 0 1 0.333333 c 41 27 268 633 bf 0 1 0.0533333 c 41 27 309 633 bf 42 27 350 633 bf 0 1 0.333333 c 41 27 392 633 bf 0 1 0.0533333 c 41 27 433 633 bf 0 1 0.333333 c 41 27 474 633 bf 0 1 0.0533333 c 42 27 515 633 bf 41 27 557 633 bf 41 27 598
 633 bf 41 27 639 633 bf 42 27 680 633 bf 0 1 0.333333 c 41 27 722 633 bf 41 27 763 633 bf 0 1 0.0533333 c 41 27 804 633 bf 41 27 845 633 bf 42 27 886 633 bf 0 1 0.333333 c 41 27 928 633 bf 41 27 969 633 bf 41 27 1010 633 bf 42 27 1051 633 bf 41 27
 1093 633 bf 41 27 1134 633 bf 41 27 1175 633 bf 42 27 1216 633 bf 41 27 1258 633 bf 41 27 1299 633 bf 0 1 0.0533333 c 41 27 1340 633 bf 41 27 1381 633 bf 42 27 1422 633 bf 0 1 0.333333 c 41 27 1464 633 bf 0 1 0.0533333 c 41 27 1505 633 bf 41 27 1546
 633 bf 42 27 1587 633 bf 41 27 1629 633 bf 41 27 1670 633 bf 41 27 1711 633 bf 42 27 1752 633 bf 41 27 1794 633 bf 41 27 1835 633 bf 41 27 1876 633 bf 0.133333 1 0 c 41 27 1917 633 bf 42 27 1958 633 bf 0 0.546666 1 c 41 27 2000 633 bf 41 26 227 660
 bf 0 1 0.0533333 c 41 26 268 660 bf 0 1 0.333333 c 41 26 309 660 bf 0 1 0.0533333 c 42 26 350 660 bf 41 26 392 660 bf 41 26 433 660 bf 41 26 474 660 bf 42 26 515 660 bf 0 1 0.333333 c 41 26 557 660 bf 0 1 0.0533333 c 41 26 598 660 bf 41 26 639 660
 bf 42 26 680 660 bf 41 26 722 660 bf 41 26 763 660 bf 41 26 804 660 bf 0 1 0.333333 c 41 26 845 660 bf 42 26 886 660 bf 0 1 0.0533333 c 41 26 928 660 bf 0 1 0.333333 c 41 26 969 660 bf 41 26 1010 660 bf 0 1 0.0533333 c 42 26 1051 660 bf 0 1 0.333333
 c 41 26 1093 660 bf 41 26 1134 660 bf 41 26 1175 660 bf 0 1 0.0533333 c 42 26 1216 660 bf 0 1 0.333333 c 41 26 1258 660 bf 0 1 0.0533333 c 41 26 1299 660 bf 0 1 0.333333 c 41 26 1340 660 bf 0 1 0.0533333 c 41 26 1381 660 bf 0 1 0.333333 c 42 26 1422
 660 bf 0 1 0.0533333 c 41 26 1464 660 bf 41 26 1505 660 bf 0 1 0.333333 c 41 26 1546 660 bf 0 1 0.0533333 c 42 26 1587 660 bf 41 26 1629 660 bf 41 26 1670 660 bf 41 26 1711 660 bf 42 26 1752 660 bf 41 26 1794 660 bf 41 26 1835 660 bf 41 26 1876 660
 bf 0.133333 1 0 c 41 26 1917 660 bf 0 1 0.0533333 c 42 26 1958 660 bf 0 0.546666 1 c 41 26 2000 660 bf 41 27 227 686 bf 0 1 0.0533333 c 41 27 268 686 bf 41 27 309 686 bf 42 27 350 686 bf 41 27 392 686 bf 0 1 0.333333 c 41 27 433 686 bf 41 27 474 686
 bf 0 1 0.0533333 c 42 27 515 686 bf 41 27 557 686 bf 41 27 598 686 bf 0 1 0.333333 c 41 27 639 686 bf 0 1 0.0533333 c 42 27 680 686 bf 41 27 722 686 bf 41 27 763 686 bf 41 27 804 686 bf 0 1 0.333333 c 41 27 845 686 bf 42 27 886 686 bf 41 27 928 686
 bf 0 1 0.0533333 c 41 27 969 686 bf 41 27 1010 686 bf 0 1 0.333333 c 42 27 1051 686 bf 41 27 1093 686 bf 0 1 0.0533333 c 41 27 1134 686 bf 41 27 1175 686 bf 0 1 0.333333 c 42 27 1216 686 bf 41 27 1258 686 bf 41 27 1299 686 bf 41 27 1340 686 bf 0 1
 0.0533333 c 41 27 1381 686 bf 0 1 0.333333 c 42 27 1422 686 bf 0 1 0.0533333 c 41 27 1464 686 bf 41 27 1505 686 bf 41 27 1546 686 bf 42 27 1587 686 bf 41 27 1629 686 bf 41 27 1670 686 bf 41 27 1711 686 bf 42 27 1752 686 bf 0.133333 1 0 c 41 27 1794
 686 bf 0 1 0.0533333 c 41 27 1835 686 bf 41 27 1876 686 bf 41 27 1917 686 bf 42 27 1958 686 bf 0 0.546666 1 c 41 27 2000 686 bf 41 26 227 713 bf 0 1 0.0533333 c 41 26 268 713 bf 41 26 309 713 bf 42 26 350 713 bf 41 26 392 713 bf 41 26 433 713 bf 41
 26 474 713 bf 42 26 515 713 bf 41 26 557 713 bf 0 1 0.333333 c 41 26 598 713 bf 0 1 0.0533333 c 41 26 639 713 bf 42 26 680 713 bf 41 26 722 713 bf 0 1 0.333333 c 41 26 763 713 bf 41 26 804 713 bf 0 1 0.0533333 c 41 26 845 713 bf 0 1 0.333333 c 42 26
 886 713 bf 0 1 0.0533333 c 41 26 928 713 bf 41 26 969 713 bf 0 1 0.333333 c 41 26 1010 713 bf 42 26 1051 713 bf 0 1 0.0533333 c 41 26 1093 713 bf 0 1 0.333333 c 41 26 1134 713 bf 41 26 1175 713 bf 0 1 0.0533333 c 42 26 1216 713 bf 0 1 0.333333 c 41
 26 1258 713 bf 41 26 1299 713 bf 41 26 1340 713 bf 0 1 0.0533333 c 41 26 1381 713 bf 0 1 0.333333 c 42 26 1422 713 bf 0 1 0.0533333 c 41 26 1464 713 bf 41 26 1505 713 bf 41 26 1546 713 bf 0 1 0.333333 c 42 26 1587 713 bf 0 1 0.0533333 c 41 26 1629
 713 bf 41 26 1670 713 bf 41 26 1711 713 bf 42 26 1752 713 bf 41 26 1794 713 bf 41 26 1835 713 bf 41 26 1876 713 bf 41 26 1917 713 bf 42 26 1958 713 bf 0 0.546666 1 c 41 26 2000 713 bf 41 27 227 739 bf 0 1 0.0533333 c 41 27 268 739 bf 41 27 309 739
 bf 42 27 350 739 bf 41 27 392 739 bf 41 27 433 739 bf 41 27 474 739 bf 42 27 515 739 bf 41 27 557 739 bf 41 27 598 739 bf 41 27 639 739 bf 42 27 680 739 bf 0 1 0.333333 c 41 27 722 739 bf 0 1 0.0533333 c 41 27 763 739 bf 0 1 0.333333 c 41 27 804 739
 bf 41 27 845 739 bf 42 27 886 739 bf 41 27 928 739 bf 0 1 0.0533333 c 41 27 969 739 bf 0 1 0.333333 c 41 27 1010 739 bf 42 27 1051 739 bf 41 27 1093 739 bf 41 27 1134 739 bf 41 27 1175 739 bf 42 27 1216 739 bf 41 27 1258 739 bf 0 1 0.0533333 c 41 27
 1299 739 bf 41 27 1340 739 bf 41 27 1381 739 bf 42 27 1422 739 bf 0 1 0.333333 c 41 27 1464 739 bf 0 1 0.0533333 c 41 27 1505 739 bf 41 27 1546 739 bf 42 27 1587 739 bf 41 27 1629 739 bf 41 27 1670 739 bf 0.133333 1 0 c 41 27 1711 739 bf 42 27 1752
 739 bf 0 1 0.0533333 c 41 27 1794 739 bf 0.133333 1 0 c 41 27 1835 739 bf 0 1 0.0533333 c 41 27 1876 739 bf 41 27 1917 739 bf 0.133333 1 0 c 42 27 1958 739 bf 0 0.546666 1 c 41 27 2000 739 bf 41 26 227 766 bf 0 1 0.0533333 c 41 26 268 766 bf 41 26
 309 766 bf 42 26 350 766 bf 0 1 0.333333 c 41 26 392 766 bf 0 1 0.0533333 c 41 26 433 766 bf 0 1 0.333333 c 41 26 474 766 bf 0 1 0.0533333 c 42 26 515 766 bf 41 26 557 766 bf 41 26 598 766 bf 0 1 0.333333 c 41 26 639 766 bf 42 26 680 766 bf 41 26
 722 766 bf 0 1 0.0533333 c 41 26 763 766 bf 0 1 0.333333 c 41 26 804 766 bf 41 26 845 766 bf 42 26 886 766 bf 41 26 928 766 bf 41 26 969 766 bf 0 1 0.0533333 c 41 26 1010 766 bf 0 1 0.333333 c 42 26 1051 766 bf 41 26 1093 766 bf 41 26 1134 766 bf 0
 1 0.0533333 c 41 26 1175 766 bf 42 26 1216 766 bf 0 1 0.333333 c 41 26 1258 766 bf 41 26 1299 766 bf 0 1 0.0533333 c 41 26 1340 766 bf 41 26 1381 766 bf 42 26 1422 766 bf 41 26 1464 766 bf 41 26 1505 766 bf 41 26 1546 766 bf 42 26 1587 766 bf 41 26
 1629 766 bf 41 26 1670 766 bf 41 26 1711 766 bf 42 26 1752 766 bf 41 26 1794 766 bf 0.133333 1 0 c 41 26 1835 766 bf 0 1 0.0533333 c 41 26 1876 766 bf 41 26 1917 766 bf 0.133333 1 0 c 42 26 1958 766 bf 0 0.546666 1 c 41 26 2000 766 bf 41 27 227 792
 bf 0.133333 1 0 c 41 27 268 792 bf 41 27 309 792 bf 0 1 0.0533333 c 42 27 350 792 bf 41 27 392 792 bf 41 27 433 792 bf 41 27 474 792 bf 42 27 515 792 bf 0 1 0.333333 c 41 27 557 792 bf 0 1 0.0533333 c 41 27 598 792 bf 41 27 639 792 bf 42 27 680 792
 bf 41 27 722 792 bf 41 27 763 792 bf 41 27 804 792 bf 0 1 0.333333 c 41 27 845 792 bf 0 1 0.0533333 c 42 27 886 792 bf 0 1 0.333333 c 41 27 928 792 bf 41 27 969 792 bf 41 27 1010 792 bf 0 1 0.0533333 c 42 27 1051 792 bf 0 1 0.333333 c 41 27 1093 792
 bf 41 27 1134 792 bf 0 1 0.0533333 c 41 27 1175 792 bf 42 27 1216 792 bf 41 27 1258 792 bf 41 27 1299 792 bf 41 27 1340 792 bf 41 27 1381 792 bf 42 27 1422 792 bf 41 27 1464 792 bf 41 27 1505 792 bf 41 27 1546 792 bf 42 27 1587 792 bf 41 27 1629 792
 bf 41 27 1670 792 bf 41 27 1711 792 bf 42 27 1752 792 bf 41 27 1794 792 bf 41 27 1835 792 bf 41 27 1876 792 bf 41 27 1917 792 bf 0.133333 1 0 c 42 27 1958 792 bf 0 0.546666 1 c 41 27 2000 792 bf 41 26 227 819 bf 0.133333 1 0 c 41 26 268 819 bf 0 1
 0.0533333 c 41 26 309 819 bf 42 26 350 819 bf 41 26 392 819 bf 0.133333 1 0 c 41 26 433 819 bf 0 1 0.0533333 c 41 26 474 819 bf 42 26 515 819 bf 41 26 557 819 bf 41 26 598 819 bf 41 26 639 819 bf 42 26 680 819 bf 0 1 0.333333 c 41 26 722 819 bf 0 1
 0.0533333 c 41 26 763 819 bf 41 26 804 819 bf 0 1 0.333333 c 41 26 845 819 bf 0 1 0.0533333 c 42 26 886 819 bf 0 1 0.333333 c 41 26 928 819 bf 41 26 969 819 bf 0 1 0.0533333 c 41 26 1010 819 bf 42 26 1051 819 bf 41 26 1093 819 bf 0 1 0.333333 c 41
 26 1134 819 bf 41 26 1175 819 bf 42 26 1216 819 bf 41 26 1258 819 bf 0 1 0.0533333 c 41 26 1299 819 bf 0 1 0.333333 c 41 26 1340 819 bf 0 1 0.0533333 c 41 26 1381 819 bf 0 1 0.333333 c 42 26 1422 819 bf 0 1 0.0533333 c 41 26 1464 819 bf 0.133333 1 0
 c 41 26 1505 819 bf 0 1 0.0533333 c 41 26 1546 819 bf 42 26 1587 819 bf 41 26 1629 819 bf 41 26 1670 819 bf 41 26 1711 819 bf 42 26 1752 819 bf 41 26 1794 819 bf 41 26 1835 819 bf 41 26 1876 819 bf 41 26 1917 819 bf 42 26 1958 819 bf 0 0.546666 1 c
 41 26 2000 819 bf 41 27 227 845 bf 0 1 0.0533333 c 41 27 268 845 bf 0.133333 1 0 c 41 27 309 845 bf 0 1 0.0533333 c 42 27 350 845 bf 41 27 392 845 bf 41 27 433 845 bf 41 27 474 845 bf 42 27 515 845 bf 41 27 557 845 bf 41 27 598 845 bf 41 27 639 845
 bf 42 27 680 845 bf 41 27 722 845 bf 0 1 0.333333 c 41 27 763 845 bf 0 1 0.0533333 c 41 27 804 845 bf 41 27 845 845 bf 42 27 886 845 bf 41 27 928 845 bf 41 27 969 845 bf 0 1 0.333333 c 41 27 1010 845 bf 0 1 0.0533333 c 42 27 1051 845 bf 41 27 1093
 845 bf 0 1 0.333333 c 41 27 1134 845 bf 41 27 1175 845 bf 42 27 1216 845 bf 0 1 0.0533333 c 41 27 1258 845 bf 41 27 1299 845 bf 41 27 1340 845 bf 0 1 0.333333 c 41 27 1381 845 bf 42 27 1422 845 bf 0 1 0.0533333 c 41 27 1464 845 bf 41 27 1505 845 bf
 41 27 1546 845 bf 42 27 1587 845 bf 41 27 1629 845 bf 41 27 1670 845 bf 41 27 1711 845 bf 0.133333 1 0 c 42 27 1752 845 bf 0 1 0.0533333 c 41 27 1794 845 bf 41 27 1835 845 bf 41 27 1876 845 bf 0.133333 1 0 c 41 27 1917 845 bf 42 27 1958 845 bf 0
 0.546666 1 c 41 27 2000 845 bf 41 27 227 872 bf 0 1 0.0533333 c 41 27 268 872 bf 41 27 309 872 bf 0.133333 1 0 c 42 27 350 872 bf 0 1 0.0533333 c 41 27 392 872 bf 41 27 433 872 bf 41 27 474 872 bf 0 1 0.333333 c 42 27 515 872 bf 0 1 0.0533333 c 41
 27 557 872 bf 41 27 598 872 bf 41 27 639 872 bf 42 27 680 872 bf 41 27 722 872 bf 41 27 763 872 bf 41 27 804 872 bf 41 27 845 872 bf 0 1 0.333333 c 42 27 886 872 bf 41 27 928 872 bf 41 27 969 872 bf 41 27 1010 872 bf 42 27 1051 872 bf 0 1 0.0533333
 c 41 27 1093 872 bf 41 27 1134 872 bf 0 1 0.333333 c 41 27 1175 872 bf 42 27 1216 872 bf 41 27 1258 872 bf 0 1 0.0533333 c 41 27 1299 872 bf 0 1 0.333333 c 41 27 1340 872 bf 0 1 0.0533333 c 41 27 1381 872 bf 0 1 0.333333 c 42 27 1422 872 bf 0 1
 0.0533333 c 41 27 1464 872 bf 0 1 0.333333 c 41 27 1505 872 bf 0 1 0.0533333 c 41 27 1546 872 bf 42 27 1587 872 bf 41 27 1629 872 bf 41 27 1670 872 bf 41 27 1711 872 bf 42 27 1752 872 bf 41 27 1794 872 bf 41 27 1835 872 bf 41 27 1876 872 bf 0.133333
 1 0 c 41 27 1917 872 bf 42 27 1958 872 bf 0 0.546666 1 c 41 27 2000 872 bf 41 26 227 899 bf 0 1 0.0533333 c 41 26 268 899 bf 41 26 309 899 bf 42 26 350 899 bf 0 1 0.333333 c 41 26 392 899 bf 0 1 0.0533333 c 41 26 433 899 bf 41 26 474 899 bf 42 26
 515 899 bf 41 26 557 899 bf 0 1 0.333333 c 41 26 598 899 bf 0 1 0.0533333 c 41 26 639 899 bf 42 26 680 899 bf 41 26 722 899 bf 41 26 763 899 bf 41 26 804 899 bf 41 26 845 899 bf 42 26 886 899 bf 41 26 928 899 bf 41 26 969 899 bf 41 26 1010 899 bf 0
 1 0.333333 c 42 26 1051 899 bf 41 26 1093 899 bf 0 1 0.0533333 c 41 26 1134 899 bf 41 26 1175 899 bf 0 1 0.333333 c 42 26 1216 899 bf 41 26 1258 899 bf 41 26 1299 899 bf 41 26 1340 899 bf 0 1 0.0533333 c 41 26 1381 899 bf 0 1 0.333333 c 42 26 1422
 899 bf 0 1 0.0533333 c 41 26 1464 899 bf 41 26 1505 899 bf 41 26 1546 899 bf 42 26 1587 899 bf 41 26 1629 899 bf 41 26 1670 899 bf 41 26 1711 899 bf 42 26 1752 899 bf 41 26 1794 899 bf 0.133333 1 0 c 41 26 1835 899 bf 0 1 0.0533333 c 41 26 1876 899
 bf 0.133333 1 0 c 41 26 1917 899 bf 0 1 0.0533333 c 42 26 1958 899 bf 0 0.546666 1 c 41 26 2000 899 bf 41 27 227 925 bf 0 1 0.0533333 c 41 27 268 925 bf 0 1 0.333333 c 41 27 309 925 bf 0 1 0.0533333 c 42 27 350 925 bf 41 27 392 925 bf 41 27 433 925
 bf 41 27 474 925 bf 0 1 0.333333 c 42 27 515 925 bf 0 1 0.0533333 c 41 27 557 925 bf 41 27 598 925 bf 41 27 639 925 bf 0 1 0.333333 c 42 27 680 925 bf 0 1 0.0533333 c 41 27 722 925 bf 0 1 0.333333 c 41 27 763 925 bf 0 1 0.0533333 c 41 27 804 925 bf
 0 1 0.333333 c 41 27 845 925 bf 42 27 886 925 bf 0 1 0.0533333 c 41 27 928 925 bf 41 27 969 925 bf 0 1 0.333333 c 41 27 1010 925 bf 0 1 0.0533333 c 42 27 1051 925 bf 0 1 0.333333 c 41 27 1093 925 bf 41 27 1134 925 bf 41 27 1175 925 bf 42 27 1216 925
 bf 41 27 1258 925 bf 41 27 1299 925 bf 41 27 1340 925 bf 41 27 1381 925 bf 42 27 1422 925 bf 0 1 0.0533333 c 41 27 1464 925 bf 41 27 1505 925 bf 0 1 0.333333 c 41 27 1546 925 bf 0 1 0.0533333 c 42 27 1587 925 bf 41 27 1629 925 bf 41 27 1670 925 bf 0
 1 0.333333 c 41 27 1711 925 bf 0 1 0.0533333 c 42 27 1752 925 bf 0.133333 1 0 c 41 27 1794 925 bf 0 1 0.0533333 c 41 27 1835 925 bf 41 27 1876 925 bf 41 27 1917 925 bf 0.133333 1 0 c 42 27 1958 925 bf 0 0.546666 1 c 41 27 2000 925 bf 41 26 227 952
 bf 0 1 0.0533333 c 41 26 268 952 bf 0 1 0.333333 c 41 26 309 952 bf 0 1 0.0533333 c 42 26 350 952 bf 41 26 392 952 bf 0 1 0.333333 c 41 26 433 952 bf 0 1 0.0533333 c 41 26 474 952 bf 0 1 0.333333 c 42 26 515 952 bf 0 1 0.0533333 c 41 26 557 952 bf 0
 1 0.333333 c 41 26 598 952 bf 0 1 0.0533333 c 41 26 639 952 bf 0 1 0.333333 c 42 26 680 952 bf 41 26 722 952 bf 41 26 763 952 bf 41 26 804 952 bf 41 26 845 952 bf 0 1 0.0533333 c 42 26 886 952 bf 0 1 0.333333 c 41 26 928 952 bf 41 26 969 952 bf 41
 26 1010 952 bf 42 26 1051 952 bf 41 26 1093 952 bf 41 26 1134 952 bf 41 26 1175 952 bf 42 26 1216 952 bf 41 26 1258 952 bf 41 26 1299 952 bf 41 26 1340 952 bf 41 26 1381 952 bf 42 26 1422 952 bf 0 1 0.0533333 c 41 26 1464 952 bf 41 26 1505 952 bf 41
 26 1546 952 bf 42 26 1587 952 bf 41 26 1629 952 bf 41 26 1670 952 bf 41 26 1711 952 bf 42 26 1752 952 bf 41 26 1794 952 bf 41 26 1835 952 bf 41 26 1876 952 bf 0 1 0.333333 c 41 26 1917 952 bf 0 1 0.0533333 c 42 26 1958 952 bf 0 0.546666 1 c 41 26
 2000 952 bf 41 27 227 978 bf 0 1 0.333333 c 41 27 268 978 bf 0 1 0.0533333 c 41 27 309 978 bf 42 27 350 978 bf 0 1 0.333333 c 41 27 392 978 bf 0 1 0.0533333 c 41 27 433 978 bf 41 27 474 978 bf 0 1 0.333333 c 42 27 515 978 bf 41 27 557 978 bf 0 1
 0.0533333 c 41 27 598 978 bf 0 1 0.333333 c 41 27 639 978 bf 42 27 680 978 bf 0 1 0.0533333 c 41 27 722 978 bf 0 1 0.333333 c 41 27 763 978 bf 41 27 804 978 bf 41 27 845 978 bf 0 1 0.0533333 c 42 27 886 978 bf 0 1 0.333333 c 41 27 928 978 bf 41 27
 969 978 bf 41 27 1010 978 bf 42 27 1051 978 bf 41 27 1093 978 bf 41 27 1134 978 bf 41 27 1175 978 bf 42 27 1216 978 bf 41 27 1258 978 bf 41 27 1299 978 bf 41 27 1340 978 bf 41 27 1381 978 bf 42 27 1422 978 bf 41 27 1464 978 bf 41 27 1505 978 bf 0 1
 0.0533333 c 41 27 1546 978 bf 0 1 0.333333 c 42 27 1587 978 bf 0 1 0.0533333 c 41 27 1629 978 bf 41 27 1670 978 bf 0 1 0.333333 c 41 27 1711 978 bf 0 1 0.0533333 c 42 27 1752 978 bf 41 27 1794 978 bf 41 27 1835 978 bf 41 27 1876 978 bf 41 27 1917
 978 bf 42 27 1958 978 bf 0 0.546666 1 c 41 27 2000 978 bf 41 26 227 1005 bf 0 1 0.0533333 c 41 26 268 1005 bf 0 1 0.333333 c 41 26 309 1005 bf 0 1 0.0533333 c 42 26 350 1005 bf 0 1 0.333333 c 41 26 392 1005 bf 41 26 433 1005 bf 0 1 0.0533333 c 41 26
 474 1005 bf 0 1 0.333333 c 42 26 515 1005 bf 41 26 557 1005 bf 41 26 598 1005 bf 41 26 639 1005 bf 42 26 680 1005 bf 0 1 0.0533333 c 41 26 722 1005 bf 41 26 763 1005 bf 0 1 0.333333 c 41 26 804 1005 bf 41 26 845 1005 bf 42 26 886 1005 bf 41 26 928
 1005 bf 41 26 969 1005 bf 41 26 1010 1005 bf 42 26 1051 1005 bf 41 26 1093 1005 bf 41 26 1134 1005 bf 41 26 1175 1005 bf 42 26 1216 1005 bf 41 26 1258 1005 bf 41 26 1299 1005 bf 41 26 1340 1005 bf 41 26 1381 1005 bf 0 1 0.0533333 c 42 26 1422 1005
 bf 0 1 0.333333 c 41 26 1464 1005 bf 41 26 1505 1005 bf 0 1 0.0533333 c 41 26 1546 1005 bf 42 26 1587 1005 bf 41 26 1629 1005 bf 41 26 1670 1005 bf 0 1 0.333333 c 41 26 1711 1005 bf 42 26 1752 1005 bf 0 1 0.0533333 c 41 26 1794 1005 bf 41 26 1835
 1005 bf 41 26 1876 1005 bf 41 26 1917 1005 bf 42 26 1958 1005 bf 0 0.546666 1 c 41 26 2000 1005 bf 41 27 227 1031 bf 0 1 0.333333 c 41 27 268 1031 bf 0 1 0.0533333 c 41 27 309 1031 bf 0 1 0.333333 c 42 27 350 1031 bf 0 1 0.0533333 c 41 27 392 1031
 bf 0 1 0.333333 c 41 27 433 1031 bf 0 1 0.0533333 c 41 27 474 1031 bf 42 27 515 1031 bf 0 1 0.333333 c 41 27 557 1031 bf 41 27 598 1031 bf 41 27 639 1031 bf 0 1 0.52 c 42 27 680 1031 bf 0 1 0.333333 c 41 27 722 1031 bf 41 27 763 1031 bf 41 27 804
 1031 bf 41 27 845 1031 bf 42 27 886 1031 bf 41 27 928 1031 bf 41 27 969 1031 bf 41 27 1010 1031 bf 42 27 1051 1031 bf 41 27 1093 1031 bf 41 27 1134 1031 bf 41 27 1175 1031 bf 42 27 1216 1031 bf 41 27 1258 1031 bf 41 27 1299 1031 bf 41 27 1340 1031
 bf 41 27 1381 1031 bf 42 27 1422 1031 bf 41 27 1464 1031 bf 41 27 1505 1031 bf 41 27 1546 1031 bf 42 27 1587 1031 bf 41 27 1629 1031 bf 0 1 0.0533333 c 41 27 1670 1031 bf 41 27 1711 1031 bf 42 27 1752 1031 bf 0 1 0.333333 c 41 27 1794 1031 bf 41 27
 1835 1031 bf 0 1 0.0533333 c 41 27 1876 1031 bf 0 1 0.333333 c 41 27 1917 1031 bf 0 1 0.0533333 c 42 27 1958 1031 bf 0 0.546666 1 c 41 27 2000 1031 bf 41 26 227 1058 bf 0 1 0.333333 c 41 26 268 1058 bf 41 26 309 1058 bf 42 26 350 1058 bf 41 26 392
 1058 bf 0 1 0.0533333 c 41 26 433 1058 bf 0 1 0.333333 c 41 26 474 1058 bf 42 26 515 1058 bf 41 26 557 1058 bf 41 26 598 1058 bf 41 26 639 1058 bf 0 1 0.0533333 c 42 26 680 1058 bf 0 1 0.333333 c 41 26 722 1058 bf 41 26 763 1058 bf 41 26 804 1058 bf
 41 26 845 1058 bf 42 26 886 1058 bf 41 26 928 1058 bf 41 26 969 1058 bf 41 26 1010 1058 bf 42 26 1051 1058 bf 0 1 0.52 c 41 26 1093 1058 bf 0 1 0.333333 c 41 26 1134 1058 bf 41 26 1175 1058 bf 42 26 1216 1058 bf 41 26 1258 1058 bf 41 26 1299 1058 bf
 0 1 0.52 c 41 26 1340 1058 bf 0 1 0.333333 c 41 26 1381 1058 bf 42 26 1422 1058 bf 41 26 1464 1058 bf 41 26 1505 1058 bf 41 26 1546 1058 bf 0 1 0.0533333 c 42 26 1587 1058 bf 41 26 1629 1058 bf 0 1 0.333333 c 41 26 1670 1058 bf 41 26 1711 1058 bf 42
 26 1752 1058 bf 0 1 0.0533333 c 41 26 1794 1058 bf 0 1 0.333333 c 41 26 1835 1058 bf 0 1 0.0533333 c 41 26 1876 1058 bf 41 26 1917 1058 bf 42 26 1958 1058 bf 0 0.546666 1 c 41 26 2000 1058 bf 41 27 227 1084 bf 0 1 0.333333 c 41 27 268 1084 bf 41 27
 309 1084 bf 42 27 350 1084 bf 41 27 392 1084 bf 41 27 433 1084 bf 41 27 474 1084 bf 0 1 0.0533333 c 42 27 515 1084 bf 0 1 0.333333 c 41 27 557 1084 bf 41 27 598 1084 bf 41 27 639 1084 bf 42 27 680 1084 bf 41 27 722 1084 bf 41 27 763 1084 bf 41 27
 804 1084 bf 41 27 845 1084 bf 42 27 886 1084 bf 0 1 0.52 c 41 27 928 1084 bf 0 1 0.333333 c 41 27 969 1084 bf 41 27 1010 1084 bf 42 27 1051 1084 bf 41 27 1093 1084 bf 41 27 1134 1084 bf 41 27 1175 1084 bf 42 27 1216 1084 bf 0 1 0.52 c 41 27 1258
 1084 bf 0 1 0.333333 c 41 27 1299 1084 bf 41 27 1340 1084 bf 41 27 1381 1084 bf 42 27 1422 1084 bf 41 27 1464 1084 bf 41 27 1505 1084 bf 0 1 0.0533333 c 41 27 1546 1084 bf 42 27 1587 1084 bf 0 1 0.333333 c 41 27 1629 1084 bf 0 1 0.0533333 c 41 27
 1670 1084 bf 0 1 0.333333 c 41 27 1711 1084 bf 42 27 1752 1084 bf 0 1 0.0533333 c 41 27 1794 1084 bf 41 27 1835 1084 bf 41 27 1876 1084 bf 41 27 1917 1084 bf 42 27 1958 1084 bf 0 0.546666 1 c 41 27 2000 1084 bf 41 26 227 1111 bf 0 1 0.333333 c 41 26
 268 1111 bf 0 1 0.0533333 c 41 26 309 1111 bf 0 1 0.333333 c 42 26 350 1111 bf 0 1 0.0533333 c 41 26 392 1111 bf 0 1 0.333333 c 41 26 433 1111 bf 41 26 474 1111 bf 42 26 515 1111 bf 41 26 557 1111 bf 0 1 0.52 c 41 26 598 1111 bf 0 1 0.333333 c 41 26
 639 1111 bf 42 26 680 1111 bf 41 26 722 1111 bf 41 26 763 1111 bf 41 26 804 1111 bf 41 26 845 1111 bf 42 26 886 1111 bf 41 26 928 1111 bf 41 26 969 1111 bf 41 26 1010 1111 bf 42 26 1051 1111 bf 41 26 1093 1111 bf 41 26 1134 1111 bf 41 26 1175 1111
 bf 42 26 1216 1111 bf 41 26 1258 1111 bf 41 26 1299 1111 bf 41 26 1340 1111 bf 41 26 1381 1111 bf 42 26 1422 1111 bf 41 26 1464 1111 bf 41 26 1505 1111 bf 41 26 1546 1111 bf 42 26 1587 1111 bf 41 26 1629 1111 bf 41 26 1670 1111 bf 41 26 1711 1111 bf
 42 26 1752 1111 bf 41 26 1794 1111 bf 41 26 1835 1111 bf 0 1 0.0533333 c 41 26 1876 1111 bf 41 26 1917 1111 bf 0.133333 1 0 c 42 26 1958 1111 bf 0 0.546666 1 c 41 26 2000 1111 bf 41 27 227 1137 bf 0 1 0.333333 c 41 27 268 1137 bf 0 1 0.0533333 c 41
 27 309 1137 bf 0 1 0.333333 c 42 27 350 1137 bf 41 27 392 1137 bf 0 1 0.0533333 c 41 27 433 1137 bf 0 1 0.333333 c 41 27 474 1137 bf 42 27 515 1137 bf 41 27 557 1137 bf 41 27 598 1137 bf 41 27 639 1137 bf 42 27 680 1137 bf 41 27 722 1137 bf 41 27
 763 1137 bf 41 27 804 1137 bf 41 27 845 1137 bf 0 1 0.52 c 42 27 886 1137 bf 0 1 0.333333 c 41 27 928 1137 bf 41 27 969 1137 bf 41 27 1010 1137 bf 42 27 1051 1137 bf 0 1 0.52 c 41 27 1093 1137 bf 0 1 0.0533333 c 41 27 1134 1137 bf 0 1 0.52 c 41 27
 1175 1137 bf 0 1 0.333333 c 42 27 1216 1137 bf 41 27 1258 1137 bf 41 27 1299 1137 bf 41 27 1340 1137 bf 41 27 1381 1137 bf 42 27 1422 1137 bf 41 27 1464 1137 bf 41 27 1505 1137 bf 0 1 0.0533333 c 41 27 1546 1137 bf 0 1 0.333333 c 42 27 1587 1137 bf
 41 27 1629 1137 bf 0 1 0.0533333 c 41 27 1670 1137 bf 41 27 1711 1137 bf 42 27 1752 1137 bf 41 27 1794 1137 bf 0 1 0.333333 c 41 27 1835 1137 bf 0 1 0.0533333 c 41 27 1876 1137 bf 41 27 1917 1137 bf 42 27 1958 1137 bf 0 0.546666 1 c 41 27 2000 1137
 bf 41 26 227 1164 bf 0 1 0.0533333 c 41 26 268 1164 bf 41 26 309 1164 bf 42 26 350 1164 bf 41 26 392 1164 bf 0 1 0.333333 c 41 26 433 1164 bf 0 1 0.0533333 c 41 26 474 1164 bf 0 1 0.333333 c 42 26 515 1164 bf 41 26 557 1164 bf 41 26 598 1164 bf 41
 26 639 1164 bf 0 1 0.0533333 c 42 26 680 1164 bf 0 1 0.333333 c 41 26 722 1164 bf 41 26 763 1164 bf 41 26 804 1164 bf 41 26 845 1164 bf 42 26 886 1164 bf 0 1 0.52 c 41 26 928 1164 bf 0 1 0.333333 c 41 26 969 1164 bf 41 26 1010 1164 bf 0 1 0.52 c 42
 26 1051 1164 bf 0 1 0.333333 c 41 26 1093 1164 bf 41 26 1134 1164 bf 41 26 1175 1164 bf 42 26 1216 1164 bf 41 26 1258 1164 bf 41 26 1299 1164 bf 41 26 1340 1164 bf 41 26 1381 1164 bf 42 26 1422 1164 bf 41 26 1464 1164 bf 0 1 0.0533333 c 41 26 1505
 1164 bf 0 1 0.333333 c 41 26 1546 1164 bf 0 1 0.0533333 c 42 26 1587 1164 bf 41 26 1629 1164 bf 41 26 1670 1164 bf 41 26 1711 1164 bf 42 26 1752 1164 bf 0.133333 1 0 c 41 26 1794 1164 bf 0 1 0.0533333 c 41 26 1835 1164 bf 41 26 1876 1164 bf 41 26
 1917 1164 bf 42 26 1958 1164 bf 0 0.546666 1 c 41 26 2000 1164 bf 41 27 227 1190 bf 0 1 0.333333 c 41 27 268 1190 bf 41 27 309 1190 bf 42 27 350 1190 bf 0 1 0.0533333 c 41 27 392 1190 bf 0 1 0.333333 c 41 27 433 1190 bf 41 27 474 1190 bf 42 27 515
 1190 bf 41 27 557 1190 bf 41 27 598 1190 bf 41 27 639 1190 bf 42 27 680 1190 bf 41 27 722 1190 bf 41 27 763 1190 bf 41 27 804 1190 bf 41 27 845 1190 bf 42 27 886 1190 bf 41 27 928 1190 bf 41 27 969 1190 bf 41 27 1010 1190 bf 42 27 1051 1190 bf 41 27
 1093 1190 bf 41 27 1134 1190 bf 41 27 1175 1190 bf 42 27 1216 1190 bf 41 27 1258 1190 bf 41 27 1299 1190 bf 41 27 1340 1190 bf 41 27 1381 1190 bf 0 1 0.0533333 c 42 27 1422 1190 bf 0 1 0.333333 c 41 27 1464 1190 bf 0 1 0.0533333 c 41 27 1505 1190 bf
 41 27 1546 1190 bf 0 1 0.333333 c 42 27 1587 1190 bf 41 27 1629 1190 bf 41 27 1670 1190 bf 41 27 1711 1190 bf 42 27 1752 1190 bf 0 1 0.0533333 c 41 27 1794 1190 bf 41 27 1835 1190 bf 41 27 1876 1190 bf 0.133333 1 0 c 41 27 1917 1190 bf 0 1 0.0533333
 c 42 27 1958 1190 bf 0 0.546666 1 c 41 27 2000 1190 bf 41 26 227 1217 bf 0 1 0.0533333 c 41 26 268 1217 bf 0 1 0.333333 c 41 26 309 1217 bf 42 26 350 1217 bf 41 26 392 1217 bf 41 26 433 1217 bf 41 26 474 1217 bf 42 26 515 1217 bf 41 26 557 1217 bf
 41 26 598 1217 bf 41 26 639 1217 bf 42 26 680 1217 bf 41 26 722 1217 bf 41 26 763 1217 bf 41 26 804 1217 bf 41 26 845 1217 bf 42 26 886 1217 bf 41 26 928 1217 bf 41 26 969 1217 bf 41 26 1010 1217 bf 0 1 0.52 c 42 26 1051 1217 bf 0 1 0.333333 c 41 26
 1093 1217 bf 41 26 1134 1217 bf 41 26 1175 1217 bf 42 26 1216 1217 bf 0 1 0.52 c 41 26 1258 1217 bf 0 1 0.333333 c 41 26 1299 1217 bf 41 26 1340 1217 bf 0 1 0.52 c 41 26 1381 1217 bf 0 1 0.333333 c 42 26 1422 1217 bf 41 26 1464 1217 bf 41 26 1505
 1217 bf 0 1 0.0533333 c 41 26 1546 1217 bf 42 26 1587 1217 bf 0 1 0.333333 c 41 26 1629 1217 bf 0 1 0.0533333 c 41 26 1670 1217 bf 0 1 0.333333 c 41 26 1711 1217 bf 42 26 1752 1217 bf 0 1 0.0533333 c 41 26 1794 1217 bf 41 26 1835 1217 bf 41 26 1876
 1217 bf 41 26 1917 1217 bf 42 26 1958 1217 bf 0 0.546666 1 c 41 26 2000 1217 bf 41 27 227 1243 bf 0 1 0.0533333 c 41 27 268 1243 bf 0 1 0.333333 c 41 27 309 1243 bf 0 1 0.0533333 c 42 27 350 1243 bf 41 27 392 1243 bf 0 1 0.333333 c 41 27 433 1243 bf
 0 1 0.0533333 c 41 27 474 1243 bf 0 1 0.333333 c 42 27 515 1243 bf 41 27 557 1243 bf 41 27 598 1243 bf 41 27 639 1243 bf 0 1 0.0533333 c 42 27 680 1243 bf 0 1 0.333333 c 41 27 722 1243 bf 41 27 763 1243 bf 41 27 804 1243 bf 41 27 845 1243 bf 42 27
 886 1243 bf 41 27 928 1243 bf 41 27 969 1243 bf 41 27 1010 1243 bf 42 27 1051 1243 bf 41 27 1093 1243 bf 0 1 0.0533333 c 41 27 1134 1243 bf 0 1 0.333333 c 41 27 1175 1243 bf 42 27 1216 1243 bf 41 27 1258 1243 bf 41 27 1299 1243 bf 0 1 0.0533333 c 41
 27 1340 1243 bf 41 27 1381 1243 bf 42 27 1422 1243 bf 41 27 1464 1243 bf 0 1 0.333333 c 41 27 1505 1243 bf 0 1 0.0533333 c 41 27 1546 1243 bf 42 27 1587 1243 bf 41 27 1629 1243 bf 41 27 1670 1243 bf 41 27 1711 1243 bf 42 27 1752 1243 bf 41 27 1794
 1243 bf 41 27 1835 1243 bf 41 27 1876 1243 bf 41 27 1917 1243 bf 42 27 1958 1243 bf 0 0.546666 1 c 41 27 2000 1243 bf 41 26 227 1270 bf 0 1 0.333333 c 41 26 268 1270 bf 41 26 309 1270 bf 42 26 350 1270 bf 41 26 392 1270 bf 41 26 433 1270 bf 0 1
 0.0533333 c 41 26 474 1270 bf 42 26 515 1270 bf 0 1 0.333333 c 41 26 557 1270 bf 0 1 0.0533333 c 41 26 598 1270 bf 41 26 639 1270 bf 42 26 680 1270 bf 0 1 0.333333 c 41 26 722 1270 bf 41 26 763 1270 bf 41 26 804 1270 bf 41 26 845 1270 bf 42 26 886
 1270 bf 41 26 928 1270 bf 41 26 969 1270 bf 41 26 1010 1270 bf 42 26 1051 1270 bf 41 26 1093 1270 bf 41 26 1134 1270 bf 41 26 1175 1270 bf 0 1 0.0533333 c 42 26 1216 1270 bf 0 1 0.333333 c 41 26 1258 1270 bf 41 26 1299 1270 bf 41 26 1340 1270 bf 0 1
 0.0533333 c 41 26 1381 1270 bf 0 1 0.333333 c 42 26 1422 1270 bf 41 26 1464 1270 bf 0 1 0.0533333 c 41 26 1505 1270 bf 41 26 1546 1270 bf 42 26 1587 1270 bf 0 1 0.333333 c 41 26 1629 1270 bf 41 26 1670 1270 bf 0 1 0.0533333 c 41 26 1711 1270 bf 42
 26 1752 1270 bf 41 26 1794 1270 bf 41 26 1835 1270 bf 0.133333 1 0 c 41 26 1876 1270 bf 0 1 0.0533333 c 41 26 1917 1270 bf 42 26 1958 1270 bf 0 0.546666 1 c 41 26 2000 1270 bf 41 27 227 1296 bf 0 1 0.0533333 c 41 27 268 1296 bf 41 27 309 1296 bf 0 1
 0.333333 c 42 27 350 1296 bf 0 1 0.0533333 c 41 27 392 1296 bf 0 1 0.333333 c 41 27 433 1296 bf 0 1 0.0533333 c 41 27 474 1296 bf 0 1 0.333333 c 42 27 515 1296 bf 0 1 0.0533333 c 41 27 557 1296 bf 41 27 598 1296 bf 0 1 0.333333 c 41 27 639 1296 bf 0
 1 0.0533333 c 42 27 680 1296 bf 41 27 722 1296 bf 0 1 0.333333 c 41 27 763 1296 bf 41 27 804 1296 bf 41 27 845 1296 bf 42 27 886 1296 bf 41 27 928 1296 bf 0 1 0.0533333 c 41 27 969 1296 bf 0 1 0.333333 c 41 27 1010 1296 bf 42 27 1051 1296 bf 0 1
 0.0533333 c 41 27 1093 1296 bf 41 27 1134 1296 bf 0 1 0.333333 c 41 27 1175 1296 bf 42 27 1216 1296 bf 0 1 0.0533333 c 41 27 1258 1296 bf 41 27 1299 1296 bf 0 1 0.333333 c 41 27 1340 1296 bf 41 27 1381 1296 bf 42 27 1422 1296 bf 41 27 1464 1296 bf 0
 1 0.0533333 c 41 27 1505 1296 bf 41 27 1546 1296 bf 42 27 1587 1296 bf 0 1 0.333333 c 41 27 1629 1296 bf 41 27 1670 1296 bf 0 1 0.0533333 c 41 27 1711 1296 bf 0 1 0.333333 c 42 27 1752 1296 bf 0 1 0.0533333 c 41 27 1794 1296 bf 41 27 1835 1296 bf 41
 27 1876 1296 bf 41 27 1917 1296 bf 42 27 1958 1296 bf 0 0.546666 1 c 41 27 2000 1296 bf 41 26 227 1323 bf 0 1 0.333333 c 41 26 268 1323 bf 0 1 0.0533333 c 41 26 309 1323 bf 0 1 0.333333 c 42 26 350 1323 bf 41 26 392 1323 bf 0 1 0.0533333 c 41 26 433
 1323 bf 41 26 474 1323 bf 42 26 515 1323 bf 41 26 557 1323 bf 41 26 598 1323 bf 41 26 639 1323 bf 42 26 680 1323 bf 0 1 0.333333 c 41 26 722 1323 bf 41 26 763 1323 bf 41 26 804 1323 bf 41 26 845 1323 bf 0 1 0.0533333 c 42 26 886 1323 bf 0 1 0.333333
 c 41 26 928 1323 bf 0 1 0.0533333 c 41 26 969 1323 bf 0 1 0.333333 c 41 26 1010 1323 bf 42 26 1051 1323 bf 41 26 1093 1323 bf 41 26 1134 1323 bf 41 26 1175 1323 bf 42 26 1216 1323 bf 0 1 0.0533333 c 41 26 1258 1323 bf 0 1 0.333333 c 41 26 1299 1323
 bf 41 26 1340 1323 bf 0 1 0.0533333 c 41 26 1381 1323 bf 0 1 0.333333 c 42 26 1422 1323 bf 41 26 1464 1323 bf 41 26 1505 1323 bf 0 1 0.0533333 c 41 26 1546 1323 bf 0 1 0.333333 c 42 26 1587 1323 bf 0 1 0.0533333 c 41 26 1629 1323 bf 41 26 1670 1323
 bf 41 26 1711 1323 bf 42 26 1752 1323 bf 41 26 1794 1323 bf 41 26 1835 1323 bf 41 26 1876 1323 bf 41 26 1917 1323 bf 0.133333 1 0 c 42 26 1958 1323 bf 0 0.546666 1 c 41 26 2000 1323 bf 41 27 227 1349 bf 0 1 0.0533333 c 41 27 268 1349 bf 41 27 309
 1349 bf 0 1 0.333333 c 42 27 350 1349 bf 0 1 0.0533333 c 41 27 392 1349 bf 41 27 433 1349 bf 41 27 474 1349 bf 0 1 0.333333 c 42 27 515 1349 bf 0 1 0.0533333 c 41 27 557 1349 bf 0 1 0.333333 c 41 27 598 1349 bf 41 27 639 1349 bf 42 27 680 1349 bf 41
 27 722 1349 bf 41 27 763 1349 bf 41 27 804 1349 bf 41 27 845 1349 bf 42 27 886 1349 bf 0 1 0.0533333 c 41 27 928 1349 bf 41 27 969 1349 bf 41 27 1010 1349 bf 42 27 1051 1349 bf 0 1 0.333333 c 41 27 1093 1349 bf 41 27 1134 1349 bf 0 1 0.0533333 c 41
 27 1175 1349 bf 0 1 0.333333 c 42 27 1216 1349 bf 0 1 0.0533333 c 41 27 1258 1349 bf 0 1 0.333333 c 41 27 1299 1349 bf 0 1 0.0533333 c 41 27 1340 1349 bf 41 27 1381 1349 bf 42 27 1422 1349 bf 41 27 1464 1349 bf 41 27 1505 1349 bf 41 27 1546 1349 bf
 42 27 1587 1349 bf 41 27 1629 1349 bf 41 27 1670 1349 bf 0.133333 1 0 c 41 27 1711 1349 bf 0 1 0.0533333 c 42 27 1752 1349 bf 41 27 1794 1349 bf 41 27 1835 1349 bf 41 27 1876 1349 bf 41 27 1917 1349 bf 42 27 1958 1349 bf 0 0.546666 1 c 41 27 2000
 1349 bf 41 26 227 1376 bf 0 1 0.333333 c 41 26 268 1376 bf 41 26 309 1376 bf 0 1 0.0533333 c 42 26 350 1376 bf 41 26 392 1376 bf 41 26 433 1376 bf 0 1 0.333333 c 41 26 474 1376 bf 0 1 0.0533333 c 42 26 515 1376 bf 0 1 0.333333 c 41 26 557 1376 bf 0
 1 0.0533333 c 41 26 598 1376 bf 0 1 0.333333 c 41 26 639 1376 bf 0 1 0.0533333 c 42 26 680 1376 bf 0 1 0.333333 c 41 26 722 1376 bf 0 1 0.0533333 c 41 26 763 1376 bf 0 1 0.333333 c 41 26 804 1376 bf 41 26 845 1376 bf 42 26 886 1376 bf 0 1 0.0533333
 c 41 26 928 1376 bf 0 1 0.333333 c 41 26 969 1376 bf 41 26 1010 1376 bf 0 1 0.0533333 c 42 26 1051 1376 bf 41 26 1093 1376 bf 41 26 1134 1376 bf 0 1 0.333333 c 41 26 1175 1376 bf 42 26 1216 1376 bf 0 1 0.0533333 c 41 26 1258 1376 bf 41 26 1299 1376
 bf 0 1 0.333333 c 41 26 1340 1376 bf 0 1 0.0533333 c 41 26 1381 1376 bf 42 26 1422 1376 bf 41 26 1464 1376 bf 0 1 0.333333 c 41 26 1505 1376 bf 0 1 0.0533333 c 41 26 1546 1376 bf 42 26 1587 1376 bf 0 1 0.333333 c 41 26 1629 1376 bf 0 1 0.0533333 c
 41 26 1670 1376 bf 41 26 1711 1376 bf 42 26 1752 1376 bf 41 26 1794 1376 bf 41 26 1835 1376 bf 41 26 1876 1376 bf 41 26 1917 1376 bf 0.133333 1 0 c 42 26 1958 1376 bf 0 0.546666 1 c 41 26 2000 1376 bf 41 27 227 1402 bf 0 1 0.333333 c 41 27 268 1402
 bf 41 27 309 1402 bf 0 1 0.0533333 c 42 27 350 1402 bf 41 27 392 1402 bf 0 1 0.333333 c 41 27 433 1402 bf 41 27 474 1402 bf 0 1 0.0533333 c 42 27 515 1402 bf 41 27 557 1402 bf 0 1 0.333333 c 41 27 598 1402 bf 0 1 0.0533333 c 41 27 639 1402 bf 42 27
 680 1402 bf 0 1 0.333333 c 41 27 722 1402 bf 41 27 763 1402 bf 0 1 0.0533333 c 41 27 804 1402 bf 41 27 845 1402 bf 0 1 0.333333 c 42 27 886 1402 bf 0 1 0.0533333 c 41 27 928 1402 bf 0 1 0.333333 c 41 27 969 1402 bf 41 27 1010 1402 bf 42 27 1051 1402
 bf 41 27 1093 1402 bf 0 1 0.0533333 c 41 27 1134 1402 bf 0 1 0.333333 c 41 27 1175 1402 bf 0 1 0.0533333 c 42 27 1216 1402 bf 0 1 0.333333 c 41 27 1258 1402 bf 41 27 1299 1402 bf 0 1 0.0533333 c 41 27 1340 1402 bf 0 1 0.333333 c 41 27 1381 1402 bf 0
 1 0.0533333 c 42 27 1422 1402 bf 41 27 1464 1402 bf 0 1 0.333333 c 41 27 1505 1402 bf 41 27 1546 1402 bf 0 1 0.0533333 c 42 27 1587 1402 bf 41 27 1629 1402 bf 0 1 0.333333 c 41 27 1670 1402 bf 0 1 0.0533333 c 41 27 1711 1402 bf 42 27 1752 1402 bf 41
 27 1794 1402 bf 41 27 1835 1402 bf 41 27 1876 1402 bf 41 27 1917 1402 bf 0.133333 1 0 c 42 27 1958 1402 bf 0 0.546666 1 c 41 27 2000 1402 bf 41 27 227 1429 bf 0 1 0.0533333 c 41 27 268 1429 bf 0 1 0.333333 c 41 27 309 1429 bf 42 27 350 1429 bf 41 27
 392 1429 bf 0 1 0.0533333 c 41 27 433 1429 bf 0 1 0.333333 c 41 27 474 1429 bf 0 1 0.0533333 c 42 27 515 1429 bf 41 27 557 1429 bf 0 1 0.333333 c 41 27 598 1429 bf 41 27 639 1429 bf 0 1 0.0533333 c 42 27 680 1429 bf 0 1 0.333333 c 41 27 722 1429 bf
 41 27 763 1429 bf 41 27 804 1429 bf 41 27 845 1429 bf 42 27 886 1429 bf 41 27 928 1429 bf 41 27 969 1429 bf 0 1 0.0533333 c 41 27 1010 1429 bf 0 1 0.333333 c 42 27 1051 1429 bf 41 27 1093 1429 bf 41 27 1134 1429 bf 41 27 1175 1429 bf 42 27 1216 1429
 bf 41 27 1258 1429 bf 41 27 1299 1429 bf 0 1 0.0533333 c 41 27 1340 1429 bf 41 27 1381 1429 bf 0 1 0.333333 c 42 27 1422 1429 bf 41 27 1464 1429 bf 0 1 0.0533333 c 41 27 1505 1429 bf 41 27 1546 1429 bf 42 27 1587 1429 bf 41 27 1629 1429 bf 0 1
 0.333333 c 41 27 1670 1429 bf 0 1 0.0533333 c 41 27 1711 1429 bf 42 27 1752 1429 bf 41 27 1794 1429 bf 41 27 1835 1429 bf 41 27 1876 1429 bf 41 27 1917 1429 bf 42 27 1958 1429 bf 0 0.546666 1 c 41 27 2000 1429 bf 41 26 227 1456 bf 0 1 0.0533333 c 41
 26 268 1456 bf 0 1 0.333333 c 41 26 309 1456 bf 42 26 350 1456 bf 0 1 0.0533333 c 41 26 392 1456 bf 41 26 433 1456 bf 0 1 0.333333 c 41 26 474 1456 bf 0 1 0.0533333 c 42 26 515 1456 bf 0 1 0.333333 c 41 26 557 1456 bf 0 1 0.0533333 c 41 26 598 1456
 bf 0 1 0.333333 c 41 26 639 1456 bf 0 1 0.0533333 c 42 26 680 1456 bf 41 26 722 1456 bf 41 26 763 1456 bf 0 1 0.333333 c 41 26 804 1456 bf 41 26 845 1456 bf 42 26 886 1456 bf 41 26 928 1456 bf 0 1 0.0533333 c 41 26 969 1456 bf 0 1 0.333333 c 41 26
 1010 1456 bf 0 1 0.52 c 42 26 1051 1456 bf 0 1 0.333333 c 41 26 1093 1456 bf 41 26 1134 1456 bf 0 1 0.0533333 c 41 26 1175 1456 bf 0 1 0.333333 c 42 26 1216 1456 bf 41 26 1258 1456 bf 0 1 0.0533333 c 41 26 1299 1456 bf 0 1 0.333333 c 41 26 1340 1456
 bf 0 1 0.0533333 c 41 26 1381 1456 bf 0 1 0.333333 c 42 26 1422 1456 bf 0 1 0.0533333 c 41 26 1464 1456 bf 0 1 0.333333 c 41 26 1505 1456 bf 0 1 0.0533333 c 41 26 1546 1456 bf 42 26 1587 1456 bf 41 26 1629 1456 bf 41 26 1670 1456 bf 41 26 1711 1456
 bf 0.133333 1 0 c 42 26 1752 1456 bf 0 1 0.0533333 c 41 26 1794 1456 bf 0 1 0.333333 c 41 26 1835 1456 bf 0 1 0.0533333 c 41 26 1876 1456 bf 41 26 1917 1456 bf 42 26 1958 1456 bf 0 0.546666 1 c 41 26 2000 1456 bf 41 27 227 1482 bf 0 1 0.0533333 c 41
 27 268 1482 bf 0 1 0.333333 c 41 27 309 1482 bf 0 1 0.0533333 c 42 27 350 1482 bf 41 27 392 1482 bf 0 1 0.333333 c 41 27 433 1482 bf 0 1 0.0533333 c 41 27 474 1482 bf 42 27 515 1482 bf 0 1 0.333333 c 41 27 557 1482 bf 41 27 598 1482 bf 0 1 0.0533333
 c 41 27 639 1482 bf 0 1 0.333333 c 42 27 680 1482 bf 0 1 0.0533333 c 41 27 722 1482 bf 0 1 0.333333 c 41 27 763 1482 bf 41 27 804 1482 bf 0 1 0.0533333 c 41 27 845 1482 bf 42 27 886 1482 bf 0 1 0.333333 c 41 27 928 1482 bf 41 27 969 1482 bf 41 27
 1010 1482 bf 0 1 0.0533333 c 42 27 1051 1482 bf 0 1 0.333333 c 41 27 1093 1482 bf 41 27 1134 1482 bf 41 27 1175 1482 bf 42 27 1216 1482 bf 41 27 1258 1482 bf 41 27 1299 1482 bf 0 1 0.0533333 c 41 27 1340 1482 bf 41 27 1381 1482 bf 0 1 0.333333 c 42
 27 1422 1482 bf 0 1 0.0533333 c 41 27 1464 1482 bf 0 1 0.333333 c 41 27 1505 1482 bf 0 1 0.0533333 c 41 27 1546 1482 bf 0 1 0.333333 c 42 27 1587 1482 bf 0 1 0.0533333 c 41 27 1629 1482 bf 0 1 0.333333 c 41 27 1670 1482 bf 0 1 0.0533333 c 41 27 1711
 1482 bf 42 27 1752 1482 bf 41 27 1794 1482 bf 41 27 1835 1482 bf 41 27 1876 1482 bf 41 27 1917 1482 bf 42 27 1958 1482 bf 0 0.546666 1 c 41 27 2000 1482 bf 41 26 227 1509 bf 0 1 0.333333 c 41 26 268 1509 bf 41 26 309 1509 bf 0 1 0.0533333 c 42 26
 350 1509 bf 0 1 0.333333 c 41 26 392 1509 bf 41 26 433 1509 bf 41 26 474 1509 bf 0 1 0.0533333 c 42 26 515 1509 bf 0 1 0.333333 c 41 26 557 1509 bf 41 26 598 1509 bf 0 1 0.0533333 c 41 26 639 1509 bf 0 1 0.333333 c 42 26 680 1509 bf 41 26 722 1509
 bf 41 26 763 1509 bf 41 26 804 1509 bf 41 26 845 1509 bf 42 26 886 1509 bf 41 26 928 1509 bf 0 1 0.0533333 c 41 26 969 1509 bf 0 1 0.333333 c 41 26 1010 1509 bf 42 26 1051 1509 bf 41 26 1093 1509 bf 41 26 1134 1509 bf 41 26 1175 1509 bf 42 26 1216
 1509 bf 41 26 1258 1509 bf 41 26 1299 1509 bf 0 1 0.0533333 c 41 26 1340 1509 bf 0 1 0.333333 c 41 26 1381 1509 bf 42 26 1422 1509 bf 0 1 0.0533333 c 41 26 1464 1509 bf 41 26 1505 1509 bf 41 26 1546 1509 bf 0 1 0.333333 c 42 26 1587 1509 bf 0 1
 0.0533333 c 41 26 1629 1509 bf 41 26 1670 1509 bf 0 1 0.333333 c 41 26 1711 1509 bf 42 26 1752 1509 bf 0 1 0.0533333 c 41 26 1794 1509 bf 41 26 1835 1509 bf 0 1 0.333333 c 41 26 1876 1509 bf 0 1 0.0533333 c 41 26 1917 1509 bf 42 26 1958 1509 bf 0
 0.546666 1 c 41 26 2000 1509 bf 41 27 227 1535 bf 0 1 0.0533333 c 41 27 268 1535 bf 41 27 309 1535 bf 0 1 0.333333 c 42 27 350 1535 bf 41 27 392 1535 bf 0 1 0.0533333 c 41 27 433 1535 bf 0 1 0.333333 c 41 27 474 1535 bf 42 27 515 1535 bf 41 27 557
 1535 bf 41 27 598 1535 bf 41 27 639 1535 bf 42 27 680 1535 bf 41 27 722 1535 bf 41 27 763 1535 bf 41 27 804 1535 bf 41 27 845 1535 bf 42 27 886 1535 bf 41 27 928 1535 bf 0 1 0.0533333 c 41 27 969 1535 bf 0 1 0.333333 c 41 27 1010 1535 bf 42 27 1051
 1535 bf 41 27 1093 1535 bf 0 1 0.0533333 c 41 27 1134 1535 bf 0 1 0.333333 c 41 27 1175 1535 bf 42 27 1216 1535 bf 41 27 1258 1535 bf 41 27 1299 1535 bf 41 27 1340 1535 bf 41 27 1381 1535 bf 0 1 0.0533333 c 42 27 1422 1535 bf 0 1 0.333333 c 41 27
 1464 1535 bf 41 27 1505 1535 bf 0 1 0.0533333 c 41 27 1546 1535 bf 0 1 0.333333 c 42 27 1587 1535 bf 0 1 0.0533333 c 41 27 1629 1535 bf 0 1 0.333333 c 41 27 1670 1535 bf 0 1 0.0533333 c 41 27 1711 1535 bf 42 27 1752 1535 bf 41 27 1794 1535 bf 0 1
 0.333333 c 41 27 1835 1535 bf 41 27 1876 1535 bf 0 1 0.0533333 c 41 27 1917 1535 bf 42 27 1958 1535 bf 0 0.546666 1 c 41 27 2000 1535 bf 41 26 227 1562 bf 0 1 0.0533333 c 41 26 268 1562 bf 0 1 0.333333 c 41 26 309 1562 bf 42 26 350 1562 bf 41 26 392
 1562 bf 41 26 433 1562 bf 41 26 474 1562 bf 42 26 515 1562 bf 0 1 0.0533333 c 41 26 557 1562 bf 41 26 598 1562 bf 0 1 0.333333 c 41 26 639 1562 bf 42 26 680 1562 bf 41 26 722 1562 bf 41 26 763 1562 bf 41 26 804 1562 bf 0 1 0.0533333 c 41 26 845 1562
 bf 0 1 0.333333 c 42 26 886 1562 bf 41 26 928 1562 bf 41 26 969 1562 bf 0 1 0.0533333 c 41 26 1010 1562 bf 0 1 0.333333 c 42 26 1051 1562 bf 41 26 1093 1562 bf 41 26 1134 1562 bf 41 26 1175 1562 bf 0 1 0.0533333 c 42 26 1216 1562 bf 0 1 0.333333 c
 41 26 1258 1562 bf 41 26 1299 1562 bf 41 26 1340 1562 bf 0 1 0.0533333 c 41 26 1381 1562 bf 0 1 0.333333 c 42 26 1422 1562 bf 41 26 1464 1562 bf 41 26 1505 1562 bf 41 26 1546 1562 bf 0 1 0.0533333 c 42 26 1587 1562 bf 0 1 0.333333 c 41 26 1629 1562
 bf 41 26 1670 1562 bf 0 1 0.0533333 c 41 26 1711 1562 bf 0 1 0.333333 c 42 26 1752 1562 bf 41 26 1794 1562 bf 0 1 0.0533333 c 41 26 1835 1562 bf 0 1 0.333333 c 41 26 1876 1562 bf 0 1 0.0533333 c 41 26 1917 1562 bf 42 26 1958 1562 bf 0 0.546666 1 c
 41 26 2000 1562 bf 41 27 227 1588 bf 0 1 0.333333 c 41 27 268 1588 bf 0 1 0.0533333 c 41 27 309 1588 bf 42 27 350 1588 bf 41 27 392 1588 bf 41 27 433 1588 bf 41 27 474 1588 bf 42 27 515 1588 bf 0 1 0.333333 c 41 27 557 1588 bf 0 1 0.0533333 c 41 27
 598 1588 bf 0 1 0.333333 c 41 27 639 1588 bf 42 27 680 1588 bf 0 1 0.0533333 c 41 27 722 1588 bf 41 27 763 1588 bf 0 1 0.333333 c 41 27 804 1588 bf 0 1 0.0533333 c 41 27 845 1588 bf 0 1 0.333333 c 42 27 886 1588 bf 41 27 928 1588 bf 41 27 969 1588
 bf 41 27 1010 1588 bf 0 1 0.0533333 c 42 27 1051 1588 bf 0 1 0.333333 c 41 27 1093 1588 bf 41 27 1134 1588 bf 41 27 1175 1588 bf 42 27 1216 1588 bf 41 27 1258 1588 bf 41 27 1299 1588 bf 41 27 1340 1588 bf 0 1 0.0533333 c 41 27 1381 1588 bf 42 27
 1422 1588 bf 0 1 0.333333 c 41 27 1464 1588 bf 41 27 1505 1588 bf 0 1 0.0533333 c 41 27 1546 1588 bf 0 1 0.333333 c 42 27 1587 1588 bf 0 1 0.0533333 c 41 27 1629 1588 bf 41 27 1670 1588 bf 0 1 0.333333 c 41 27 1711 1588 bf 42 27 1752 1588 bf 41 27
 1794 1588 bf 41 27 1835 1588 bf 41 27 1876 1588 bf 41 27 1917 1588 bf 0 1 0.0533333 c 42 27 1958 1588 bf 0 0.546666 1 c 41 27 2000 1588 bf 41 26 227 1615 bf 0 1 0.0533333 c 41 26 268 1615 bf 41 26 309 1615 bf 42 26 350 1615 bf 41 26 392 1615 bf 0 1
 0.333333 c 41 26 433 1615 bf 0 1 0.0533333 c 41 26 474 1615 bf 42 26 515 1615 bf 41 26 557 1615 bf 0 1 0.333333 c 41 26 598 1615 bf 0 1 0.0533333 c 41 26 639 1615 bf 0 1 0.333333 c 42 26 680 1615 bf 0 1 0.0533333 c 41 26 722 1615 bf 0 1 0.333333 c
 41 26 763 1615 bf 0 1 0.0533333 c 41 26 804 1615 bf 0 1 0.333333 c 41 26 845 1615 bf 0 1 0.0533333 c 42 26 886 1615 bf 0 1 0.333333 c 41 26 928 1615 bf 0 1 0.0533333 c 41 26 969 1615 bf 0 1 0.333333 c 41 26 1010 1615 bf 42 26 1051 1615 bf 41 26 1093
 1615 bf 41 26 1134 1615 bf 41 26 1175 1615 bf 0 1 0.0533333 c 42 26 1216 1615 bf 0 1 0.333333 c 41 26 1258 1615 bf 41 26 1299 1615 bf 41 26 1340 1615 bf 0 1 0.0533333 c 41 26 1381 1615 bf 0 1 0.333333 c 42 26 1422 1615 bf 0 1 0.0533333 c 41 26 1464
 1615 bf 0 1 0.333333 c 41 26 1505 1615 bf 41 26 1546 1615 bf 42 26 1587 1615 bf 41 26 1629 1615 bf 41 26 1670 1615 bf 41 26 1711 1615 bf 42 26 1752 1615 bf 0 1 0.0533333 c 41 26 1794 1615 bf 41 26 1835 1615 bf 41 26 1876 1615 bf 41 26 1917 1615 bf
 42 26 1958 1615 bf 0 0.546666 1 c 41 26 2000 1615 bf 1 1 1 c black 227 182 m 1814 X s
 gsave  2268 1824 0 0 C 2006.87 72.8489 t 0 r /Symbol findfont 58.7491 sf 0 0 m (h) show NC gr  250 226 m -44 Y s 309 204 m -22 Y s 368 204 m -22 Y s 427 204 m -22 Y s 486 204 m -22 Y s 545 226 m -44 Y s 604 204 m -22 Y s 663 204 m -22 Y s 722 204 m
 -22 Y s 780 204 m -22 Y s 839 226 m -44 Y s 898 204 m -22 Y s 957 204 m -22 Y s 1016 204 m -22 Y s 1075 204 m -22 Y s 1134 226 m -44 Y s 1193 204 m -22 Y s 1252 204 m -22 Y s 1311 204 m -22 Y s 1369 204 m -22 Y s 1428 226 m -44 Y s 1487 204 m -22 Y
 s 1546 204 m -22 Y s 1605 204 m -22 Y s 1664 204 m -22 Y s 1723 226 m -44 Y s 1782 204 m -22 Y s 1841 204 m -22 Y s 1900 204 m -22 Y s 1958 204 m -22 Y s 2017 226 m -44 Y s 250 226 m -44 Y s 2017 226 m -44 Y s
 gsave  2268 1824 0 0 C 199.747 122.198 t 0 r /Helvetica findfont 58.7491 sf 0 0 m (\2550.3) show NC gr 
 gsave  2268 1824 0 0 C 493.493 122.198 t 0 r /Helvetica findfont 58.7491 sf 0 0 m (\2550.2) show NC gr 
 gsave  2268 1824 0 0 C 794.288 122.198 t 0 r /Helvetica findfont 58.7491 sf 0 0 m (\2550.1) show NC gr 
 gsave  2268 1824 0 0 C 1116.23 122.198 t 0 r /Helvetica findfont 58.7491 sf 0 0 m (0) show NC gr 
 gsave  2268 1824 0 0 C 1391.18 122.198 t 0 r /Helvetica findfont 58.7491 sf 0 0 m (0.1) show NC gr 
 gsave  2268 1824 0 0 C 1682.58 122.198 t 0 r /Helvetica findfont 58.7491 sf 0 0 m (0.2) show NC gr 
 gsave  2268 1824 0 0 C 1976.32 122.198 t 0 r /Helvetica findfont 58.7491 sf 0 0 m (0.3) show NC gr  227 182 m 1459 Y s
 gsave  2268 1824 0 0 C 108.098 1607.38 t 90 r /Symbol findfont 58.7491 sf 0 0 m (j) show NC gr  281 199 m -54 X s 254 270 m -27 X s 254 341 m -27 X s 254 412 m -27 X s 281 483 m -54 X s 254 554 m -27 X s 254 625 m -27 X s 254 696 m -27 X s 281 767 m
 -54 X s 254 838 m -27 X s 254 909 m -27 X s 254 980 m -27 X s 281 1051 m -54 X s 254 1122 m -27 X s 254 1193 m -27 X s 254 1264 m -27 X s 281 1335 m -54 X s 254 1406 m -27 X s 254 1477 m -27 X s 254 1548 m -27 X s 281 1619 m -54 X s 281 199 m -54 X
 s 281 1619 m -54 X s
 gsave  2268 1824 0 0 C 133.948 178.597 t 0 r /Helvetica findfont 58.7491 sf 0 0 m (1.8) show NC gr 
 gsave  2268 1824 0 0 C 183.297 460.593 t 0 r /Helvetica findfont 58.7491 sf 0 0 m (2) show NC gr 
 gsave  2268 1824 0 0 C 133.948 744.939 t 0 r /Helvetica findfont 58.7491 sf 0 0 m (2.2) show NC gr 
 gsave  2268 1824 0 0 C 133.948 1029.28 t 0 r /Helvetica findfont 58.7491 sf 0 0 m (2.4) show NC gr 
 gsave  2268 1824 0 0 C 133.948 1315.98 t 0 r /Helvetica findfont 58.7491 sf 0 0 m (2.6) show NC gr 
 gsave  2268 1824 0 0 C 133.948 1597.98 t 0 r /Helvetica findfont 58.7491 sf 0 0 m (2.8) show NC gr  1 1 1 c 1360 91 454 1723 bf black
 gsave  2268 1824 0 0 C 589.841 1755.42 t 0 r /Helvetica-Bold findfont 46.9993 sf 0 0 m ( distribution of R=0.4 jets  for lhc13c merged output) show NC gr 
 gsave  2268 1824 0 0 C 561.642 1755.42 t 0 r /Symbol findfont 46.9993 sf 0 0 m (j) show NC gr 
 gsave  2268 1824 0 0 C 547.542 1755.42 t 0 r /Helvetica-Bold findfont 46.9993 sf 0 0 m (\255) show NC gr 
 gsave  2268 1824 0 0 C 521.692 1755.42 t 0 r /Symbol findfont 46.9993 sf 0 0 m (h) show NC gr  0.386667 0 1 c 44 71 2053 199 bf 0.2 0 1 c 44 71 2053 270 bf 0 0.0800001 1 c 44 71 2053 341 bf 0 0.266667 1 c 44 71 2053 412 bf 0 0.546666 1 c 44 71 2053
 483 bf 0 0.733333 1 c 44 71 2053 554 bf 0 1 0.986667 c 44 71 2053 625 bf 0 1 0.8 c 44 71 2053 696 bf 0 1 0.52 c 44 71 2053 767 bf 0 1 0.333333 c 44 71 2053 838 bf 0 1 0.0533333 c 44 71 2053 909 bf 0.133333 1 0 c 44 71 2053 980 bf 0.413333 1 0 c 44
 71 2053 1051 bf 0.6 1 0 c 44 71 2053 1122 bf 0.88 1 0 c 44 71 2053 1193 bf 1 0.933333 0 c 44 71 2053 1264 bf 1 0.653333 0 c 44 71 2053 1335 bf 1 0.466667 0 c 44 71 2053 1406 bf 1 0.186667 0 c 44 71 2053 1477 bf 1 0 0 c 44 71 2053 1548 bf black 2097
 199 m 1420 Y s
 gsave  2268 1824 0 0 C 2232.47 1588.58 t 90 r /Symbol findfont 51.6992 sf 0 0 m (j) show NC gr 
 gsave  2268 1824 0 0 C 2232.47 1562.73 t 90 r /Helvetica findfont 51.6992 sf 0 0 m (d) show NC gr 
 gsave  2268 1824 0 0 C 2232.47 1534.53 t 90 r /Symbol findfont 51.6992 sf 0 0 m (h) show NC gr 
 gsave  2268 1824 0 0 C 2232.47 1489.88 t 90 r /Helvetica findfont 51.6992 sf 0 0 m (/d) show NC gr 
 gsave  2268 1824 0 0 C 2251.27 1452.28 t 90 r /Helvetica findfont 32.8995 sf 0 0 m (jet) show NC gr 
 gsave  2268 1824 0 0 C 2232.47 1374.73 t 90 r /Helvetica findfont 51.6992 sf 0 0 m ( dN) show NC gr 
 gsave  2268 1824 0 0 C 2248.92 1294.83 t 90 r /Helvetica findfont 32.8995 sf 0 0 m (event) show NC gr 
 gsave  2268 1824 0 0 C 2232.47 1217.28 t 90 r /Helvetica findfont 51.6992 sf 0 0 m (1/N) show NC gr  2044 199 m 53 X s 2044 341 m 53 X s 2044 483 m 53 X s 2044 625 m 53 X s 2044 767 m 53 X s 2044 909 m 53 X s 2044 1051 m 53 X s 2044 1193 m 53 X s
 2044 1335 m 53 X s 2044 1477 m 53 X s 2044 1619 m 53 X s
 gsave  2268 1824 0 0 C 2096.17 180.947 t 0 r /Helvetica findfont 51.6992 sf 0 0 m (0) show NC gr 
 gsave  2268 1824 0 0 C 2096.17 324.295 t 0 r /Helvetica findfont 51.6992 sf 0 0 m (0.01) show NC gr 
 gsave  2268 1824 0 0 C 2096.17 465.293 t 0 r /Helvetica findfont 51.6992 sf 0 0 m (0.02) show NC gr 
 gsave  2268 1824 0 0 C 2096.17 606.291 t 0 r /Helvetica findfont 51.6992 sf 0 0 m (0.03) show NC gr 
 gsave  2268 1824 0 0 C 2096.17 749.639 t 0 r /Helvetica findfont 51.6992 sf 0 0 m (0.04) show NC gr 
 gsave  2268 1824 0 0 C 2096.17 890.637 t 0 r /Helvetica findfont 51.6992 sf 0 0 m (0.05) show NC gr 
 gsave  2268 1824 0 0 C 2096.17 1033.98 t 0 r /Helvetica findfont 51.6992 sf 0 0 m (0.06) show NC gr 
 gsave  2268 1824 0 0 C 2096.17 1174.98 t 0 r /Helvetica findfont 51.6992 sf 0 0 m (0.07) show NC gr 
 gsave  2268 1824 0 0 C 2096.17 1318.33 t 0 r /Helvetica findfont 51.6992 sf 0 0 m (0.08) show NC gr 
 gsave  2268 1824 0 0 C 2096.17 1459.33 t 0 r /Helvetica findfont 51.6992 sf 0 0 m (0.09) show NC gr 
 gsave  2268 1824 0 0 C 2096.17 1600.33 t 0 r /Helvetica findfont 51.6992 sf 0 0 m (0.1) show NC gr  1 1 1 c 1360 91 454 1723 bf black
 gsave  2268 1824 0 0 C 589.841 1755.42 t 0 r /Helvetica-Bold findfont 46.9993 sf 0 0 m ( distribution of R=0.4 jets  for lhc13c merged output) show NC gr 
 gsave  2268 1824 0 0 C 561.642 1755.42 t 0 r /Symbol findfont 46.9993 sf 0 0 m (j) show NC gr 
 gsave  2268 1824 0 0 C 547.542 1755.42 t 0 r /Helvetica-Bold findfont 46.9993 sf 0 0 m (\255) show NC gr 
 gsave  2268 1824 0 0 C 521.692 1755.42 t 0 r /Symbol findfont 46.9993 sf 0 0 m (h) show NC gr 
 gr  gr showpage
end
%%EOF
