%!PS-Adobe-2.0 EPSF-2.0
%%BoundingBox:  0 0 567 398
%%Title: : 
%%Creator: ROOT Version 5.34/09
%%CreationDate: Fri Mar 28 14:55:23 2014
%%EndComments
%%BeginProlog
80 dict begin
/s {stroke} def /l {lineto} def /m {moveto} def /t {translate} def
/r {rotate} def /rl {roll}  def /R {repeat} def
/d {rlineto} def /rm {rmoveto} def /gr {grestore} def /f {eofill} def
/c {setrgbcolor} def /black {0 setgray} def /sd {setdash} def
/cl {closepath} def /sf {scalefont setfont} def /lw {setlinewidth} def
/box {m dup 0 exch d exch 0 d 0 exch neg d cl} def
/NC{systemdict begin initclip end}def/C{NC box clip newpath}def
/bl {box s} def /bf {box f} def /Y { 0 exch d} def /X { 0 d} def 
/K {{pop pop 0 moveto} exch kshow} bind def
/ita {/ang 15 def gsave [1 0 ang dup sin exch cos div 1 0 0] concat} def 
/mp {newpath /y exch def /x exch def} def
/side {[w .77 mul w .23 mul] .385 w mul sd w 0 l currentpoint t -144 r} def
/mr {mp x y w2 0 360 arc} def /m24 {mr s} def /m20 {mr f} def
/mb {mp x y w2 add m w2 neg 0 d 0 w neg d w 0 d 0 w d cl} def
/mt {mp x y w2 add m w2 neg w neg d w 0 d cl} def
/m21 {mb f} def /m25 {mb s} def /m22 {mt f} def /m26{mt s} def
/m23 {mp x y w2 sub m w2 w d w neg 0 d cl f} def
/m27 {mp x y w2 add m w3 neg w2 neg d w3 w2 neg d w3 w2 d cl s} def
/m28 {mp x w2 sub y w2 sub w3 add m w3 0 d  0 w3 neg d w3 0 d 0 w3 d w3 0 d  0 w3 d w3 neg 0 d 0 w3 d w3 neg 0 d 0 w3 neg d w3 neg 0 d cl s } def
/m29 {mp gsave x w2 sub y w2 add w3 sub m currentpoint t 4 {side} repeat cl fill gr} def
/m30 {mp gsave x w2 sub y w2 add w3 sub m currentpoint t 4 {side} repeat cl s gr} def
/m31 {mp x y w2 sub m 0 w d x w2 sub y m w 0 d x w2 sub y w2 add m w w neg d x w2 sub y w2 sub m w w d s} def
/m32 {mp x y w2 sub m w2 w d w neg 0 d cl s} def
/m33 {mp x y w2 add m w3 neg w2 neg d w3 w2 neg d w3 w2 d cl f} def
/m34 {mp x w2 sub y w2 sub w3 add m w3 0 d  0 w3 neg d w3 0 d 0 w3 d w3 0 d  0 w3 d w3 neg 0 d 0 w3 d w3 neg 0 d 0 w3 neg d w3 neg 0 d cl f } def
/m2 {mp x y w2 sub m 0 w d x w2 sub y m w 0 d s} def
/m5 {mp x w2 sub y w2 sub m w w d x w2 sub y w2 add m w w neg d s} def
/reEncode {exch findfont dup length dict begin {1 index /FID eq  {pop pop} {def} ifelse } forall /Encoding exch def currentdict end dup /FontName get exch definefont pop } def [/Times-Bold /Times-Italic /Times-BoldItalic /Helvetica /Helvetica-Oblique
 /Helvetica-Bold /Helvetica-BoldOblique /Courier /Courier-Oblique /Courier-Bold /Courier-BoldOblique /Times-Roman /AvantGarde-Book /AvantGarde-BookOblique /AvantGarde-Demi /AvantGarde-DemiOblique /Bookman-Demi /Bookman-DemiItalic /Bookman-Light
 /Bookman-LightItalic /Helvetica-Narrow /Helvetica-Narrow-Bold /Helvetica-Narrow-BoldOblique /Helvetica-Narrow-Oblique /NewCenturySchlbk-Roman /NewCenturySchlbk-Bold /NewCenturySchlbk-BoldItalic /NewCenturySchlbk-Italic /Palatino-Bold
 /Palatino-BoldItalic /Palatino-Italic /Palatino-Roman ] {ISOLatin1Encoding reEncode } forall
%%EndProlog
%%BeginSetup
%%EndSetup
newpath  gsave  .25 .25 scale  gsave  0 0 t black[  ] 0 sd 3 lw 0.999 0.999 0.999 c 2268 1594 0 0 bf black 0.999 0.999 0.999 c 1814 1276 227 159 bf black 1814 1276 227 159 bl 0 0 1 c 1 1 1 c 0 0 1 c 227 223 m 37 X s 280 223 m 37 X s /w 16 def /w2 {w
 2 div} def /w3 {w 3 div} def 272 223 m20 317 271 m 38 X s 371 271 m 37 X s 363 271 m20 408 314 m 37 X s 462 314 m 37 X s 454 314 m20 499 341 m 37 X s 552 341 m 38 X s 544 341 m20 590 362 m 37 X s 643 362 m 37 X s 635 362 m20 680 383 m 37 X s 734 383
 m 37 X s 726 383 m20 771 402 m 37 X s 825 402 m 37 X s 816 402 m20 862 418 m 37 X s 915 418 m 37 X s 907 418 m20 952 431 m 38 X s 1006 431 m 37 X s 998 431 m20 1043 445 m 37 X s 1097 445 m 37 X s 1089 445 m20 1179 445 m s 1179 461 m s 1134 453 m 37
 X s 1187 453 m 38 X s 1179 453 m20 1270 474 m 4 Y s 1270 495 m 4 Y s 1225 486 m 37 X s 1278 486 m 37 X s 1270 486 m20 1361 488 m 9 Y s 1361 513 m 9 Y s 1315 505 m 37 X s 1369 505 m 37 X s 1361 505 m20 1451 498 m 17 Y s 1451 531 m 17 Y s 1406 523 m
 37 X s 1460 523 m 37 X s 1451 523 m20 1542 504 m 15 Y s 1542 535 m 15 Y s 1497 527 m 37 X s 1550 527 m 37 X s 1542 527 m20 1633 492 m 31 Y s 1633 539 m 31 Y s 1587 531 m 38 X s 1641 531 m 37 X s 1633 531 m20 1723 482 m 29 Y s 1723 527 m 29 Y s 1678
 519 m 37 X s 1732 519 m 37 X s 1723 519 m20 1814 463 m 39 Y s 1814 518 m 39 Y s 1769 510 m 37 X s 1822 510 m 38 X s 1814 510 m20 1905 523 m 43 Y s 1905 582 m 43 Y s 1860 574 m 37 X s 1913 574 m 37 X s 1905 574 m20 1996 467 m 32 Y s 1996 515 m 32 Y s
 1950 507 m 37 X s 2004 507 m 37 X s 1996 507 m20 black 227 159 m 1814 X s
 gsave  2268 1594 0 0 C 1891.82 47.2441 t 0 r /Helvetica findfont 51.3523 sf 0 0 m ( \(GeV\)) show NC gr 
 gsave  2268 1594 0 0 C 1787.06 67.785 t 0 r /Helvetica findfont 34.9195 sf 0 0 m (ch+em) show NC gr 
 gsave  2268 1594 0 0 C 1787.06 18.4868 t 0 r /Helvetica findfont 34.9195 sf 0 0 m (T,jet) show NC gr 
 gsave  2268 1594 0 0 C 1758.3 47.2441 t 0 r /Helvetica findfont 51.3523 sf 0 0 m (p) show NC gr  227 198 m -39 Y s 263 179 m -20 Y s 299 179 m -20 Y s 336 179 m -20 Y s 372 179 m -20 Y s 408 198 m -39 Y s 444 179 m -20 Y s 481 179 m -20 Y s 517 179
 m -20 Y s 553 179 m -20 Y s 590 198 m -39 Y s 626 179 m -20 Y s 662 179 m -20 Y s 698 179 m -20 Y s 735 179 m -20 Y s 771 198 m -39 Y s 807 179 m -20 Y s 844 179 m -20 Y s 880 179 m -20 Y s 916 179 m -20 Y s 952 198 m -39 Y s 989 179 m -20 Y s 1025
 179 m -20 Y s 1061 179 m -20 Y s 1098 179 m -20 Y s 1134 198 m -39 Y s 1170 179 m -20 Y s 1206 179 m -20 Y s 1243 179 m -20 Y s 1279 179 m -20 Y s 1315 198 m -39 Y s 1352 179 m -20 Y s 1388 179 m -20 Y s 1424 179 m -20 Y s 1460 179 m -20 Y s 1497
 198 m -39 Y s 1533 179 m -20 Y s 1569 179 m -20 Y s 1606 179 m -20 Y s 1642 179 m -20 Y s 1678 198 m -39 Y s 1714 179 m -20 Y s 1751 179 m -20 Y s 1787 179 m -20 Y s 1823 179 m -20 Y s 1860 198 m -39 Y s 1896 179 m -20 Y s 1932 179 m -20 Y s 1968
 179 m -20 Y s 2005 179 m -20 Y s 2041 198 m -39 Y s
 gsave  2268 1594 0 0 C 211.571 106.813 t 0 r /Helvetica findfont 51.3523 sf 0 0 m (0) show NC gr 
 gsave  2268 1594 0 0 C 377.953 106.813 t 0 r /Helvetica findfont 51.3523 sf 0 0 m (10) show NC gr 
 gsave  2268 1594 0 0 C 560.767 106.813 t 0 r /Helvetica findfont 51.3523 sf 0 0 m (20) show NC gr 
 gsave  2268 1594 0 0 C 741.527 106.813 t 0 r /Helvetica findfont 51.3523 sf 0 0 m (30) show NC gr 
 gsave  2268 1594 0 0 C 922.287 106.813 t 0 r /Helvetica findfont 51.3523 sf 0 0 m (40) show NC gr 
 gsave  2268 1594 0 0 C 1105.1 106.813 t 0 r /Helvetica findfont 51.3523 sf 0 0 m (50) show NC gr 
 gsave  2268 1594 0 0 C 1285.86 106.813 t 0 r /Helvetica findfont 51.3523 sf 0 0 m (60) show NC gr 
 gsave  2268 1594 0 0 C 1466.62 106.813 t 0 r /Helvetica findfont 51.3523 sf 0 0 m (70) show NC gr 
 gsave  2268 1594 0 0 C 1647.38 106.813 t 0 r /Helvetica findfont 51.3523 sf 0 0 m (80) show NC gr 
 gsave  2268 1594 0 0 C 1830.2 106.813 t 0 r /Helvetica findfont 51.3523 sf 0 0 m (90) show NC gr 
 gsave  2268 1594 0 0 C 1996.58 106.813 t 0 r /Helvetica findfont 51.3523 sf 0 0 m (100) show NC gr  227 159 m 1276 Y s
 gsave  2268 1594 0 0 C 78.0555 1257.1 t 90 r /Helvetica findfont 51.3523 sf 0 0 m (> \(GeV\)) show NC gr 
 gsave  2268 1594 0 0 C 104.759 1057.86 t 90 r /Helvetica findfont 34.9195 sf 0 0 m (T,constituent) show NC gr 
 gsave  2268 1594 0 0 C 78.0555 1000.34 t 90 r /Helvetica findfont 51.3523 sf 0 0 m (<p) show NC gr  281 159 m -54 X s 254 191 m -27 X s 254 223 m -27 X s 254 255 m -27 X s 281 287 m -54 X s 254 319 m -27 X s 254 351 m -27 X s 254 383 m -27 X s 281
 414 m -54 X s 254 446 m -27 X s 254 478 m -27 X s 254 510 m -27 X s 281 542 m -54 X s 254 574 m -27 X s 254 606 m -27 X s 254 638 m -27 X s 281 669 m -54 X s 254 701 m -27 X s 254 733 m -27 X s 254 765 m -27 X s 281 797 m -54 X s 254 829 m -27 X s
 254 861 m -27 X s 254 893 m -27 X s 281 925 m -54 X s 254 956 m -27 X s 254 988 m -27 X s 254 1020 m -27 X s 281 1052 m -54 X s 254 1084 m -27 X s 254 1116 m -27 X s 254 1148 m -27 X s 281 1180 m -54 X s 254 1211 m -27 X s 254 1243 m -27 X s 254
 1275 m -27 X s 281 1307 m -54 X s 254 1339 m -27 X s 254 1371 m -27 X s 254 1403 m -27 X s 281 1435 m -54 X s
 gsave  2268 1594 0 0 C 186.922 141.732 t 0 r /Helvetica findfont 51.3523 sf 0 0 m (0) show NC gr 
 gsave  2268 1594 0 0 C 186.922 267.032 t 0 r /Helvetica findfont 51.3523 sf 0 0 m (2) show NC gr 
 gsave  2268 1594 0 0 C 186.922 394.385 t 0 r /Helvetica findfont 51.3523 sf 0 0 m (4) show NC gr 
 gsave  2268 1594 0 0 C 186.922 523.793 t 0 r /Helvetica findfont 51.3523 sf 0 0 m (6) show NC gr 
 gsave  2268 1594 0 0 C 186.922 651.147 t 0 r /Helvetica findfont 51.3523 sf 0 0 m (8) show NC gr 
 gsave  2268 1594 0 0 C 158.165 778.5 t 0 r /Helvetica findfont 51.3523 sf 0 0 m (10) show NC gr 
 gsave  2268 1594 0 0 C 158.165 905.854 t 0 r /Helvetica findfont 51.3523 sf 0 0 m (12) show NC gr 
 gsave  2268 1594 0 0 C 158.165 1033.21 t 0 r /Helvetica findfont 51.3523 sf 0 0 m (14) show NC gr 
 gsave  2268 1594 0 0 C 158.165 1162.62 t 0 r /Helvetica findfont 51.3523 sf 0 0 m (16) show NC gr 
 gsave  2268 1594 0 0 C 158.165 1289.97 t 0 r /Helvetica findfont 51.3523 sf 0 0 m (18) show NC gr 
 gsave  2268 1594 0 0 C 158.165 1417.32 t 0 r /Helvetica findfont 51.3523 sf 0 0 m (20) show NC gr  1 1 1 c black 227 225 m 37 X s 280 225 m 37 X s 272 225 m21 317 288 m 38 X s 371 288 m 37 X s 363 288 m21 408 348 m 37 X s 462 348 m 37 X s 454 348
 m21 499 387 m 37 X s 552 387 m 38 X s 544 387 m21 590 417 m 37 X s 643 417 m 37 X s 635 417 m21 680 445 m 37 X s 734 445 m 37 X s 726 445 m21 771 477 m 37 X s 825 477 m 37 X s 816 477 m21 862 494 m 37 X s 915 494 m 37 X s 907 494 m21 952 508 m 38 X
 s 1006 508 m 37 X s 998 508 m21 1089 530 m 3 Y s 1089 549 m 3 Y s 1043 541 m 37 X s 1097 541 m 37 X s 1089 541 m21 1179 532 m 5 Y s 1179 553 m 5 Y s 1134 545 m 37 X s 1187 545 m 38 X s 1179 545 m21 1270 579 m 13 Y s 1270 609 m 13 Y s 1225 601 m 37 X
 s 1278 601 m 37 X s 1270 601 m21 1361 599 m 18 Y s 1361 633 m 18 Y s 1315 625 m 37 X s 1369 625 m 37 X s 1361 625 m21 1451 583 m 30 Y s 1451 629 m 30 Y s 1406 621 m 37 X s 1460 621 m 37 X s 1451 621 m21 1542 576 m 25 Y s 1542 617 m 26 Y s 1497 609 m
 37 X s 1550 609 m 37 X s 1542 609 m21 1633 580 m 50 Y s 1633 647 m 49 Y s 1587 638 m 38 X s 1641 638 m 37 X s 1633 638 m21 1723 665 m 59 Y s 1723 741 m 59 Y s 1678 733 m 37 X s 1732 733 m 37 X s 1723 733 m21 1814 544 m 63 Y s 1814 624 m 63 Y s 1769
 615 m 37 X s 1822 615 m 38 X s 1814 615 m21 1905 589 m 60 Y s 1905 666 m 60 Y s 1860 658 m 37 X s 1913 658 m 37 X s 1905 658 m21 1996 580 m 72 Y s 1996 668 m 72 Y s 1950 660 m 37 X s 2004 660 m 37 X s 1996 660 m21 1 0 0 c 1 1 1 c 1 0 0 c 227 217 m
 37 X s 280 217 m 37 X s 272 217 m24 317 241 m 38 X s 371 241 m 37 X s 363 241 m24 408 267 m 37 X s 462 267 m 37 X s 454 267 m24 499 283 m 37 X s 552 283 m 38 X s 544 283 m24 590 298 m 37 X s 643 298 m 37 X s 635 298 m24 680 315 m 37 X s 734 315 m 37
 X s 726 315 m24 771 320 m 37 X s 825 320 m 37 X s 816 320 m24 862 339 m 37 X s 915 339 m 37 X s 907 339 m24 952 347 m 38 X s 1006 347 m 37 X s 998 347 m24 1043 351 m 37 X s 1097 351 m 37 X s 1089 351 m24 1179 349 m 1 Y s 1179 366 m 2 Y s 1134 358 m
 37 X s 1187 358 m 38 X s 1179 358 m24 1270 358 m 5 Y s 1270 380 m 5 Y s 1225 372 m 37 X s 1278 372 m 37 X s 1270 372 m24 1361 375 m 11 Y s 1361 402 m 12 Y s 1315 394 m 37 X s 1369 394 m 37 X s 1361 394 m24 1451 401 m 25 Y s 1451 442 m 24 Y s 1406
 434 m 37 X s 1460 434 m 37 X s 1451 434 m24 1542 418 m 21 Y s 1542 456 m 21 Y s 1497 448 m 37 X s 1550 448 m 37 X s 1542 448 m24 1633 370 m 42 Y s 1633 428 m 42 Y s 1587 420 m 38 X s 1641 420 m 37 X s 1633 420 m24 1723 340 m 28 Y s 1723 385 m 28 Y s
 1678 376 m 37 X s 1732 376 m 37 X s 1723 376 m24 1814 343 m 49 Y s 1814 409 m 50 Y s 1769 401 m 37 X s 1822 401 m 38 X s 1814 401 m24 1905 420 m 65 Y s 1905 501 m 66 Y s 1860 493 m 37 X s 1913 493 m 37 X s 1905 493 m24 1996 368 m 22 Y s 1996 407 m
 23 Y s 1950 399 m 37 X s 2004 399 m 37 X s 1996 399 m24 black
 gsave  2268 1594 0 0 C 1035.26 1308.46 t 0 r /Helvetica-Bold findfont 45.19 sf 0 0 m ( distribution for lhc13c merged output) show NC gr 
 gsave  2268 1594 0 0 C 1016.78 1285.86 t 0 r /Helvetica-Bold findfont 28.7573 sf 0 0 m (T) show NC gr 
 gsave  2268 1594 0 0 C 497.09 1308.46 t 0 r /Helvetica-Bold findfont 45.19 sf 0 0 m (Jet R = 0.2 constituent p) show NC gr  1 1 1 c 680 239 340 717 bf black
 gsave  2268 1594 0 0 C 509.415 893.53 t 0 r /Helvetica-Bold findfont 63.6768 sf 0 0 m (Total) show NC gr  0 0 1 c 425 917 m20 black
 gsave  2268 1594 0 0 C 509.415 819.582 t 0 r /Helvetica-Bold findfont 63.6768 sf 0 0 m (Charged) show NC gr  425 837 m21
 gsave  2268 1594 0 0 C 509.415 733.31 t 0 r /Helvetica-Bold findfont 63.6768 sf 0 0 m (Neutral) show NC gr  1 0 0 c 425 757 m24
 gr  gr showpage
end
%%EOF
