%!PS-Adobe-2.0 EPSF-2.0
%%BoundingBox:  0 0 567 398
%%Title: : 
%%Creator: ROOT Version 5.34/09
%%CreationDate: Fri Mar 28 14:55:23 2014
%%EndComments
%%BeginProlog
80 dict begin
/s {stroke} def /l {lineto} def /m {moveto} def /t {translate} def
/r {rotate} def /rl {roll}  def /R {repeat} def
/d {rlineto} def /rm {rmoveto} def /gr {grestore} def /f {eofill} def
/c {setrgbcolor} def /black {0 setgray} def /sd {setdash} def
/cl {closepath} def /sf {scalefont setfont} def /lw {setlinewidth} def
/box {m dup 0 exch d exch 0 d 0 exch neg d cl} def
/NC{systemdict begin initclip end}def/C{NC box clip newpath}def
/bl {box s} def /bf {box f} def /Y { 0 exch d} def /X { 0 d} def 
/K {{pop pop 0 moveto} exch kshow} bind def
/ita {/ang 15 def gsave [1 0 ang dup sin exch cos div 1 0 0] concat} def 
/mp {newpath /y exch def /x exch def} def
/side {[w .77 mul w .23 mul] .385 w mul sd w 0 l currentpoint t -144 r} def
/mr {mp x y w2 0 360 arc} def /m24 {mr s} def /m20 {mr f} def
/mb {mp x y w2 add m w2 neg 0 d 0 w neg d w 0 d 0 w d cl} def
/mt {mp x y w2 add m w2 neg w neg d w 0 d cl} def
/m21 {mb f} def /m25 {mb s} def /m22 {mt f} def /m26{mt s} def
/m23 {mp x y w2 sub m w2 w d w neg 0 d cl f} def
/m27 {mp x y w2 add m w3 neg w2 neg d w3 w2 neg d w3 w2 d cl s} def
/m28 {mp x w2 sub y w2 sub w3 add m w3 0 d  0 w3 neg d w3 0 d 0 w3 d w3 0 d  0 w3 d w3 neg 0 d 0 w3 d w3 neg 0 d 0 w3 neg d w3 neg 0 d cl s } def
/m29 {mp gsave x w2 sub y w2 add w3 sub m currentpoint t 4 {side} repeat cl fill gr} def
/m30 {mp gsave x w2 sub y w2 add w3 sub m currentpoint t 4 {side} repeat cl s gr} def
/m31 {mp x y w2 sub m 0 w d x w2 sub y m w 0 d x w2 sub y w2 add m w w neg d x w2 sub y w2 sub m w w d s} def
/m32 {mp x y w2 sub m w2 w d w neg 0 d cl s} def
/m33 {mp x y w2 add m w3 neg w2 neg d w3 w2 neg d w3 w2 d cl f} def
/m34 {mp x w2 sub y w2 sub w3 add m w3 0 d  0 w3 neg d w3 0 d 0 w3 d w3 0 d  0 w3 d w3 neg 0 d 0 w3 d w3 neg 0 d 0 w3 neg d w3 neg 0 d cl f } def
/m2 {mp x y w2 sub m 0 w d x w2 sub y m w 0 d s} def
/m5 {mp x w2 sub y w2 sub m w w d x w2 sub y w2 add m w w neg d s} def
/reEncode {exch findfont dup length dict begin {1 index /FID eq  {pop pop} {def} ifelse } forall /Encoding exch def currentdict end dup /FontName get exch definefont pop } def [/Times-Bold /Times-Italic /Times-BoldItalic /Helvetica /Helvetica-Oblique
 /Helvetica-Bold /Helvetica-BoldOblique /Courier /Courier-Oblique /Courier-Bold /Courier-BoldOblique /Times-Roman /AvantGarde-Book /AvantGarde-BookOblique /AvantGarde-Demi /AvantGarde-DemiOblique /Bookman-Demi /Bookman-DemiItalic /Bookman-Light
 /Bookman-LightItalic /Helvetica-Narrow /Helvetica-Narrow-Bold /Helvetica-Narrow-BoldOblique /Helvetica-Narrow-Oblique /NewCenturySchlbk-Roman /NewCenturySchlbk-Bold /NewCenturySchlbk-BoldItalic /NewCenturySchlbk-Italic /Palatino-Bold
 /Palatino-BoldItalic /Palatino-Italic /Palatino-Roman ] {ISOLatin1Encoding reEncode } forall
%%EndProlog
%%BeginSetup
%%EndSetup
newpath  gsave  .25 .25 scale  gsave  0 0 t black[  ] 0 sd 3 lw 0.999 0.999 0.999 c 2268 1594 0 0 bf black 0.999 0.999 0.999 c 1814 1276 227 159 bf black 1814 1276 227 159 bl 0 0 1 c 1 1 1 c 0 0 1 c 227 208 m 37 X s 280 208 m 37 X s /w 16 def /w2 {w
 2 div} def /w3 {w 3 div} def 272 208 m20 317 226 m 38 X s 371 226 m 37 X s 363 226 m20 408 243 m 37 X s 462 243 m 37 X s 454 243 m20 499 262 m 37 X s 552 262 m 38 X s 544 262 m20 590 280 m 37 X s 643 280 m 37 X s 635 280 m20 680 297 m 37 X s 734 297
 m 37 X s 726 297 m20 771 309 m 37 X s 825 309 m 37 X s 816 309 m20 862 325 m 37 X s 915 325 m 37 X s 907 325 m20 952 342 m 38 X s 1006 342 m 37 X s 998 342 m20 1043 349 m 37 X s 1097 349 m 37 X s 1089 349 m20 1134 359 m 37 X s 1187 359 m 38 X s 1179
 359 m20 1225 376 m 37 X s 1278 376 m 37 X s 1270 376 m20 1361 383 m 7 Y s 1361 407 m 6 Y s 1315 398 m 37 X s 1369 398 m 37 X s 1361 398 m20 1451 398 m 7 Y s 1451 422 m 7 Y s 1406 413 m 37 X s 1460 413 m 37 X s 1451 413 m20 1542 402 m 11 Y s 1542 429
 m 11 Y s 1497 421 m 37 X s 1550 421 m 37 X s 1542 421 m20 1633 416 m 20 Y s 1633 453 m 20 Y s 1587 444 m 38 X s 1641 444 m 37 X s 1633 444 m20 1723 369 m 38 Y s 1723 423 m 38 Y s 1678 415 m 37 X s 1732 415 m 37 X s 1723 415 m20 1814 366 m 20 Y s
 1814 403 m 20 Y s 1769 394 m 37 X s 1822 394 m 38 X s 1814 394 m20 1905 378 m 33 Y s 1905 427 m 33 Y s 1860 419 m 37 X s 1913 419 m 37 X s 1905 419 m20 1996 331 m 41 Y s 1996 388 m 41 Y s 1950 380 m 37 X s 2004 380 m 37 X s 1996 380 m20 black 227
 159 m 1814 X s
 gsave  2268 1594 0 0 C 1891.82 47.2441 t 0 r /Helvetica findfont 51.3523 sf 0 0 m ( \(GeV\)) show NC gr 
 gsave  2268 1594 0 0 C 1787.06 67.785 t 0 r /Helvetica findfont 34.9195 sf 0 0 m (ch+em) show NC gr 
 gsave  2268 1594 0 0 C 1787.06 18.4868 t 0 r /Helvetica findfont 34.9195 sf 0 0 m (T,jet) show NC gr 
 gsave  2268 1594 0 0 C 1758.3 47.2441 t 0 r /Helvetica findfont 51.3523 sf 0 0 m (p) show NC gr  227 198 m -39 Y s 263 179 m -20 Y s 299 179 m -20 Y s 336 179 m -20 Y s 372 179 m -20 Y s 408 198 m -39 Y s 444 179 m -20 Y s 481 179 m -20 Y s 517 179
 m -20 Y s 553 179 m -20 Y s 590 198 m -39 Y s 626 179 m -20 Y s 662 179 m -20 Y s 698 179 m -20 Y s 735 179 m -20 Y s 771 198 m -39 Y s 807 179 m -20 Y s 844 179 m -20 Y s 880 179 m -20 Y s 916 179 m -20 Y s 952 198 m -39 Y s 989 179 m -20 Y s 1025
 179 m -20 Y s 1061 179 m -20 Y s 1098 179 m -20 Y s 1134 198 m -39 Y s 1170 179 m -20 Y s 1206 179 m -20 Y s 1243 179 m -20 Y s 1279 179 m -20 Y s 1315 198 m -39 Y s 1352 179 m -20 Y s 1388 179 m -20 Y s 1424 179 m -20 Y s 1460 179 m -20 Y s 1497
 198 m -39 Y s 1533 179 m -20 Y s 1569 179 m -20 Y s 1606 179 m -20 Y s 1642 179 m -20 Y s 1678 198 m -39 Y s 1714 179 m -20 Y s 1751 179 m -20 Y s 1787 179 m -20 Y s 1823 179 m -20 Y s 1860 198 m -39 Y s 1896 179 m -20 Y s 1932 179 m -20 Y s 1968
 179 m -20 Y s 2005 179 m -20 Y s 2041 198 m -39 Y s
 gsave  2268 1594 0 0 C 211.571 106.813 t 0 r /Helvetica findfont 51.3523 sf 0 0 m (0) show NC gr 
 gsave  2268 1594 0 0 C 377.953 106.813 t 0 r /Helvetica findfont 51.3523 sf 0 0 m (10) show NC gr 
 gsave  2268 1594 0 0 C 560.767 106.813 t 0 r /Helvetica findfont 51.3523 sf 0 0 m (20) show NC gr 
 gsave  2268 1594 0 0 C 741.527 106.813 t 0 r /Helvetica findfont 51.3523 sf 0 0 m (30) show NC gr 
 gsave  2268 1594 0 0 C 922.287 106.813 t 0 r /Helvetica findfont 51.3523 sf 0 0 m (40) show NC gr 
 gsave  2268 1594 0 0 C 1105.1 106.813 t 0 r /Helvetica findfont 51.3523 sf 0 0 m (50) show NC gr 
 gsave  2268 1594 0 0 C 1285.86 106.813 t 0 r /Helvetica findfont 51.3523 sf 0 0 m (60) show NC gr 
 gsave  2268 1594 0 0 C 1466.62 106.813 t 0 r /Helvetica findfont 51.3523 sf 0 0 m (70) show NC gr 
 gsave  2268 1594 0 0 C 1647.38 106.813 t 0 r /Helvetica findfont 51.3523 sf 0 0 m (80) show NC gr 
 gsave  2268 1594 0 0 C 1830.2 106.813 t 0 r /Helvetica findfont 51.3523 sf 0 0 m (90) show NC gr 
 gsave  2268 1594 0 0 C 1996.58 106.813 t 0 r /Helvetica findfont 51.3523 sf 0 0 m (100) show NC gr  227 159 m 1276 Y s
 gsave  2268 1594 0 0 C 78.0555 1257.1 t 90 r /Helvetica findfont 51.3523 sf 0 0 m (> \(GeV\)) show NC gr 
 gsave  2268 1594 0 0 C 104.759 1057.86 t 90 r /Helvetica findfont 34.9195 sf 0 0 m (T,constituent) show NC gr 
 gsave  2268 1594 0 0 C 78.0555 1000.34 t 90 r /Helvetica findfont 51.3523 sf 0 0 m (<p) show NC gr  281 159 m -54 X s 254 191 m -27 X s 254 223 m -27 X s 254 255 m -27 X s 281 287 m -54 X s 254 319 m -27 X s 254 351 m -27 X s 254 383 m -27 X s 281
 414 m -54 X s 254 446 m -27 X s 254 478 m -27 X s 254 510 m -27 X s 281 542 m -54 X s 254 574 m -27 X s 254 606 m -27 X s 254 638 m -27 X s 281 669 m -54 X s 254 701 m -27 X s 254 733 m -27 X s 254 765 m -27 X s 281 797 m -54 X s 254 829 m -27 X s
 254 861 m -27 X s 254 893 m -27 X s 281 925 m -54 X s 254 956 m -27 X s 254 988 m -27 X s 254 1020 m -27 X s 281 1052 m -54 X s 254 1084 m -27 X s 254 1116 m -27 X s 254 1148 m -27 X s 281 1180 m -54 X s 254 1211 m -27 X s 254 1243 m -27 X s 254
 1275 m -27 X s 281 1307 m -54 X s 254 1339 m -27 X s 254 1371 m -27 X s 254 1403 m -27 X s 281 1435 m -54 X s
 gsave  2268 1594 0 0 C 186.922 141.732 t 0 r /Helvetica findfont 51.3523 sf 0 0 m (0) show NC gr 
 gsave  2268 1594 0 0 C 186.922 267.032 t 0 r /Helvetica findfont 51.3523 sf 0 0 m (2) show NC gr 
 gsave  2268 1594 0 0 C 186.922 394.385 t 0 r /Helvetica findfont 51.3523 sf 0 0 m (4) show NC gr 
 gsave  2268 1594 0 0 C 186.922 523.793 t 0 r /Helvetica findfont 51.3523 sf 0 0 m (6) show NC gr 
 gsave  2268 1594 0 0 C 186.922 651.147 t 0 r /Helvetica findfont 51.3523 sf 0 0 m (8) show NC gr 
 gsave  2268 1594 0 0 C 158.165 778.5 t 0 r /Helvetica findfont 51.3523 sf 0 0 m (10) show NC gr 
 gsave  2268 1594 0 0 C 158.165 905.854 t 0 r /Helvetica findfont 51.3523 sf 0 0 m (12) show NC gr 
 gsave  2268 1594 0 0 C 158.165 1033.21 t 0 r /Helvetica findfont 51.3523 sf 0 0 m (14) show NC gr 
 gsave  2268 1594 0 0 C 158.165 1162.62 t 0 r /Helvetica findfont 51.3523 sf 0 0 m (16) show NC gr 
 gsave  2268 1594 0 0 C 158.165 1289.97 t 0 r /Helvetica findfont 51.3523 sf 0 0 m (18) show NC gr 
 gsave  2268 1594 0 0 C 158.165 1417.32 t 0 r /Helvetica findfont 51.3523 sf 0 0 m (20) show NC gr  1 1 1 c black 227 209 m 37 X s 280 209 m 37 X s 272 209 m21 317 230 m 38 X s 371 230 m 37 X s 363 230 m21 408 251 m 37 X s 462 251 m 37 X s 454 251
 m21 499 275 m 37 X s 552 275 m 38 X s 544 275 m21 590 298 m 37 X s 643 298 m 37 X s 635 298 m21 680 320 m 37 X s 734 320 m 37 X s 726 320 m21 771 338 m 37 X s 825 338 m 37 X s 816 338 m21 862 358 m 37 X s 915 358 m 37 X s 907 358 m21 952 384 m 38 X
 s 1006 384 m 37 X s 998 384 m21 1043 392 m 37 X s 1097 392 m 37 X s 1089 392 m21 1179 390 m 2 Y s 1179 408 m 1 Y s 1134 400 m 37 X s 1187 400 m 38 X s 1179 400 m21 1270 413 m 4 Y s 1270 434 m 3 Y s 1225 425 m 37 X s 1278 425 m 37 X s 1270 425 m21
 1361 451 m 17 Y s 1361 484 m 17 Y s 1315 476 m 37 X s 1369 476 m 37 X s 1361 476 m21 1451 453 m 15 Y s 1451 484 m 15 Y s 1406 476 m 37 X s 1460 476 m 37 X s 1451 476 m21 1542 454 m 21 Y s 1542 491 m 21 Y s 1497 483 m 37 X s 1550 483 m 37 X s 1542
 483 m21 1633 461 m 38 Y s 1633 516 m 38 Y s 1587 508 m 38 X s 1641 508 m 37 X s 1633 508 m21 1723 411 m 54 Y s 1723 482 m 54 Y s 1678 474 m 37 X s 1732 474 m 37 X s 1723 474 m21 1814 425 m 33 Y s 1814 474 m 32 Y s 1769 466 m 37 X s 1822 466 m 38 X s
 1814 466 m21 1905 435 m 53 Y s 1905 505 m 52 Y s 1860 496 m 37 X s 1913 496 m 37 X s 1905 496 m21 1996 343 m 84 Y s 1996 443 m 83 Y s 1950 435 m 37 X s 2004 435 m 37 X s 1996 435 m21 1 0 0 c 1 1 1 c 1 0 0 c 227 206 m 37 X s 280 206 m 37 X s 272 206
 m24 317 216 m 38 X s 371 216 m 37 X s 363 216 m24 408 227 m 37 X s 462 227 m 37 X s 454 227 m24 499 239 m 37 X s 552 239 m 38 X s 544 239 m24 590 251 m 37 X s 643 251 m 37 X s 635 251 m24 680 263 m 37 X s 734 263 m 37 X s 726 263 m24 771 270 m 37 X
 s 825 270 m 37 X s 816 270 m24 862 281 m 37 X s 915 281 m 37 X s 907 281 m24 952 289 m 38 X s 1006 289 m 37 X s 998 289 m24 1043 296 m 37 X s 1097 296 m 37 X s 1089 296 m24 1134 313 m 37 X s 1187 313 m 38 X s 1179 313 m24 1270 308 m 1 Y s 1270 325 m
 1 Y s 1225 317 m 37 X s 1278 317 m 37 X s 1270 317 m24 1361 300 m 6 Y s 1361 322 m 6 Y s 1315 314 m 37 X s 1369 314 m 37 X s 1361 314 m24 1451 324 m 12 Y s 1451 352 m 12 Y s 1406 344 m 37 X s 1460 344 m 37 X s 1451 344 m24 1542 326 m 14 Y s 1542 357
 m 15 Y s 1497 349 m 37 X s 1550 349 m 37 X s 1542 349 m24 1633 347 m 23 Y s 1633 387 m 23 Y s 1587 379 m 38 X s 1641 379 m 37 X s 1633 379 m24 1723 283 m 58 Y s 1723 358 m 58 Y s 1678 350 m 37 X s 1732 350 m 37 X s 1723 350 m24 1814 292 m 31 Y s
 1814 339 m 31 Y s 1769 331 m 37 X s 1822 331 m 38 X s 1814 331 m24 1905 278 m 39 Y s 1905 333 m 40 Y s 1860 325 m 37 X s 1913 325 m 37 X s 1905 325 m24 1996 292 m 25 Y s 1996 334 m 25 Y s 1950 326 m 37 X s 2004 326 m 37 X s 1996 326 m24 black
 gsave  2268 1594 0 0 C 1035.26 1308.46 t 0 r /Helvetica-Bold findfont 45.19 sf 0 0 m ( distribution for lhc13c merged output) show NC gr 
 gsave  2268 1594 0 0 C 1016.78 1285.86 t 0 r /Helvetica-Bold findfont 28.7573 sf 0 0 m (T) show NC gr 
 gsave  2268 1594 0 0 C 497.09 1308.46 t 0 r /Helvetica-Bold findfont 45.19 sf 0 0 m (Jet R = 0.4 constituent p) show NC gr  1 1 1 c 680 239 340 717 bf black
 gsave  2268 1594 0 0 C 509.415 893.53 t 0 r /Helvetica-Bold findfont 63.6768 sf 0 0 m (Total) show NC gr  0 0 1 c 425 917 m20 black
 gsave  2268 1594 0 0 C 509.415 819.582 t 0 r /Helvetica-Bold findfont 63.6768 sf 0 0 m (Charged) show NC gr  425 837 m21
 gsave  2268 1594 0 0 C 509.415 733.31 t 0 r /Helvetica-Bold findfont 63.6768 sf 0 0 m (Neutral) show NC gr  1 0 0 c 425 757 m24
 gr  gr showpage
end
%%EOF
