%!PS-Adobe-2.0 EPSF-2.0
%%BoundingBox:  0 0 567 398
%%Title: : 
%%Creator: ROOT Version 5.34/09
%%CreationDate: Fri Mar 28 14:55:23 2014
%%EndComments
%%BeginProlog
80 dict begin
/s {stroke} def /l {lineto} def /m {moveto} def /t {translate} def
/r {rotate} def /rl {roll}  def /R {repeat} def
/d {rlineto} def /rm {rmoveto} def /gr {grestore} def /f {eofill} def
/c {setrgbcolor} def /black {0 setgray} def /sd {setdash} def
/cl {closepath} def /sf {scalefont setfont} def /lw {setlinewidth} def
/box {m dup 0 exch d exch 0 d 0 exch neg d cl} def
/NC{systemdict begin initclip end}def/C{NC box clip newpath}def
/bl {box s} def /bf {box f} def /Y { 0 exch d} def /X { 0 d} def 
/K {{pop pop 0 moveto} exch kshow} bind def
/ita {/ang 15 def gsave [1 0 ang dup sin exch cos div 1 0 0] concat} def 
/mp {newpath /y exch def /x exch def} def
/side {[w .77 mul w .23 mul] .385 w mul sd w 0 l currentpoint t -144 r} def
/mr {mp x y w2 0 360 arc} def /m24 {mr s} def /m20 {mr f} def
/mb {mp x y w2 add m w2 neg 0 d 0 w neg d w 0 d 0 w d cl} def
/mt {mp x y w2 add m w2 neg w neg d w 0 d cl} def
/m21 {mb f} def /m25 {mb s} def /m22 {mt f} def /m26{mt s} def
/m23 {mp x y w2 sub m w2 w d w neg 0 d cl f} def
/m27 {mp x y w2 add m w3 neg w2 neg d w3 w2 neg d w3 w2 d cl s} def
/m28 {mp x w2 sub y w2 sub w3 add m w3 0 d  0 w3 neg d w3 0 d 0 w3 d w3 0 d  0 w3 d w3 neg 0 d 0 w3 d w3 neg 0 d 0 w3 neg d w3 neg 0 d cl s } def
/m29 {mp gsave x w2 sub y w2 add w3 sub m currentpoint t 4 {side} repeat cl fill gr} def
/m30 {mp gsave x w2 sub y w2 add w3 sub m currentpoint t 4 {side} repeat cl s gr} def
/m31 {mp x y w2 sub m 0 w d x w2 sub y m w 0 d x w2 sub y w2 add m w w neg d x w2 sub y w2 sub m w w d s} def
/m32 {mp x y w2 sub m w2 w d w neg 0 d cl s} def
/m33 {mp x y w2 add m w3 neg w2 neg d w3 w2 neg d w3 w2 d cl f} def
/m34 {mp x w2 sub y w2 sub w3 add m w3 0 d  0 w3 neg d w3 0 d 0 w3 d w3 0 d  0 w3 d w3 neg 0 d 0 w3 d w3 neg 0 d 0 w3 neg d w3 neg 0 d cl f } def
/m2 {mp x y w2 sub m 0 w d x w2 sub y m w 0 d s} def
/m5 {mp x w2 sub y w2 sub m w w d x w2 sub y w2 add m w w neg d s} def
/reEncode {exch findfont dup length dict begin {1 index /FID eq  {pop pop} {def} ifelse } forall /Encoding exch def currentdict end dup /FontName get exch definefont pop } def [/Times-Bold /Times-Italic /Times-BoldItalic /Helvetica /Helvetica-Oblique
 /Helvetica-Bold /Helvetica-BoldOblique /Courier /Courier-Oblique /Courier-Bold /Courier-BoldOblique /Times-Roman /AvantGarde-Book /AvantGarde-BookOblique /AvantGarde-Demi /AvantGarde-DemiOblique /Bookman-Demi /Bookman-DemiItalic /Bookman-Light
 /Bookman-LightItalic /Helvetica-Narrow /Helvetica-Narrow-Bold /Helvetica-Narrow-BoldOblique /Helvetica-Narrow-Oblique /NewCenturySchlbk-Roman /NewCenturySchlbk-Bold /NewCenturySchlbk-BoldItalic /NewCenturySchlbk-Italic /Palatino-Bold
 /Palatino-BoldItalic /Palatino-Italic /Palatino-Roman ] {ISOLatin1Encoding reEncode } forall
%%EndProlog
%%BeginSetup
%%EndSetup
newpath  gsave  .25 .25 scale  gsave  0 0 t black[  ] 0 sd 3 lw 0.999 0.999 0.999 c 2268 1594 0 0 bf black 0.999 0.999 0.999 c 1814 1276 227 159 bf black 1814 1276 227 159 bl 0 0 1 c 1 1 1 c 0 0 1 c 317 376 m 38 X s 371 376 m 37 X s /w 16 def /w2 {w
 2 div} def /w3 {w 3 div} def 363 376 m20 408 462 m 37 X s 462 462 m 37 X s 454 462 m20 499 514 m 37 X s 552 514 m 38 X s 544 514 m20 590 550 m 37 X s 643 550 m 37 X s 635 550 m20 680 581 m 37 X s 734 581 m 37 X s 726 581 m20 771 614 m 37 X s 825 614
 m 37 X s 816 614 m20 862 634 m 37 X s 915 634 m 37 X s 907 634 m20 952 649 m 38 X s 1006 649 m 37 X s 998 649 m20 1089 676 m 3 Y s 1089 696 m 3 Y s 1043 687 m 37 X s 1097 687 m 37 X s 1089 687 m20 1179 695 m 8 Y s 1179 719 m 8 Y s 1134 711 m 37 X s
 1187 711 m 38 X s 1179 711 m20 1270 700 m 10 Y s 1270 727 m 10 Y s 1225 718 m 37 X s 1278 718 m 37 X s 1270 718 m20 1361 683 m 22 Y s 1361 721 m 22 Y s 1315 713 m 37 X s 1369 713 m 37 X s 1361 713 m20 1451 689 m 25 Y s 1451 731 m 25 Y s 1406 722 m
 37 X s 1460 722 m 37 X s 1451 722 m20 1542 705 m 30 Y s 1542 751 m 30 Y s 1497 743 m 37 X s 1550 743 m 37 X s 1542 743 m20 1633 691 m 29 Y s 1633 737 m 30 Y s 1587 729 m 38 X s 1641 729 m 37 X s 1633 729 m20 1723 753 m 78 Y s 1723 848 m 78 Y s 1678
 839 m 37 X s 1732 839 m 37 X s 1723 839 m20 1814 853 m 70 Y s 1814 940 m 70 Y s 1769 931 m 37 X s 1822 931 m 38 X s 1814 931 m20 1905 768 m 124 Y s 1905 909 m 124 Y s 1860 901 m 37 X s 1913 901 m 37 X s 1905 901 m20 1996 1032 m 60 Y s 1996 1108 m 59
 Y s 1950 1100 m 37 X s 2004 1100 m 37 X s 1996 1100 m20 black 227 159 m 1814 X s
 gsave  2268 1594 0 0 C 1891.82 47.2441 t 0 r /Helvetica findfont 51.3523 sf 0 0 m ( \(GeV\)) show NC gr 
 gsave  2268 1594 0 0 C 1787.06 67.785 t 0 r /Helvetica findfont 34.9195 sf 0 0 m (ch+em) show NC gr 
 gsave  2268 1594 0 0 C 1787.06 18.4868 t 0 r /Helvetica findfont 34.9195 sf 0 0 m (T,jet) show NC gr 
 gsave  2268 1594 0 0 C 1758.3 47.2441 t 0 r /Helvetica findfont 51.3523 sf 0 0 m (p) show NC gr  227 198 m -39 Y s 263 179 m -20 Y s 299 179 m -20 Y s 336 179 m -20 Y s 372 179 m -20 Y s 408 198 m -39 Y s 444 179 m -20 Y s 481 179 m -20 Y s 517 179
 m -20 Y s 553 179 m -20 Y s 590 198 m -39 Y s 626 179 m -20 Y s 662 179 m -20 Y s 698 179 m -20 Y s 735 179 m -20 Y s 771 198 m -39 Y s 807 179 m -20 Y s 844 179 m -20 Y s 880 179 m -20 Y s 916 179 m -20 Y s 952 198 m -39 Y s 989 179 m -20 Y s 1025
 179 m -20 Y s 1061 179 m -20 Y s 1098 179 m -20 Y s 1134 198 m -39 Y s 1170 179 m -20 Y s 1206 179 m -20 Y s 1243 179 m -20 Y s 1279 179 m -20 Y s 1315 198 m -39 Y s 1352 179 m -20 Y s 1388 179 m -20 Y s 1424 179 m -20 Y s 1460 179 m -20 Y s 1497
 198 m -39 Y s 1533 179 m -20 Y s 1569 179 m -20 Y s 1606 179 m -20 Y s 1642 179 m -20 Y s 1678 198 m -39 Y s 1714 179 m -20 Y s 1751 179 m -20 Y s 1787 179 m -20 Y s 1823 179 m -20 Y s 1860 198 m -39 Y s 1896 179 m -20 Y s 1932 179 m -20 Y s 1968
 179 m -20 Y s 2005 179 m -20 Y s 2041 198 m -39 Y s
 gsave  2268 1594 0 0 C 211.571 106.813 t 0 r /Helvetica findfont 51.3523 sf 0 0 m (0) show NC gr 
 gsave  2268 1594 0 0 C 377.953 106.813 t 0 r /Helvetica findfont 51.3523 sf 0 0 m (10) show NC gr 
 gsave  2268 1594 0 0 C 560.767 106.813 t 0 r /Helvetica findfont 51.3523 sf 0 0 m (20) show NC gr 
 gsave  2268 1594 0 0 C 741.527 106.813 t 0 r /Helvetica findfont 51.3523 sf 0 0 m (30) show NC gr 
 gsave  2268 1594 0 0 C 922.287 106.813 t 0 r /Helvetica findfont 51.3523 sf 0 0 m (40) show NC gr 
 gsave  2268 1594 0 0 C 1105.1 106.813 t 0 r /Helvetica findfont 51.3523 sf 0 0 m (50) show NC gr 
 gsave  2268 1594 0 0 C 1285.86 106.813 t 0 r /Helvetica findfont 51.3523 sf 0 0 m (60) show NC gr 
 gsave  2268 1594 0 0 C 1466.62 106.813 t 0 r /Helvetica findfont 51.3523 sf 0 0 m (70) show NC gr 
 gsave  2268 1594 0 0 C 1647.38 106.813 t 0 r /Helvetica findfont 51.3523 sf 0 0 m (80) show NC gr 
 gsave  2268 1594 0 0 C 1830.2 106.813 t 0 r /Helvetica findfont 51.3523 sf 0 0 m (90) show NC gr 
 gsave  2268 1594 0 0 C 1996.58 106.813 t 0 r /Helvetica findfont 51.3523 sf 0 0 m (100) show NC gr  227 159 m 1276 Y s
 gsave  2268 1594 0 0 C 92.4341 992.126 t 90 r /Helvetica findfont 51.3523 sf 0 0 m (<# of Constituents>) show NC gr  281 159 m -54 X s 254 191 m -27 X s 254 223 m -27 X s 254 255 m -27 X s 254 287 m -27 X s 281 319 m -54 X s 254 351 m -27 X s 254
 383 m -27 X s 254 414 m -27 X s 254 446 m -27 X s 281 478 m -54 X s 254 510 m -27 X s 254 542 m -27 X s 254 574 m -27 X s 254 606 m -27 X s 281 638 m -54 X s 254 669 m -27 X s 254 701 m -27 X s 254 733 m -27 X s 254 765 m -27 X s 281 797 m -54 X s
 254 829 m -27 X s 254 861 m -27 X s 254 893 m -27 X s 254 925 m -27 X s 281 956 m -54 X s 254 988 m -27 X s 254 1020 m -27 X s 254 1052 m -27 X s 254 1084 m -27 X s 281 1116 m -54 X s 254 1148 m -27 X s 254 1180 m -27 X s 254 1211 m -27 X s 254 1243
 m -27 X s 281 1275 m -54 X s 254 1307 m -27 X s 254 1339 m -27 X s 254 1371 m -27 X s 254 1403 m -27 X s 281 1435 m -54 X s
 gsave  2268 1594 0 0 C 186.922 141.732 t 0 r /Helvetica findfont 51.3523 sf 0 0 m (0) show NC gr 
 gsave  2268 1594 0 0 C 186.922 301.951 t 0 r /Helvetica findfont 51.3523 sf 0 0 m (5) show NC gr 
 gsave  2268 1594 0 0 C 158.165 460.116 t 0 r /Helvetica findfont 51.3523 sf 0 0 m (10) show NC gr 
 gsave  2268 1594 0 0 C 158.165 620.336 t 0 r /Helvetica findfont 51.3523 sf 0 0 m (15) show NC gr 
 gsave  2268 1594 0 0 C 158.165 778.5 t 0 r /Helvetica findfont 51.3523 sf 0 0 m (20) show NC gr 
 gsave  2268 1594 0 0 C 158.165 938.72 t 0 r /Helvetica findfont 51.3523 sf 0 0 m (25) show NC gr 
 gsave  2268 1594 0 0 C 158.165 1098.94 t 0 r /Helvetica findfont 51.3523 sf 0 0 m (30) show NC gr 
 gsave  2268 1594 0 0 C 158.165 1257.1 t 0 r /Helvetica findfont 51.3523 sf 0 0 m (35) show NC gr 
 gsave  2268 1594 0 0 C 158.165 1417.32 t 0 r /Helvetica findfont 51.3523 sf 0 0 m (40) show NC gr  1 1 1 c black 317 315 m 38 X s 371 315 m 37 X s 363 315 m21 408 366 m 37 X s 462 366 m 37 X s 454 366 m21 499 391 m 37 X s 552 391 m 38 X s 544 391
 m21 590 403 m 37 X s 643 403 m 37 X s 635 403 m21 680 415 m 37 X s 734 415 m 37 X s 726 415 m21 771 429 m 37 X s 825 429 m 37 X s 816 429 m21 862 439 m 37 X s 915 439 m 37 X s 907 439 m21 952 439 m 38 X s 1006 439 m 37 X s 998 439 m21 1043 459 m 37
 X s 1097 459 m 37 X s 1089 459 m21 1179 449 m 1 Y s 1179 466 m 1 Y s 1134 458 m 37 X s 1187 458 m 38 X s 1179 458 m21 1270 457 m 3 Y s 1270 476 m 4 Y s 1225 468 m 37 X s 1278 468 m 37 X s 1270 468 m21 1361 438 m 9 Y s 1361 464 m 8 Y s 1315 455 m 37
 X s 1369 455 m 37 X s 1361 455 m21 1451 442 m 12 Y s 1451 470 m 12 Y s 1406 462 m 37 X s 1460 462 m 37 X s 1451 462 m21 1542 455 m 19 Y s 1542 490 m 19 Y s 1497 482 m 37 X s 1550 482 m 37 X s 1542 482 m21 1633 434 m 15 Y s 1633 466 m 16 Y s 1587 458
 m 38 X s 1641 458 m 37 X s 1633 458 m21 1723 479 m 39 Y s 1723 534 m 39 Y s 1678 526 m 37 X s 1732 526 m 37 X s 1723 526 m21 1814 486 m 36 Y s 1814 539 m 36 Y s 1769 531 m 37 X s 1822 531 m 38 X s 1814 531 m21 1905 505 m 61 Y s 1905 582 m 61 Y s
 1860 574 m 37 X s 1913 574 m 37 X s 1905 574 m21 1996 604 m 25 Y s 1996 646 m 25 Y s 1950 638 m 37 X s 2004 638 m 37 X s 1996 638 m21 1 0 0 c 1 1 1 c 1 0 0 c 317 236 m 38 X s 371 236 m 37 X s 363 236 m24 408 271 m 37 X s 462 271 m 37 X s 454 271 m24
 499 299 m 37 X s 552 299 m 38 X s 544 299 m24 590 322 m 37 X s 643 322 m 37 X s 635 322 m24 680 341 m 37 X s 734 341 m 37 X s 726 341 m24 771 360 m 37 X s 825 360 m 37 X s 816 360 m24 862 370 m 37 X s 915 370 m 37 X s 907 370 m24 952 386 m 38 X s
 1006 386 m 37 X s 998 386 m24 1043 404 m 37 X s 1097 404 m 37 X s 1089 404 m24 1179 417 m 3 Y s 1179 436 m 3 Y s 1134 428 m 37 X s 1187 428 m 38 X s 1179 428 m24 1270 413 m 4 Y s 1270 434 m 4 Y s 1225 426 m 37 X s 1278 426 m 37 X s 1270 426 m24 1361
 412 m 13 Y s 1361 441 m 13 Y s 1315 433 m 37 X s 1369 433 m 37 X s 1361 433 m24 1451 415 m 12 Y s 1451 444 m 12 Y s 1406 436 m 37 X s 1460 436 m 37 X s 1451 436 m24 1542 410 m 18 Y s 1542 445 m 18 Y s 1497 436 m 37 X s 1550 436 m 37 X s 1542 436 m24
 1633 415 m 23 Y s 1633 455 m 22 Y s 1587 446 m 38 X s 1641 446 m 37 X s 1633 446 m24 1723 438 m 43 Y s 1723 497 m 43 Y s 1678 489 m 37 X s 1732 489 m 37 X s 1723 489 m24 1814 528 m 40 Y s 1814 584 m 40 Y s 1769 576 m 37 X s 1822 576 m 38 X s 1814
 576 m24 1905 431 m 63 Y s 1905 510 m 63 Y s 1860 502 m 37 X s 1913 502 m 37 X s 1905 502 m24 1996 604 m 25 Y s 1996 646 m 25 Y s 1950 638 m 37 X s 2004 638 m 37 X s 1996 638 m24 black
 gsave  2268 1594 0 0 C 406.71 1308.46 t 0 r /Helvetica-Bold findfont 45.19 sf 0 0 m (Jet R = 0.4 constituent count distribution for lhc13c merged output) show NC gr  1 1 1 c 680 239 340 717 bf black
 gsave  2268 1594 0 0 C 509.415 893.53 t 0 r /Helvetica-Bold findfont 63.6768 sf 0 0 m (Total) show NC gr  0 0 1 c 425 917 m20 black
 gsave  2268 1594 0 0 C 509.415 819.582 t 0 r /Helvetica-Bold findfont 63.6768 sf 0 0 m (Charged) show NC gr  425 837 m21
 gsave  2268 1594 0 0 C 509.415 733.31 t 0 r /Helvetica-Bold findfont 63.6768 sf 0 0 m (Neutral) show NC gr  1 0 0 c 425 757 m24
 gr  gr showpage
end
%%EOF
