%!PS-Adobe-2.0 EPSF-2.0
%%BoundingBox:  0 0 567 398
%%Title: : 
%%Creator: ROOT Version 5.34/09
%%CreationDate: Fri Mar 28 14:55:22 2014
%%EndComments
%%BeginProlog
80 dict begin
/s {stroke} def /l {lineto} def /m {moveto} def /t {translate} def
/r {rotate} def /rl {roll}  def /R {repeat} def
/d {rlineto} def /rm {rmoveto} def /gr {grestore} def /f {eofill} def
/c {setrgbcolor} def /black {0 setgray} def /sd {setdash} def
/cl {closepath} def /sf {scalefont setfont} def /lw {setlinewidth} def
/box {m dup 0 exch d exch 0 d 0 exch neg d cl} def
/NC{systemdict begin initclip end}def/C{NC box clip newpath}def
/bl {box s} def /bf {box f} def /Y { 0 exch d} def /X { 0 d} def 
/K {{pop pop 0 moveto} exch kshow} bind def
/ita {/ang 15 def gsave [1 0 ang dup sin exch cos div 1 0 0] concat} def 
/mp {newpath /y exch def /x exch def} def
/side {[w .77 mul w .23 mul] .385 w mul sd w 0 l currentpoint t -144 r} def
/mr {mp x y w2 0 360 arc} def /m24 {mr s} def /m20 {mr f} def
/mb {mp x y w2 add m w2 neg 0 d 0 w neg d w 0 d 0 w d cl} def
/mt {mp x y w2 add m w2 neg w neg d w 0 d cl} def
/m21 {mb f} def /m25 {mb s} def /m22 {mt f} def /m26{mt s} def
/m23 {mp x y w2 sub m w2 w d w neg 0 d cl f} def
/m27 {mp x y w2 add m w3 neg w2 neg d w3 w2 neg d w3 w2 d cl s} def
/m28 {mp x w2 sub y w2 sub w3 add m w3 0 d  0 w3 neg d w3 0 d 0 w3 d w3 0 d  0 w3 d w3 neg 0 d 0 w3 d w3 neg 0 d 0 w3 neg d w3 neg 0 d cl s } def
/m29 {mp gsave x w2 sub y w2 add w3 sub m currentpoint t 4 {side} repeat cl fill gr} def
/m30 {mp gsave x w2 sub y w2 add w3 sub m currentpoint t 4 {side} repeat cl s gr} def
/m31 {mp x y w2 sub m 0 w d x w2 sub y m w 0 d x w2 sub y w2 add m w w neg d x w2 sub y w2 sub m w w d s} def
/m32 {mp x y w2 sub m w2 w d w neg 0 d cl s} def
/m33 {mp x y w2 add m w3 neg w2 neg d w3 w2 neg d w3 w2 d cl f} def
/m34 {mp x w2 sub y w2 sub w3 add m w3 0 d  0 w3 neg d w3 0 d 0 w3 d w3 0 d  0 w3 d w3 neg 0 d 0 w3 d w3 neg 0 d 0 w3 neg d w3 neg 0 d cl f } def
/m2 {mp x y w2 sub m 0 w d x w2 sub y m w 0 d s} def
/m5 {mp x w2 sub y w2 sub m w w d x w2 sub y w2 add m w w neg d s} def
/reEncode {exch findfont dup length dict begin {1 index /FID eq  {pop pop} {def} ifelse } forall /Encoding exch def currentdict end dup /FontName get exch definefont pop } def [/Times-Bold /Times-Italic /Times-BoldItalic /Helvetica /Helvetica-Oblique
 /Helvetica-Bold /Helvetica-BoldOblique /Courier /Courier-Oblique /Courier-Bold /Courier-BoldOblique /Times-Roman /AvantGarde-Book /AvantGarde-BookOblique /AvantGarde-Demi /AvantGarde-DemiOblique /Bookman-Demi /Bookman-DemiItalic /Bookman-Light
 /Bookman-LightItalic /Helvetica-Narrow /Helvetica-Narrow-Bold /Helvetica-Narrow-BoldOblique /Helvetica-Narrow-Oblique /NewCenturySchlbk-Roman /NewCenturySchlbk-Bold /NewCenturySchlbk-BoldItalic /NewCenturySchlbk-Italic /Palatino-Bold
 /Palatino-BoldItalic /Palatino-Italic /Palatino-Roman ] {ISOLatin1Encoding reEncode } forall
%%EndProlog
%%BeginSetup
%%EndSetup
newpath  gsave  .25 .25 scale  gsave  0 0 t black[  ] 0 sd 3 lw 0.999 0.999 0.999 c 2268 1594 0 0 bf black 0.999 0.999 0.999 c 1814 1276 227 159 bf black 1814 1276 227 159 bl 0 0 1 c 1 1 1 c 0 0 1 c 317 292 m 38 X s 371 292 m 37 X s /w 16 def /w2 {w
 2 div} def /w3 {w 3 div} def 363 292 m20 408 333 m 37 X s 462 333 m 37 X s 454 333 m20 499 369 m 37 X s 552 369 m 38 X s 544 369 m20 590 401 m 37 X s 643 401 m 37 X s 635 401 m20 680 427 m 37 X s 734 427 m 37 X s 726 427 m20 771 450 m 37 X s 825 450
 m 37 X s 816 450 m20 862 475 m 37 X s 915 475 m 37 X s 907 475 m20 952 497 m 38 X s 1006 497 m 37 X s 998 497 m20 1089 509 m s 1089 525 m s 1043 517 m 37 X s 1097 517 m 37 X s 1089 517 m20 1179 534 m 2 Y s 1179 553 m 1 Y s 1134 544 m 37 X s 1187 544
 m 38 X s 1179 544 m20 1270 523 m 4 Y s 1270 544 m 4 Y s 1225 536 m 37 X s 1278 536 m 37 X s 1270 536 m20 1361 535 m 8 Y s 1361 560 m 7 Y s 1315 551 m 37 X s 1369 551 m 37 X s 1361 551 m20 1451 535 m 16 Y s 1451 567 m 16 Y s 1406 559 m 37 X s 1460
 559 m 37 X s 1451 559 m20 1542 559 m 14 Y s 1542 589 m 15 Y s 1497 581 m 37 X s 1550 581 m 37 X s 1542 581 m20 1633 566 m 29 Y s 1633 611 m 29 Y s 1587 603 m 38 X s 1641 603 m 37 X s 1633 603 m20 1723 605 m 33 Y s 1723 655 m 33 Y s 1678 647 m 37 X s
 1732 647 m 37 X s 1723 647 m20 1814 656 m 21 Y s 1814 694 m 21 Y s 1769 685 m 37 X s 1822 685 m 38 X s 1814 685 m20 1905 605 m 16 Y s 1905 637 m 15 Y s 1860 629 m 37 X s 1913 629 m 37 X s 1905 629 m20 1996 664 m 86 Y s 1996 766 m 86 Y s 1950 758 m
 37 X s 2004 758 m 37 X s 1996 758 m20 black 227 159 m 1814 X s
 gsave  2268 1594 0 0 C 1891.82 47.2441 t 0 r /Helvetica findfont 51.3523 sf 0 0 m ( \(GeV\)) show NC gr 
 gsave  2268 1594 0 0 C 1787.06 67.785 t 0 r /Helvetica findfont 34.9195 sf 0 0 m (ch+em) show NC gr 
 gsave  2268 1594 0 0 C 1787.06 18.4868 t 0 r /Helvetica findfont 34.9195 sf 0 0 m (T,jet) show NC gr 
 gsave  2268 1594 0 0 C 1758.3 47.2441 t 0 r /Helvetica findfont 51.3523 sf 0 0 m (p) show NC gr  227 198 m -39 Y s 263 179 m -20 Y s 299 179 m -20 Y s 336 179 m -20 Y s 372 179 m -20 Y s 408 198 m -39 Y s 444 179 m -20 Y s 481 179 m -20 Y s 517 179
 m -20 Y s 553 179 m -20 Y s 590 198 m -39 Y s 626 179 m -20 Y s 662 179 m -20 Y s 698 179 m -20 Y s 735 179 m -20 Y s 771 198 m -39 Y s 807 179 m -20 Y s 844 179 m -20 Y s 880 179 m -20 Y s 916 179 m -20 Y s 952 198 m -39 Y s 989 179 m -20 Y s 1025
 179 m -20 Y s 1061 179 m -20 Y s 1098 179 m -20 Y s 1134 198 m -39 Y s 1170 179 m -20 Y s 1206 179 m -20 Y s 1243 179 m -20 Y s 1279 179 m -20 Y s 1315 198 m -39 Y s 1352 179 m -20 Y s 1388 179 m -20 Y s 1424 179 m -20 Y s 1460 179 m -20 Y s 1497
 198 m -39 Y s 1533 179 m -20 Y s 1569 179 m -20 Y s 1606 179 m -20 Y s 1642 179 m -20 Y s 1678 198 m -39 Y s 1714 179 m -20 Y s 1751 179 m -20 Y s 1787 179 m -20 Y s 1823 179 m -20 Y s 1860 198 m -39 Y s 1896 179 m -20 Y s 1932 179 m -20 Y s 1968
 179 m -20 Y s 2005 179 m -20 Y s 2041 198 m -39 Y s
 gsave  2268 1594 0 0 C 211.571 106.813 t 0 r /Helvetica findfont 51.3523 sf 0 0 m (0) show NC gr 
 gsave  2268 1594 0 0 C 377.953 106.813 t 0 r /Helvetica findfont 51.3523 sf 0 0 m (10) show NC gr 
 gsave  2268 1594 0 0 C 560.767 106.813 t 0 r /Helvetica findfont 51.3523 sf 0 0 m (20) show NC gr 
 gsave  2268 1594 0 0 C 741.527 106.813 t 0 r /Helvetica findfont 51.3523 sf 0 0 m (30) show NC gr 
 gsave  2268 1594 0 0 C 922.287 106.813 t 0 r /Helvetica findfont 51.3523 sf 0 0 m (40) show NC gr 
 gsave  2268 1594 0 0 C 1105.1 106.813 t 0 r /Helvetica findfont 51.3523 sf 0 0 m (50) show NC gr 
 gsave  2268 1594 0 0 C 1285.86 106.813 t 0 r /Helvetica findfont 51.3523 sf 0 0 m (60) show NC gr 
 gsave  2268 1594 0 0 C 1466.62 106.813 t 0 r /Helvetica findfont 51.3523 sf 0 0 m (70) show NC gr 
 gsave  2268 1594 0 0 C 1647.38 106.813 t 0 r /Helvetica findfont 51.3523 sf 0 0 m (80) show NC gr 
 gsave  2268 1594 0 0 C 1830.2 106.813 t 0 r /Helvetica findfont 51.3523 sf 0 0 m (90) show NC gr 
 gsave  2268 1594 0 0 C 1996.58 106.813 t 0 r /Helvetica findfont 51.3523 sf 0 0 m (100) show NC gr  227 159 m 1276 Y s
 gsave  2268 1594 0 0 C 92.4341 992.126 t 90 r /Helvetica findfont 51.3523 sf 0 0 m (<# of Constituents>) show NC gr  281 159 m -54 X s 254 191 m -27 X s 254 223 m -27 X s 254 255 m -27 X s 254 287 m -27 X s 281 319 m -54 X s 254 351 m -27 X s 254
 383 m -27 X s 254 414 m -27 X s 254 446 m -27 X s 281 478 m -54 X s 254 510 m -27 X s 254 542 m -27 X s 254 574 m -27 X s 254 606 m -27 X s 281 638 m -54 X s 254 669 m -27 X s 254 701 m -27 X s 254 733 m -27 X s 254 765 m -27 X s 281 797 m -54 X s
 254 829 m -27 X s 254 861 m -27 X s 254 893 m -27 X s 254 925 m -27 X s 281 956 m -54 X s 254 988 m -27 X s 254 1020 m -27 X s 254 1052 m -27 X s 254 1084 m -27 X s 281 1116 m -54 X s 254 1148 m -27 X s 254 1180 m -27 X s 254 1211 m -27 X s 254 1243
 m -27 X s 281 1275 m -54 X s 254 1307 m -27 X s 254 1339 m -27 X s 254 1371 m -27 X s 254 1403 m -27 X s 281 1435 m -54 X s
 gsave  2268 1594 0 0 C 186.922 141.732 t 0 r /Helvetica findfont 51.3523 sf 0 0 m (0) show NC gr 
 gsave  2268 1594 0 0 C 186.922 301.951 t 0 r /Helvetica findfont 51.3523 sf 0 0 m (5) show NC gr 
 gsave  2268 1594 0 0 C 158.165 460.116 t 0 r /Helvetica findfont 51.3523 sf 0 0 m (10) show NC gr 
 gsave  2268 1594 0 0 C 158.165 620.336 t 0 r /Helvetica findfont 51.3523 sf 0 0 m (15) show NC gr 
 gsave  2268 1594 0 0 C 158.165 778.5 t 0 r /Helvetica findfont 51.3523 sf 0 0 m (20) show NC gr 
 gsave  2268 1594 0 0 C 158.165 938.72 t 0 r /Helvetica findfont 51.3523 sf 0 0 m (25) show NC gr 
 gsave  2268 1594 0 0 C 158.165 1098.94 t 0 r /Helvetica findfont 51.3523 sf 0 0 m (30) show NC gr 
 gsave  2268 1594 0 0 C 158.165 1257.1 t 0 r /Helvetica findfont 51.3523 sf 0 0 m (35) show NC gr 
 gsave  2268 1594 0 0 C 158.165 1417.32 t 0 r /Helvetica findfont 51.3523 sf 0 0 m (40) show NC gr  1 1 1 c black 317 253 m 38 X s 371 253 m 37 X s 363 253 m21 408 269 m 37 X s 462 269 m 37 X s 454 269 m21 499 284 m 37 X s 552 284 m 38 X s 544 284
 m21 590 298 m 37 X s 643 298 m 37 X s 635 298 m21 680 307 m 37 X s 734 307 m 37 X s 726 307 m21 771 319 m 37 X s 825 319 m 37 X s 816 319 m21 862 327 m 37 X s 915 327 m 37 X s 907 327 m21 952 343 m 38 X s 1006 343 m 37 X s 998 343 m21 1043 344 m 37
 X s 1097 344 m 37 X s 1089 344 m21 1134 362 m 37 X s 1187 362 m 38 X s 1179 362 m21 1225 356 m 37 X s 1278 356 m 37 X s 1270 356 m21 1361 347 m 2 Y s 1361 365 m 2 Y s 1315 357 m 37 X s 1369 357 m 37 X s 1361 357 m21 1451 343 m 7 Y s 1451 367 m 6 Y s
 1406 358 m 37 X s 1460 358 m 37 X s 1451 358 m21 1542 359 m 8 Y s 1542 383 m 8 Y s 1497 375 m 37 X s 1550 375 m 37 X s 1542 375 m21 1633 374 m 11 Y s 1633 401 m 11 Y s 1587 393 m 38 X s 1641 393 m 37 X s 1633 393 m21 1723 346 m 10 Y s 1723 373 m 10
 Y s 1678 364 m 37 X s 1732 364 m 37 X s 1723 364 m21 1814 411 m 16 Y s 1814 443 m 16 Y s 1769 435 m 37 X s 1822 435 m 38 X s 1814 435 m21 1905 379 m 11 Y s 1905 407 m 11 Y s 1860 398 m 37 X s 1913 398 m 37 X s 1905 398 m21 1996 389 m 19 Y s 1996 425
 m 19 Y s 1950 417 m 37 X s 2004 417 m 37 X s 1996 417 m21 1 0 0 c 1 1 1 c 1 0 0 c 317 215 m 38 X s 371 215 m 37 X s 363 215 m24 408 240 m 37 X s 462 240 m 37 X s 454 240 m24 499 261 m 37 X s 552 261 m 38 X s 544 261 m24 590 278 m 37 X s 643 278 m 37
 X s 635 278 m24 680 295 m 37 X s 734 295 m 37 X s 726 295 m24 771 307 m 37 X s 825 307 m 37 X s 816 307 m24 862 323 m 37 X s 915 323 m 37 X s 907 323 m24 952 329 m 38 X s 1006 329 m 37 X s 998 329 m24 1043 348 m 37 X s 1097 348 m 37 X s 1089 348 m24
 1134 357 m 37 X s 1187 357 m 38 X s 1179 357 m24 1270 345 m 2 Y s 1270 363 m 1 Y s 1225 355 m 37 X s 1278 355 m 37 X s 1270 355 m24 1361 358 m 3 Y s 1361 378 m 4 Y s 1315 370 m 37 X s 1369 370 m 37 X s 1361 370 m24 1451 360 m 8 Y s 1451 384 m 7 Y s
 1406 376 m 37 X s 1460 376 m 37 X s 1451 376 m24 1542 359 m 14 Y s 1542 390 m 14 Y s 1497 381 m 37 X s 1550 381 m 37 X s 1542 381 m24 1633 360 m 17 Y s 1633 394 m 17 Y s 1587 385 m 38 X s 1641 385 m 37 X s 1633 385 m24 1723 423 m 26 Y s 1723 466 m
 27 Y s 1678 458 m 37 X s 1732 458 m 37 X s 1723 458 m24 1814 395 m 23 Y s 1814 434 m 22 Y s 1769 426 m 37 X s 1822 426 m 38 X s 1814 426 m24 1905 388 m 9 Y s 1905 414 m 9 Y s 1860 406 m 37 X s 1913 406 m 37 X s 1905 406 m24 1996 437 m 72 Y s 1996
 525 m 72 Y s 1950 517 m 37 X s 2004 517 m 37 X s 1996 517 m24 black
 gsave  2268 1594 0 0 C 406.71 1308.46 t 0 r /Helvetica-Bold findfont 45.19 sf 0 0 m (Jet R = 0.2 constituent count distribution for lhc13c merged output) show NC gr  1 1 1 c 680 239 340 717 bf black
 gsave  2268 1594 0 0 C 509.415 893.53 t 0 r /Helvetica-Bold findfont 63.6768 sf 0 0 m (Total) show NC gr  0 0 1 c 425 917 m20 black
 gsave  2268 1594 0 0 C 509.415 819.582 t 0 r /Helvetica-Bold findfont 63.6768 sf 0 0 m (Charged) show NC gr  425 837 m21
 gsave  2268 1594 0 0 C 509.415 733.31 t 0 r /Helvetica-Bold findfont 63.6768 sf 0 0 m (Neutral) show NC gr  1 0 0 c 425 757 m24
 gr  gr showpage
end
%%EOF
