%!PS-Adobe-2.0 EPSF-2.0
%%BoundingBox:  0 0 567 398
%%Title: /Users/cgy606/Documents/Train/LEGOTrain/020814/lhc13b/lhc13b_TrackPhi.eps: 
%%Creator: ROOT Version 5.34/09
%%CreationDate: Fri Mar 28 14:54:15 2014
%%EndComments
%%BeginProlog
80 dict begin
/s {stroke} def /l {lineto} def /m {moveto} def /t {translate} def
/r {rotate} def /rl {roll}  def /R {repeat} def
/d {rlineto} def /rm {rmoveto} def /gr {grestore} def /f {eofill} def
/c {setrgbcolor} def /black {0 setgray} def /sd {setdash} def
/cl {closepath} def /sf {scalefont setfont} def /lw {setlinewidth} def
/box {m dup 0 exch d exch 0 d 0 exch neg d cl} def
/NC{systemdict begin initclip end}def/C{NC box clip newpath}def
/bl {box s} def /bf {box f} def /Y { 0 exch d} def /X { 0 d} def 
/K {{pop pop 0 moveto} exch kshow} bind def
/ita {/ang 15 def gsave [1 0 ang dup sin exch cos div 1 0 0] concat} def 
/mp {newpath /y exch def /x exch def} def
/side {[w .77 mul w .23 mul] .385 w mul sd w 0 l currentpoint t -144 r} def
/mr {mp x y w2 0 360 arc} def /m24 {mr s} def /m20 {mr f} def
/mb {mp x y w2 add m w2 neg 0 d 0 w neg d w 0 d 0 w d cl} def
/mt {mp x y w2 add m w2 neg w neg d w 0 d cl} def
/m21 {mb f} def /m25 {mb s} def /m22 {mt f} def /m26{mt s} def
/m23 {mp x y w2 sub m w2 w d w neg 0 d cl f} def
/m27 {mp x y w2 add m w3 neg w2 neg d w3 w2 neg d w3 w2 d cl s} def
/m28 {mp x w2 sub y w2 sub w3 add m w3 0 d  0 w3 neg d w3 0 d 0 w3 d w3 0 d  0 w3 d w3 neg 0 d 0 w3 d w3 neg 0 d 0 w3 neg d w3 neg 0 d cl s } def
/m29 {mp gsave x w2 sub y w2 add w3 sub m currentpoint t 4 {side} repeat cl fill gr} def
/m30 {mp gsave x w2 sub y w2 add w3 sub m currentpoint t 4 {side} repeat cl s gr} def
/m31 {mp x y w2 sub m 0 w d x w2 sub y m w 0 d x w2 sub y w2 add m w w neg d x w2 sub y w2 sub m w w d s} def
/m32 {mp x y w2 sub m w2 w d w neg 0 d cl s} def
/m33 {mp x y w2 add m w3 neg w2 neg d w3 w2 neg d w3 w2 d cl f} def
/m34 {mp x w2 sub y w2 sub w3 add m w3 0 d  0 w3 neg d w3 0 d 0 w3 d w3 0 d  0 w3 d w3 neg 0 d 0 w3 d w3 neg 0 d 0 w3 neg d w3 neg 0 d cl f } def
/m2 {mp x y w2 sub m 0 w d x w2 sub y m w 0 d s} def
/m5 {mp x w2 sub y w2 sub m w w d x w2 sub y w2 add m w w neg d s} def
/reEncode {exch findfont dup length dict begin {1 index /FID eq  {pop pop} {def} ifelse } forall /Encoding exch def currentdict end dup /FontName get exch definefont pop } def [/Times-Bold /Times-Italic /Times-BoldItalic /Helvetica /Helvetica-Oblique
 /Helvetica-Bold /Helvetica-BoldOblique /Courier /Courier-Oblique /Courier-Bold /Courier-BoldOblique /Times-Roman /AvantGarde-Book /AvantGarde-BookOblique /AvantGarde-Demi /AvantGarde-DemiOblique /Bookman-Demi /Bookman-DemiItalic /Bookman-Light
 /Bookman-LightItalic /Helvetica-Narrow /Helvetica-Narrow-Bold /Helvetica-Narrow-BoldOblique /Helvetica-Narrow-Oblique /NewCenturySchlbk-Roman /NewCenturySchlbk-Bold /NewCenturySchlbk-BoldItalic /NewCenturySchlbk-Italic /Palatino-Bold
 /Palatino-BoldItalic /Palatino-Italic /Palatino-Roman ] {ISOLatin1Encoding reEncode } forall
%%EndProlog
%%BeginSetup
%%EndSetup
newpath  gsave  .25 .25 scale  gsave  0 0 t black[  ] 0 sd 3 lw 0.999 0.999 0.999 c 2268 1594 0 0 bf black 0.999 0.999 0.999 c 1814 1276 227 159 bf black 1814 1276 227 159 bl 0 0 1 c 1 1 1 c 0 0 1 c 227 1078 m 1 X s 244 1078 m 1 X s /w 16 def /w2 {w
 2 div} def /w3 {w 3 div} def 236 1078 m20 245 1065 m s 262 1065 m 1 X s 254 1065 m20 263 1066 m s 280 1066 m 1 X s 272 1066 m20 281 1076 m s 298 1076 m 1 X s 290 1076 m20 299 1068 m s 316 1068 m 1 X s 308 1068 m20 317 1076 m s 334 1076 m 1 X s 326
 1076 m20 335 1070 m s 352 1070 m 1 X s 344 1070 m20 353 1068 m s 370 1068 m s 361 1068 m20 370 1072 m 1 X s 388 1072 m s 379 1072 m20 388 1071 m 1 X s 406 1071 m s 397 1071 m20 406 1059 m 1 X s 424 1059 m s 415 1059 m20 424 1079 m 1 X s 442 1079 m s
 433 1079 m20 442 1065 m 1 X s 460 1065 m s 451 1065 m20 460 1079 m 1 X s 477 1079 m 1 X s 469 1079 m20 478 1082 m 1 X s 495 1082 m 1 X s 487 1082 m20 496 1069 m 1 X s 513 1069 m 1 X s 505 1069 m20 514 1081 m 1 X s 531 1081 m 1 X s 523 1081 m20 532
 1067 m 1 X s 549 1067 m 1 X s 541 1067 m20 550 1075 m 1 X s 567 1075 m 1 X s 559 1075 m20 568 1073 m 1 X s 585 1073 m 1 X s 577 1073 m20 586 1072 m 1 X s 603 1072 m 1 X s 595 1072 m20 604 1069 m 1 X s 621 1069 m 1 X s 613 1069 m20 622 1077 m 1 X s
 639 1077 m 1 X s 631 1077 m20 640 1054 m 1 X s 657 1054 m 1 X s 649 1054 m20 658 1064 m 1 X s 675 1064 m 1 X s 667 1064 m20 676 1070 m 1 X s 693 1070 m 1 X s 685 1070 m20 694 1057 m 1 X s 711 1057 m 1 X s 703 1057 m20 712 1063 m 1 X s 729 1063 m 1 X
 s 721 1063 m20 730 1068 m s 747 1068 m 1 X s 739 1068 m20 748 1069 m s 765 1069 m 1 X s 757 1069 m20 766 1068 m s 783 1068 m 1 X s 775 1068 m20 784 1049 m s 801 1049 m 1 X s 793 1049 m20 802 1060 m s 819 1060 m 1 X s 811 1060 m20 820 1081 m s 837
 1081 m s 829 1081 m20 837 1054 m 1 X s 855 1054 m s 846 1054 m20 855 1064 m 1 X s 873 1064 m s 864 1064 m20 873 1058 m 1 X s 891 1058 m s 882 1058 m20 891 1072 m 1 X s 909 1072 m s 900 1072 m20 909 1070 m 1 X s 927 1070 m s 918 1070 m20 927 1072 m 1
 X s 944 1072 m 1 X s 936 1072 m20 945 1058 m 1 X s 962 1058 m 1 X s 954 1058 m20 963 1065 m 1 X s 980 1065 m 1 X s 972 1065 m20 981 1061 m 1 X s 998 1061 m 1 X s 990 1061 m20 999 1058 m 1 X s 1016 1058 m 1 X s 1008 1058 m20 1017 1066 m 1 X s 1034
 1066 m 1 X s 1026 1066 m20 1035 1057 m 1 X s 1052 1057 m 1 X s 1044 1057 m20 1053 1052 m 1 X s 1070 1052 m 1 X s 1062 1052 m20 1071 1063 m 1 X s 1088 1063 m 1 X s 1080 1063 m20 1089 1050 m 1 X s 1106 1050 m 1 X s 1098 1050 m20 1107 1068 m 1 X s 1124
 1068 m 1 X s 1116 1068 m20 1125 1053 m 1 X s 1142 1053 m 1 X s 1134 1053 m20 1143 1056 m 1 X s 1160 1056 m 1 X s 1152 1056 m20 1161 1050 m 1 X s 1178 1050 m 1 X s 1170 1050 m20 1179 1061 m 1 X s 1196 1061 m 1 X s 1188 1061 m20 1197 1042 m s 1214
 1042 m 1 X s 1206 1042 m20 1215 1053 m s 1232 1053 m 1 X s 1224 1053 m20 1233 1047 m s 1250 1047 m 1 X s 1242 1047 m20 1251 1050 m s 1268 1050 m 1 X s 1260 1050 m20 1269 1047 m s 1286 1047 m 1 X s 1278 1047 m20 1287 1054 m s 1304 1054 m s 1296 1054
 m20 1304 1057 m 1 X s 1322 1057 m s 1313 1057 m20 1322 1047 m 1 X s 1340 1047 m s 1331 1047 m20 1340 1054 m 1 X s 1358 1054 m s 1349 1054 m20 1358 1044 m 1 X s 1376 1044 m s 1367 1044 m20 1376 1053 m 1 X s 1394 1053 m s 1385 1053 m20 1394 1049 m 1 X
 s 1412 1049 m s 1403 1049 m20 1412 1051 m 1 X s 1429 1051 m 1 X s 1421 1051 m20 1430 1052 m 1 X s 1447 1052 m 1 X s 1439 1052 m20 1448 1050 m 1 X s 1465 1050 m 1 X s 1457 1050 m20 1466 1054 m 1 X s 1483 1054 m 1 X s 1475 1054 m20 1484 1041 m 1 X s
 1501 1041 m 1 X s 1493 1041 m20 1502 1068 m 1 X s 1519 1068 m 1 X s 1511 1068 m20 1520 1069 m 1 X s 1537 1069 m 1 X s 1529 1069 m20 1538 1057 m 1 X s 1555 1057 m 1 X s 1547 1057 m20 1556 1059 m 1 X s 1573 1059 m 1 X s 1565 1059 m20 1574 1052 m 1 X s
 1591 1052 m 1 X s 1583 1052 m20 1592 1053 m 1 X s 1609 1053 m 1 X s 1601 1053 m20 1610 1064 m 1 X s 1627 1064 m 1 X s 1619 1064 m20 1628 1046 m 1 X s 1645 1046 m 1 X s 1637 1046 m20 1646 1030 m 1 X s 1663 1030 m 1 X s 1655 1030 m20 1664 1041 m 1 X s
 1681 1041 m 1 X s 1673 1041 m20 1682 1061 m s 1699 1061 m 1 X s 1691 1061 m20 1700 1064 m s 1717 1064 m 1 X s 1709 1064 m20 1718 1080 m s 1735 1080 m 1 X s 1727 1080 m20 1736 1057 m s 1753 1057 m 1 X s 1745 1057 m20 1754 1067 m s 1771 1067 m 1 X s
 1763 1067 m20 1772 1056 m s 1789 1056 m s 1780 1056 m20 1789 1029 m 1 X s 1807 1029 m s 1798 1029 m20 1807 1035 m 1 X s 1825 1035 m s 1816 1035 m20 1825 1021 m 1 X s 1843 1021 m s 1834 1021 m20 1843 1062 m 1 X s 1861 1062 m s 1852 1062 m20 1861 1066
 m 1 X s 1879 1066 m s 1870 1066 m20 1879 1066 m 1 X s 1896 1066 m 1 X s 1888 1066 m20 1897 1064 m 1 X s 1914 1064 m 1 X s 1906 1064 m20 1915 1071 m 1 X s 1932 1071 m 1 X s 1924 1071 m20 1933 1051 m 1 X s 1950 1051 m 1 X s 1942 1051 m20 1951 1050 m 1
 X s 1968 1050 m 1 X s 1960 1050 m20 1969 1061 m 1 X s 1986 1061 m 1 X s 1978 1061 m20 1987 1062 m 1 X s 2004 1062 m 1 X s 1996 1062 m20 2005 1057 m 1 X s 2022 1057 m 1 X s 2014 1057 m20 2023 159 m 1 X s 2040 159 m 1 X s 2032 159 m20 black 227 159 m
 1814 X s
 gsave  2268 1594 0 0 C 2008.9 63.6768 t 0 r /Symbol findfont 51.3523 sf 0 0 m (j) show NC gr  227 198 m -39 Y s 284 179 m -20 Y s 341 179 m -20 Y s 398 179 m -20 Y s 455 179 m -20 Y s 513 198 m -39 Y s 570 179 m -20 Y s 627 179 m -20 Y s 684 179 m
 -20 Y s 741 179 m -20 Y s 799 198 m -39 Y s 856 179 m -20 Y s 913 179 m -20 Y s 970 179 m -20 Y s 1027 179 m -20 Y s 1084 198 m -39 Y s 1142 179 m -20 Y s 1199 179 m -20 Y s 1256 179 m -20 Y s 1313 179 m -20 Y s 1370 198 m -39 Y s 1427 179 m -20 Y s
 1485 179 m -20 Y s 1542 179 m -20 Y s 1599 179 m -20 Y s 1656 198 m -39 Y s 1713 179 m -20 Y s 1771 179 m -20 Y s 1828 179 m -20 Y s 1885 179 m -20 Y s 1942 198 m -39 Y s 1942 198 m -39 Y s 1999 179 m -20 Y s
 gsave  2268 1594 0 0 C 211.571 106.813 t 0 r /Helvetica findfont 51.3523 sf 0 0 m (0) show NC gr 
 gsave  2268 1594 0 0 C 501.198 106.813 t 0 r /Helvetica findfont 51.3523 sf 0 0 m (1) show NC gr 
 gsave  2268 1594 0 0 C 782.609 106.813 t 0 r /Helvetica findfont 51.3523 sf 0 0 m (2) show NC gr 
 gsave  2268 1594 0 0 C 1068.13 106.813 t 0 r /Helvetica findfont 51.3523 sf 0 0 m (3) show NC gr 
 gsave  2268 1594 0 0 C 1355.7 106.813 t 0 r /Helvetica findfont 51.3523 sf 0 0 m (4) show NC gr 
 gsave  2268 1594 0 0 C 1641.22 106.813 t 0 r /Helvetica findfont 51.3523 sf 0 0 m (5) show NC gr 
 gsave  2268 1594 0 0 C 1926.74 106.813 t 0 r /Helvetica findfont 51.3523 sf 0 0 m (6) show NC gr  227 159 m 1276 Y s
 gsave  2268 1594 0 0 C 108.867 1405 t 90 r /Symbol findfont 51.3523 sf 0 0 m (j) show NC gr 
 gsave  2268 1594 0 0 C 108.867 1283.81 t 90 r /Helvetica findfont 51.3523 sf 0 0 m ( dN/d) show NC gr 
 gsave  2268 1594 0 0 C 127.354 1176.99 t 90 r /Helvetica findfont 34.9195 sf 0 0 m (Events) show NC gr 
 gsave  2268 1594 0 0 C 108.867 1098.94 t 90 r /Helvetica findfont 51.3523 sf 0 0 m (1/N) show NC gr  281 159 m -54 X s 254 202 m -27 X s 254 244 m -27 X s 254 287 m -27 X s 254 329 m -27 X s 281 372 m -54 X s 254 414 m -27 X s 254 457 m -27 X s 254
 499 m -27 X s 254 542 m -27 X s 281 584 m -54 X s 254 627 m -27 X s 254 669 m -27 X s 254 712 m -27 X s 254 754 m -27 X s 281 797 m -54 X s 254 839 m -27 X s 254 882 m -27 X s 254 925 m -27 X s 254 967 m -27 X s 281 1010 m -54 X s 254 1052 m -27 X s
 254 1095 m -27 X s 254 1137 m -27 X s 254 1180 m -27 X s 281 1222 m -54 X s 254 1265 m -27 X s 254 1307 m -27 X s 254 1350 m -27 X s 254 1392 m -27 X s 281 1435 m -54 X s
 gsave  2268 1594 0 0 C 186.922 141.732 t 0 r /Helvetica findfont 51.3523 sf 0 0 m (0) show NC gr 
 gsave  2268 1594 0 0 C 195.139 353.304 t 0 r /Helvetica findfont 51.3523 sf 0 0 m (1) show NC gr 
 gsave  2268 1594 0 0 C 186.922 564.875 t 0 r /Helvetica findfont 51.3523 sf 0 0 m (2) show NC gr 
 gsave  2268 1594 0 0 C 186.922 778.5 t 0 r /Helvetica findfont 51.3523 sf 0 0 m (3) show NC gr 
 gsave  2268 1594 0 0 C 186.922 990.072 t 0 r /Helvetica findfont 51.3523 sf 0 0 m (4) show NC gr 
 gsave  2268 1594 0 0 C 186.922 1203.7 t 0 r /Helvetica findfont 51.3523 sf 0 0 m (5) show NC gr 
 gsave  2268 1594 0 0 C 186.922 1417.32 t 0 r /Helvetica findfont 51.3523 sf 0 0 m (6) show NC gr  1 1 1 c black 227 1058 m 1 X s 244 1058 m 1 X s 236 1058 m21 245 1047 m s 262 1047 m 1 X s 254 1047 m21 263 1049 m s 280 1049 m 1 X s 272 1049 m21 281
 1061 m s 298 1061 m 1 X s 290 1061 m21 299 1053 m s 316 1053 m 1 X s 308 1053 m21 317 1061 m s 334 1061 m 1 X s 326 1061 m21 335 1055 m s 352 1055 m 1 X s 344 1055 m21 353 1052 m s 370 1052 m s 361 1052 m21 370 1056 m 1 X s 388 1056 m s 379 1056 m21
 388 1054 m 1 X s 406 1054 m s 397 1054 m21 406 1034 m 1 X s 424 1034 m s 415 1034 m21 424 1063 m 1 X s 442 1063 m s 433 1063 m21 442 1047 m 1 X s 460 1047 m s 451 1047 m21 460 1063 m 1 X s 477 1063 m 1 X s 469 1063 m21 478 1066 m 1 X s 495 1066 m 1
 X s 487 1066 m21 496 1050 m 1 X s 513 1050 m 1 X s 505 1050 m21 514 1064 m 1 X s 531 1064 m 1 X s 523 1064 m21 532 1049 m 1 X s 549 1049 m 1 X s 541 1049 m21 550 1058 m 1 X s 567 1058 m 1 X s 559 1058 m21 568 1057 m 1 X s 585 1057 m 1 X s 577 1057
 m21 586 1048 m 1 X s 603 1048 m 1 X s 595 1048 m21 604 1047 m 1 X s 621 1047 m 1 X s 613 1047 m21 622 1058 m 1 X s 639 1058 m 1 X s 631 1058 m21 640 1034 m 1 X s 657 1034 m 1 X s 649 1034 m21 658 1047 m 1 X s 675 1047 m 1 X s 667 1047 m21 676 1052 m
 1 X s 693 1052 m 1 X s 685 1052 m21 694 1031 m 1 X s 711 1031 m 1 X s 703 1031 m21 712 1026 m 1 X s 729 1026 m 1 X s 721 1026 m21 730 1031 m s 747 1031 m 1 X s 739 1031 m21 748 1030 m s 765 1030 m 1 X s 757 1030 m21 766 1023 m s 783 1023 m 1 X s 775
 1023 m21 784 905 m s 801 905 m 1 X s 793 905 m21 802 1024 m s 819 1024 m 1 X s 811 1024 m21 820 1049 m s 837 1049 m s 829 1049 m21 837 988 m 1 X s 855 988 m s 846 988 m21 855 996 m 1 X s 873 996 m s 864 996 m21 873 1004 m 1 X s 891 1004 m s 882 1004
 m21 891 1051 m 1 X s 909 1051 m s 900 1051 m21 909 1051 m 1 X s 927 1051 m s 918 1051 m21 927 1055 m 1 X s 944 1055 m 1 X s 936 1055 m21 945 1042 m 1 X s 962 1042 m 1 X s 954 1042 m21 963 1042 m 1 X s 980 1042 m 1 X s 972 1042 m21 981 1043 m 1 X s
 998 1043 m 1 X s 990 1043 m21 999 1040 m 1 X s 1016 1040 m 1 X s 1008 1040 m21 1017 1049 m 1 X s 1034 1049 m 1 X s 1026 1049 m21 1035 1041 m 1 X s 1052 1041 m 1 X s 1044 1041 m21 1053 1033 m 1 X s 1070 1033 m 1 X s 1062 1033 m21 1071 1047 m 1 X s
 1088 1047 m 1 X s 1080 1047 m21 1089 1034 m 1 X s 1106 1034 m 1 X s 1098 1034 m21 1107 1050 m 1 X s 1124 1050 m 1 X s 1116 1050 m21 1125 1033 m 1 X s 1142 1033 m 1 X s 1134 1033 m21 1143 1034 m 1 X s 1160 1034 m 1 X s 1152 1034 m21 1161 1025 m 1 X s
 1178 1025 m 1 X s 1170 1025 m21 1179 1036 m 1 X s 1196 1036 m 1 X s 1188 1036 m21 1197 1003 m s 1214 1003 m 1 X s 1206 1003 m21 1215 1013 m s 1232 1013 m 1 X s 1224 1013 m21 1233 1019 m s 1250 1019 m 1 X s 1242 1019 m21 1251 1033 m s 1268 1033 m 1 X
 s 1260 1033 m21 1269 1030 m s 1286 1030 m 1 X s 1278 1030 m21 1287 1037 m s 1304 1037 m s 1296 1037 m21 1304 1036 m 1 X s 1322 1036 m s 1313 1036 m21 1322 1008 m 1 X s 1340 1008 m s 1331 1008 m21 1340 1035 m 1 X s 1358 1035 m s 1349 1035 m21 1358
 1025 m 1 X s 1376 1025 m s 1367 1025 m21 1376 1035 m 1 X s 1394 1035 m s 1385 1035 m21 1394 1027 m 1 X s 1412 1027 m s 1403 1027 m21 1412 1011 m 1 X s 1429 1011 m 1 X s 1421 1011 m21 1430 1004 m 1 X s 1447 1004 m 1 X s 1439 1004 m21 1448 988 m 1 X s
 1465 988 m 1 X s 1457 988 m21 1466 1009 m 1 X s 1483 1009 m 1 X s 1475 1009 m21 1484 920 m 1 X s 1501 920 m 1 X s 1493 920 m21 1502 1045 m 1 X s 1519 1045 m 1 X s 1511 1045 m21 1520 1049 m 1 X s 1537 1049 m 1 X s 1529 1049 m21 1538 1038 m 1 X s 1555
 1038 m 1 X s 1547 1038 m21 1556 1042 m 1 X s 1573 1042 m 1 X s 1565 1042 m21 1574 1023 m 1 X s 1591 1023 m 1 X s 1583 1023 m21 1592 1019 m 1 X s 1609 1019 m 1 X s 1601 1019 m21 1610 1029 m 1 X s 1627 1029 m 1 X s 1619 1029 m21 1628 1012 m 1 X s 1645
 1012 m 1 X s 1637 1012 m21 1646 889 m 1 X s 1663 889 m 1 X s 1655 889 m21 1664 950 m 1 X s 1681 950 m 1 X s 1673 950 m21 1682 1044 m s 1699 1044 m 1 X s 1691 1044 m21 1700 1044 m s 1717 1044 m 1 X s 1709 1044 m21 1718 1062 m s 1735 1062 m 1 X s 1727
 1062 m21 1736 1010 m s 1753 1010 m 1 X s 1745 1010 m21 1754 1029 m s 1771 1029 m 1 X s 1763 1029 m21 1772 1016 m s 1789 1016 m s 1780 1016 m21 1789 949 m 1 X s 1807 949 m s 1798 949 m21 1807 920 m 1 X s 1825 920 m s 1816 920 m21 1825 825 m 1 X s
 1843 825 m s 1834 825 m21 1843 1037 m 1 X s 1861 1037 m s 1852 1037 m21 1861 1047 m 1 X s 1879 1047 m s 1870 1047 m21 1879 1047 m 1 X s 1896 1047 m 1 X s 1888 1047 m21 1897 1047 m 1 X s 1914 1047 m 1 X s 1906 1047 m21 1915 1050 m 1 X s 1932 1050 m 1
 X s 1924 1050 m21 1933 1017 m 1 X s 1950 1017 m 1 X s 1942 1017 m21 1951 1015 m 1 X s 1968 1015 m 1 X s 1960 1015 m21 1969 1036 m 1 X s 1986 1036 m 1 X s 1978 1036 m21 1987 1043 m 1 X s 2004 1043 m 1 X s 1996 1043 m21 2005 1016 m 1 X s 2022 1016 m 1
 X s 2014 1016 m21 2023 159 m 1 X s 2040 159 m 1 X s 2032 159 m21 1 0 0 c 1 1 1 c 1 0 0 c 227 180 m 1 X s 244 180 m 1 X s 236 180 m24 245 177 m s 262 177 m 1 X s 254 177 m24 263 177 m s 280 177 m 1 X s 272 177 m24 281 175 m s 298 175 m 1 X s 290 175
 m24 299 175 m s 316 175 m 1 X s 308 175 m24 317 175 m s 334 175 m 1 X s 326 175 m24 335 175 m s 352 175 m 1 X s 344 175 m24 353 176 m s 370 176 m s 361 176 m24 370 175 m 1 X s 388 175 m s 379 175 m24 388 176 m 1 X s 406 176 m s 397 176 m24 406 185 m
 1 X s 424 185 m s 415 185 m24 424 175 m 1 X s 442 175 m s 433 175 m24 442 177 m 1 X s 460 177 m s 451 177 m24 460 175 m 1 X s 477 175 m 1 X s 469 175 m24 478 176 m 1 X s 495 176 m 1 X s 487 176 m24 496 178 m 1 X s 513 178 m 1 X s 505 178 m24 514 176
 m 1 X s 531 176 m 1 X s 523 176 m24 532 177 m 1 X s 549 177 m 1 X s 541 177 m24 550 177 m 1 X s 567 177 m 1 X s 559 177 m24 568 176 m 1 X s 585 176 m 1 X s 577 176 m24 586 184 m 1 X s 603 184 m 1 X s 595 184 m24 604 181 m 1 X s 621 181 m 1 X s 613
 181 m24 622 178 m 1 X s 639 178 m 1 X s 631 178 m24 640 179 m 1 X s 657 179 m 1 X s 649 179 m24 658 176 m 1 X s 675 176 m 1 X s 667 176 m24 676 177 m 1 X s 693 177 m 1 X s 685 177 m24 694 186 m 1 X s 711 186 m 1 X s 703 186 m24 712 197 m 1 X s 729
 197 m 1 X s 721 197 m24 730 197 m s 747 197 m 1 X s 739 197 m24 748 199 m s 765 199 m 1 X s 757 199 m24 766 204 m s 783 204 m 1 X s 775 204 m24 784 303 m s 801 303 m 1 X s 793 303 m24 802 195 m s 819 195 m 1 X s 811 195 m24 820 192 m s 837 192 m s
 829 192 m24 837 225 m 1 X s 855 225 m s 846 225 m24 855 227 m 1 X s 873 227 m s 864 227 m24 873 214 m 1 X s 891 214 m s 882 214 m24 891 180 m 1 X s 909 180 m s 900 180 m24 909 178 m 1 X s 927 178 m s 918 178 m24 927 176 m 1 X s 944 176 m 1 X s 936
 176 m24 945 175 m 1 X s 962 175 m 1 X s 954 175 m24 963 182 m 1 X s 980 182 m 1 X s 972 182 m24 981 177 m 1 X s 998 177 m 1 X s 990 177 m24 999 177 m 1 X s 1016 177 m 1 X s 1008 177 m24 1017 177 m 1 X s 1034 177 m 1 X s 1026 177 m24 1035 175 m 1 X s
 1052 175 m 1 X s 1044 175 m24 1053 178 m 1 X s 1070 178 m 1 X s 1062 178 m24 1071 176 m 1 X s 1088 176 m 1 X s 1080 176 m24 1089 176 m 1 X s 1106 176 m 1 X s 1098 176 m24 1107 177 m 1 X s 1124 177 m 1 X s 1116 177 m24 1125 180 m 1 X s 1142 180 m 1 X
 s 1134 180 m24 1143 182 m 1 X s 1160 182 m 1 X s 1152 182 m24 1161 185 m 1 X s 1178 185 m 1 X s 1170 185 m24 1179 184 m 1 X s 1196 184 m 1 X s 1188 184 m24 1197 198 m s 1214 198 m 1 X s 1206 198 m24 1215 199 m s 1232 199 m 1 X s 1224 199 m24 1233
 187 m s 1250 187 m 1 X s 1242 187 m24 1251 177 m s 1268 177 m 1 X s 1260 177 m24 1269 177 m s 1286 177 m 1 X s 1278 177 m24 1287 176 m s 1304 176 m s 1296 176 m24 1304 180 m 1 X s 1322 180 m s 1313 180 m24 1322 199 m 1 X s 1340 199 m s 1331 199 m24
 1340 178 m 1 X s 1358 178 m s 1349 178 m24 1358 178 m 1 X s 1376 178 m s 1367 178 m24 1376 177 m 1 X s 1394 177 m s 1385 177 m24 1394 181 m 1 X s 1412 181 m s 1403 181 m24 1412 199 m 1 X s 1429 199 m 1 X s 1421 199 m24 1430 207 m 1 X s 1447 207 m 1
 X s 1439 207 m24 1448 221 m 1 X s 1465 221 m 1 X s 1457 221 m24 1466 204 m 1 X s 1483 204 m 1 X s 1475 204 m24 1484 281 m 1 X s 1501 281 m 1 X s 1493 281 m24 1502 182 m 1 X s 1519 182 m 1 X s 1511 182 m24 1520 180 m 1 X s 1537 180 m 1 X s 1529 180
 m24 1538 178 m 1 X s 1555 178 m 1 X s 1547 178 m24 1556 177 m 1 X s 1573 177 m 1 X s 1565 177 m24 1574 188 m 1 X s 1591 188 m 1 X s 1583 188 m24 1592 194 m 1 X s 1609 194 m 1 X s 1601 194 m24 1610 195 m 1 X s 1627 195 m 1 X s 1619 195 m24 1628 193 m
 1 X s 1645 193 m 1 X s 1637 193 m24 1646 300 m 1 X s 1663 300 m 1 X s 1655 300 m24 1664 250 m 1 X s 1681 250 m 1 X s 1673 250 m24 1682 177 m s 1699 177 m 1 X s 1691 177 m24 1700 180 m s 1717 180 m 1 X s 1709 180 m24 1718 178 m s 1735 178 m 1 X s
 1727 178 m24 1736 206 m s 1753 206 m 1 X s 1745 206 m24 1754 197 m s 1771 197 m 1 X s 1763 197 m24 1772 200 m s 1789 200 m s 1780 200 m24 1789 240 m 1 X s 1807 240 m s 1798 240 m24 1807 275 m 1 X s 1825 275 m s 1816 275 m24 1825 355 m 1 X s 1843 355
 m s 1834 355 m24 1843 184 m 1 X s 1861 184 m s 1852 184 m24 1861 178 m 1 X s 1879 178 m s 1870 178 m24 1879 178 m 1 X s 1896 178 m 1 X s 1888 178 m24 1897 176 m 1 X s 1914 176 m 1 X s 1906 176 m24 1915 180 m 1 X s 1932 180 m 1 X s 1924 180 m24 1933
 193 m 1 X s 1950 193 m 1 X s 1942 193 m24 1951 195 m 1 X s 1968 195 m 1 X s 1960 195 m24 1969 184 m 1 X s 1986 184 m 1 X s 1978 184 m24 1987 179 m 1 X s 2004 179 m 1 X s 1996 179 m24 2005 201 m 1 X s 2022 201 m 1 X s 2014 201 m24 2023 159 m 1 X s
 2040 159 m 1 X s 2032 159 m24 black 1 1 1 c 567 239 952 558 bf black
 gsave  2268 1594 0 0 C 1092.78 743.581 t 0 r /Helvetica-Bold findfont 36.9736 sf 0 0 m (Sum) show NC gr  0 0 1 c 1023 757 m20 black
 gsave  2268 1594 0 0 C 1092.78 663.471 t 0 r /Helvetica-Bold findfont 36.9736 sf 0 0 m (w/SPD & ITSrefit) show NC gr  1023 677 m21
 gsave  2268 1594 0 0 C 1092.78 583.362 t 0 r /Helvetica-Bold findfont 36.9736 sf 0 0 m (w/o SPD & ITSrefit) show NC gr  1 0 0 c 1023 598 m24 black
 gsave  2268 1594 0 0 C 472.441 1329 t 0 r /Helvetica-Bold findfont 55.4605 sf 0 0 m ( distribution of tracks for lhc13b merged output) show NC gr 
 gsave  2268 1594 0 0 C 439.576 1329 t 0 r /Symbol findfont 55.4605 sf 0 0 m (j) show NC gr 
 gr  gr showpage
end
%%EOF
