%!PS-Adobe-2.0 EPSF-2.0
%%BoundingBox:  0 0 567 398
%%Title: /Users/cgy606/Documents/Train/LEGOTrain/020814/lhc13b/lhc13b_TrackPt.eps: 
%%Creator: ROOT Version 5.34/09
%%CreationDate: Fri Mar 28 14:54:15 2014
%%EndComments
%%BeginProlog
80 dict begin
/s {stroke} def /l {lineto} def /m {moveto} def /t {translate} def
/r {rotate} def /rl {roll}  def /R {repeat} def
/d {rlineto} def /rm {rmoveto} def /gr {grestore} def /f {eofill} def
/c {setrgbcolor} def /black {0 setgray} def /sd {setdash} def
/cl {closepath} def /sf {scalefont setfont} def /lw {setlinewidth} def
/box {m dup 0 exch d exch 0 d 0 exch neg d cl} def
/NC{systemdict begin initclip end}def/C{NC box clip newpath}def
/bl {box s} def /bf {box f} def /Y { 0 exch d} def /X { 0 d} def 
/K {{pop pop 0 moveto} exch kshow} bind def
/ita {/ang 15 def gsave [1 0 ang dup sin exch cos div 1 0 0] concat} def 
/mp {newpath /y exch def /x exch def} def
/side {[w .77 mul w .23 mul] .385 w mul sd w 0 l currentpoint t -144 r} def
/mr {mp x y w2 0 360 arc} def /m24 {mr s} def /m20 {mr f} def
/mb {mp x y w2 add m w2 neg 0 d 0 w neg d w 0 d 0 w d cl} def
/mt {mp x y w2 add m w2 neg w neg d w 0 d cl} def
/m21 {mb f} def /m25 {mb s} def /m22 {mt f} def /m26{mt s} def
/m23 {mp x y w2 sub m w2 w d w neg 0 d cl f} def
/m27 {mp x y w2 add m w3 neg w2 neg d w3 w2 neg d w3 w2 d cl s} def
/m28 {mp x w2 sub y w2 sub w3 add m w3 0 d  0 w3 neg d w3 0 d 0 w3 d w3 0 d  0 w3 d w3 neg 0 d 0 w3 d w3 neg 0 d 0 w3 neg d w3 neg 0 d cl s } def
/m29 {mp gsave x w2 sub y w2 add w3 sub m currentpoint t 4 {side} repeat cl fill gr} def
/m30 {mp gsave x w2 sub y w2 add w3 sub m currentpoint t 4 {side} repeat cl s gr} def
/m31 {mp x y w2 sub m 0 w d x w2 sub y m w 0 d x w2 sub y w2 add m w w neg d x w2 sub y w2 sub m w w d s} def
/m32 {mp x y w2 sub m w2 w d w neg 0 d cl s} def
/m33 {mp x y w2 add m w3 neg w2 neg d w3 w2 neg d w3 w2 d cl f} def
/m34 {mp x w2 sub y w2 sub w3 add m w3 0 d  0 w3 neg d w3 0 d 0 w3 d w3 0 d  0 w3 d w3 neg 0 d 0 w3 d w3 neg 0 d 0 w3 neg d w3 neg 0 d cl f } def
/m2 {mp x y w2 sub m 0 w d x w2 sub y m w 0 d s} def
/m5 {mp x w2 sub y w2 sub m w w d x w2 sub y w2 add m w w neg d s} def
/reEncode {exch findfont dup length dict begin {1 index /FID eq  {pop pop} {def} ifelse } forall /Encoding exch def currentdict end dup /FontName get exch definefont pop } def [/Times-Bold /Times-Italic /Times-BoldItalic /Helvetica /Helvetica-Oblique
 /Helvetica-Bold /Helvetica-BoldOblique /Courier /Courier-Oblique /Courier-Bold /Courier-BoldOblique /Times-Roman /AvantGarde-Book /AvantGarde-BookOblique /AvantGarde-Demi /AvantGarde-DemiOblique /Bookman-Demi /Bookman-DemiItalic /Bookman-Light
 /Bookman-LightItalic /Helvetica-Narrow /Helvetica-Narrow-Bold /Helvetica-Narrow-BoldOblique /Helvetica-Narrow-Oblique /NewCenturySchlbk-Roman /NewCenturySchlbk-Bold /NewCenturySchlbk-BoldItalic /NewCenturySchlbk-Italic /Palatino-Bold
 /Palatino-BoldItalic /Palatino-Italic /Palatino-Roman ] {ISOLatin1Encoding reEncode } forall
%%EndProlog
%%BeginSetup
%%EndSetup
newpath  gsave  .25 .25 scale  gsave  0 0 t black[  ] 0 sd 3 lw 0.999 0.999 0.999 c 2268 1594 0 0 bf black 0.999 0.999 0.999 c 1814 1276 227 159 bf black 1814 1276 227 159 bl 0 0 1 c 1 1 1 c 0 0 1 c 245 1391 m 1 X s 262 1391 m 1 X s /w 16 def /w2 {w
 2 div} def /w3 {w 3 div} def 254 1391 m20 263 1295 m 1 X s 280 1295 m 1 X s 272 1295 m20 281 1213 m 1 X s 298 1213 m 1 X s 290 1213 m20 299 1144 m 1 X s 317 1144 m s 308 1144 m20 317 1087 m 1 X s 335 1087 m 1 X s 327 1087 m20 336 1038 m s 353 1038 m
 1 X s 345 1038 m20 354 996 m 1 X s 371 996 m 1 X s 363 996 m20 372 960 m 1 X s 389 960 m 1 X s 381 960 m20 390 927 m 1 X s 407 927 m 1 X s 399 927 m20 408 898 m 1 X s 425 898 m 1 X s 417 898 m20 426 873 m 1 X s 444 873 m s 435 873 m20 444 848 m 1 X
 s 462 848 m 1 X s 454 848 m20 463 827 m s 480 827 m 1 X s 472 827 m20 481 806 m 1 X s 498 806 m 1 X s 490 806 m20 499 786 m 1 X s 516 786 m 1 X s 508 786 m20 517 768 m 1 X s 534 768 m 1 X s 526 768 m20 535 747 m 1 X s 552 747 m 1 X s 544 747 m20 553
 734 m 1 X s 571 734 m s 562 734 m20 571 721 m 1 X s 589 721 m 1 X s 581 721 m20 590 706 m s 607 706 m 1 X s 599 706 m20 608 694 m 1 X s 625 694 m 1 X s 617 694 m20 626 682 m 1 X s 643 682 m 1 X s 635 682 m20 644 663 m 1 X s 661 663 m 1 X s 653 663
 m20 662 654 m 1 X s 679 654 m 1 X s 671 654 m20 680 637 m 1 X s 698 637 m s 689 637 m20 698 637 m 1 X s 716 637 m 1 X s 708 637 m20 717 612 m s 734 612 m 1 X s 726 612 m20 735 611 m 1 X s 752 611 m 1 X s 744 611 m20 753 597 m 1 X s 770 597 m 1 X s
 762 597 m20 771 589 m 1 X s 788 589 m 1 X s 780 589 m20 798 570 m s 789 578 m 1 X s 806 578 m 1 X s 798 578 m20 816 561 m 1 Y s 807 570 m 1 X s 825 570 m s 816 570 m20 835 551 m 2 Y s 835 570 m s 825 561 m 1 X s 843 561 m 1 X s 835 561 m20 853 546 m
 2 Y s 853 565 m s 844 556 m s 861 556 m 1 X s 853 556 m20 871 515 m 6 Y s 871 537 m 3 Y s 862 529 m 1 X s 879 529 m 1 X s 871 529 m20 889 518 m 5 Y s 889 540 m 2 Y s 880 531 m 1 X s 897 531 m 1 X s 889 531 m20 907 508 m 7 Y s 907 531 m 4 Y s 898 523
 m 1 X s 915 523 m 1 X s 907 523 m20 925 492 m 9 Y s 925 517 m 5 Y s 916 509 m 1 X s 933 509 m 1 X s 925 509 m20 943 496 m 9 Y s 943 521 m 5 Y s 934 513 m 1 X s 952 513 m s 943 513 m20 962 511 m 7 Y s 962 534 m 3 Y s 952 526 m 1 X s 970 526 m 1 X s
 962 526 m20 980 482 m 10 Y s 980 509 m 5 Y s 971 500 m s 988 500 m 1 X s 980 500 m20 998 376 m 39 Y s 998 432 m 17 Y s 989 424 m 1 X s 1006 424 m 1 X s 998 424 m20 1016 462 m 14 Y s 1016 493 m 7 Y s 1007 485 m 1 X s 1024 485 m 1 X s 1016 485 m20
 1034 454 m 16 Y s 1034 486 m 9 Y s 1025 478 m 1 X s 1042 478 m 1 X s 1034 478 m20 1052 419 m 25 Y s 1052 460 m 12 Y s 1043 452 m 1 X s 1060 452 m 1 X s 1052 452 m20 1070 462 m 14 Y s 1070 493 m 7 Y s 1061 485 m 1 X s 1079 485 m s 1070 485 m20 1089
 462 m 14 Y s 1089 493 m 7 Y s 1079 485 m 1 X s 1097 485 m 1 X s 1089 485 m20 1107 444 m 18 Y s 1107 479 m 9 Y s 1098 471 m s 1115 471 m 1 X s 1107 471 m20 1125 333 m 60 Y s 1125 409 m 22 Y s 1116 401 m 1 X s 1133 401 m 1 X s 1125 401 m20 1143 419 m
 25 Y s 1143 460 m 12 Y s 1134 452 m 1 X s 1151 452 m 1 X s 1143 452 m20 1161 376 m 39 Y s 1161 432 m 17 Y s 1152 424 m 1 X s 1169 424 m 1 X s 1161 424 m20 1179 376 m 39 Y s 1179 432 m 17 Y s 1170 424 m 1 X s 1187 424 m 1 X s 1179 424 m20 1197 333 m
 60 Y s 1197 409 m 22 Y s 1188 401 m 1 X s 1206 401 m s 1197 401 m20 1215 333 m 60 Y s 1215 409 m 22 Y s 1206 401 m 1 X s 1224 401 m 1 X s 1215 401 m20 1252 376 m 39 Y s 1252 432 m 17 Y s 1243 424 m 1 X s 1260 424 m 1 X s 1252 424 m20 1270 333 m 60 Y
 s 1270 409 m 22 Y s 1261 401 m 1 X s 1278 401 m 1 X s 1270 401 m20 1288 419 m 25 Y s 1288 460 m 12 Y s 1279 452 m 1 X s 1296 452 m 1 X s 1288 452 m20 1306 333 m 60 Y s 1306 409 m 22 Y s 1297 401 m 1 X s 1314 401 m 1 X s 1306 401 m20 1324 376 m 39 Y
 s 1324 432 m 17 Y s 1315 424 m 1 X s 1333 424 m s 1324 424 m20 1361 333 m 60 Y s 1361 409 m 22 Y s 1352 401 m s 1369 401 m 1 X s 1361 401 m20 1379 159 m 196 Y s 1379 371 m 30 Y s 1370 363 m 1 X s 1387 363 m 1 X s 1379 363 m20 1397 333 m 60 Y s 1397
 409 m 22 Y s 1388 401 m 1 X s 1405 401 m 1 X s 1397 401 m20 1451 159 m 196 Y s 1451 371 m 30 Y s 1442 363 m 1 X s 1460 363 m s 1451 363 m20 1506 333 m 60 Y s 1506 409 m 22 Y s 1497 401 m 1 X s 1514 401 m 1 X s 1506 401 m20 1560 159 m 196 Y s 1560
 371 m 30 Y s 1551 363 m 1 X s 1568 363 m 1 X s 1560 363 m20 1578 159 m 196 Y s 1578 371 m 30 Y s 1569 363 m 1 X s 1587 363 m s 1578 363 m20 1615 159 m 196 Y s 1615 371 m 30 Y s 1606 363 m s 1623 363 m 1 X s 1615 363 m20 1651 159 m 196 Y s 1651 371 m
 30 Y s 1642 363 m 1 X s 1659 363 m 1 X s 1651 363 m20 1669 333 m 60 Y s 1669 409 m 22 Y s 1660 401 m 1 X s 1677 401 m 1 X s 1669 401 m20 1760 333 m 60 Y s 1760 409 m 22 Y s 1751 401 m 1 X s 1768 401 m 1 X s 1760 401 m20 1814 159 m 196 Y s 1814 371 m
 30 Y s 1805 363 m 1 X s 1822 363 m 1 X s 1814 363 m20 1850 159 m 196 Y s 1850 371 m 30 Y s 1841 363 m 1 X s 1859 363 m 1 X s 1850 363 m20 2032 159 m 196 Y s 2032 371 m 30 Y s 2023 363 m 1 X s 2040 363 m 1 X s 2032 363 m20 black 227 159 m 1814 X s
 gsave  2268 1594 0 0 C 1850.74 51.3523 t 0 r /Helvetica findfont 51.3523 sf 0 0 m ( \(GeV/c\)) show NC gr 
 gsave  2268 1594 0 0 C 1828.14 22.595 t 0 r /Helvetica findfont 34.9195 sf 0 0 m (T) show NC gr 
 gsave  2268 1594 0 0 C 1799.38 51.3523 t 0 r /Helvetica findfont 51.3523 sf 0 0 m (p) show NC gr  227 198 m -39 Y s 263 179 m -20 Y s 299 179 m -20 Y s 336 179 m -20 Y s 372 179 m -20 Y s 408 198 m -39 Y s 444 179 m -20 Y s 481 179 m -20 Y s 517 179
 m -20 Y s 553 179 m -20 Y s 590 198 m -39 Y s 626 179 m -20 Y s 662 179 m -20 Y s 698 179 m -20 Y s 735 179 m -20 Y s 771 198 m -39 Y s 807 179 m -20 Y s 844 179 m -20 Y s 880 179 m -20 Y s 916 179 m -20 Y s 952 198 m -39 Y s 989 179 m -20 Y s 1025
 179 m -20 Y s 1061 179 m -20 Y s 1098 179 m -20 Y s 1134 198 m -39 Y s 1170 179 m -20 Y s 1206 179 m -20 Y s 1243 179 m -20 Y s 1279 179 m -20 Y s 1315 198 m -39 Y s 1352 179 m -20 Y s 1388 179 m -20 Y s 1424 179 m -20 Y s 1460 179 m -20 Y s 1497
 198 m -39 Y s 1533 179 m -20 Y s 1569 179 m -20 Y s 1606 179 m -20 Y s 1642 179 m -20 Y s 1678 198 m -39 Y s 1714 179 m -20 Y s 1751 179 m -20 Y s 1787 179 m -20 Y s 1823 179 m -20 Y s 1860 198 m -39 Y s 1896 179 m -20 Y s 1932 179 m -20 Y s 1968
 179 m -20 Y s 2005 179 m -20 Y s 2041 198 m -39 Y s
 gsave  2268 1594 0 0 C 211.571 106.813 t 0 r /Helvetica findfont 51.3523 sf 0 0 m (0) show NC gr 
 gsave  2268 1594 0 0 C 377.953 106.813 t 0 r /Helvetica findfont 51.3523 sf 0 0 m (10) show NC gr 
 gsave  2268 1594 0 0 C 560.767 106.813 t 0 r /Helvetica findfont 51.3523 sf 0 0 m (20) show NC gr 
 gsave  2268 1594 0 0 C 741.527 106.813 t 0 r /Helvetica findfont 51.3523 sf 0 0 m (30) show NC gr 
 gsave  2268 1594 0 0 C 922.287 106.813 t 0 r /Helvetica findfont 51.3523 sf 0 0 m (40) show NC gr 
 gsave  2268 1594 0 0 C 1105.1 106.813 t 0 r /Helvetica findfont 51.3523 sf 0 0 m (50) show NC gr 
 gsave  2268 1594 0 0 C 1285.86 106.813 t 0 r /Helvetica findfont 51.3523 sf 0 0 m (60) show NC gr 
 gsave  2268 1594 0 0 C 1466.62 106.813 t 0 r /Helvetica findfont 51.3523 sf 0 0 m (70) show NC gr 
 gsave  2268 1594 0 0 C 1647.38 106.813 t 0 r /Helvetica findfont 51.3523 sf 0 0 m (80) show NC gr 
 gsave  2268 1594 0 0 C 1830.2 106.813 t 0 r /Helvetica findfont 51.3523 sf 0 0 m (90) show NC gr 
 gsave  2268 1594 0 0 C 1996.58 106.813 t 0 r /Helvetica findfont 51.3523 sf 0 0 m (100) show NC gr  227 159 m 1276 Y s
 gsave  2268 1594 0 0 C 115.029 1413.21 t 90 r /Helvetica findfont 34.9195 sf 0 0 m (T) show NC gr 
 gsave  2268 1594 0 0 C 86.2718 1263.27 t 90 r /Helvetica findfont 51.3523 sf 0 0 m ( dN/dp) show NC gr 
 gsave  2268 1594 0 0 C 104.759 1156.45 t 90 r /Helvetica findfont 34.9195 sf 0 0 m (Events) show NC gr 
 gsave  2268 1594 0 0 C 86.2718 1078.4 t 90 r /Helvetica findfont 51.3523 sf 0 0 m (1/N) show NC gr  281 159 m -54 X s
 gsave  2268 1594 0 0 C 176.652 160.219 t 0 r /Helvetica findfont 34.9195 sf 0 0 m (\2559) show NC gr 
 gsave  2268 1594 0 0 C 121.191 135.57 t 0 r /Helvetica findfont 51.3523 sf 0 0 m (10) show NC gr  254 198 m -27 X s 254 220 m -27 X s 254 236 m -27 X s 254 249 m -27 X s 254 259 m -27 X s 254 267 m -27 X s 254 275 m -27 X s 254 281 m -27 X s 281 287
 m -54 X s
 gsave  2268 1594 0 0 C 176.652 287.573 t 0 r /Helvetica findfont 34.9195 sf 0 0 m (\2558) show NC gr 
 gsave  2268 1594 0 0 C 121.191 262.924 t 0 r /Helvetica findfont 51.3523 sf 0 0 m (10) show NC gr  254 325 m -27 X s 254 348 m -27 X s 254 364 m -27 X s 254 376 m -27 X s 254 386 m -27 X s 254 395 m -27 X s 254 402 m -27 X s 254 409 m -27 X s 281
 414 m -54 X s
 gsave  2268 1594 0 0 C 176.652 412.872 t 0 r /Helvetica findfont 34.9195 sf 0 0 m (\2557) show NC gr 
 gsave  2268 1594 0 0 C 121.191 390.277 t 0 r /Helvetica findfont 51.3523 sf 0 0 m (10) show NC gr  254 453 m -27 X s 254 475 m -27 X s 254 491 m -27 X s 254 504 m -27 X s 254 514 m -27 X s 254 522 m -27 X s 254 530 m -27 X s 254 536 m -27 X s 281
 542 m -54 X s
 gsave  2268 1594 0 0 C 176.652 542.28 t 0 r /Helvetica findfont 34.9195 sf 0 0 m (\2556) show NC gr 
 gsave  2268 1594 0 0 C 121.191 517.631 t 0 r /Helvetica findfont 51.3523 sf 0 0 m (10) show NC gr  254 580 m -27 X s 254 603 m -27 X s 254 619 m -27 X s 254 631 m -27 X s 254 641 m -27 X s 254 650 m -27 X s 254 657 m -27 X s 254 664 m -27 X s 281
 669 m -54 X s
 gsave  2268 1594 0 0 C 176.652 669.634 t 0 r /Helvetica findfont 34.9195 sf 0 0 m (\2555) show NC gr 
 gsave  2268 1594 0 0 C 121.191 644.985 t 0 r /Helvetica findfont 51.3523 sf 0 0 m (10) show NC gr  254 708 m -27 X s 254 730 m -27 X s 254 746 m -27 X s 254 759 m -27 X s 254 769 m -27 X s 254 777 m -27 X s 254 785 m -27 X s 254 791 m -27 X s 281
 797 m -54 X s
 gsave  2268 1594 0 0 C 176.652 794.933 t 0 r /Helvetica findfont 34.9195 sf 0 0 m (\2554) show NC gr 
 gsave  2268 1594 0 0 C 121.191 772.338 t 0 r /Helvetica findfont 51.3523 sf 0 0 m (10) show NC gr  254 835 m -27 X s 254 858 m -27 X s 254 874 m -27 X s 254 886 m -27 X s 254 896 m -27 X s 254 905 m -27 X s 254 912 m -27 X s 254 919 m -27 X s 281
 925 m -54 X s
 gsave  2268 1594 0 0 C 176.652 926.395 t 0 r /Helvetica findfont 34.9195 sf 0 0 m (\2553) show NC gr 
 gsave  2268 1594 0 0 C 121.191 901.746 t 0 r /Helvetica findfont 51.3523 sf 0 0 m (10) show NC gr  254 963 m -27 X s 254 985 m -27 X s 254 1001 m -27 X s 254 1014 m -27 X s 254 1024 m -27 X s 254 1032 m -27 X s 254 1040 m -27 X s 254 1046 m -27 X s
 281 1052 m -54 X s
 gsave  2268 1594 0 0 C 176.652 1051.69 t 0 r /Helvetica findfont 34.9195 sf 0 0 m (\2552) show NC gr 
 gsave  2268 1594 0 0 C 121.191 1029.1 t 0 r /Helvetica findfont 51.3523 sf 0 0 m (10) show NC gr  254 1090 m -27 X s 254 1113 m -27 X s 254 1129 m -27 X s 254 1141 m -27 X s 254 1151 m -27 X s 254 1160 m -27 X s 254 1167 m -27 X s 254 1174 m -27 X s
 281 1180 m -54 X s
 gsave  2268 1594 0 0 C 182.814 1179.05 t 0 r /Helvetica findfont 34.9195 sf 0 0 m (\2551) show NC gr 
 gsave  2268 1594 0 0 C 127.354 1156.45 t 0 r /Helvetica findfont 51.3523 sf 0 0 m (10) show NC gr  254 1218 m -27 X s 254 1240 m -27 X s 254 1256 m -27 X s 254 1269 m -27 X s 254 1279 m -27 X s 254 1287 m -27 X s 254 1295 m -27 X s 254 1301 m -27 X
 s 281 1307 m -54 X s
 gsave  2268 1594 0 0 C 209.083 1284.88 t 0 r  -28 0 t /Helvetica findfont 51.3523 sf 0 0 m (1) show NC gr  254 1345 m -27 X s 254 1368 m -27 X s 254 1384 m -27 X s 254 1396 m -27 X s 254 1406 m -27 X s 254 1415 m -27 X s 254 1422 m -27 X s 254 1429
 m -27 X s 281 1435 m -54 X s
 gsave  2268 1594 0 0 C 209.083 1412.39 t 0 r  -57 0 t /Helvetica findfont 51.3523 sf 0 0 m (10) show NC gr 
 gsave  2268 1594 0 0 C 552.55 1308.46 t 0 r /Helvetica-Bold findfont 55.4605 sf 0 0 m ( distribution of tracks for lhc13b merged output) show NC gr 
 gsave  2268 1594 0 0 C 529.956 1279.7 t 0 r /Helvetica-Bold findfont 36.9736 sf 0 0 m (T) show NC gr 
 gsave  2268 1594 0 0 C 497.09 1308.46 t 0 r /Helvetica-Bold findfont 55.4605 sf 0 0 m (p) show NC gr 
 gr  gr showpage
end
%%EOF
