%!PS-Adobe-2.0 EPSF-2.0
%%BoundingBox:  0 0 567 398
%%Title: /Users/cgy606/Documents/Train/LEGOTrain/020814/lhc13b/lhc13b_JetZMean_lhc13b.eps: 
%%Creator: ROOT Version 5.34/09
%%CreationDate: Fri Mar 28 16:17:53 2014
%%EndComments
%%BeginProlog
80 dict begin
/s {stroke} def /l {lineto} def /m {moveto} def /t {translate} def
/r {rotate} def /rl {roll}  def /R {repeat} def
/d {rlineto} def /rm {rmoveto} def /gr {grestore} def /f {eofill} def
/c {setrgbcolor} def /black {0 setgray} def /sd {setdash} def
/cl {closepath} def /sf {scalefont setfont} def /lw {setlinewidth} def
/box {m dup 0 exch d exch 0 d 0 exch neg d cl} def
/NC{systemdict begin initclip end}def/C{NC box clip newpath}def
/bl {box s} def /bf {box f} def /Y { 0 exch d} def /X { 0 d} def 
/K {{pop pop 0 moveto} exch kshow} bind def
/ita {/ang 15 def gsave [1 0 ang dup sin exch cos div 1 0 0] concat} def 
/mp {newpath /y exch def /x exch def} def
/side {[w .77 mul w .23 mul] .385 w mul sd w 0 l currentpoint t -144 r} def
/mr {mp x y w2 0 360 arc} def /m24 {mr s} def /m20 {mr f} def
/mb {mp x y w2 add m w2 neg 0 d 0 w neg d w 0 d 0 w d cl} def
/mt {mp x y w2 add m w2 neg w neg d w 0 d cl} def
/m21 {mb f} def /m25 {mb s} def /m22 {mt f} def /m26{mt s} def
/m23 {mp x y w2 sub m w2 w d w neg 0 d cl f} def
/m27 {mp x y w2 add m w3 neg w2 neg d w3 w2 neg d w3 w2 d cl s} def
/m28 {mp x w2 sub y w2 sub w3 add m w3 0 d  0 w3 neg d w3 0 d 0 w3 d w3 0 d  0 w3 d w3 neg 0 d 0 w3 d w3 neg 0 d 0 w3 neg d w3 neg 0 d cl s } def
/m29 {mp gsave x w2 sub y w2 add w3 sub m currentpoint t 4 {side} repeat cl fill gr} def
/m30 {mp gsave x w2 sub y w2 add w3 sub m currentpoint t 4 {side} repeat cl s gr} def
/m31 {mp x y w2 sub m 0 w d x w2 sub y m w 0 d x w2 sub y w2 add m w w neg d x w2 sub y w2 sub m w w d s} def
/m32 {mp x y w2 sub m w2 w d w neg 0 d cl s} def
/m33 {mp x y w2 add m w3 neg w2 neg d w3 w2 neg d w3 w2 d cl f} def
/m34 {mp x w2 sub y w2 sub w3 add m w3 0 d  0 w3 neg d w3 0 d 0 w3 d w3 0 d  0 w3 d w3 neg 0 d 0 w3 d w3 neg 0 d 0 w3 neg d w3 neg 0 d cl f } def
/m2 {mp x y w2 sub m 0 w d x w2 sub y m w 0 d s} def
/m5 {mp x w2 sub y w2 sub m w w d x w2 sub y w2 add m w w neg d s} def
/reEncode {exch findfont dup length dict begin {1 index /FID eq  {pop pop} {def} ifelse } forall /Encoding exch def currentdict end dup /FontName get exch definefont pop } def [/Times-Bold /Times-Italic /Times-BoldItalic /Helvetica /Helvetica-Oblique
 /Helvetica-Bold /Helvetica-BoldOblique /Courier /Courier-Oblique /Courier-Bold /Courier-BoldOblique /Times-Roman /AvantGarde-Book /AvantGarde-BookOblique /AvantGarde-Demi /AvantGarde-DemiOblique /Bookman-Demi /Bookman-DemiItalic /Bookman-Light
 /Bookman-LightItalic /Helvetica-Narrow /Helvetica-Narrow-Bold /Helvetica-Narrow-BoldOblique /Helvetica-Narrow-Oblique /NewCenturySchlbk-Roman /NewCenturySchlbk-Bold /NewCenturySchlbk-BoldItalic /NewCenturySchlbk-Italic /Palatino-Bold
 /Palatino-BoldItalic /Palatino-Italic /Palatino-Roman ] {ISOLatin1Encoding reEncode } forall
%%EndProlog
%%BeginSetup
%%EndSetup
newpath  gsave  .25 .25 scale  gsave  0 0 t black[  ] 0 sd 3 lw 0.999 0.999 0.999 c 2268 1594 0 0 bf black 0.999 0.999 0.999 c 1814 1276 227 159 bf black 1814 1276 227 159 bl 0 0 1 c 1 1 1 c 0 0 1 c 287 864 m 22 X s 326 864 m 22 X s /w 16 def /w2 {w
 2 div} def /w3 {w 3 div} def 317 864 m20 348 794 m 22 X s 386 794 m 22 X s 378 794 m20 408 740 m 22 X s 447 740 m 22 X s 438 740 m20 469 700 m 22 X s 507 700 m 22 X s 499 700 m20 529 680 m 22 X s 568 680 m 22 X s 559 680 m20 620 660 m 2 Y s 620 678
 m 2 Y s 590 670 m 22 X s 628 670 m 22 X s 620 670 m20 680 635 m 4 Y s 680 656 m 4 Y s 650 648 m 22 X s 689 648 m 22 X s 680 648 m20 741 649 m 11 Y s 741 676 m 11 Y s 711 668 m 22 X s 749 668 m 22 X s 741 668 m20 801 600 m 11 Y s 801 627 m 10 Y s 771
 619 m 22 X s 809 619 m 22 X s 801 619 m20 862 630 m 22 Y s 862 669 m 22 Y s 831 661 m 23 X s 870 661 m 22 X s 862 661 m20 922 626 m 32 Y s 922 674 m 31 Y s 892 666 m 22 X s 930 666 m 22 X s 922 666 m20 983 543 m 35 Y s 983 594 m 35 Y s 952 586 m 22
 X s 991 586 m 22 X s 983 586 m20 1043 629 m 61 Y s 1043 707 m 61 Y s 1013 699 m 22 X s 1051 699 m 22 X s 1043 699 m20 1104 572 m 63 Y s 1104 652 m 63 Y s 1073 643 m 22 X s 1112 643 m 22 X s 1104 643 m20 1164 550 m 68 Y s 1164 635 m 68 Y s 1134 626 m
 22 X s 1172 626 m 22 X s 1164 626 m20 1225 600 m 46 Y s 1225 663 m 46 Y s 1194 655 m 22 X s 1233 655 m 22 X s 1225 655 m20 1285 550 m 59 Y s 1285 626 m 59 Y s 1255 618 m 22 X s 1293 618 m 22 X s 1285 618 m20 1315 472 m 22 X s 1354 472 m 22 X s 1346
 472 m20 1376 523 m 22 X s 1414 523 m 22 X s 1406 523 m20 1466 405 m 14 Y s 1466 435 m 15 Y s 1436 427 m 22 X s 1475 427 m 22 X s 1466 427 m20 1527 575 m 118 Y s 1527 710 m 118 Y s 1497 701 m 22 X s 1535 701 m 22 X s 1527 701 m20 1557 370 m 22 X s
 1596 370 m 22 X s 1587 370 m20 1829 446 m 113 Y s 1829 576 m 113 Y s 1799 567 m 22 X s 1838 567 m 22 X s 1829 567 m20 1890 888 m 73 Y s 1890 977 m 73 Y s 1860 969 m 22 X s 1898 969 m 22 X s 1890 969 m20 black 227 159 m 1814 X s
 gsave  2268 1594 0 0 C 1891.82 65.7309 t 0 r /Helvetica findfont 51.3523 sf 0 0 m ( \(GeV\)) show NC gr 
 gsave  2268 1594 0 0 C 1787.06 86.2718 t 0 r /Helvetica findfont 34.9195 sf 0 0 m (ch+em) show NC gr 
 gsave  2268 1594 0 0 C 1787.06 36.9736 t 0 r /Helvetica findfont 34.9195 sf 0 0 m (T,jet) show NC gr 
 gsave  2268 1594 0 0 C 1758.3 65.7309 t 0 r /Helvetica findfont 51.3523 sf 0 0 m (p) show NC gr  227 198 m -39 Y s 287 179 m -20 Y s 348 179 m -20 Y s 408 179 m -20 Y s 469 198 m -39 Y s 529 179 m -20 Y s 590 179 m -20 Y s 650 179 m -20 Y s 711 198
 m -39 Y s 771 179 m -20 Y s 831 179 m -20 Y s 892 179 m -20 Y s 952 198 m -39 Y s 1013 179 m -20 Y s 1073 179 m -20 Y s 1134 179 m -20 Y s 1194 198 m -39 Y s 1255 179 m -20 Y s 1315 179 m -20 Y s 1376 179 m -20 Y s 1436 198 m -39 Y s 1497 179 m -20
 Y s 1557 179 m -20 Y s 1618 179 m -20 Y s 1678 198 m -39 Y s 1739 179 m -20 Y s 1799 179 m -20 Y s 1860 179 m -20 Y s 1920 198 m -39 Y s 1920 198 m -39 Y s 1980 179 m -20 Y s 2041 179 m -20 Y s
 gsave  2268 1594 0 0 C 211.571 106.813 t 0 r /Helvetica findfont 51.3523 sf 0 0 m (0) show NC gr 
 gsave  2268 1594 0 0 C 439.576 106.813 t 0 r /Helvetica findfont 51.3523 sf 0 0 m (20) show NC gr 
 gsave  2268 1594 0 0 C 679.904 106.813 t 0 r /Helvetica findfont 51.3523 sf 0 0 m (40) show NC gr 
 gsave  2268 1594 0 0 C 922.287 106.813 t 0 r /Helvetica findfont 51.3523 sf 0 0 m (60) show NC gr 
 gsave  2268 1594 0 0 C 1164.67 106.813 t 0 r /Helvetica findfont 51.3523 sf 0 0 m (80) show NC gr 
 gsave  2268 1594 0 0 C 1392.67 106.813 t 0 r /Helvetica findfont 51.3523 sf 0 0 m (100) show NC gr 
 gsave  2268 1594 0 0 C 1633 106.813 t 0 r /Helvetica findfont 51.3523 sf 0 0 m (120) show NC gr 
 gsave  2268 1594 0 0 C 1875.39 106.813 t 0 r /Helvetica findfont 51.3523 sf 0 0 m (140) show NC gr  227 159 m 1276 Y s
 gsave  2268 1594 0 0 C 100.65 1407.05 t 90 r /Helvetica findfont 51.3523 sf 0 0 m (>) show NC gr 
 gsave  2268 1594 0 0 C 119.137 1296.13 t 90 r /Helvetica findfont 34.9195 sf 0 0 m (leading) show NC gr 
 gsave  2268 1594 0 0 C 100.65 1240.67 t 90 r /Helvetica findfont 51.3523 sf 0 0 m (<z) show NC gr  281 159 m -54 X s 254 185 m -27 X s 254 210 m -27 X s 254 236 m -27 X s 254 261 m -27 X s 281 287 m -54 X s 254 312 m -27 X s 254 338 m -27 X s 254
 363 m -27 X s 254 389 m -27 X s 281 414 m -54 X s 254 440 m -27 X s 254 465 m -27 X s 254 491 m -27 X s 254 516 m -27 X s 281 542 m -54 X s 254 567 m -27 X s 254 593 m -27 X s 254 618 m -27 X s 254 644 m -27 X s 281 669 m -54 X s 254 695 m -27 X s
 254 720 m -27 X s 254 746 m -27 X s 254 771 m -27 X s 281 797 m -54 X s 254 822 m -27 X s 254 848 m -27 X s 254 873 m -27 X s 254 899 m -27 X s 281 925 m -54 X s 254 950 m -27 X s 254 976 m -27 X s 254 1001 m -27 X s 254 1027 m -27 X s 281 1052 m
 -54 X s 254 1078 m -27 X s 254 1103 m -27 X s 254 1129 m -27 X s 254 1154 m -27 X s 281 1180 m -54 X s 254 1205 m -27 X s 254 1231 m -27 X s 254 1256 m -27 X s 254 1282 m -27 X s 281 1307 m -54 X s 254 1333 m -27 X s 254 1358 m -27 X s 254 1384 m
 -27 X s 254 1409 m -27 X s 281 1435 m -54 X s
 gsave  2268 1594 0 0 C 186.922 141.732 t 0 r /Helvetica findfont 51.3523 sf 0 0 m (0) show NC gr 
 gsave  2268 1594 0 0 C 152.003 269.086 t 0 r /Helvetica findfont 51.3523 sf 0 0 m (0.1) show NC gr 
 gsave  2268 1594 0 0 C 143.786 396.44 t 0 r /Helvetica findfont 51.3523 sf 0 0 m (0.2) show NC gr 
 gsave  2268 1594 0 0 C 143.786 523.793 t 0 r /Helvetica findfont 51.3523 sf 0 0 m (0.3) show NC gr 
 gsave  2268 1594 0 0 C 143.786 651.147 t 0 r /Helvetica findfont 51.3523 sf 0 0 m (0.4) show NC gr 
 gsave  2268 1594 0 0 C 143.786 778.5 t 0 r /Helvetica findfont 51.3523 sf 0 0 m (0.5) show NC gr 
 gsave  2268 1594 0 0 C 143.786 907.908 t 0 r /Helvetica findfont 51.3523 sf 0 0 m (0.6) show NC gr 
 gsave  2268 1594 0 0 C 143.786 1035.26 t 0 r /Helvetica findfont 51.3523 sf 0 0 m (0.7) show NC gr 
 gsave  2268 1594 0 0 C 143.786 1162.62 t 0 r /Helvetica findfont 51.3523 sf 0 0 m (0.8) show NC gr 
 gsave  2268 1594 0 0 C 143.786 1289.97 t 0 r /Helvetica findfont 51.3523 sf 0 0 m (0.9) show NC gr 
 gsave  2268 1594 0 0 C 195.139 1415.27 t 0 r /Helvetica findfont 51.3523 sf 0 0 m (1) show NC gr  1 1 1 c black 287 648 m 22 X s 326 648 m 22 X s 317 648 m21 348 578 m 22 X s 386 578 m 22 X s 378 578 m21 408 564 m 22 X s 447 564 m 22 X s 438 564 m21
 469 569 m 22 X s 507 569 m 22 X s 499 569 m21 529 566 m 22 X s 568 566 m 22 X s 559 566 m21 620 562 m 1 Y s 620 579 m 1 Y s 590 571 m 22 X s 628 571 m 22 X s 620 571 m21 680 560 m 4 Y s 680 581 m 4 Y s 650 572 m 22 X s 689 572 m 22 X s 680 572 m21
 741 582 m 10 Y s 741 609 m 10 Y s 711 600 m 22 X s 749 600 m 22 X s 741 600 m21 801 516 m 14 Y s 801 547 m 14 Y s 771 538 m 22 X s 809 538 m 22 X s 801 538 m21 862 581 m 19 Y s 862 616 m 19 Y s 831 608 m 23 X s 870 608 m 22 X s 862 608 m21 922 518 m
 28 Y s 922 563 m 28 Y s 892 554 m 22 X s 930 554 m 22 X s 922 554 m21 983 560 m 47 Y s 983 623 m 47 Y s 952 615 m 22 X s 991 615 m 22 X s 983 615 m21 1043 503 m 29 Y s 1043 548 m 29 Y s 1013 540 m 22 X s 1051 540 m 22 X s 1043 540 m21 1104 563 m 65
 Y s 1104 644 m 65 Y s 1073 636 m 22 X s 1112 636 m 22 X s 1104 636 m21 1164 499 m 55 Y s 1164 571 m 55 Y s 1134 562 m 22 X s 1172 562 m 22 X s 1164 562 m21 1225 522 m 60 Y s 1225 598 m 60 Y s 1194 590 m 22 X s 1233 590 m 22 X s 1225 590 m21 1346 375
 m 25 Y s 1346 416 m 26 Y s 1315 408 m 22 X s 1354 408 m 22 X s 1346 408 m21 1376 587 m 22 X s 1414 587 m 22 X s 1406 587 m21 1497 306 m 22 X s 1535 306 m 22 X s 1527 306 m21 1557 370 m 22 X s 1596 370 m 22 X s 1587 370 m21 1618 497 m 22 X s 1656 497
 m 22 X s 1648 497 m21
 gsave  2268 1594 0 0 C 996.234 1308.46 t 0 r /Helvetica-Bold findfont 55.4605 sf 0 0 m ( for lhc13b merged output) show NC gr 
 gsave  2268 1594 0 0 C 868.88 1289.97 t 0 r /Helvetica-Bold findfont 36.9736 sf 0 0 m (leading) show NC gr 
 gsave  2268 1594 0 0 C 589.524 1308.46 t 0 r /Helvetica-Bold findfont 55.4605 sf 0 0 m (Mean Jet z) show NC gr  1 1 1 c 680 239 454 877 bf black
 gsave  2268 1594 0 0 C 622.39 1031.15 t 0 r /Helvetica-Bold findfont 71.8932 sf 0 0 m (R=0.2) show NC gr  0 0 1 c 539 1056 m20 black
 gsave  2268 1594 0 0 C 622.39 909.962 t 0 r /Helvetica-Bold findfont 71.8932 sf 0 0 m (R=0.4) show NC gr  539 936 m21
 gr  gr showpage
end
%%EOF
