%!PS-Adobe-2.0 EPSF-2.0
%%BoundingBox:  0 0 567 366
%%Title: ../Unfolding/Data/lhc13_R2_RCP_TrackEff.eps: 
%%Creator: ROOT Version 5.34/02
%%CreationDate: Tue Apr 15 08:48:28 2014
%%EndComments
%%BeginProlog
80 dict begin
/s {stroke} def /l {lineto} def /m {moveto} def /t {translate} def
/r {rotate} def /rl {roll}  def /R {repeat} def
/d {rlineto} def /rm {rmoveto} def /gr {grestore} def /f {eofill} def
/c {setrgbcolor} def /black {0 setgray} def /sd {setdash} def
/cl {closepath} def /sf {scalefont setfont} def /lw {setlinewidth} def
/box {m dup 0 exch d exch 0 d 0 exch neg d cl} def
/NC{systemdict begin initclip end}def/C{NC box clip newpath}def
/bl {box s} def /bf {box f} def /Y { 0 exch d} def /X { 0 d} def 
/K {{pop pop 0 moveto} exch kshow} bind def
/ita {/ang 15 def gsave [1 0 ang dup sin exch cos div 1 0 0] concat} def 
/mp {newpath /y exch def /x exch def} def
/side {[w .77 mul w .23 mul] .385 w mul sd w 0 l currentpoint t -144 r} def
/mr {mp x y w2 0 360 arc} def /m24 {mr s} def /m20 {mr f} def
/mb {mp x y w2 add m w2 neg 0 d 0 w neg d w 0 d 0 w d cl} def
/mt {mp x y w2 add m w2 neg w neg d w 0 d cl} def
/m21 {mb f} def /m25 {mb s} def /m22 {mt f} def /m26{mt s} def
/m23 {mp x y w2 sub m w2 w d w neg 0 d cl f} def
/m27 {mp x y w2 add m w3 neg w2 neg d w3 w2 neg d w3 w2 d cl s} def
/m28 {mp x w2 sub y w2 sub w3 add m w3 0 d  0 w3 neg d w3 0 d 0 w3 d w3 0 d  0 w3 d w3 neg 0 d 0 w3 d w3 neg 0 d 0 w3 neg d w3 neg 0 d cl s } def
/m29 {mp gsave x w2 sub y w2 add w3 sub m currentpoint t 4 {side} repeat cl fill gr} def
/m30 {mp gsave x w2 sub y w2 add w3 sub m currentpoint t 4 {side} repeat cl s gr} def
/m31 {mp x y w2 sub m 0 w d x w2 sub y m w 0 d x w2 sub y w2 add m w w neg d x w2 sub y w2 sub m w w d s} def
/m32 {mp x y w2 sub m w2 w d w neg 0 d cl s} def
/m33 {mp x y w2 add m w3 neg w2 neg d w3 w2 neg d w3 w2 d cl f} def
/m34 {mp x w2 sub y w2 sub w3 add m w3 0 d  0 w3 neg d w3 0 d 0 w3 d w3 0 d  0 w3 d w3 neg 0 d 0 w3 d w3 neg 0 d 0 w3 neg d w3 neg 0 d cl f } def
/m2 {mp x y w2 sub m 0 w d x w2 sub y m w 0 d s} def
/m5 {mp x w2 sub y w2 sub m w w d x w2 sub y w2 add m w w neg d s} def
/reEncode {exch findfont dup length dict begin {1 index /FID eq  {pop pop} {def} ifelse } forall /Encoding exch def currentdict end dup /FontName get exch definefont pop } def [/Times-Bold /Times-Italic /Times-BoldItalic /Helvetica /Helvetica-Oblique
 /Helvetica-Bold /Helvetica-BoldOblique /Courier /Courier-Oblique /Courier-Bold /Courier-BoldOblique /Times-Roman /AvantGarde-Book /AvantGarde-BookOblique /AvantGarde-Demi /AvantGarde-DemiOblique /Bookman-Demi /Bookman-DemiItalic /Bookman-Light
 /Bookman-LightItalic /Helvetica-Narrow /Helvetica-Narrow-Bold /Helvetica-Narrow-BoldOblique /Helvetica-Narrow-Oblique /NewCenturySchlbk-Roman /NewCenturySchlbk-Bold /NewCenturySchlbk-BoldItalic /NewCenturySchlbk-Italic /Palatino-Bold
 /Palatino-BoldItalic /Palatino-Italic /Palatino-Roman ] {ISOLatin1Encoding reEncode } forall
%%EndProlog
%%BeginSetup
%%EndSetup
newpath  gsave  .25 .25 scale  gsave  0 0 t black[  ] 0 sd 3 lw 1 1 1 c 2268 1464 0 0 bf black 1 1 1 c 1814 1171 227 146 bf black 1814 1171 227 146 bl 0 0 1 c 1 1 1 c 0 0 1 c 340 875 m 26 Y s 340 916 m 25 Y s 227 908 m 106 X s 348 908 m 106 X s /w 15
 def /w2 {w 2 div} def /w3 {w 3 div} def 340 908 m20 567 754 m 22 Y s 567 792 m 22 Y s 454 784 m 105 X s 575 784 m 105 X s 567 784 m20 794 896 m 37 Y s 794 948 m 37 Y s 680 941 m 106 X s 801 941 m 106 X s 794 941 m20 1020 856 m 44 Y s 1020 916 m 44 Y
 s 907 908 m 106 X s 1028 908 m 106 X s 1020 908 m20 1247 858 m 57 Y s 1247 930 m 57 Y s 1134 922 m 106 X s 1255 922 m 106 X s 1247 922 m20 1474 874 m 78 Y s 1474 967 m 79 Y s 1361 960 m 105 X s 1482 960 m 105 X s 1474 960 m20 1701 883 m 120 Y s 1701
 1018 m 119 Y s 1587 1010 m 106 X s 1708 1010 m 106 X s 1701 1010 m20 1928 880 m 180 Y s 1928 1075 m 180 Y s 1814 1067 m 106 X s 1935 1067 m 106 X s 1928 1067 m20 black 227 146 m 1814 X s
 gsave  2268 1464 0 0 C 1901.77 43.6099 t 0 r /Helvetica findfont 47.4021 sf 0 0 m ( \(GeV\)) show NC gr 
 gsave  2268 1464 0 0 C 1805.07 60.6747 t 0 r /Helvetica findfont 32.2334 sf 0 0 m (ch+em) show NC gr 
 gsave  2268 1464 0 0 C 1805.07 18.9608 t 0 r /Helvetica findfont 32.2334 sf 0 0 m 
 50 32 25 16
(T,jet) K NC gr 
 gsave  2268 1464 0 0 C 1780.42 43.6099 t 0 r /Helvetica findfont 47.4021 sf 0 0 m (p) show NC gr  227 182 m -36 Y s 272 164 m -18 Y s 317 164 m -18 Y s 363 164 m -18 Y s 408 164 m -18 Y s 454 182 m -36 Y s 499 164 m -18 Y s 544 164 m -18 Y s 590 164
 m -18 Y s 635 164 m -18 Y s 680 182 m -36 Y s 726 164 m -18 Y s 771 164 m -18 Y s 816 164 m -18 Y s 862 164 m -18 Y s 907 182 m -36 Y s 952 164 m -18 Y s 998 164 m -18 Y s 1043 164 m -18 Y s 1089 164 m -18 Y s 1134 182 m -36 Y s 1179 164 m -18 Y s
 1225 164 m -18 Y s 1270 164 m -18 Y s 1315 164 m -18 Y s 1361 182 m -36 Y s 1406 164 m -18 Y s 1451 164 m -18 Y s 1497 164 m -18 Y s 1542 164 m -18 Y s 1587 182 m -36 Y s 1633 164 m -18 Y s 1678 164 m -18 Y s 1723 164 m -18 Y s 1769 164 m -18 Y s
 1814 182 m -36 Y s 1860 164 m -18 Y s 1905 164 m -18 Y s 1950 164 m -18 Y s 1996 164 m -18 Y s 2041 182 m -36 Y s
 gsave  2268 1464 0 0 C 199.089 98.5964 t 0 r /Helvetica findfont 47.4021 sf 0 0 m (20) show NC gr 
 gsave  2268 1464 0 0 C 426.619 98.5964 t 0 r /Helvetica findfont 47.4021 sf 0 0 m (30) show NC gr 
 gsave  2268 1464 0 0 C 652.253 98.5964 t 0 r /Helvetica findfont 47.4021 sf 0 0 m (40) show NC gr 
 gsave  2268 1464 0 0 C 879.783 98.5964 t 0 r /Helvetica findfont 47.4021 sf 0 0 m (50) show NC gr 
 gsave  2268 1464 0 0 C 1107.31 98.5964 t 0 r /Helvetica findfont 47.4021 sf 0 0 m (60) show NC gr 
 gsave  2268 1464 0 0 C 1332.95 98.5964 t 0 r /Helvetica findfont 47.4021 sf 0 0 m (70) show NC gr 
 gsave  2268 1464 0 0 C 1560.48 98.5964 t 0 r /Helvetica findfont 47.4021 sf 0 0 m (80) show NC gr 
 gsave  2268 1464 0 0 C 1786.11 98.5964 t 0 r /Helvetica findfont 47.4021 sf 0 0 m (90) show NC gr 
 gsave  2268 1464 0 0 C 2000.37 98.5964 t 0 r /Helvetica findfont 47.4021 sf 0 0 m (100) show NC gr  227 1317 m 1814 X s 227 1282 m 35 Y s 272 1300 m 17 Y s 317 1300 m 17 Y s 363 1300 m 17 Y s 408 1300 m 17 Y s 454 1282 m 35 Y s 499 1300 m 17 Y s 544
 1300 m 17 Y s 590 1300 m 17 Y s 635 1300 m 17 Y s 680 1282 m 35 Y s 726 1300 m 17 Y s 771 1300 m 17 Y s 816 1300 m 17 Y s 862 1300 m 17 Y s 907 1282 m 35 Y s 952 1300 m 17 Y s 998 1300 m 17 Y s 1043 1300 m 17 Y s 1089 1300 m 17 Y s 1134 1282 m 35 Y
 s 1179 1300 m 17 Y s 1225 1300 m 17 Y s 1270 1300 m 17 Y s 1315 1300 m 17 Y s 1361 1282 m 35 Y s 1406 1300 m 17 Y s 1451 1300 m 17 Y s 1497 1300 m 17 Y s 1542 1300 m 17 Y s 1587 1282 m 35 Y s 1633 1300 m 17 Y s 1678 1300 m 17 Y s 1723 1300 m 17 Y s
 1769 1300 m 17 Y s 1814 1282 m 35 Y s 1860 1300 m 17 Y s 1905 1300 m 17 Y s 1950 1300 m 17 Y s 1996 1300 m 17 Y s 2041 1282 m 35 Y s 227 146 m 1171 Y s
 gsave  2268 1464 0 0 C 98.5964 1274.17 t 90 r /Helvetica findfont 32.2334 sf 0 0 m (CP) show NC gr 
 gsave  2268 1464 0 0 C 83.4277 1240.04 t 90 r /Helvetica findfont 47.4021 sf 0 0 m (R) show NC gr  281 146 m -54 X s 254 176 m -27 X s 254 205 m -27 X s 254 234 m -27 X s 281 263 m -54 X s 254 293 m -27 X s 254 322 m -27 X s 254 351 m -27 X s 281
 381 m -54 X s 254 410 m -27 X s 254 439 m -27 X s 254 468 m -27 X s 281 498 m -54 X s 254 527 m -27 X s 254 556 m -27 X s 254 586 m -27 X s 281 615 m -54 X s 254 644 m -27 X s 254 673 m -27 X s 254 703 m -27 X s 281 732 m -54 X s 254 761 m -27 X s
 254 790 m -27 X s 254 820 m -27 X s 281 849 m -54 X s 254 878 m -27 X s 254 908 m -27 X s 254 937 m -27 X s 281 966 m -54 X s 254 995 m -27 X s 254 1025 m -27 X s 254 1054 m -27 X s 281 1083 m -54 X s 254 1112 m -27 X s 254 1142 m -27 X s 254 1171 m
 -27 X s 281 1200 m -54 X s 254 1230 m -27 X s 254 1259 m -27 X s 254 1288 m -27 X s 281 1317 m -54 X s
 gsave  2268 1464 0 0 C 189.608 130.83 t 0 r /Helvetica findfont 47.4021 sf 0 0 m (0) show NC gr 
 gsave  2268 1464 0 0 C 149.791 246.491 t 0 r /Helvetica findfont 47.4021 sf 0 0 m (0.2) show NC gr 
 gsave  2268 1464 0 0 C 149.791 364.048 t 0 r /Helvetica findfont 47.4021 sf 0 0 m (0.4) show NC gr 
 gsave  2268 1464 0 0 C 149.791 481.605 t 0 r /Helvetica findfont 47.4021 sf 0 0 m (0.6) show NC gr 
 gsave  2268 1464 0 0 C 149.791 599.163 t 0 r /Helvetica findfont 47.4021 sf 0 0 m (0.8) show NC gr 
 gsave  2268 1464 0 0 C 195.297 712.928 t 0 r /Helvetica findfont 47.4021 sf 0 0 m (1) show NC gr 
 gsave  2268 1464 0 0 C 149.791 830.485 t 0 r /Helvetica findfont 47.4021 sf 0 0 m (1.2) show NC gr 
 gsave  2268 1464 0 0 C 149.791 948.042 t 0 r /Helvetica findfont 47.4021 sf 0 0 m (1.4) show NC gr 
 gsave  2268 1464 0 0 C 149.791 1067.5 t 0 r /Helvetica findfont 47.4021 sf 0 0 m (1.6) show NC gr 
 gsave  2268 1464 0 0 C 149.791 1185.05 t 0 r /Helvetica findfont 47.4021 sf 0 0 m (1.8) show NC gr 
 gsave  2268 1464 0 0 C 189.608 1298.82 t 0 r /Helvetica findfont 47.4021 sf 0 0 m (2) show NC gr  2041 146 m 1171 Y s 1987 146 m 54 X s 2014 176 m 27 X s 2014 205 m 27 X s 2014 234 m 27 X s 1987 263 m 54 X s 2014 293 m 27 X s 2014 322 m 27 X s 2014
 351 m 27 X s 1987 381 m 54 X s 2014 410 m 27 X s 2014 439 m 27 X s 2014 468 m 27 X s 1987 498 m 54 X s 2014 527 m 27 X s 2014 556 m 27 X s 2014 586 m 27 X s 1987 615 m 54 X s 2014 644 m 27 X s 2014 673 m 27 X s 2014 703 m 27 X s 1987 732 m 54 X s
 2014 761 m 27 X s 2014 790 m 27 X s 2014 820 m 27 X s 1987 849 m 54 X s 2014 878 m 27 X s 2014 908 m 27 X s 2014 937 m 27 X s 1987 966 m 54 X s 2014 995 m 27 X s 2014 1025 m 27 X s 2014 1054 m 27 X s 1987 1083 m 54 X s 2014 1112 m 27 X s 2014 1142 m
 27 X s 2014 1171 m 27 X s 1987 1200 m 54 X s 2014 1230 m 27 X s 2014 1259 m 27 X s 2014 1288 m 27 X s 1987 1317 m 54 X s 1 0 0 c 1 1 1 c 1 0 0 c 340 878 m 25 Y s 340 918 m 26 Y s 227 911 m 106 X s 348 911 m 106 X s 340 911 m25 567 755 m 22 Y s 567
 792 m 22 Y s 454 784 m 105 X s 575 784 m 105 X s 567 784 m25 794 893 m 37 Y s 794 945 m 37 Y s 680 937 m 106 X s 801 937 m 106 X s 794 937 m25 1020 851 m 44 Y s 1020 910 m 43 Y s 907 902 m 106 X s 1028 902 m 106 X s 1020 902 m25 1247 853 m 55 Y s
 1247 924 m 55 Y s 1134 916 m 106 X s 1255 916 m 106 X s 1247 916 m25 1474 871 m 76 Y s 1474 962 m 76 Y s 1361 954 m 105 X s 1482 954 m 105 X s 1474 954 m25 1701 886 m 115 Y s 1701 1016 m 115 Y s 1587 1008 m 106 X s 1708 1008 m 106 X s 1701 1008 m25
 1928 888 m 177 Y s 1928 1080 m 177 Y s 1814 1072 m 106 X s 1935 1072 m 106 X s 1928 1072 m25 black
 gsave  2268 1464 0 0 C 678.798 1202.12 t 0 r /Helvetica-Bold findfont 68.259 sf 0 0 m 
 1064 1026 1006 968 927 889 870 832 813 790 767 721 703 661 619 600 562 524 486 459 421 402 380 338 300 273 235 212 190 171 129 110 83 41 19
( for different Tracking Efficiencies) K NC gr 
 gsave  2268 1464 0 0 C 616.227 1183.16 t 0 r /Helvetica-Bold findfont 45.506 sf 0 0 m (CP) show NC gr 
 gsave  2268 1464 0 0 C 566.929 1202.12 t 0 r /Helvetica-Bold findfont 68.259 sf 0 0 m (R) show NC gr  1 0 1 c[ 12 12] 0 sd 6 lw 227 732 m 1814 X s black[  ] 0 sd 3 lw 1 1 1 c 566 366 454 220 bf black
 gsave  2268 1464 0 0 C 593.474 479.709 t 0 r /Helvetica findfont 54.9864 sf 0 0 m 
 608 593 581 551 520 505 475 435 417 402 353 323 293 262 247 215 200 185 171 134 107 79 49 31
(TrackEff = 100% \(Default\)) K NC gr  0 0 1 c 524 494 m20 black
 gsave  2268 1464 0 0 C 593.474 291.997 t 0 r /Helvetica findfont 54.9864 sf 0 0 m 
 323 293 262 247 215 200 185 171 134 107 80 49 31
(TrackEff = 95%) K NC gr  1 0 0 c 524 311 m25 black
 gsave  2268 1464 0 0 C 1797.49 1084.56 t 0 r /Helvetica-Bold findfont 68.259 sf 0 0 m ( R = 0.2) show NC gr 
 gsave  2268 1464 0 0 C 1769.05 1063.7 t 0 r /Helvetica-Bold findfont 45.506 sf 0 0 m (T) show NC gr 
 gsave  2268 1464 0 0 C 1587.02 1084.56 t 0 r /Helvetica-Bold findfont 68.259 sf 0 0 m (anti\255k) show NC gr 
 gr  gr showpage
end
%%EOF
