%!PS-Adobe-2.0 EPSF-2.0
%%BoundingBox:  0 0 567 366
%%Title: ../Unfolding/Data/lhc13_R2_XSec_TrackEff.eps: 
%%Creator: ROOT Version 5.34/02
%%CreationDate: Tue Apr 15 07:12:19 2014
%%EndComments
%%BeginProlog
80 dict begin
/s {stroke} def /l {lineto} def /m {moveto} def /t {translate} def
/r {rotate} def /rl {roll}  def /R {repeat} def
/d {rlineto} def /rm {rmoveto} def /gr {grestore} def /f {eofill} def
/c {setrgbcolor} def /black {0 setgray} def /sd {setdash} def
/cl {closepath} def /sf {scalefont setfont} def /lw {setlinewidth} def
/box {m dup 0 exch d exch 0 d 0 exch neg d cl} def
/NC{systemdict begin initclip end}def/C{NC box clip newpath}def
/bl {box s} def /bf {box f} def /Y { 0 exch d} def /X { 0 d} def 
/K {{pop pop 0 moveto} exch kshow} bind def
/ita {/ang 15 def gsave [1 0 ang dup sin exch cos div 1 0 0] concat} def 
/mp {newpath /y exch def /x exch def} def
/side {[w .77 mul w .23 mul] .385 w mul sd w 0 l currentpoint t -144 r} def
/mr {mp x y w2 0 360 arc} def /m24 {mr s} def /m20 {mr f} def
/mb {mp x y w2 add m w2 neg 0 d 0 w neg d w 0 d 0 w d cl} def
/mt {mp x y w2 add m w2 neg w neg d w 0 d cl} def
/m21 {mb f} def /m25 {mb s} def /m22 {mt f} def /m26{mt s} def
/m23 {mp x y w2 sub m w2 w d w neg 0 d cl f} def
/m27 {mp x y w2 add m w3 neg w2 neg d w3 w2 neg d w3 w2 d cl s} def
/m28 {mp x w2 sub y w2 sub w3 add m w3 0 d  0 w3 neg d w3 0 d 0 w3 d w3 0 d  0 w3 d w3 neg 0 d 0 w3 d w3 neg 0 d 0 w3 neg d w3 neg 0 d cl s } def
/m29 {mp gsave x w2 sub y w2 add w3 sub m currentpoint t 4 {side} repeat cl fill gr} def
/m30 {mp gsave x w2 sub y w2 add w3 sub m currentpoint t 4 {side} repeat cl s gr} def
/m31 {mp x y w2 sub m 0 w d x w2 sub y m w 0 d x w2 sub y w2 add m w w neg d x w2 sub y w2 sub m w w d s} def
/m32 {mp x y w2 sub m w2 w d w neg 0 d cl s} def
/m33 {mp x y w2 add m w3 neg w2 neg d w3 w2 neg d w3 w2 d cl f} def
/m34 {mp x w2 sub y w2 sub w3 add m w3 0 d  0 w3 neg d w3 0 d 0 w3 d w3 0 d  0 w3 d w3 neg 0 d 0 w3 d w3 neg 0 d 0 w3 neg d w3 neg 0 d cl f } def
/m2 {mp x y w2 sub m 0 w d x w2 sub y m w 0 d s} def
/m5 {mp x w2 sub y w2 sub m w w d x w2 sub y w2 add m w w neg d s} def
/reEncode {exch findfont dup length dict begin {1 index /FID eq  {pop pop} {def} ifelse } forall /Encoding exch def currentdict end dup /FontName get exch definefont pop } def [/Times-Bold /Times-Italic /Times-BoldItalic /Helvetica /Helvetica-Oblique
 /Helvetica-Bold /Helvetica-BoldOblique /Courier /Courier-Oblique /Courier-Bold /Courier-BoldOblique /Times-Roman /AvantGarde-Book /AvantGarde-BookOblique /AvantGarde-Demi /AvantGarde-DemiOblique /Bookman-Demi /Bookman-DemiItalic /Bookman-Light
 /Bookman-LightItalic /Helvetica-Narrow /Helvetica-Narrow-Bold /Helvetica-Narrow-BoldOblique /Helvetica-Narrow-Oblique /NewCenturySchlbk-Roman /NewCenturySchlbk-Bold /NewCenturySchlbk-BoldItalic /NewCenturySchlbk-Italic /Palatino-Bold
 /Palatino-BoldItalic /Palatino-Italic /Palatino-Roman ] {ISOLatin1Encoding reEncode } forall
%%EndProlog
%%BeginSetup
%%EndSetup
newpath  gsave  .25 .25 scale  gsave  0 0 t black[  ] 0 sd 3 lw 1 1 1 c 2268 1464 0 0 bf black 1 1 1 c 1814 1171 227 146 bf black 1814 1171 227 146 bl 0 0 1 c 1 1 1 c 0 0 1 c 227 1012 m 83 X s 325 1012 m 83 X s /w 15 def /w2 {w 2 div} def /w3 {w 3
 div} def 317 1012 m20 408 888 m 83 X s 506 888 m 84 X s 499 888 m20 590 792 m 83 X s 688 792 m 83 X s 680 792 m20 771 707 m 83 X s 869 707 m 83 X s 862 707 m20 952 640 m 84 X s 1051 640 m 83 X s 1043 640 m20 1134 583 m 83 X s 1232 583 m 83 X s 1225
 583 m20 1315 531 m 83 X s 1414 531 m 83 X s 1406 531 m20 1497 486 m 83 X s 1595 486 m 83 X s 1587 486 m20 1769 436 m s 1769 452 m s 1678 444 m 83 X s 1776 444 m 84 X s 1769 444 m20 1950 397 m 2 Y s 1950 414 m 2 Y s 1860 407 m 83 X s 1958 407 m 83 X
 s 1950 407 m20 black 227 146 m 1814 X s
 gsave  2268 1464 0 0 C 1901.77 43.6099 t 0 r /Helvetica findfont 47.4021 sf 0 0 m ( \(GeV\)) show NC gr 
 gsave  2268 1464 0 0 C 1805.07 60.6747 t 0 r /Helvetica findfont 32.2334 sf 0 0 m (ch+em) show NC gr 
 gsave  2268 1464 0 0 C 1805.07 18.9608 t 0 r /Helvetica findfont 32.2334 sf 0 0 m 
 50 32 25 16
(T,jet) K NC gr 
 gsave  2268 1464 0 0 C 1780.42 43.6099 t 0 r /Helvetica findfont 47.4021 sf 0 0 m (p) show NC gr  227 182 m -36 Y s 263 164 m -18 Y s 299 164 m -18 Y s 336 164 m -18 Y s 372 164 m -18 Y s 408 182 m -36 Y s 444 164 m -18 Y s 481 164 m -18 Y s 517 164
 m -18 Y s 553 164 m -18 Y s 590 182 m -36 Y s 626 164 m -18 Y s 662 164 m -18 Y s 698 164 m -18 Y s 735 164 m -18 Y s 771 182 m -36 Y s 807 164 m -18 Y s 844 164 m -18 Y s 880 164 m -18 Y s 916 164 m -18 Y s 952 182 m -36 Y s 989 164 m -18 Y s 1025
 164 m -18 Y s 1061 164 m -18 Y s 1098 164 m -18 Y s 1134 182 m -36 Y s 1170 164 m -18 Y s 1206 164 m -18 Y s 1243 164 m -18 Y s 1279 164 m -18 Y s 1315 182 m -36 Y s 1352 164 m -18 Y s 1388 164 m -18 Y s 1424 164 m -18 Y s 1460 164 m -18 Y s 1497
 182 m -36 Y s 1533 164 m -18 Y s 1569 164 m -18 Y s 1606 164 m -18 Y s 1642 164 m -18 Y s 1678 182 m -36 Y s 1714 164 m -18 Y s 1751 164 m -18 Y s 1787 164 m -18 Y s 1823 164 m -18 Y s 1860 182 m -36 Y s 1896 164 m -18 Y s 1932 164 m -18 Y s 1968
 164 m -18 Y s 2005 164 m -18 Y s 2041 182 m -36 Y s
 gsave  2268 1464 0 0 C 199.089 98.5964 t 0 r /Helvetica findfont 47.4021 sf 0 0 m (20) show NC gr 
 gsave  2268 1464 0 0 C 381.113 98.5964 t 0 r /Helvetica findfont 47.4021 sf 0 0 m (30) show NC gr 
 gsave  2268 1464 0 0 C 561.241 98.5964 t 0 r /Helvetica findfont 47.4021 sf 0 0 m (40) show NC gr 
 gsave  2268 1464 0 0 C 743.265 98.5964 t 0 r /Helvetica findfont 47.4021 sf 0 0 m (50) show NC gr 
 gsave  2268 1464 0 0 C 925.289 98.5964 t 0 r /Helvetica findfont 47.4021 sf 0 0 m (60) show NC gr 
 gsave  2268 1464 0 0 C 1107.31 98.5964 t 0 r /Helvetica findfont 47.4021 sf 0 0 m (70) show NC gr 
 gsave  2268 1464 0 0 C 1287.44 98.5964 t 0 r /Helvetica findfont 47.4021 sf 0 0 m (80) show NC gr 
 gsave  2268 1464 0 0 C 1469.47 98.5964 t 0 r /Helvetica findfont 47.4021 sf 0 0 m (90) show NC gr 
 gsave  2268 1464 0 0 C 1638.22 98.5964 t 0 r /Helvetica findfont 47.4021 sf 0 0 m (100) show NC gr 
 gsave  2268 1464 0 0 C 1820.24 98.5964 t 0 r /Helvetica findfont 47.4021 sf 0 0 m 
 50 23
(110) K NC gr 
 gsave  2268 1464 0 0 C 2000.37 98.5964 t 0 r /Helvetica findfont 47.4021 sf 0 0 m (120) show NC gr  227 1317 m 1814 X s 227 1282 m 35 Y s 263 1300 m 17 Y s 299 1300 m 17 Y s 336 1300 m 17 Y s 372 1300 m 17 Y s 408 1282 m 35 Y s 444 1300 m 17 Y s 481
 1300 m 17 Y s 517 1300 m 17 Y s 553 1300 m 17 Y s 590 1282 m 35 Y s 626 1300 m 17 Y s 662 1300 m 17 Y s 698 1300 m 17 Y s 735 1300 m 17 Y s 771 1282 m 35 Y s 807 1300 m 17 Y s 844 1300 m 17 Y s 880 1300 m 17 Y s 916 1300 m 17 Y s 952 1282 m 35 Y s
 989 1300 m 17 Y s 1025 1300 m 17 Y s 1061 1300 m 17 Y s 1098 1300 m 17 Y s 1134 1282 m 35 Y s 1170 1300 m 17 Y s 1206 1300 m 17 Y s 1243 1300 m 17 Y s 1279 1300 m 17 Y s 1315 1282 m 35 Y s 1352 1300 m 17 Y s 1388 1300 m 17 Y s 1424 1300 m 17 Y s
 1460 1300 m 17 Y s 1497 1282 m 35 Y s 1533 1300 m 17 Y s 1569 1300 m 17 Y s 1606 1300 m 17 Y s 1642 1300 m 17 Y s 1678 1282 m 35 Y s 1714 1300 m 17 Y s 1751 1300 m 17 Y s 1787 1300 m 17 Y s 1823 1300 m 17 Y s 1860 1282 m 35 Y s 1896 1300 m 17 Y s
 1932 1300 m 17 Y s 1968 1300 m 17 Y s 2005 1300 m 17 Y s 2041 1282 m 35 Y s 227 146 m 1171 Y s
 gsave  2268 1464 0 0 C 85.3238 1291.23 t 90 r /Symbol findfont 47.4021 sf 0 0 m (h) show NC gr 
 gsave  2268 1464 0 0 C 85.3238 1266.58 t 90 r /Helvetica findfont 47.4021 sf 0 0 m (d) show NC gr 
 gsave  2268 1464 0 0 C 109.973 1245.73 t 90 r /Helvetica findfont 32.2334 sf 0 0 m (T) show NC gr 
 gsave  2268 1464 0 0 C 85.3238 1181.26 t 90 r /Helvetica findfont 47.4021 sf 0 0 m (/dp) show NC gr 
 gsave  2268 1464 0 0 C 85.3238 1152.82 t 90 r /Symbol findfont 47.4021 sf 0 0 m (s) show NC gr 
 gsave  2268 1464 0 0 C 64.4669 1135.75 t 90 r /Helvetica findfont 32.2334 sf 0 0 m (2) show NC gr 
 gsave  2268 1464 0 0 C 85.3238 1097.83 t 90 r /Helvetica findfont 47.4021 sf 0 0 m ( d) show NC gr 
 gsave  2268 1464 0 0 C 100.492 1018.2 t 90 r /Helvetica findfont 32.2334 sf 0 0 m (event) show NC gr 
 gsave  2268 1464 0 0 C 85.3238 948.042 t 90 r /Helvetica findfont 47.4021 sf 0 0 m (1/N) show NC gr  281 146 m -54 X s
 gsave  2268 1464 0 0 C 180.128 147.895 t 0 r /Helvetica findfont 32.2334 sf 0 0 m (\2558) show NC gr 
 gsave  2268 1464 0 0 C 128.934 125.142 t 0 r /Helvetica findfont 47.4021 sf 0 0 m (10) show NC gr  254 205 m -27 X s 254 239 m -27 X s 254 264 m -27 X s 254 283 m -27 X s 254 298 m -27 X s 254 311 m -27 X s 254 323 m -27 X s 254 333 m -27 X s 281
 342 m -54 X s
 gsave  2268 1464 0 0 C 180.128 341.295 t 0 r /Helvetica findfont 32.2334 sf 0 0 m (\2557) show NC gr 
 gsave  2268 1464 0 0 C 128.934 320.438 t 0 r /Helvetica findfont 47.4021 sf 0 0 m (10) show NC gr  254 400 m -27 X s 254 435 m -27 X s 254 459 m -27 X s 254 478 m -27 X s 254 493 m -27 X s 254 506 m -27 X s 254 518 m -27 X s 254 528 m -27 X s 281
 537 m -54 X s
 gsave  2268 1464 0 0 C 180.128 538.488 t 0 r /Helvetica findfont 32.2334 sf 0 0 m (\2556) show NC gr 
 gsave  2268 1464 0 0 C 128.934 515.735 t 0 r /Helvetica findfont 47.4021 sf 0 0 m (10) show NC gr  254 595 m -27 X s 254 630 m -27 X s 254 654 m -27 X s 254 673 m -27 X s 254 689 m -27 X s 254 702 m -27 X s 254 713 m -27 X s 254 723 m -27 X s 281
 732 m -54 X s
 gsave  2268 1464 0 0 C 180.128 733.785 t 0 r /Helvetica findfont 32.2334 sf 0 0 m (\2555) show NC gr 
 gsave  2268 1464 0 0 C 128.934 712.928 t 0 r /Helvetica findfont 47.4021 sf 0 0 m (10) show NC gr  254 791 m -27 X s 254 825 m -27 X s 254 849 m -27 X s 254 868 m -27 X s 254 884 m -27 X s 254 897 m -27 X s 254 908 m -27 X s 254 918 m -27 X s 281
 927 m -54 X s
 gsave  2268 1464 0 0 C 180.128 925.289 t 0 r /Helvetica findfont 32.2334 sf 0 0 m (\2554) show NC gr 
 gsave  2268 1464 0 0 C 128.934 904.432 t 0 r /Helvetica findfont 47.4021 sf 0 0 m (10) show NC gr  254 986 m -27 X s 254 1020 m -27 X s 254 1045 m -27 X s 254 1063 m -27 X s 254 1079 m -27 X s 254 1092 m -27 X s 254 1103 m -27 X s 254 1113 m -27 X s
 281 1122 m -54 X s
 gsave  2268 1464 0 0 C 180.128 1122.48 t 0 r /Helvetica findfont 32.2334 sf 0 0 m (\2553) show NC gr 
 gsave  2268 1464 0 0 C 128.934 1099.73 t 0 r /Helvetica findfont 47.4021 sf 0 0 m (10) show NC gr  254 1181 m -27 X s 254 1215 m -27 X s 254 1240 m -27 X s 254 1259 m -27 X s 254 1274 m -27 X s 254 1287 m -27 X s 254 1298 m -27 X s 254 1308 m -27 X
 s 281 1317 m -54 X s
 gsave  2268 1464 0 0 C 180.128 1315.88 t 0 r /Helvetica findfont 32.2334 sf 0 0 m (\2552) show NC gr 
 gsave  2268 1464 0 0 C 128.934 1295.03 t 0 r /Helvetica findfont 47.4021 sf 0 0 m (10) show NC gr  2041 146 m 1171 Y s 1987 146 m 54 X s 2014 205 m 27 X s 2014 239 m 27 X s 2014 264 m 27 X s 2014 283 m 27 X s 2014 298 m 27 X s 2014 311 m 27 X s 2014
 323 m 27 X s 2014 333 m 27 X s 1987 342 m 54 X s 2014 400 m 27 X s 2014 435 m 27 X s 2014 459 m 27 X s 2014 478 m 27 X s 2014 493 m 27 X s 2014 506 m 27 X s 2014 518 m 27 X s 2014 528 m 27 X s 1987 537 m 54 X s 2014 595 m 27 X s 2014 630 m 27 X s
 2014 654 m 27 X s 2014 673 m 27 X s 2014 689 m 27 X s 2014 702 m 27 X s 2014 713 m 27 X s 2014 723 m 27 X s 1987 732 m 54 X s 2014 791 m 27 X s 2014 825 m 27 X s 2014 849 m 27 X s 2014 868 m 27 X s 2014 884 m 27 X s 2014 897 m 27 X s 2014 908 m 27 X
 s 2014 918 m 27 X s 1987 927 m 54 X s 2014 986 m 27 X s 2014 1020 m 27 X s 2014 1045 m 27 X s 2014 1063 m 27 X s 2014 1079 m 27 X s 2014 1092 m 27 X s 2014 1103 m 27 X s 2014 1113 m 27 X s 1987 1122 m 54 X s 2014 1181 m 27 X s 2014 1215 m 27 X s
 2014 1240 m 27 X s 2014 1259 m 27 X s 2014 1274 m 27 X s 2014 1287 m 27 X s 2014 1298 m 27 X s 2014 1308 m 27 X s 1987 1317 m 54 X s 1 0 0 c 1 1 1 c 1 0 0 c 227 1017 m 83 X s 325 1017 m 83 X s 317 1017 m25 408 893 m 83 X s 506 893 m 84 X s 499 893
 m25 590 798 m 83 X s 688 798 m 83 X s 680 798 m25 771 714 m 83 X s 869 714 m 83 X s 862 714 m25 952 646 m 84 X s 1051 646 m 83 X s 1043 646 m25 1134 588 m 83 X s 1232 588 m 83 X s 1225 588 m25 1315 537 m 83 X s 1414 537 m 83 X s 1406 537 m25 1497
 492 m 83 X s 1595 492 m 83 X s 1587 492 m25 1769 442 m 1 Y s 1678 450 m 83 X s 1776 450 m 84 X s 1769 450 m25 1950 403 m 2 Y s 1950 421 m 1 Y s 1860 413 m 83 X s 1958 413 m 83 X s 1950 413 m25 black
 gsave  2268 1464 0 0 C 407.658 1181.26 t 0 r /Helvetica-Bold findfont 68.259 sf 0 0 m 
 1380 1342 1322 1284 1243 1205 1186 1148 1129 1106 1083 1037 1019 977 935 916 878 840 802 775 737 718 696 654 616 589 551 528 506 487 445 426 399 357 335 316 274 232 213 190 152 114 69 46
(X\255Section for different Tracking Efficiencies) K NC gr  1 1 1 c 567 366 272 176 bf black
 gsave  2268 1464 0 0 C 413.346 436.099 t 0 r /Helvetica findfont 54.9864 sf 0 0 m 
 608 593 581 551 520 505 475 435 417 402 353 323 293 262 247 215 200 185 171 134 107 80 49 31
(TrackEff = 100% \(Default\)) K NC gr  0 0 1 c 343 450 m20 black
 gsave  2268 1464 0 0 C 413.346 246.491 t 0 r /Helvetica findfont 54.9864 sf 0 0 m 
 323 293 262 247 215 200 185 171 134 107 80 49 31
(TrackEff = 95%) K NC gr  1 0 0 c 343 267 m25 black
 gsave  2268 1464 0 0 C 1524.45 538.488 t 0 r /Helvetica-Bold findfont 68.259 sf 0 0 m ( R = 0.2) show NC gr 
 gsave  2268 1464 0 0 C 1496.01 517.631 t 0 r /Helvetica-Bold findfont 45.506 sf 0 0 m (T) show NC gr 
 gsave  2268 1464 0 0 C 1313.99 538.488 t 0 r /Helvetica-Bold findfont 68.259 sf 0 0 m (anti\255k) show NC gr 
 gr  gr showpage
end
%%EOF
