%!PS-Adobe-2.0 EPSF-2.0
%%BoundingBox:  0 0 567 366
%%Title: ../Unfolding/Data/lhc13_JSR_TotalSys.eps: 
%%Creator: ROOT Version 5.34/02
%%CreationDate: Tue Apr 15 09:07:24 2014
%%EndComments
%%BeginProlog
80 dict begin
/s {stroke} def /l {lineto} def /m {moveto} def /t {translate} def
/r {rotate} def /rl {roll}  def /R {repeat} def
/d {rlineto} def /rm {rmoveto} def /gr {grestore} def /f {eofill} def
/c {setrgbcolor} def /black {0 setgray} def /sd {setdash} def
/cl {closepath} def /sf {scalefont setfont} def /lw {setlinewidth} def
/box {m dup 0 exch d exch 0 d 0 exch neg d cl} def
/NC{systemdict begin initclip end}def/C{NC box clip newpath}def
/bl {box s} def /bf {box f} def /Y { 0 exch d} def /X { 0 d} def 
/K {{pop pop 0 moveto} exch kshow} bind def
/ita {/ang 15 def gsave [1 0 ang dup sin exch cos div 1 0 0] concat} def 
/mp {newpath /y exch def /x exch def} def
/side {[w .77 mul w .23 mul] .385 w mul sd w 0 l currentpoint t -144 r} def
/mr {mp x y w2 0 360 arc} def /m24 {mr s} def /m20 {mr f} def
/mb {mp x y w2 add m w2 neg 0 d 0 w neg d w 0 d 0 w d cl} def
/mt {mp x y w2 add m w2 neg w neg d w 0 d cl} def
/m21 {mb f} def /m25 {mb s} def /m22 {mt f} def /m26{mt s} def
/m23 {mp x y w2 sub m w2 w d w neg 0 d cl f} def
/m27 {mp x y w2 add m w3 neg w2 neg d w3 w2 neg d w3 w2 d cl s} def
/m28 {mp x w2 sub y w2 sub w3 add m w3 0 d  0 w3 neg d w3 0 d 0 w3 d w3 0 d  0 w3 d w3 neg 0 d 0 w3 d w3 neg 0 d 0 w3 neg d w3 neg 0 d cl s } def
/m29 {mp gsave x w2 sub y w2 add w3 sub m currentpoint t 4 {side} repeat cl fill gr} def
/m30 {mp gsave x w2 sub y w2 add w3 sub m currentpoint t 4 {side} repeat cl s gr} def
/m31 {mp x y w2 sub m 0 w d x w2 sub y m w 0 d x w2 sub y w2 add m w w neg d x w2 sub y w2 sub m w w d s} def
/m32 {mp x y w2 sub m w2 w d w neg 0 d cl s} def
/m33 {mp x y w2 add m w3 neg w2 neg d w3 w2 neg d w3 w2 d cl f} def
/m34 {mp x w2 sub y w2 sub w3 add m w3 0 d  0 w3 neg d w3 0 d 0 w3 d w3 0 d  0 w3 d w3 neg 0 d 0 w3 d w3 neg 0 d 0 w3 neg d w3 neg 0 d cl f } def
/m2 {mp x y w2 sub m 0 w d x w2 sub y m w 0 d s} def
/m5 {mp x w2 sub y w2 sub m w w d x w2 sub y w2 add m w w neg d s} def
/reEncode {exch findfont dup length dict begin {1 index /FID eq  {pop pop} {def} ifelse } forall /Encoding exch def currentdict end dup /FontName get exch definefont pop } def [/Times-Bold /Times-Italic /Times-BoldItalic /Helvetica /Helvetica-Oblique
 /Helvetica-Bold /Helvetica-BoldOblique /Courier /Courier-Oblique /Courier-Bold /Courier-BoldOblique /Times-Roman /AvantGarde-Book /AvantGarde-BookOblique /AvantGarde-Demi /AvantGarde-DemiOblique /Bookman-Demi /Bookman-DemiItalic /Bookman-Light
 /Bookman-LightItalic /Helvetica-Narrow /Helvetica-Narrow-Bold /Helvetica-Narrow-BoldOblique /Helvetica-Narrow-Oblique /NewCenturySchlbk-Roman /NewCenturySchlbk-Bold /NewCenturySchlbk-BoldItalic /NewCenturySchlbk-Italic /Palatino-Bold
 /Palatino-BoldItalic /Palatino-Italic /Palatino-Roman ] {ISOLatin1Encoding reEncode } forall
%%EndProlog
%%BeginSetup
%%EndSetup
newpath  gsave  .25 .25 scale  gsave  0 0 t black[  ] 0 sd 3 lw 1 1 1 c 2268 1464 0 0 bf black 1 1 1 c 1814 1171 227 146 bf black 1814 1171 227 146 bl 0.8 0.8 0.8 c 181 175 227 405 bf /w 15 def /w2 {w 2 div} def /w3 {w 3 div} def 317 493 m20 182 135
 408 453 bf 499 520 m20 181 103 590 455 bf 680 506 m20 181 118 771 436 bf 862 495 m20 182 129 952 472 bf 1043 537 m20 181 126 1134 521 bf 1225 584 m20 182 167 1315 529 bf 1406 612 m20 181 231 1497 534 bf 1587 649 m20 182 281 1678 537 bf 1769 678 m20
 181 352 1860 526 bf 1950 702 m20 black 227 146 m 1814 X s
 gsave  2268 1464 0 0 C 1901.77 43.6099 t 0 r /Helvetica findfont 47.4021 sf 0 0 m ( \(GeV\)) show NC gr 
 gsave  2268 1464 0 0 C 1805.07 60.6747 t 0 r /Helvetica findfont 32.2334 sf 0 0 m (ch+em) show NC gr 
 gsave  2268 1464 0 0 C 1805.07 18.9608 t 0 r /Helvetica findfont 32.2334 sf 0 0 m 
 50 32 25 16
(T,jet) K NC gr 
 gsave  2268 1464 0 0 C 1780.42 43.6099 t 0 r /Helvetica findfont 47.4021 sf 0 0 m (p) show NC gr  227 182 m -36 Y s 263 164 m -18 Y s 299 164 m -18 Y s 336 164 m -18 Y s 372 164 m -18 Y s 408 182 m -36 Y s 444 164 m -18 Y s 481 164 m -18 Y s 517 164
 m -18 Y s 553 164 m -18 Y s 590 182 m -36 Y s 626 164 m -18 Y s 662 164 m -18 Y s 698 164 m -18 Y s 735 164 m -18 Y s 771 182 m -36 Y s 807 164 m -18 Y s 844 164 m -18 Y s 880 164 m -18 Y s 916 164 m -18 Y s 952 182 m -36 Y s 989 164 m -18 Y s 1025
 164 m -18 Y s 1061 164 m -18 Y s 1098 164 m -18 Y s 1134 182 m -36 Y s 1170 164 m -18 Y s 1206 164 m -18 Y s 1243 164 m -18 Y s 1279 164 m -18 Y s 1315 182 m -36 Y s 1352 164 m -18 Y s 1388 164 m -18 Y s 1424 164 m -18 Y s 1460 164 m -18 Y s 1497
 182 m -36 Y s 1533 164 m -18 Y s 1569 164 m -18 Y s 1606 164 m -18 Y s 1642 164 m -18 Y s 1678 182 m -36 Y s 1714 164 m -18 Y s 1751 164 m -18 Y s 1787 164 m -18 Y s 1823 164 m -18 Y s 1860 182 m -36 Y s 1896 164 m -18 Y s 1932 164 m -18 Y s 1968
 164 m -18 Y s 2005 164 m -18 Y s 2041 182 m -36 Y s
 gsave  2268 1464 0 0 C 199.089 98.5964 t 0 r /Helvetica findfont 47.4021 sf 0 0 m (20) show NC gr 
 gsave  2268 1464 0 0 C 381.113 98.5964 t 0 r /Helvetica findfont 47.4021 sf 0 0 m (30) show NC gr 
 gsave  2268 1464 0 0 C 561.241 98.5964 t 0 r /Helvetica findfont 47.4021 sf 0 0 m (40) show NC gr 
 gsave  2268 1464 0 0 C 743.265 98.5964 t 0 r /Helvetica findfont 47.4021 sf 0 0 m (50) show NC gr 
 gsave  2268 1464 0 0 C 925.289 98.5964 t 0 r /Helvetica findfont 47.4021 sf 0 0 m (60) show NC gr 
 gsave  2268 1464 0 0 C 1107.31 98.5964 t 0 r /Helvetica findfont 47.4021 sf 0 0 m (70) show NC gr 
 gsave  2268 1464 0 0 C 1287.44 98.5964 t 0 r /Helvetica findfont 47.4021 sf 0 0 m (80) show NC gr 
 gsave  2268 1464 0 0 C 1469.47 98.5964 t 0 r /Helvetica findfont 47.4021 sf 0 0 m (90) show NC gr 
 gsave  2268 1464 0 0 C 1638.22 98.5964 t 0 r /Helvetica findfont 47.4021 sf 0 0 m (100) show NC gr 
 gsave  2268 1464 0 0 C 1820.24 98.5964 t 0 r /Helvetica findfont 47.4021 sf 0 0 m 
 50 23
(110) K NC gr 
 gsave  2268 1464 0 0 C 2000.37 98.5964 t 0 r /Helvetica findfont 47.4021 sf 0 0 m (120) show NC gr  227 1317 m 1814 X s 227 1282 m 35 Y s 263 1300 m 17 Y s 299 1300 m 17 Y s 336 1300 m 17 Y s 372 1300 m 17 Y s 408 1282 m 35 Y s 444 1300 m 17 Y s 481
 1300 m 17 Y s 517 1300 m 17 Y s 553 1300 m 17 Y s 590 1282 m 35 Y s 626 1300 m 17 Y s 662 1300 m 17 Y s 698 1300 m 17 Y s 735 1300 m 17 Y s 771 1282 m 35 Y s 807 1300 m 17 Y s 844 1300 m 17 Y s 880 1300 m 17 Y s 916 1300 m 17 Y s 952 1282 m 35 Y s
 989 1300 m 17 Y s 1025 1300 m 17 Y s 1061 1300 m 17 Y s 1098 1300 m 17 Y s 1134 1282 m 35 Y s 1170 1300 m 17 Y s 1206 1300 m 17 Y s 1243 1300 m 17 Y s 1279 1300 m 17 Y s 1315 1282 m 35 Y s 1352 1300 m 17 Y s 1388 1300 m 17 Y s 1424 1300 m 17 Y s
 1460 1300 m 17 Y s 1497 1282 m 35 Y s 1533 1300 m 17 Y s 1569 1300 m 17 Y s 1606 1300 m 17 Y s 1642 1300 m 17 Y s 1678 1282 m 35 Y s 1714 1300 m 17 Y s 1751 1300 m 17 Y s 1787 1300 m 17 Y s 1823 1300 m 17 Y s 1860 1282 m 35 Y s 1896 1300 m 17 Y s
 1932 1300 m 17 Y s 1968 1300 m 17 Y s 2005 1300 m 17 Y s 2041 1282 m 35 Y s 227 146 m 1171 Y s
 gsave  2268 1464 0 0 C 87.2199 923.393 t 90 r /Helvetica findfont 47.4021 sf 0 0 m (Y\(R=0.2\)/Y\(R=0.4\)) show NC gr  281 146 m -54 X s 254 176 m -27 X s 254 205 m -27 X s 254 234 m -27 X s 281 263 m -54 X s 254 293 m -27 X s 254 322 m -27 X s 254
 351 m -27 X s 281 381 m -54 X s 254 410 m -27 X s 254 439 m -27 X s 254 468 m -27 X s 281 498 m -54 X s 254 527 m -27 X s 254 556 m -27 X s 254 586 m -27 X s 281 615 m -54 X s 254 644 m -27 X s 254 673 m -27 X s 254 703 m -27 X s 281 732 m -54 X s
 254 761 m -27 X s 254 790 m -27 X s 254 820 m -27 X s 281 849 m -54 X s 254 878 m -27 X s 254 908 m -27 X s 254 937 m -27 X s 281 966 m -54 X s 254 995 m -27 X s 254 1025 m -27 X s 254 1054 m -27 X s 281 1083 m -54 X s 254 1112 m -27 X s 254 1142 m
 -27 X s 254 1171 m -27 X s 281 1200 m -54 X s 254 1230 m -27 X s 254 1259 m -27 X s 254 1288 m -27 X s 281 1317 m -54 X s
 gsave  2268 1464 0 0 C 189.608 130.83 t 0 r /Helvetica findfont 47.4021 sf 0 0 m (0) show NC gr 
 gsave  2268 1464 0 0 C 149.791 246.491 t 0 r /Helvetica findfont 47.4021 sf 0 0 m (0.2) show NC gr 
 gsave  2268 1464 0 0 C 149.791 364.048 t 0 r /Helvetica findfont 47.4021 sf 0 0 m (0.4) show NC gr 
 gsave  2268 1464 0 0 C 149.791 481.605 t 0 r /Helvetica findfont 47.4021 sf 0 0 m (0.6) show NC gr 
 gsave  2268 1464 0 0 C 149.791 599.163 t 0 r /Helvetica findfont 47.4021 sf 0 0 m (0.8) show NC gr 
 gsave  2268 1464 0 0 C 195.297 712.928 t 0 r /Helvetica findfont 47.4021 sf 0 0 m (1) show NC gr 
 gsave  2268 1464 0 0 C 149.791 830.485 t 0 r /Helvetica findfont 47.4021 sf 0 0 m (1.2) show NC gr 
 gsave  2268 1464 0 0 C 149.791 948.042 t 0 r /Helvetica findfont 47.4021 sf 0 0 m (1.4) show NC gr 
 gsave  2268 1464 0 0 C 149.791 1067.5 t 0 r /Helvetica findfont 47.4021 sf 0 0 m (1.6) show NC gr 
 gsave  2268 1464 0 0 C 149.791 1185.05 t 0 r /Helvetica findfont 47.4021 sf 0 0 m (1.8) show NC gr 
 gsave  2268 1464 0 0 C 189.608 1298.82 t 0 r /Helvetica findfont 47.4021 sf 0 0 m (2) show NC gr  2041 146 m 1171 Y s 1987 146 m 54 X s 2014 176 m 27 X s 2014 205 m 27 X s 2014 234 m 27 X s 1987 263 m 54 X s 2014 293 m 27 X s 2014 322 m 27 X s 2014
 351 m 27 X s 1987 381 m 54 X s 2014 410 m 27 X s 2014 439 m 27 X s 2014 468 m 27 X s 1987 498 m 54 X s 2014 527 m 27 X s 2014 556 m 27 X s 2014 586 m 27 X s 1987 615 m 54 X s 2014 644 m 27 X s 2014 673 m 27 X s 2014 703 m 27 X s 1987 732 m 54 X s
 2014 761 m 27 X s 2014 790 m 27 X s 2014 820 m 27 X s 1987 849 m 54 X s 2014 878 m 27 X s 2014 908 m 27 X s 2014 937 m 27 X s 1987 966 m 54 X s 2014 995 m 27 X s 2014 1025 m 27 X s 2014 1054 m 27 X s 1987 1083 m 54 X s 2014 1112 m 27 X s 2014 1142 m
 27 X s 2014 1171 m 27 X s 1987 1200 m 54 X s 2014 1230 m 27 X s 2014 1259 m 27 X s 2014 1288 m 27 X s 1987 1317 m 54 X s 0 0 1 c 1 1 1 c 0 0 1 c 317 476 m 9 Y s 317 500 m 10 Y s 227 493 m 83 X s 325 493 m 83 X s 317 493 m20 499 501 m 12 Y s 499 528
 m 12 Y s 408 520 m 83 X s 506 520 m 84 X s 499 520 m20 680 484 m 15 Y s 680 514 m 15 Y s 590 506 m 83 X s 688 506 m 83 X s 680 506 m20 862 472 m 15 Y s 862 502 m 16 Y s 771 495 m 83 X s 869 495 m 83 X s 862 495 m20 1043 507 m 22 Y s 1043 544 m 23 Y
 s 952 537 m 84 X s 1051 537 m 83 X s 1043 537 m20 1225 542 m 34 Y s 1225 592 m 34 Y s 1134 584 m 83 X s 1232 584 m 83 X s 1225 584 m20 1406 554 m 51 Y s 1406 620 m 50 Y s 1315 612 m 83 X s 1414 612 m 83 X s 1406 612 m20 1587 565 m 77 Y s 1587 657 m
 76 Y s 1497 649 m 83 X s 1595 649 m 83 X s 1587 649 m20 1769 562 m 108 Y s 1769 685 m 108 Y s 1678 678 m 83 X s 1776 678 m 84 X s 1769 678 m20 1950 554 m 141 Y s 1950 710 m 141 Y s 1860 702 m 83 X s 1958 702 m 83 X s 1950 702 m20 black
 gsave  2268 1464 0 0 C 407.658 1202.12 t 0 r /Helvetica-Bold findfont 51.1943 sf 0 0 m 
 1145 1128 1097 1082 1054 1037 1017 988 960 928 891 877 848 834 817 789 743 714 697 669 640 606 592 578 549 532 501 473 459 427 413 396 368 330 316 288 268 236 219 191 159 139 122 88 74 57 28
(Jet Structure Ratio Total Systematic Uncertainty) K NC gr  1 0 1 c[ 12 12] 0 sd 6 lw 227 732 m 1814 X s black[  ] 0 sd 3 lw 1 1 1 c 566 366 454 805 bf black
 gsave  2268 1464 0 0 C 593.474 1065.6 t 0 r /Helvetica findfont 54.9864 sf 0 0 m (Statistical Uncertainity) show NC gr  0 0 1 c 524 1080 m20 black
 gsave  2268 1464 0 0 C 593.474 881.679 t 0 r /Helvetica findfont 54.9864 sf 0 0 m (Systematic Uncertainty) show NC gr  0.8 0.8 0.8 c 475 897 m 99 X s
 gr  gr showpage
end
%%EOF
