%!PS-Adobe-2.0 EPSF-2.0
%%BoundingBox:  0 0 567 385
%%Title: ../img/GasMixturesAr.eps: GasMixturesAr
%%Creator: ROOT Version 5.34/30
%%CreationDate: Fri Jul  8 12:12:44 2016
%%EndComments
%%BeginProlog
80 dict begin
/s {stroke} def /l {lineto} def /m {moveto} def /t {translate} def
/r {rotate} def /rl {roll}  def /R {repeat} def
/d {rlineto} def /rm {rmoveto} def /gr {grestore} def /f {eofill} def
/c {setrgbcolor} def /black {0 setgray} def /sd {setdash} def
/cl {closepath} def /sf {scalefont setfont} def /lw {setlinewidth} def
/box {m dup 0 exch d exch 0 d 0 exch neg d cl} def
/NC{systemdict begin initclip end}def/C{NC box clip newpath}def
/bl {box s} def /bf {gsave box gsave f grestore 1 lw [] 0 sd s grestore} def /Y { 0 exch d} def /X { 0 d} def 
/K {{pop pop 0 moveto} exch kshow} bind def
/ita {/ang 15 def gsave [1 0 ang dup sin exch cos div 1 0 0] concat} def 
/mp {newpath /y exch def /x exch def} def
/side {[w .77 mul w .23 mul] .385 w mul sd w 0 l currentpoint t -144 r} def
/mr {mp x y w2 0 360 arc} def /m24 {mr s} def /m20 {mr f} def
/mb {mp x y w2 add m w2 neg 0 d 0 w neg d w 0 d 0 w d cl} def
/mt {mp x y w2 add m w2 neg w neg d w 0 d cl} def
/m21 {mb f} def /m25 {mb s} def /m22 {mt f} def /m26{mt s} def
/m23 {mp x y w2 sub m w2 w d w neg 0 d cl f} def
/m27 {mp x y w2 add m w3 neg w2 neg d w3 w2 neg d w3 w2 d cl s} def
/m28 {mp x w2 sub y w2 sub w3 add m w3 0 d  0 w3 neg d w3 0 d 0 w3 d w3 0 d  0 w3 d w3 neg 0 d 0 w3 d w3 neg 0 d 0 w3 neg d w3 neg 0 d cl s } def
/m29 {mp gsave x w2 sub y w2 add w3 sub m currentpoint t 4 {side} repeat cl fill gr} def
/m30 {mp gsave x w2 sub y w2 add w3 sub m currentpoint t 4 {side} repeat cl s gr} def
/m31 {mp x y w2 sub m 0 w d x w2 sub y m w 0 d x w2 sub y w2 add m w w neg d x w2 sub y w2 sub m w w d s} def
/m32 {mp x y w2 sub m w2 w d w neg 0 d cl s} def
/m33 {mp x y w2 add m w3 neg w2 neg d w3 w2 neg d w3 w2 d cl f} def
/m34 {mp x w2 sub y w2 sub w3 add m w3 0 d  0 w3 neg d w3 0 d 0 w3 d w3 0 d  0 w3 d w3 neg 0 d 0 w3 d w3 neg 0 d 0 w3 neg d w3 neg 0 d cl f } def
/m2 {mp x y w2 sub m 0 w d x w2 sub y m w 0 d s} def
/m5 {mp x w2 sub y w2 sub m w w d x w2 sub y w2 add m w w neg d s} def
/reEncode {exch findfont dup length dict begin {1 index /FID eq  {pop pop} {def} ifelse } forall /Encoding exch def currentdict end dup /FontName get exch definefont pop } def [/Times-Bold /Times-Italic /Times-BoldItalic /Helvetica /Helvetica-Oblique
 /Helvetica-Bold /Helvetica-BoldOblique /Courier /Courier-Oblique /Courier-Bold /Courier-BoldOblique /Times-Roman /AvantGarde-Book /AvantGarde-BookOblique /AvantGarde-Demi /AvantGarde-DemiOblique /Bookman-Demi /Bookman-DemiItalic /Bookman-Light
 /Bookman-LightItalic /Helvetica-Narrow /Helvetica-Narrow-Bold /Helvetica-Narrow-BoldOblique /Helvetica-Narrow-Oblique /NewCenturySchlbk-Roman /NewCenturySchlbk-Bold /NewCenturySchlbk-BoldItalic /NewCenturySchlbk-Italic /Palatino-Bold
 /Palatino-BoldItalic /Palatino-Italic /Palatino-Roman ] {ISOLatin1Encoding reEncode } forall
%%EndProlog
%%BeginSetup
%%EndSetup
newpath  gsave  .25 .25 scale  gsave  0 0 t black[  ] 0 sd 3 lw 1 1 1 c 2268 1541 0 0 bf black 1 1 1 c 1814 1233 272 185 bf black 1814 1233 272 185 bl 272 185 m 1814 X s
 gsave  2268 1541 0 0 C 1879.99 52.1314 t 0 r /Helvetica findfont 61.9061 sf 0 0 m (IBF \(%\)) show NC gr  402 222 m -37 Y s 459 203 m -18 Y s 515 203 m -18 Y s 572 203 m -18 Y s 628 203 m -18 Y s 685 222 m -37 Y s 741 203 m -18 Y s 798 203 m -18 Y s
 854 203 m -18 Y s 911 203 m -18 Y s 967 222 m -37 Y s 1024 203 m -18 Y s 1080 203 m -18 Y s 1137 203 m -18 Y s 1193 203 m -18 Y s 1249 222 m -37 Y s 1306 203 m -18 Y s 1362 203 m -18 Y s 1419 203 m -18 Y s 1475 203 m -18 Y s 1532 222 m -37 Y s 1588
 203 m -18 Y s 1645 203 m -18 Y s 1701 203 m -18 Y s 1758 203 m -18 Y s 1814 222 m -37 Y s 402 222 m -37 Y s 346 203 m -18 Y s 289 203 m -18 Y s 1814 222 m -37 Y s 1871 203 m -18 Y s 1927 203 m -18 Y s 1984 203 m -18 Y s 2040 203 m -18 Y s
 gsave  2268 1541 0 0 C 371.436 127.07 t 0 r /Helvetica findfont 48.8732 sf 0 0 m (0.1) show NC gr 
 gsave  2268 1541 0 0 C 648.384 127.07 t 0 r /Helvetica findfont 48.8732 sf 0 0 m (0.2) show NC gr 
 gsave  2268 1541 0 0 C 928.591 127.07 t 0 r /Helvetica findfont 48.8732 sf 0 0 m (0.3) show NC gr 
 gsave  2268 1541 0 0 C 1212.06 127.07 t 0 r /Helvetica findfont 48.8732 sf 0 0 m (0.4) show NC gr 
 gsave  2268 1541 0 0 C 1495.52 127.07 t 0 r /Helvetica findfont 48.8732 sf 0 0 m (0.5) show NC gr 
 gsave  2268 1541 0 0 C 1775.73 127.07 t 0 r /Helvetica findfont 48.8732 sf 0 0 m (0.6) show NC gr  272 1418 m 1814 X s 402 1381 m 37 Y s 459 1399 m 19 Y s 515 1399 m 19 Y s 572 1399 m 19 Y s 628 1399 m 19 Y s 685 1381 m 37 Y s 741 1399 m 19 Y s 798
 1399 m 19 Y s 854 1399 m 19 Y s 911 1399 m 19 Y s 967 1381 m 37 Y s 1024 1399 m 19 Y s 1080 1399 m 19 Y s 1137 1399 m 19 Y s 1193 1399 m 19 Y s 1249 1381 m 37 Y s 1306 1399 m 19 Y s 1362 1399 m 19 Y s 1419 1399 m 19 Y s 1475 1399 m 19 Y s 1532 1381
 m 37 Y s 1588 1399 m 19 Y s 1645 1399 m 19 Y s 1701 1399 m 19 Y s 1758 1399 m 19 Y s 1814 1381 m 37 Y s 402 1381 m 37 Y s 346 1399 m 19 Y s 289 1399 m 19 Y s 1814 1381 m 37 Y s 1871 1399 m 19 Y s 1927 1399 m 19 Y s 1984 1399 m 19 Y s 2040 1399 m 19
 Y s 272 185 m 1233 Y s
 gsave  2268 1541 0 0 C 110.779 1104.53 t 90 r /Helvetica findfont 61.9061 sf 0 0 m ( / Mean \(%\)) show NC gr 
 gsave  2268 1541 0 0 C 110.779 1065.44 t 90 r /Symbol findfont 61.9061 sf 0 0 m (s) show NC gr  327 253 m -55 X s 299 312 m -27 X s 299 371 m -27 X s 299 430 m -27 X s 327 489 m -55 X s 299 548 m -27 X s 299 607 m -27 X s 299 666 m -27 X s 327 725 m
 -55 X s 299 784 m -27 X s 299 843 m -27 X s 299 902 m -27 X s 327 961 m -55 X s 299 1019 m -27 X s 299 1078 m -27 X s 299 1137 m -27 X s 327 1196 m -55 X s 327 253 m -55 X s 299 194 m -27 X s 327 1196 m -55 X s 299 1255 m -27 X s 299 1314 m -27 X s
 299 1373 m -27 X s
 gsave  2268 1541 0 0 C 221.559 234.591 t 0 r /Helvetica findfont 48.8732 sf 0 0 m (8) show NC gr 
 gsave  2268 1541 0 0 C 195.493 472.441 t 0 r /Helvetica findfont 48.8732 sf 0 0 m (10) show NC gr 
 gsave  2268 1541 0 0 C 192.235 707.032 t 0 r /Helvetica findfont 48.8732 sf 0 0 m (12) show NC gr 
 gsave  2268 1541 0 0 C 192.235 941.624 t 0 r /Helvetica findfont 48.8732 sf 0 0 m (14) show NC gr 
 gsave  2268 1541 0 0 C 192.235 1179.47 t 0 r /Helvetica findfont 48.8732 sf 0 0 m (16) show NC gr  2086 185 m 1233 Y s 2032 253 m 54 X s 2059 312 m 27 X s 2059 371 m 27 X s 2059 430 m 27 X s 2032 489 m 54 X s 2059 548 m 27 X s 2059 607 m 27 X s 2059
 666 m 27 X s 2032 725 m 54 X s 2059 784 m 27 X s 2059 843 m 27 X s 2059 902 m 27 X s 2032 961 m 54 X s 2059 1019 m 27 X s 2059 1078 m 27 X s 2059 1137 m 27 X s 2032 1196 m 54 X s 2032 253 m 54 X s 2059 194 m 27 X s 2032 1196 m 54 X s 2059 1255 m 27
 X s 2059 1314 m 27 X s 2059 1373 m 27 X s 0 0.6 0 c black 0 0.6 0 c 1278 660 m -212 18 d -170 59 d -113 76 d -84 77 d -99 59 d s /w 34 def /w2 {w 2 div} def /w3 {w 3 div} def 1278 660 1066 678 896 737 783 813 699 890 600 949 6 { m28} R 0 0 0.6 c
 black 0 0 0.6 c 1758 536 m -297 24 d -254 53 d -183 59 d -142 88 d -99 118 d -70 112 d -71 77 d s /w 23 def /w2 {w 2 div} def /w3 {w 3 div} def 1758 536 1461 560 1207 613 1024 672 882 760 783 878 713 990 642 1067 8 { m24} R black
 gsave  2268 1541 0 0 C 1632.36 1107.79 t 0 r /Helvetica findfont 55.3896 sf 0 0 m ( \(90\25510\)) show NC gr 
 gsave  2268 1541 0 0 C 1612.82 1091.5 t 0 r /Helvetica findfont 35.8403 sf 0 0 m (4) show NC gr 
 gsave  2268 1541 0 0 C 1417.32 1107.79 t 0 r /Helvetica findfont 55.3896 sf 0 0 m (Ar + CH) show NC gr  0 0.6 0 c 1273 1127 m 119 X s /w 34 def /w2 {w 2 div} def /w3 {w 3 div} def 1332 1127 m28 black
 gsave  2268 1541 0 0 C 1638.88 1019.82 t 0 r /Helvetica findfont 55.3896 sf 0 0 m ( \(90\25510\)) show NC gr 
 gsave  2268 1541 0 0 C 1619.33 1003.53 t 0 r /Helvetica findfont 35.8403 sf 0 0 m (2) show NC gr 
 gsave  2268 1541 0 0 C 1417.32 1019.82 t 0 r /Helvetica findfont 55.3896 sf 0 0 m (Ar + CO) show NC gr  0 0 0.6 c 1273 1038 m 119 X s /w 23 def /w2 {w 2 div} def /w3 {w 3 div} def 1332 1038 m24 black
 gsave  2268 1541 0 0 C 1534.62 1286.99 t 0 r /Helvetica findfont 55.3896 sf 0 0 m ( = 0.075 kV/cm) show NC gr 
 gsave  2268 1541 0 0 C 1485.75 1264.19 t 0 r /Helvetica findfont 35.8403 sf 0 0 m (ind) show NC gr 
 gsave  2268 1541 0 0 C 1091.5 1286.99 t 0 r /Helvetica findfont 55.3896 sf 0 0 m ( = 3.0 kV/cm \255 E) show NC gr 
 gsave  2268 1541 0 0 C 967.689 1264.19 t 0 r /Helvetica findfont 35.8403 sf 0 0 m (transfer) show NC gr 
 gsave  2268 1541 0 0 C 573.446 1286.99 t 0 r /Helvetica findfont 55.3896 sf 0 0 m ( = 0.4 kV/cm \255 E) show NC gr 
 gsave  2268 1541 0 0 C 511.54 1267.45 t 0 r /Helvetica findfont 35.8403 sf 0 0 m (drift) show NC gr 
 gsave  2268 1541 0 0 C 475.699 1286.99 t 0 r /Helvetica findfont 55.3896 sf 0 0 m (E) show NC gr 
 gr  gr showpage
end
%%EOF
