%!PS-Adobe-2.0 EPSF-2.0
%%BoundingBox:  0 0 567 385
%%Title: ../img/GasMixturesNe.eps: GasMixturesNe
%%Creator: ROOT Version 5.34/30
%%CreationDate: Fri Jul  8 12:28:38 2016
%%EndComments
%%BeginProlog
80 dict begin
/s {stroke} def /l {lineto} def /m {moveto} def /t {translate} def
/r {rotate} def /rl {roll}  def /R {repeat} def
/d {rlineto} def /rm {rmoveto} def /gr {grestore} def /f {eofill} def
/c {setrgbcolor} def /black {0 setgray} def /sd {setdash} def
/cl {closepath} def /sf {scalefont setfont} def /lw {setlinewidth} def
/box {m dup 0 exch d exch 0 d 0 exch neg d cl} def
/NC{systemdict begin initclip end}def/C{NC box clip newpath}def
/bl {box s} def /bf {gsave box gsave f grestore 1 lw [] 0 sd s grestore} def /Y { 0 exch d} def /X { 0 d} def 
/K {{pop pop 0 moveto} exch kshow} bind def
/ita {/ang 15 def gsave [1 0 ang dup sin exch cos div 1 0 0] concat} def 
/mp {newpath /y exch def /x exch def} def
/side {[w .77 mul w .23 mul] .385 w mul sd w 0 l currentpoint t -144 r} def
/mr {mp x y w2 0 360 arc} def /m24 {mr s} def /m20 {mr f} def
/mb {mp x y w2 add m w2 neg 0 d 0 w neg d w 0 d 0 w d cl} def
/mt {mp x y w2 add m w2 neg w neg d w 0 d cl} def
/m21 {mb f} def /m25 {mb s} def /m22 {mt f} def /m26{mt s} def
/m23 {mp x y w2 sub m w2 w d w neg 0 d cl f} def
/m27 {mp x y w2 add m w3 neg w2 neg d w3 w2 neg d w3 w2 d cl s} def
/m28 {mp x w2 sub y w2 sub w3 add m w3 0 d  0 w3 neg d w3 0 d 0 w3 d w3 0 d  0 w3 d w3 neg 0 d 0 w3 d w3 neg 0 d 0 w3 neg d w3 neg 0 d cl s } def
/m29 {mp gsave x w2 sub y w2 add w3 sub m currentpoint t 4 {side} repeat cl fill gr} def
/m30 {mp gsave x w2 sub y w2 add w3 sub m currentpoint t 4 {side} repeat cl s gr} def
/m31 {mp x y w2 sub m 0 w d x w2 sub y m w 0 d x w2 sub y w2 add m w w neg d x w2 sub y w2 sub m w w d s} def
/m32 {mp x y w2 sub m w2 w d w neg 0 d cl s} def
/m33 {mp x y w2 add m w3 neg w2 neg d w3 w2 neg d w3 w2 d cl f} def
/m34 {mp x w2 sub y w2 sub w3 add m w3 0 d  0 w3 neg d w3 0 d 0 w3 d w3 0 d  0 w3 d w3 neg 0 d 0 w3 d w3 neg 0 d 0 w3 neg d w3 neg 0 d cl f } def
/m2 {mp x y w2 sub m 0 w d x w2 sub y m w 0 d s} def
/m5 {mp x w2 sub y w2 sub m w w d x w2 sub y w2 add m w w neg d s} def
/reEncode {exch findfont dup length dict begin {1 index /FID eq  {pop pop} {def} ifelse } forall /Encoding exch def currentdict end dup /FontName get exch definefont pop } def [/Times-Bold /Times-Italic /Times-BoldItalic /Helvetica /Helvetica-Oblique
 /Helvetica-Bold /Helvetica-BoldOblique /Courier /Courier-Oblique /Courier-Bold /Courier-BoldOblique /Times-Roman /AvantGarde-Book /AvantGarde-BookOblique /AvantGarde-Demi /AvantGarde-DemiOblique /Bookman-Demi /Bookman-DemiItalic /Bookman-Light
 /Bookman-LightItalic /Helvetica-Narrow /Helvetica-Narrow-Bold /Helvetica-Narrow-BoldOblique /Helvetica-Narrow-Oblique /NewCenturySchlbk-Roman /NewCenturySchlbk-Bold /NewCenturySchlbk-BoldItalic /NewCenturySchlbk-Italic /Palatino-Bold
 /Palatino-BoldItalic /Palatino-Italic /Palatino-Roman ] {ISOLatin1Encoding reEncode } forall
%%EndProlog
%%BeginSetup
%%EndSetup
newpath  gsave  .25 .25 scale  gsave  0 0 t black[  ] 0 sd 3 lw 1 1 1 c 2268 1541 0 0 bf black 1 1 1 c 1814 1233 272 185 bf black 1814 1233 272 185 bl 272 185 m 1814 X s
 gsave  2268 1541 0 0 C 1879.99 52.1314 t 0 r /Helvetica findfont 61.9061 sf 0 0 m (IBF \(%\)) show NC gr  425 222 m -37 Y s 500 203 m -18 Y s 576 203 m -18 Y s 651 203 m -18 Y s 727 222 m -37 Y s 802 203 m -18 Y s 878 203 m -18 Y s 953 203 m -18 Y s
 1029 222 m -37 Y s 1104 203 m -18 Y s 1180 203 m -18 Y s 1255 203 m -18 Y s 1331 222 m -37 Y s 1406 203 m -18 Y s 1482 203 m -18 Y s 1557 203 m -18 Y s 1633 222 m -37 Y s 1708 203 m -18 Y s 1784 203 m -18 Y s 1859 203 m -18 Y s 1935 222 m -37 Y s
 425 222 m -37 Y s 349 203 m -18 Y s 274 203 m -18 Y s 1935 222 m -37 Y s 2010 203 m -18 Y s 2086 203 m -18 Y s
 gsave  2268 1541 0 0 C 387.727 127.07 t 0 r /Helvetica findfont 48.8732 sf 0 0 m (0.2) show NC gr 
 gsave  2268 1541 0 0 C 690.741 127.07 t 0 r /Helvetica findfont 48.8732 sf 0 0 m (0.4) show NC gr 
 gsave  2268 1541 0 0 C 990.497 127.07 t 0 r /Helvetica findfont 48.8732 sf 0 0 m (0.6) show NC gr 
 gsave  2268 1541 0 0 C 1293.51 127.07 t 0 r /Helvetica findfont 48.8732 sf 0 0 m (0.8) show NC gr 
 gsave  2268 1541 0 0 C 1622.59 127.07 t 0 r /Helvetica findfont 48.8732 sf 0 0 m (1) show NC gr 
 gsave  2268 1541 0 0 C 1896.28 127.07 t 0 r /Helvetica findfont 48.8732 sf 0 0 m (1.2) show NC gr  272 1418 m 1814 X s 425 1381 m 37 Y s 500 1399 m 19 Y s 576 1399 m 19 Y s 651 1399 m 19 Y s 727 1381 m 37 Y s 802 1399 m 19 Y s 878 1399 m 19 Y s 953
 1399 m 19 Y s 1029 1381 m 37 Y s 1104 1399 m 19 Y s 1180 1399 m 19 Y s 1255 1399 m 19 Y s 1331 1381 m 37 Y s 1406 1399 m 19 Y s 1482 1399 m 19 Y s 1557 1399 m 19 Y s 1633 1381 m 37 Y s 1708 1399 m 19 Y s 1784 1399 m 19 Y s 1859 1399 m 19 Y s 1935
 1381 m 37 Y s 425 1381 m 37 Y s 349 1399 m 19 Y s 274 1399 m 19 Y s 1935 1381 m 37 Y s 2010 1399 m 19 Y s 2086 1399 m 19 Y s 272 185 m 1233 Y s
 gsave  2268 1541 0 0 C 110.779 1104.53 t 90 r /Helvetica findfont 61.9061 sf 0 0 m ( / Mean \(%\)) show NC gr 
 gsave  2268 1541 0 0 C 110.779 1065.44 t 90 r /Symbol findfont 61.9061 sf 0 0 m (s) show NC gr  327 185 m -55 X s 299 210 m -27 X s 299 234 m -27 X s 299 259 m -27 X s 299 284 m -27 X s 327 308 m -55 X s 299 333 m -27 X s 299 358 m -27 X s 299 382 m
 -27 X s 299 407 m -27 X s 327 432 m -55 X s 299 456 m -27 X s 299 481 m -27 X s 299 505 m -27 X s 299 530 m -27 X s 327 555 m -55 X s 299 579 m -27 X s 299 604 m -27 X s 299 629 m -27 X s 299 653 m -27 X s 327 678 m -55 X s 299 703 m -27 X s 299 727
 m -27 X s 299 752 m -27 X s 299 777 m -27 X s 327 801 m -55 X s 299 826 m -27 X s 299 851 m -27 X s 299 875 m -27 X s 299 900 m -27 X s 327 925 m -55 X s 299 949 m -27 X s 299 974 m -27 X s 299 999 m -27 X s 299 1023 m -27 X s 327 1048 m -55 X s 299
 1073 m -27 X s 299 1097 m -27 X s 299 1122 m -27 X s 299 1147 m -27 X s 327 1171 m -55 X s 299 1196 m -27 X s 299 1221 m -27 X s 299 1245 m -27 X s 299 1270 m -27 X s 327 1295 m -55 X s 299 1319 m -27 X s 299 1344 m -27 X s 299 1369 m -27 X s 299
 1393 m -27 X s 327 1418 m -55 X s
 gsave  2268 1541 0 0 C 221.559 166.169 t 0 r /Helvetica findfont 48.8732 sf 0 0 m (8) show NC gr 
 gsave  2268 1541 0 0 C 221.559 289.981 t 0 r /Helvetica findfont 48.8732 sf 0 0 m (9) show NC gr 
 gsave  2268 1541 0 0 C 195.493 413.793 t 0 r /Helvetica findfont 48.8732 sf 0 0 m (10) show NC gr 
 gsave  2268 1541 0 0 C 202.009 537.605 t 0 r /Helvetica findfont 48.8732 sf 0 0 m (11) show NC gr 
 gsave  2268 1541 0 0 C 192.235 661.417 t 0 r /Helvetica findfont 48.8732 sf 0 0 m (12) show NC gr 
 gsave  2268 1541 0 0 C 195.493 781.971 t 0 r /Helvetica findfont 48.8732 sf 0 0 m (13) show NC gr 
 gsave  2268 1541 0 0 C 192.235 905.783 t 0 r /Helvetica findfont 48.8732 sf 0 0 m (14) show NC gr 
 gsave  2268 1541 0 0 C 192.235 1029.6 t 0 r /Helvetica findfont 48.8732 sf 0 0 m (15) show NC gr 
 gsave  2268 1541 0 0 C 192.235 1153.41 t 0 r /Helvetica findfont 48.8732 sf 0 0 m (16) show NC gr 
 gsave  2268 1541 0 0 C 192.235 1277.22 t 0 r /Helvetica findfont 48.8732 sf 0 0 m (17) show NC gr 
 gsave  2268 1541 0 0 C 192.235 1401.03 t 0 r /Helvetica findfont 48.8732 sf 0 0 m (18) show NC gr  2086 185 m 1233 Y s 2032 185 m 54 X s 2059 210 m 27 X s 2059 234 m 27 X s 2059 259 m 27 X s 2059 284 m 27 X s 2032 308 m 54 X s 2059 333 m 27 X s 2059
 358 m 27 X s 2059 382 m 27 X s 2059 407 m 27 X s 2032 432 m 54 X s 2059 456 m 27 X s 2059 481 m 27 X s 2059 505 m 27 X s 2059 530 m 27 X s 2032 555 m 54 X s 2059 579 m 27 X s 2059 604 m 27 X s 2059 629 m 27 X s 2059 653 m 27 X s 2032 678 m 54 X s
 2059 703 m 27 X s 2059 727 m 27 X s 2059 752 m 27 X s 2059 777 m 27 X s 2032 801 m 54 X s 2059 826 m 27 X s 2059 851 m 27 X s 2059 875 m 27 X s 2059 900 m 27 X s 2032 925 m 54 X s 2059 949 m 27 X s 2059 974 m 27 X s 2059 999 m 27 X s 2059 1023 m 27
 X s 2032 1048 m 54 X s 2059 1073 m 27 X s 2059 1097 m 27 X s 2059 1122 m 27 X s 2059 1147 m 27 X s 2032 1171 m 54 X s 2059 1196 m 27 X s 2059 1221 m 27 X s 2059 1245 m 27 X s 2059 1270 m 27 X s 2032 1295 m 54 X s 2059 1319 m 27 X s 2059 1344 m 27 X
 s 2059 1369 m 27 X s 2059 1393 m 27 X s 2032 1418 m 54 X s 0 0 0.8 c black 0 0 0.8 c 1089 542 m -181 19 d -136 18 d -83 62 d -38 68 d -75 43 d -46 99 d -30 86 d s /w 23 def /w2 {w 2 div} def /w3 {w 3 div} def 1089 542 908 561 772 579 689 641 651 709
 576 752 530 851 500 937 8 { m20} R 0.8 0 0 c black 0.8 0 0 c 832 542 m -105 50 d -106 43 d -76 74 d -60 62 d -30 141 d -15 74 d s 832 542 727 592 621 635 545 709 485 771 455 912 440 986 7 { m21} R 0 0.6 0 c black 0 0.6 0 c 999 419 m -167 86 d -120
 13 d -106 92 d -45 56 d -61 61 d -38 74 d s /w 34 def /w2 {w 2 div} def /w3 {w 3 div} def 999 419 832 505 712 518 606 610 561 666 500 727 462 801 7 { m34} R 0.8 0 0.8 c[ 12 12] 0 sd black 0.8 0 0.8 c 1557 432 m -226 49 d -196 37 d -167 49 d -90 25 d
 -121 74 d -91 74 d -75 98 d s[  ] 0 sd /w 36 def /w2 {w 2 div} def /w3 {w 3 div} def 1557 432 1331 481 1135 518 968 567 878 592 757 666 666 740 591 838 8 { m29} R[ 12 12] 0 sd 0 0.6 0.6 c[ 4 8] 0 sd black 0 0.6 0.6 c 1572 333 m -241 43 d -196 43 d
 -167 37 d -136 49 d -105 81 d -106 92 d s[  ] 0 sd 1572 333 1331 376 1135 419 968 456 832 505 727 586 621 678 7 { m29} R[ 4 8] 0 sd black
 gsave  2268 1541 0 0 C 1505.29 1114.31 t 0 r /Helvetica findfont 48.8732 sf 0 0 m ( = 3.0 kV/cm) show NC gr 
 gsave  2268 1541 0 0 C 1394.52 1088.24 t 0 r /Helvetica findfont 32.5821 sf 0 0 m (transfer) show NC gr 
 gsave  2268 1541 0 0 C 1146.89 1114.31 t 0 r /Helvetica findfont 48.8732 sf 0 0 m ( \(90\25510\) \255 E) show NC gr 
 gsave  2268 1541 0 0 C 1127.34 1098.02 t 0 r /Helvetica findfont 32.5821 sf 0 0 m (2) show NC gr 
 gsave  2268 1541 0 0 C 935.107 1114.31 t 0 r /Helvetica findfont 48.8732 sf 0 0 m (Ne + CO) show NC gr  0 0 0.8 c[  ] 0 sd 719 1132 m 178 X s /w 23 def /w2 {w 2 div} def /w3 {w 3 div} def 808 1132 m20 black
 gsave  2268 1541 0 0 C 1655.17 1036.11 t 0 r /Helvetica findfont 48.8732 sf 0 0 m ( = 3.0 kV/cm) show NC gr 
 gsave  2268 1541 0 0 C 1544.39 1010.05 t 0 r /Helvetica findfont 32.5821 sf 0 0 m (transfer) show NC gr 
 gsave  2268 1541 0 0 C 1254.41 1036.11 t 0 r /Helvetica findfont 48.8732 sf 0 0 m ( \(90\25510\2555\) \255 E) show NC gr 
 gsave  2268 1541 0 0 C 1234.86 1019.82 t 0 r /Helvetica findfont 32.5821 sf 0 0 m (2) show NC gr 
 gsave  2268 1541 0 0 C 1146.89 1036.11 t 0 r /Helvetica findfont 48.8732 sf 0 0 m ( + N) show NC gr 
 gsave  2268 1541 0 0 C 1127.34 1019.82 t 0 r /Helvetica findfont 32.5821 sf 0 0 m (2) show NC gr 
 gsave  2268 1541 0 0 C 935.107 1036.11 t 0 r /Helvetica findfont 48.8732 sf 0 0 m (Ne + CO) show NC gr  0.8 0 0 c 719 1053 m 178 X s 808 1053 m21 black
 gsave  2268 1541 0 0 C 1664.95 957.915 t 0 r /Helvetica findfont 48.8732 sf 0 0 m ( = 3.0 kV/cm) show NC gr 
 gsave  2268 1541 0 0 C 1554.17 931.849 t 0 r /Helvetica findfont 32.5821 sf 0 0 m (transfer) show NC gr 
 gsave  2268 1541 0 0 C 1290.25 957.915 t 0 r /Helvetica findfont 48.8732 sf 0 0 m ( \(82\2559\2559\) \255 E) show NC gr 
 gsave  2268 1541 0 0 C 1270.7 941.624 t 0 r /Helvetica findfont 32.5821 sf 0 0 m (4) show NC gr 
 gsave  2268 1541 0 0 C 1146.89 957.915 t 0 r /Helvetica findfont 48.8732 sf 0 0 m ( + CH) show NC gr 
 gsave  2268 1541 0 0 C 1127.34 941.624 t 0 r /Helvetica findfont 32.5821 sf 0 0 m (2) show NC gr 
 gsave  2268 1541 0 0 C 935.107 957.915 t 0 r /Helvetica findfont 48.8732 sf 0 0 m (Ne + CO) show NC gr  0 0.6 0 c 719 974 m 178 X s /w 34 def /w2 {w 2 div} def /w3 {w 3 div} def 808 974 m34 black
 gsave  2268 1541 0 0 C 1661.69 879.718 t 0 r /Helvetica findfont 48.8732 sf 0 0 m ( = 2.5 kV/cm) show NC gr 
 gsave  2268 1541 0 0 C 1550.91 853.652 t 0 r /Helvetica findfont 32.5821 sf 0 0 m (transfer) show NC gr 
 gsave  2268 1541 0 0 C 1286.99 879.718 t 0 r /Helvetica findfont 48.8732 sf 0 0 m ( \(82\2559\2559\) \255 E) show NC gr 
 gsave  2268 1541 0 0 C 1267.45 863.427 t 0 r /Helvetica findfont 32.5821 sf 0 0 m (4) show NC gr 
 gsave  2268 1541 0 0 C 1146.89 879.718 t 0 r /Helvetica findfont 48.8732 sf 0 0 m ( + CF) show NC gr 
 gsave  2268 1541 0 0 C 1127.34 863.427 t 0 r /Helvetica findfont 32.5821 sf 0 0 m (2) show NC gr 
 gsave  2268 1541 0 0 C 935.107 879.718 t 0 r /Helvetica findfont 48.8732 sf 0 0 m (Ne + CO) show NC gr  0.8 0 0.8 c[ 12 12] 0 sd 719 895 m 178 X s[  ] 0 sd /w 36 def /w2 {w 2 div} def /w3 {w 3 div} def 808 895 m29[ 12 12] 0 sd black
 gsave  2268 1541 0 0 C 1661.69 801.521 t 0 r /Helvetica findfont 48.8732 sf 0 0 m ( = 1.5 kV/cm) show NC gr 
 gsave  2268 1541 0 0 C 1550.91 775.455 t 0 r /Helvetica findfont 32.5821 sf 0 0 m (transfer) show NC gr 
 gsave  2268 1541 0 0 C 1286.99 801.521 t 0 r /Helvetica findfont 48.8732 sf 0 0 m ( \(82\2559\2559\) \255 E) show NC gr 
 gsave  2268 1541 0 0 C 1267.45 785.229 t 0 r /Helvetica findfont 32.5821 sf 0 0 m (4) show NC gr 
 gsave  2268 1541 0 0 C 1146.89 801.521 t 0 r /Helvetica findfont 48.8732 sf 0 0 m ( + CF) show NC gr 
 gsave  2268 1541 0 0 C 1127.34 785.229 t 0 r /Helvetica findfont 32.5821 sf 0 0 m (2) show NC gr 
 gsave  2268 1541 0 0 C 935.107 801.521 t 0 r /Helvetica findfont 48.8732 sf 0 0 m (Ne + CO) show NC gr  0 0.6 0.6 c[ 4 8] 0 sd 719 816 m 178 X s[  ] 0 sd 808 816 m29[ 4 8] 0 sd black
 gsave  2268 1541 0 0 C 1264.19 1286.99 t 0 r /Helvetica findfont 48.8732 sf 0 0 m ( = 0.075 kV/cm) show NC gr 
 gsave  2268 1541 0 0 C 1221.83 1270.7 t 0 r /Helvetica findfont 32.5821 sf 0 0 m (ind) show NC gr 
 gsave  2268 1541 0 0 C 873.201 1286.99 t 0 r /Helvetica findfont 48.8732 sf 0 0 m ( = 0.4 kV/cm \255 E) show NC gr 
 gsave  2268 1541 0 0 C 817.812 1273.96 t 0 r /Helvetica findfont 32.5821 sf 0 0 m (drift) show NC gr 
 gsave  2268 1541 0 0 C 785.229 1286.99 t 0 r /Helvetica findfont 48.8732 sf 0 0 m (E) show NC gr 
 gr  gr showpage
end
%%EOF
