%!PS-Adobe-2.0 EPSF-2.0
%%BoundingBox:  0 0 567 590
%%Title: ../img/MMGScan.eps: Ne + CO2 + CH4 (82-9-9), MMG gain scan
%%Creator: ROOT Version 5.34/30
%%CreationDate: Fri Jul  8 12:01:34 2016
%%EndComments
%%BeginProlog
80 dict begin
/s {stroke} def /l {lineto} def /m {moveto} def /t {translate} def
/r {rotate} def /rl {roll}  def /R {repeat} def
/d {rlineto} def /rm {rmoveto} def /gr {grestore} def /f {eofill} def
/c {setrgbcolor} def /black {0 setgray} def /sd {setdash} def
/cl {closepath} def /sf {scalefont setfont} def /lw {setlinewidth} def
/box {m dup 0 exch d exch 0 d 0 exch neg d cl} def
/NC{systemdict begin initclip end}def/C{NC box clip newpath}def
/bl {box s} def /bf {gsave box gsave f grestore 1 lw [] 0 sd s grestore} def /Y { 0 exch d} def /X { 0 d} def 
/K {{pop pop 0 moveto} exch kshow} bind def
/ita {/ang 15 def gsave [1 0 ang dup sin exch cos div 1 0 0] concat} def 
/mp {newpath /y exch def /x exch def} def
/side {[w .77 mul w .23 mul] .385 w mul sd w 0 l currentpoint t -144 r} def
/mr {mp x y w2 0 360 arc} def /m24 {mr s} def /m20 {mr f} def
/mb {mp x y w2 add m w2 neg 0 d 0 w neg d w 0 d 0 w d cl} def
/mt {mp x y w2 add m w2 neg w neg d w 0 d cl} def
/m21 {mb f} def /m25 {mb s} def /m22 {mt f} def /m26{mt s} def
/m23 {mp x y w2 sub m w2 w d w neg 0 d cl f} def
/m27 {mp x y w2 add m w3 neg w2 neg d w3 w2 neg d w3 w2 d cl s} def
/m28 {mp x w2 sub y w2 sub w3 add m w3 0 d  0 w3 neg d w3 0 d 0 w3 d w3 0 d  0 w3 d w3 neg 0 d 0 w3 d w3 neg 0 d 0 w3 neg d w3 neg 0 d cl s } def
/m29 {mp gsave x w2 sub y w2 add w3 sub m currentpoint t 4 {side} repeat cl fill gr} def
/m30 {mp gsave x w2 sub y w2 add w3 sub m currentpoint t 4 {side} repeat cl s gr} def
/m31 {mp x y w2 sub m 0 w d x w2 sub y m w 0 d x w2 sub y w2 add m w w neg d x w2 sub y w2 sub m w w d s} def
/m32 {mp x y w2 sub m w2 w d w neg 0 d cl s} def
/m33 {mp x y w2 add m w3 neg w2 neg d w3 w2 neg d w3 w2 d cl f} def
/m34 {mp x w2 sub y w2 sub w3 add m w3 0 d  0 w3 neg d w3 0 d 0 w3 d w3 0 d  0 w3 d w3 neg 0 d 0 w3 d w3 neg 0 d 0 w3 neg d w3 neg 0 d cl f } def
/m2 {mp x y w2 sub m 0 w d x w2 sub y m w 0 d s} def
/m5 {mp x w2 sub y w2 sub m w w d x w2 sub y w2 add m w w neg d s} def
/reEncode {exch findfont dup length dict begin {1 index /FID eq  {pop pop} {def} ifelse } forall /Encoding exch def currentdict end dup /FontName get exch definefont pop } def [/Times-Bold /Times-Italic /Times-BoldItalic /Helvetica /Helvetica-Oblique
 /Helvetica-Bold /Helvetica-BoldOblique /Courier /Courier-Oblique /Courier-Bold /Courier-BoldOblique /Times-Roman /AvantGarde-Book /AvantGarde-BookOblique /AvantGarde-Demi /AvantGarde-DemiOblique /Bookman-Demi /Bookman-DemiItalic /Bookman-Light
 /Bookman-LightItalic /Helvetica-Narrow /Helvetica-Narrow-Bold /Helvetica-Narrow-BoldOblique /Helvetica-Narrow-Oblique /NewCenturySchlbk-Roman /NewCenturySchlbk-Bold /NewCenturySchlbk-BoldItalic /NewCenturySchlbk-Italic /Palatino-Bold
 /Palatino-BoldItalic /Palatino-Italic /Palatino-Roman ] {ISOLatin1Encoding reEncode } forall
%%EndProlog
%%BeginSetup
%%EndSetup
newpath  gsave  .25 .25 scale  gsave  0 0 t black[  ] 0 sd 3 lw 1 1 1 c 2268 2359 0 0 bf black 1 1 1 c 2268 841 0 1518 bf black 1 1 1 c 1814 635 272 1518 bf black 1814 635 272 1518 bl 272 1518 m 1814 X s
 gsave  2268 841 0 1518 C 1994.03 1384.74 t 0 r /Helvetica findfont 58.6994 sf 0 0 m ( \(V\)) show NC gr 
 gsave  2268 841 0 1518 C 1899.54 1365.19 t 0 r /Helvetica findfont 39.1329 sf 0 0 m (MMG) show NC gr 
 gsave  2268 841 0 1518 C 1860.44 1384.74 t 0 r /Helvetica findfont 58.6994 sf 0 0 m (V) show NC gr  272 1538 m -20 Y s 348 1528 m -10 Y s 423 1528 m -10 Y s 499 1528 m -10 Y s 574 1538 m -20 Y s 650 1528 m -10 Y s 726 1528 m -10 Y s 801 1528 m -10 Y
 s 877 1538 m -20 Y s 952 1528 m -10 Y s 1028 1528 m -10 Y s 1104 1528 m -10 Y s 1179 1538 m -20 Y s 1255 1528 m -10 Y s 1330 1528 m -10 Y s 1406 1528 m -10 Y s 1482 1538 m -20 Y s 1557 1528 m -10 Y s 1633 1528 m -10 Y s 1708 1528 m -10 Y s 1784 1538
 m -20 Y s 1860 1528 m -10 Y s 1935 1528 m -10 Y s 2011 1528 m -10 Y s 2086 1538 m -20 Y s
 gsave  2268 841 0 1518 C 228.075 1469.45 t 0 r /Helvetica findfont 52.1772 sf 0 0 m (360) show NC gr 
 gsave  2268 841 0 1518 C 531.089 1469.45 t 0 r /Helvetica findfont 52.1772 sf 0 0 m (380) show NC gr 
 gsave  2268 841 0 1518 C 834.103 1469.45 t 0 r /Helvetica findfont 52.1772 sf 0 0 m (400) show NC gr 
 gsave  2268 841 0 1518 C 1133.86 1469.45 t 0 r /Helvetica findfont 52.1772 sf 0 0 m (420) show NC gr 
 gsave  2268 841 0 1518 C 1436.87 1469.45 t 0 r /Helvetica findfont 52.1772 sf 0 0 m (440) show NC gr 
 gsave  2268 841 0 1518 C 1739.89 1469.45 t 0 r /Helvetica findfont 52.1772 sf 0 0 m (460) show NC gr 
 gsave  2268 841 0 1518 C 2042.9 1469.45 t 0 r /Helvetica findfont 52.1772 sf 0 0 m (480) show NC gr  272 1518 m 635 Y s
 gsave  2268 841 0 1518 C 120.554 1840.89 t 90 r /Helvetica findfont 58.6994 sf 0 0 m (MMG <GA>) show NC gr  324 1552 m -52 X s 298 1570 m -26 X s 298 1588 m -26 X s 298 1606 m -26 X s 324 1624 m -52 X s 298 1641 m -26 X s 298 1659 m -26 X s 298 1677
 m -26 X s 324 1695 m -52 X s 298 1713 m -26 X s 298 1731 m -26 X s 298 1749 m -26 X s 324 1767 m -52 X s 298 1785 m -26 X s 298 1803 m -26 X s 298 1821 m -26 X s 324 1838 m -52 X s 298 1856 m -26 X s 298 1874 m -26 X s 298 1892 m -26 X s 324 1910 m
 -52 X s 298 1928 m -26 X s 298 1946 m -26 X s 298 1964 m -26 X s 324 1982 m -52 X s 298 2000 m -26 X s 298 2017 m -26 X s 298 2035 m -26 X s 324 2053 m -52 X s 298 2071 m -26 X s 298 2089 m -26 X s 298 2107 m -26 X s 324 2125 m -52 X s 324 1552 m
 -52 X s 298 1534 m -26 X s 324 2125 m -52 X s 298 2143 m -26 X s
 gsave  2268 841 0 1518 C 175.944 1534.62 t 0 r /Helvetica findfont 52.1772 sf 0 0 m (200) show NC gr 
 gsave  2268 841 0 1518 C 175.944 1606.3 t 0 r /Helvetica findfont 52.1772 sf 0 0 m (400) show NC gr 
 gsave  2268 841 0 1518 C 175.944 1677.98 t 0 r /Helvetica findfont 52.1772 sf 0 0 m (600) show NC gr 
 gsave  2268 841 0 1518 C 175.944 1749.66 t 0 r /Helvetica findfont 52.1772 sf 0 0 m (800) show NC gr 
 gsave  2268 841 0 1518 C 146.62 1821.34 t 0 r /Helvetica findfont 52.1772 sf 0 0 m (1000) show NC gr 
 gsave  2268 841 0 1518 C 146.62 1893.02 t 0 r /Helvetica findfont 52.1772 sf 0 0 m (1200) show NC gr 
 gsave  2268 841 0 1518 C 146.62 1964.7 t 0 r /Helvetica findfont 52.1772 sf 0 0 m (1400) show NC gr 
 gsave  2268 841 0 1518 C 146.62 2036.38 t 0 r /Helvetica findfont 52.1772 sf 0 0 m (1600) show NC gr 
 gsave  2268 841 0 1518 C 146.62 2108.06 t 0 r /Helvetica findfont 52.1772 sf 0 0 m (1800) show NC gr  0 0 0.8 c black 0 0 0.8 c 574 1579 m 152 24 d 151 30 d 151 39 d 151 49 d 151 62 d 152 79 d 151 101 d 151 129 d s /w 34 def /w2 {w 2 div} def /w3 {w
 3 div} def 574 1579 726 1603 877 1633 1028 1672 1179 1721 1330 1783 1482 1862 1633 1963 1784 2092 9 { m34} R black 1 1 1 c 2268 677 0 841 bf black 1 1 1 c 1814 677 272 841 bf black 1814 677 272 841 bl 272 841 m 1814 X s
 gsave  2268 677 0 841 C 1994.03 733.098 t 0 r /Helvetica findfont 58.8027 sf 0 0 m ( \(V\)) show NC gr 
 gsave  2268 677 0 841 C 1899.54 713.549 t 0 r /Helvetica findfont 39.2018 sf 0 0 m (MMG) show NC gr 
 gsave  2268 677 0 841 C 1860.44 733.098 t 0 r /Helvetica findfont 58.8027 sf 0 0 m (V) show NC gr  272 858 m -17 Y s 348 849 m -8 Y s 423 849 m -8 Y s 499 849 m -8 Y s 574 858 m -17 Y s 650 849 m -8 Y s 726 849 m -8 Y s 801 849 m -8 Y s 877 858 m
 -17 Y s 952 849 m -8 Y s 1028 849 m -8 Y s 1104 849 m -8 Y s 1179 858 m -17 Y s 1255 849 m -8 Y s 1330 849 m -8 Y s 1406 849 m -8 Y s 1482 858 m -17 Y s 1557 849 m -8 Y s 1633 849 m -8 Y s 1708 849 m -8 Y s 1784 858 m -17 Y s 1860 849 m -8 Y s 1935
 849 m -8 Y s 2011 849 m -8 Y s 2086 858 m -17 Y s
 gsave  2268 677 0 841 C 228.075 795.004 t 0 r /Helvetica findfont 52.2691 sf 0 0 m (360) show NC gr 
 gsave  2268 677 0 841 C 531.089 795.004 t 0 r /Helvetica findfont 52.2691 sf 0 0 m (380) show NC gr 
 gsave  2268 677 0 841 C 834.103 795.004 t 0 r /Helvetica findfont 52.2691 sf 0 0 m (400) show NC gr 
 gsave  2268 677 0 841 C 1133.86 795.004 t 0 r /Helvetica findfont 52.2691 sf 0 0 m (420) show NC gr 
 gsave  2268 677 0 841 C 1436.87 795.004 t 0 r /Helvetica findfont 52.2691 sf 0 0 m (440) show NC gr 
 gsave  2268 677 0 841 C 1739.89 795.004 t 0 r /Helvetica findfont 52.2691 sf 0 0 m (460) show NC gr 
 gsave  2268 677 0 841 C 2042.9 795.004 t 0 r /Helvetica findfont 52.2691 sf 0 0 m (480) show NC gr  272 841 m 677 Y s
 gsave  2268 677 0 841 C 114.037 1218.57 t 90 r /Helvetica findfont 58.8027 sf 0 0 m ( / Mean \(%\)) show NC gr 
 gsave  2268 677 0 841 C 114.037 1182.73 t 90 r /Symbol findfont 58.8027 sf 0 0 m (s) show NC gr  340 890 m -68 X s 306 909 m -34 X s 306 928 m -34 X s 306 948 m -34 X s 306 967 m -34 X s 340 986 m -68 X s 306 1006 m -34 X s 306 1025 m -34 X s 306
 1044 m -34 X s 306 1064 m -34 X s 340 1083 m -68 X s 306 1102 m -34 X s 306 1122 m -34 X s 306 1141 m -34 X s 306 1160 m -34 X s 340 1179 m -68 X s 306 1199 m -34 X s 306 1218 m -34 X s 306 1237 m -34 X s 306 1257 m -34 X s 340 1276 m -68 X s 306
 1295 m -34 X s 306 1315 m -34 X s 306 1334 m -34 X s 306 1353 m -34 X s 340 1373 m -68 X s 306 1392 m -34 X s 306 1411 m -34 X s 306 1431 m -34 X s 306 1450 m -34 X s 340 1469 m -68 X s 340 890 m -68 X s 306 870 m -34 X s 306 851 m -34 X s 340 1469
 m -68 X s 306 1489 m -34 X s 306 1508 m -34 X s
 gsave  2268 677 0 841 C 231.333 873.201 t 0 r /Helvetica findfont 52.2691 sf 0 0 m (8) show NC gr 
 gsave  2268 677 0 841 C 231.333 967.689 t 0 r /Helvetica findfont 52.2691 sf 0 0 m (9) show NC gr 
 gsave  2268 677 0 841 C 202.009 1065.44 t 0 r /Helvetica findfont 52.2691 sf 0 0 m (10) show NC gr 
 gsave  2268 677 0 841 C 211.784 1156.67 t 0 r /Helvetica findfont 52.2691 sf 0 0 m (11) show NC gr 
 gsave  2268 677 0 841 C 202.009 1254.41 t 0 r /Helvetica findfont 52.2691 sf 0 0 m (12) show NC gr 
 gsave  2268 677 0 841 C 205.267 1355.42 t 0 r /Helvetica findfont 52.2691 sf 0 0 m (13) show NC gr 
 gsave  2268 677 0 841 C 202.009 1446.65 t 0 r /Helvetica findfont 52.2691 sf 0 0 m (14) show NC gr  0.8 0 0 c black 0.8 0 0 c 574 986 m 152 X 151 10 d 151 39 d 151 38 d 151 20 d 152 57 d 151 78 d 151 125 d s 574 986 726 986 877 996 1028 1035 1179
 1073 1330 1093 1482 1150 1633 1228 1784 1353 9 { m34} R black 1 1 1 c 2268 841 0 0 bf black 1 1 1 c 1814 636 272 205 bf black 1814 636 272 205 bl 272 205 m 1814 X s
 gsave  2268 841 0 0 C 1994.03 74.9389 t 0 r /Helvetica findfont 58.6994 sf 0 0 m ( \(V\)) show NC gr 
 gsave  2268 841 0 0 C 1899.54 55.3896 t 0 r /Helvetica findfont 39.1329 sf 0 0 m (MMG) show NC gr 
 gsave  2268 841 0 0 C 1860.44 74.9389 t 0 r /Helvetica findfont 58.6994 sf 0 0 m (V) show NC gr  272 226 m -21 Y s 348 216 m -11 Y s 423 216 m -11 Y s 499 216 m -11 Y s 574 226 m -21 Y s 650 216 m -11 Y s 726 216 m -11 Y s 801 216 m -11 Y s 877 226
 m -21 Y s 952 216 m -11 Y s 1028 216 m -11 Y s 1104 216 m -11 Y s 1179 226 m -21 Y s 1255 216 m -11 Y s 1330 216 m -11 Y s 1406 216 m -11 Y s 1482 226 m -21 Y s 1557 216 m -11 Y s 1633 216 m -11 Y s 1708 216 m -11 Y s 1784 226 m -21 Y s 1860 216 m
 -11 Y s 1935 216 m -11 Y s 2011 216 m -11 Y s 2086 226 m -21 Y s
 gsave  2268 841 0 0 C 228.075 159.652 t 0 r /Helvetica findfont 52.1772 sf 0 0 m (360) show NC gr 
 gsave  2268 841 0 0 C 531.089 159.652 t 0 r /Helvetica findfont 52.1772 sf 0 0 m (380) show NC gr 
 gsave  2268 841 0 0 C 834.103 159.652 t 0 r /Helvetica findfont 52.1772 sf 0 0 m (400) show NC gr 
 gsave  2268 841 0 0 C 1133.86 159.652 t 0 r /Helvetica findfont 52.1772 sf 0 0 m (420) show NC gr 
 gsave  2268 841 0 0 C 1436.87 159.652 t 0 r /Helvetica findfont 52.1772 sf 0 0 m (440) show NC gr 
 gsave  2268 841 0 0 C 1739.89 159.652 t 0 r /Helvetica findfont 52.1772 sf 0 0 m (460) show NC gr 
 gsave  2268 841 0 0 C 2042.9 159.652 t 0 r /Helvetica findfont 52.1772 sf 0 0 m (480) show NC gr  272 205 m 636 Y s
 gsave  2268 841 0 0 C 117.296 648.384 t 90 r /Helvetica findfont 58.6994 sf 0 0 m (IBF \(%\)) show NC gr  324 242 m -52 X s 298 270 m -26 X s 298 299 m -26 X s 298 328 m -26 X s 324 357 m -52 X s 298 385 m -26 X s 298 414 m -26 X s 298 443 m -26 X s
 324 472 m -52 X s 298 500 m -26 X s 298 529 m -26 X s 298 558 m -26 X s 324 587 m -52 X s 298 615 m -26 X s 298 644 m -26 X s 298 673 m -26 X s 324 702 m -52 X s 298 730 m -26 X s 298 759 m -26 X s 298 788 m -26 X s 324 817 m -52 X s 324 242 m -52 X
 s 298 213 m -26 X s 324 817 m -52 X s
 gsave  2268 841 0 0 C 188.976 224.817 t 0 r /Helvetica findfont 52.1772 sf 0 0 m (0.2) show NC gr 
 gsave  2268 841 0 0 C 188.976 338.854 t 0 r /Helvetica findfont 52.1772 sf 0 0 m (0.4) show NC gr 
 gsave  2268 841 0 0 C 188.976 452.892 t 0 r /Helvetica findfont 52.1772 sf 0 0 m (0.6) show NC gr 
 gsave  2268 841 0 0 C 188.976 570.187 t 0 r /Helvetica findfont 52.1772 sf 0 0 m (0.8) show NC gr 
 gsave  2268 841 0 0 C 241.108 680.967 t 0 r /Helvetica findfont 52.1772 sf 0 0 m (1) show NC gr 
 gsave  2268 841 0 0 C 188.976 795.004 t 0 r /Helvetica findfont 52.1772 sf 0 0 m (1.2) show NC gr  0 0.6 0 c black 0 0.6 0 c 574 776 m 152 -126 d 151 -98 d 151 -75 d 151 -57 d 151 -52 d 152 -46 d 151 -23 d 151 -29 d s 574 776 726 650 877 552 1028
 477 1179 420 1330 368 1482 322 1633 299 1784 270 9 { m34} R
 gr  gr showpage
end
%%EOF
