%!PS-Adobe-2.0 EPSF-2.0
%%BoundingBox:  0 0 567 593
%%Title: ../img/NeCO2CF4_EtranScan.eps: Ne + CO2 + CF4 (81-9-10), E-fields scan
%%Creator: ROOT Version 5.34/30
%%CreationDate: Fri Jul  8 11:56:51 2016
%%EndComments
%%BeginProlog
80 dict begin
/s {stroke} def /l {lineto} def /m {moveto} def /t {translate} def
/r {rotate} def /rl {roll}  def /R {repeat} def
/d {rlineto} def /rm {rmoveto} def /gr {grestore} def /f {eofill} def
/c {setrgbcolor} def /black {0 setgray} def /sd {setdash} def
/cl {closepath} def /sf {scalefont setfont} def /lw {setlinewidth} def
/box {m dup 0 exch d exch 0 d 0 exch neg d cl} def
/NC{systemdict begin initclip end}def/C{NC box clip newpath}def
/bl {box s} def /bf {gsave box gsave f grestore 1 lw [] 0 sd s grestore} def /Y { 0 exch d} def /X { 0 d} def 
/K {{pop pop 0 moveto} exch kshow} bind def
/ita {/ang 15 def gsave [1 0 ang dup sin exch cos div 1 0 0] concat} def 
/mp {newpath /y exch def /x exch def} def
/side {[w .77 mul w .23 mul] .385 w mul sd w 0 l currentpoint t -144 r} def
/mr {mp x y w2 0 360 arc} def /m24 {mr s} def /m20 {mr f} def
/mb {mp x y w2 add m w2 neg 0 d 0 w neg d w 0 d 0 w d cl} def
/mt {mp x y w2 add m w2 neg w neg d w 0 d cl} def
/m21 {mb f} def /m25 {mb s} def /m22 {mt f} def /m26{mt s} def
/m23 {mp x y w2 sub m w2 w d w neg 0 d cl f} def
/m27 {mp x y w2 add m w3 neg w2 neg d w3 w2 neg d w3 w2 d cl s} def
/m28 {mp x w2 sub y w2 sub w3 add m w3 0 d  0 w3 neg d w3 0 d 0 w3 d w3 0 d  0 w3 d w3 neg 0 d 0 w3 d w3 neg 0 d 0 w3 neg d w3 neg 0 d cl s } def
/m29 {mp gsave x w2 sub y w2 add w3 sub m currentpoint t 4 {side} repeat cl fill gr} def
/m30 {mp gsave x w2 sub y w2 add w3 sub m currentpoint t 4 {side} repeat cl s gr} def
/m31 {mp x y w2 sub m 0 w d x w2 sub y m w 0 d x w2 sub y w2 add m w w neg d x w2 sub y w2 sub m w w d s} def
/m32 {mp x y w2 sub m w2 w d w neg 0 d cl s} def
/m33 {mp x y w2 add m w3 neg w2 neg d w3 w2 neg d w3 w2 d cl f} def
/m34 {mp x w2 sub y w2 sub w3 add m w3 0 d  0 w3 neg d w3 0 d 0 w3 d w3 0 d  0 w3 d w3 neg 0 d 0 w3 d w3 neg 0 d 0 w3 neg d w3 neg 0 d cl f } def
/m2 {mp x y w2 sub m 0 w d x w2 sub y m w 0 d s} def
/m5 {mp x w2 sub y w2 sub m w w d x w2 sub y w2 add m w w neg d s} def
/reEncode {exch findfont dup length dict begin {1 index /FID eq  {pop pop} {def} ifelse } forall /Encoding exch def currentdict end dup /FontName get exch definefont pop } def [/Times-Bold /Times-Italic /Times-BoldItalic /Helvetica /Helvetica-Oblique
 /Helvetica-Bold /Helvetica-BoldOblique /Courier /Courier-Oblique /Courier-Bold /Courier-BoldOblique /Times-Roman /AvantGarde-Book /AvantGarde-BookOblique /AvantGarde-Demi /AvantGarde-DemiOblique /Bookman-Demi /Bookman-DemiItalic /Bookman-Light
 /Bookman-LightItalic /Helvetica-Narrow /Helvetica-Narrow-Bold /Helvetica-Narrow-BoldOblique /Helvetica-Narrow-Oblique /NewCenturySchlbk-Roman /NewCenturySchlbk-Bold /NewCenturySchlbk-BoldItalic /NewCenturySchlbk-Italic /Palatino-Bold
 /Palatino-BoldItalic /Palatino-Italic /Palatino-Roman ] {ISOLatin1Encoding reEncode } forall
%%EndProlog
%%BeginSetup
%%EndSetup
newpath  gsave  .25 .25 scale  gsave  0 0 t black[  ] 0 sd 3 lw 1 1 1 c 2268 2372 0 0 bf black 1 1 1 c 2268 846 0 1526 bf black 1 1 1 c 1814 639 272 1526 bf black 1814 639 272 1526 bl 272 1526 m 1814 X s
 gsave  2268 846 0 1526 C 1870.21 1394.52 t 0 r /Helvetica findfont 58.7958 sf 0 0 m ( \(kV/cm\)) show NC gr 
 gsave  2268 846 0 1526 C 1736.63 1374.97 t 0 r /Helvetica findfont 39.1972 sf 0 0 m (transfer) show NC gr 
 gsave  2268 846 0 1526 C 1697.53 1394.52 t 0 r /Helvetica findfont 58.7958 sf 0 0 m (E) show NC gr  528 1546 m -20 Y s 580 1536 m -10 Y s 632 1536 m -10 Y s 684 1536 m -10 Y s 736 1536 m -10 Y s 788 1546 m -20 Y s 840 1536 m -10 Y s 892 1536 m -10 Y
 s 945 1536 m -10 Y s 997 1536 m -10 Y s 1049 1546 m -20 Y s 1101 1536 m -10 Y s 1153 1536 m -10 Y s 1205 1536 m -10 Y s 1257 1536 m -10 Y s 1310 1546 m -20 Y s 1362 1536 m -10 Y s 1414 1536 m -10 Y s 1466 1536 m -10 Y s 1518 1536 m -10 Y s 1570 1546
 m -20 Y s 1622 1536 m -10 Y s 1674 1536 m -10 Y s 1727 1536 m -10 Y s 1779 1536 m -10 Y s 1831 1546 m -20 Y s 528 1546 m -20 Y s 475 1536 m -10 Y s 423 1536 m -10 Y s 371 1536 m -10 Y s 319 1536 m -10 Y s 1831 1546 m -20 Y s 1883 1536 m -10 Y s 1935
 1536 m -10 Y s 1987 1536 m -10 Y s 2039 1536 m -10 Y s
 gsave  2268 846 0 1526 C 488.732 1479.23 t 0 r /Helvetica findfont 52.2629 sf 0 0 m (0.5) show NC gr 
 gsave  2268 846 0 1526 C 775.455 1479.23 t 0 r /Helvetica findfont 52.2629 sf 0 0 m (1) show NC gr 
 gsave  2268 846 0 1526 C 1010.05 1479.23 t 0 r /Helvetica findfont 52.2629 sf 0 0 m (1.5) show NC gr 
 gsave  2268 846 0 1526 C 1290.25 1479.23 t 0 r /Helvetica findfont 52.2629 sf 0 0 m (2) show NC gr 
 gsave  2268 846 0 1526 C 1531.36 1479.23 t 0 r /Helvetica findfont 52.2629 sf 0 0 m (2.5) show NC gr 
 gsave  2268 846 0 1526 C 1811.57 1479.23 t 0 r /Helvetica findfont 52.2629 sf 0 0 m (3) show NC gr  272 1526 m 639 Y s
 gsave  2268 846 0 1526 C 123.812 2013.58 t 90 r /Helvetica findfont 58.7958 sf 0 0 m (<GA>) show NC gr  324 1548 m -52 X s 298 1570 m -26 X s 298 1592 m -26 X s 298 1614 m -26 X s 324 1636 m -52 X s 298 1658 m -26 X s 298 1680 m -26 X s 298 1702 m
 -26 X s 324 1724 m -52 X s 298 1746 m -26 X s 298 1769 m -26 X s 298 1791 m -26 X s 324 1813 m -52 X s 298 1835 m -26 X s 298 1857 m -26 X s 298 1879 m -26 X s 324 1901 m -52 X s 298 1923 m -26 X s 298 1945 m -26 X s 298 1967 m -26 X s 324 1989 m
 -52 X s 298 2011 m -26 X s 298 2033 m -26 X s 298 2055 m -26 X s 324 2077 m -52 X s 298 2099 m -26 X s 298 2121 m -26 X s 298 2143 m -26 X s 324 2165 m -52 X s 324 1548 m -52 X s 298 1526 m -26 X s
 gsave  2268 846 0 1526 C 175.944 1531.36 t 0 r /Helvetica findfont 52.2629 sf 0 0 m (800) show NC gr 
 gsave  2268 846 0 1526 C 146.62 1619.33 t 0 r /Helvetica findfont 52.2629 sf 0 0 m (1000) show NC gr 
 gsave  2268 846 0 1526 C 146.62 1707.3 t 0 r /Helvetica findfont 52.2629 sf 0 0 m (1200) show NC gr 
 gsave  2268 846 0 1526 C 146.62 1795.28 t 0 r /Helvetica findfont 52.2629 sf 0 0 m (1400) show NC gr 
 gsave  2268 846 0 1526 C 146.62 1883.25 t 0 r /Helvetica findfont 52.2629 sf 0 0 m (1600) show NC gr 
 gsave  2268 846 0 1526 C 146.62 1971.22 t 0 r /Helvetica findfont 52.2629 sf 0 0 m (1800) show NC gr 
 gsave  2268 846 0 1526 C 146.62 2059.19 t 0 r /Helvetica findfont 52.2629 sf 0 0 m (2000) show NC gr 
 gsave  2268 846 0 1526 C 146.62 2147.16 t 0 r /Helvetica findfont 52.2629 sf 0 0 m (2200) show NC gr  0 0 0.8 c black 0 0 0.8 c 439 1619 m 261 352 d 349 106 d 172 -40 d 177 -50 d 172 -77 d 172 -120 d 177 -138 d s /w 36 def /w2 {w 2 div} def /w3 {w 3
 div} def 439 1619 700 1971 1049 2077 1221 2037 1398 1987 1570 1910 1742 1790 1919 1652 8 { m29} R black 2086 1526 m 639 Y s
 gsave  2268 846 0 1526 C 2231.88 2042.9 t 90 r /Helvetica findfont 58.7958 sf 0 0 m ( \(nA\)) show NC gr 
 gsave  2268 846 0 1526 C 2251.43 1935.38 t 90 r /Helvetica findfont 39.1972 sf 0 0 m (anode) show NC gr 
 gsave  2268 846 0 1526 C 2231.88 1922.35 t 90 r /Helvetica findfont 58.7958 sf 0 0 m (I) show NC gr  2035 1571 m 51 X s 2061 1596 m 25 X s 2061 1621 m 25 X s 2061 1646 m 25 X s 2061 1671 m 25 X s 2035 1696 m 51 X s 2061 1721 m 25 X s 2061 1746 m 25
 X s 2061 1771 m 25 X s 2061 1796 m 25 X s 2035 1821 m 51 X s 2061 1846 m 25 X s 2061 1871 m 25 X s 2061 1896 m 25 X s 2061 1921 m 25 X s 2035 1946 m 51 X s 2061 1971 m 25 X s 2061 1996 m 25 X s 2061 2021 m 25 X s 2061 2046 m 25 X s 2035 2071 m 51 X
 s 2035 1571 m 51 X s 2061 1546 m 25 X s 2035 2071 m 51 X s 2061 2096 m 25 X s 2061 2121 m 25 X s 2061 2146 m 25 X s
 gsave  2268 846 0 1526 C 2095.03 1554.17 t 0 r /Helvetica findfont 52.2629 sf 0 0 m (30) show NC gr 
 gsave  2268 846 0 1526 C 2095.03 1677.98 t 0 r /Helvetica findfont 52.2629 sf 0 0 m (40) show NC gr 
 gsave  2268 846 0 1526 C 2095.03 1801.79 t 0 r /Helvetica findfont 52.2629 sf 0 0 m (50) show NC gr 
 gsave  2268 846 0 1526 C 2095.03 1928.86 t 0 r /Helvetica findfont 52.2629 sf 0 0 m (60) show NC gr 
 gsave  2268 846 0 1526 C 2095.03 2052.67 t 0 r /Helvetica findfont 52.2629 sf 0 0 m (70) show NC gr  1 1 1 c 2268 680 0 846 bf black 1 1 1 c 1814 680 272 846 bf black 1814 680 272 846 bl 272 846 m 1814 X s
 gsave  2268 680 0 846 C 1870.21 739.614 t 0 r /Helvetica findfont 58.8433 sf 0 0 m ( \(kV/cm\)) show NC gr 
 gsave  2268 680 0 846 C 1736.63 720.065 t 0 r /Helvetica findfont 39.2289 sf 0 0 m (transfer) show NC gr 
 gsave  2268 680 0 846 C 1697.53 739.614 t 0 r /Helvetica findfont 58.8433 sf 0 0 m (E) show NC gr  528 862 m -16 Y s 580 854 m -8 Y s 632 854 m -8 Y s 684 854 m -8 Y s 736 854 m -8 Y s 788 862 m -16 Y s 840 854 m -8 Y s 892 854 m -8 Y s 945 854 m -8
 Y s 997 854 m -8 Y s 1049 862 m -16 Y s 1101 854 m -8 Y s 1153 854 m -8 Y s 1205 854 m -8 Y s 1257 854 m -8 Y s 1310 862 m -16 Y s 1362 854 m -8 Y s 1414 854 m -8 Y s 1466 854 m -8 Y s 1518 854 m -8 Y s 1570 862 m -16 Y s 1622 854 m -8 Y s 1674 854
 m -8 Y s 1727 854 m -8 Y s 1779 854 m -8 Y s 1831 862 m -16 Y s 528 862 m -16 Y s 475 854 m -8 Y s 423 854 m -8 Y s 371 854 m -8 Y s 319 854 m -8 Y s 1831 862 m -16 Y s 1883 854 m -8 Y s 1935 854 m -8 Y s 1987 854 m -8 Y s 2039 854 m -8 Y s
 gsave  2268 680 0 846 C 488.732 801.521 t 0 r /Helvetica findfont 52.3052 sf 0 0 m (0.5) show NC gr 
 gsave  2268 680 0 846 C 775.455 801.521 t 0 r /Helvetica findfont 52.3052 sf 0 0 m (1) show NC gr 
 gsave  2268 680 0 846 C 1010.05 801.521 t 0 r /Helvetica findfont 52.3052 sf 0 0 m (1.5) show NC gr 
 gsave  2268 680 0 846 C 1290.25 801.521 t 0 r /Helvetica findfont 52.3052 sf 0 0 m (2) show NC gr 
 gsave  2268 680 0 846 C 1531.36 801.521 t 0 r /Helvetica findfont 52.3052 sf 0 0 m (2.5) show NC gr 
 gsave  2268 680 0 846 C 1811.57 801.521 t 0 r /Helvetica findfont 52.3052 sf 0 0 m (3) show NC gr  272 846 m 680 Y s
 gsave  2268 680 0 846 C 117.296 1228.35 t 90 r /Helvetica findfont 58.8433 sf 0 0 m ( / Mean \(%\)) show NC gr 
 gsave  2268 680 0 846 C 117.296 1192.51 t 90 r /Symbol findfont 58.8433 sf 0 0 m (s) show NC gr  340 891 m -68 X s 306 907 m -34 X s 306 923 m -34 X s 306 939 m -34 X s 306 955 m -34 X s 340 971 m -68 X s 306 986 m -34 X s 306 1002 m -34 X s 306
 1018 m -34 X s 306 1034 m -34 X s 340 1050 m -68 X s 306 1066 m -34 X s 306 1082 m -34 X s 306 1098 m -34 X s 306 1114 m -34 X s 340 1130 m -68 X s 306 1146 m -34 X s 306 1162 m -34 X s 306 1178 m -34 X s 306 1194 m -34 X s 340 1210 m -68 X s 306
 1226 m -34 X s 306 1242 m -34 X s 306 1258 m -34 X s 306 1274 m -34 X s 340 1290 m -68 X s 306 1306 m -34 X s 306 1322 m -34 X s 306 1338 m -34 X s 306 1354 m -34 X s 340 1370 m -68 X s 306 1386 m -34 X s 306 1401 m -34 X s 306 1417 m -34 X s 306
 1433 m -34 X s 340 1449 m -68 X s 340 891 m -68 X s 306 875 m -34 X s 306 859 m -34 X s 340 1449 m -68 X s 306 1465 m -34 X s 306 1481 m -34 X s 306 1497 m -34 X s 306 1513 m -34 X s
 gsave  2268 680 0 846 C 231.333 873.201 t 0 r /Helvetica findfont 52.3052 sf 0 0 m (9) show NC gr 
 gsave  2268 680 0 846 C 188.976 951.398 t 0 r /Helvetica findfont 52.3052 sf 0 0 m (9.5) show NC gr 
 gsave  2268 680 0 846 C 202.009 1032.85 t 0 r /Helvetica findfont 52.3052 sf 0 0 m (10) show NC gr 
 gsave  2268 680 0 846 C 159.652 1111.05 t 0 r /Helvetica findfont 52.3052 sf 0 0 m (10.5) show NC gr 
 gsave  2268 680 0 846 C 211.784 1189.25 t 0 r /Helvetica findfont 52.3052 sf 0 0 m (11) show NC gr 
 gsave  2268 680 0 846 C 159.652 1270.7 t 0 r /Helvetica findfont 52.3052 sf 0 0 m (11.5) show NC gr 
 gsave  2268 680 0 846 C 202.009 1348.9 t 0 r /Helvetica findfont 52.3052 sf 0 0 m (12) show NC gr 
 gsave  2268 680 0 846 C 159.652 1430.36 t 0 r /Helvetica findfont 52.3052 sf 0 0 m (12.5) show NC gr  0.8 0 0 c black 0.8 0 0 c 439 1338 m 261 -208 d 349 -96 d 172 16 d 177 16 d 172 48 d 172 64 d 177 144 d s 439 1338 700 1130 1049 1034 1221 1050
 1398 1066 1570 1114 1742 1178 1919 1322 8 { m29} R black 1 1 1 c 2268 846 0 0 bf black 1 1 1 c 1814 639 272 207 bf black 1814 639 272 207 bl 272 207 m 1814 X s
 gsave  2268 846 0 0 C 1870.21 74.9389 t 0 r /Helvetica findfont 58.7958 sf 0 0 m ( \(kV/cm\)) show NC gr 
 gsave  2268 846 0 0 C 1736.63 55.3896 t 0 r /Helvetica findfont 39.1972 sf 0 0 m (transfer) show NC gr 
 gsave  2268 846 0 0 C 1697.53 74.9389 t 0 r /Helvetica findfont 58.7958 sf 0 0 m (E) show NC gr  528 227 m -20 Y s 580 217 m -10 Y s 632 217 m -10 Y s 684 217 m -10 Y s 736 217 m -10 Y s 788 227 m -20 Y s 840 217 m -10 Y s 892 217 m -10 Y s 945 217
 m -10 Y s 997 217 m -10 Y s 1049 227 m -20 Y s 1101 217 m -10 Y s 1153 217 m -10 Y s 1205 217 m -10 Y s 1257 217 m -10 Y s 1310 227 m -20 Y s 1362 217 m -10 Y s 1414 217 m -10 Y s 1466 217 m -10 Y s 1518 217 m -10 Y s 1570 227 m -20 Y s 1622 217 m
 -10 Y s 1674 217 m -10 Y s 1727 217 m -10 Y s 1779 217 m -10 Y s 1831 227 m -20 Y s 528 227 m -20 Y s 475 217 m -10 Y s 423 217 m -10 Y s 371 217 m -10 Y s 319 217 m -10 Y s 1831 227 m -20 Y s 1883 217 m -10 Y s 1935 217 m -10 Y s 1987 217 m -10 Y s
 2039 217 m -10 Y s
 gsave  2268 846 0 0 C 488.732 159.652 t 0 r /Helvetica findfont 52.2629 sf 0 0 m (0.5) show NC gr 
 gsave  2268 846 0 0 C 775.455 159.652 t 0 r /Helvetica findfont 52.2629 sf 0 0 m (1) show NC gr 
 gsave  2268 846 0 0 C 1010.05 159.652 t 0 r /Helvetica findfont 52.2629 sf 0 0 m (1.5) show NC gr 
 gsave  2268 846 0 0 C 1290.25 159.652 t 0 r /Helvetica findfont 52.2629 sf 0 0 m (2) show NC gr 
 gsave  2268 846 0 0 C 1531.36 159.652 t 0 r /Helvetica findfont 52.2629 sf 0 0 m (2.5) show NC gr 
 gsave  2268 846 0 0 C 1811.57 159.652 t 0 r /Helvetica findfont 52.2629 sf 0 0 m (3) show NC gr  272 207 m 639 Y s
 gsave  2268 846 0 0 C 120.554 651.643 t 90 r /Helvetica findfont 58.7958 sf 0 0 m (IBF \(%\)) show NC gr  324 231 m -52 X s 298 249 m -26 X s 298 268 m -26 X s 298 286 m -26 X s 298 305 m -26 X s 324 323 m -52 X s 298 341 m -26 X s 298 360 m -26 X s
 298 378 m -26 X s 298 397 m -26 X s 324 415 m -52 X s 298 434 m -26 X s 298 452 m -26 X s 298 471 m -26 X s 298 489 m -26 X s 324 508 m -52 X s 298 526 m -26 X s 298 545 m -26 X s 298 563 m -26 X s 298 582 m -26 X s 324 600 m -52 X s 298 619 m -26 X
 s 298 637 m -26 X s 298 656 m -26 X s 298 674 m -26 X s 324 693 m -52 X s 298 711 m -26 X s 298 730 m -26 X s 298 748 m -26 X s 298 767 m -26 X s 324 785 m -52 X s 324 231 m -52 X s 298 212 m -26 X s 324 785 m -52 X s 298 804 m -26 X s 298 822 m -26
 X s 298 840 m -26 X s
 gsave  2268 846 0 0 C 188.976 211.784 t 0 r /Helvetica findfont 52.2629 sf 0 0 m (0.5) show NC gr 
 gsave  2268 846 0 0 C 188.976 306.272 t 0 r /Helvetica findfont 52.2629 sf 0 0 m (0.6) show NC gr 
 gsave  2268 846 0 0 C 188.976 397.502 t 0 r /Helvetica findfont 52.2629 sf 0 0 m (0.7) show NC gr 
 gsave  2268 846 0 0 C 188.976 488.732 t 0 r /Helvetica findfont 52.2629 sf 0 0 m (0.8) show NC gr 
 gsave  2268 846 0 0 C 188.976 583.22 t 0 r /Helvetica findfont 52.2629 sf 0 0 m (0.9) show NC gr 
 gsave  2268 846 0 0 C 241.108 671.192 t 0 r /Helvetica findfont 52.2629 sf 0 0 m (1) show NC gr 
 gsave  2268 846 0 0 C 198.751 762.422 t 0 r /Helvetica findfont 52.2629 sf 0 0 m (1.1) show NC gr  0 0.6 0 c black 0 0.6 0 c 439 748 m 261 -185 d 349 -175 d 172 -37 d 177 -28 d 172 -18 d 172 27 d 177 65 d s 439 748 700 563 1049 388 1221 351 1398 323
 1570 305 1742 332 1919 397 8 { m29} R
 gr  gr showpage
end
%%EOF
