%!PS-Adobe-2.0 EPSF-2.0
%%BoundingBox:  0 0 567 593
%%Title: ../img/NeCO2_EdriftScan.eps: Ne+CO2(90-10), E-fields scan
%%Creator: ROOT Version 5.34/30
%%CreationDate: Fri Jul  8 11:51:04 2016
%%EndComments
%%BeginProlog
80 dict begin
/s {stroke} def /l {lineto} def /m {moveto} def /t {translate} def
/r {rotate} def /rl {roll}  def /R {repeat} def
/d {rlineto} def /rm {rmoveto} def /gr {grestore} def /f {eofill} def
/c {setrgbcolor} def /black {0 setgray} def /sd {setdash} def
/cl {closepath} def /sf {scalefont setfont} def /lw {setlinewidth} def
/box {m dup 0 exch d exch 0 d 0 exch neg d cl} def
/NC{systemdict begin initclip end}def/C{NC box clip newpath}def
/bl {box s} def /bf {gsave box gsave f grestore 1 lw [] 0 sd s grestore} def /Y { 0 exch d} def /X { 0 d} def 
/K {{pop pop 0 moveto} exch kshow} bind def
/ita {/ang 15 def gsave [1 0 ang dup sin exch cos div 1 0 0] concat} def 
/mp {newpath /y exch def /x exch def} def
/side {[w .77 mul w .23 mul] .385 w mul sd w 0 l currentpoint t -144 r} def
/mr {mp x y w2 0 360 arc} def /m24 {mr s} def /m20 {mr f} def
/mb {mp x y w2 add m w2 neg 0 d 0 w neg d w 0 d 0 w d cl} def
/mt {mp x y w2 add m w2 neg w neg d w 0 d cl} def
/m21 {mb f} def /m25 {mb s} def /m22 {mt f} def /m26{mt s} def
/m23 {mp x y w2 sub m w2 w d w neg 0 d cl f} def
/m27 {mp x y w2 add m w3 neg w2 neg d w3 w2 neg d w3 w2 d cl s} def
/m28 {mp x w2 sub y w2 sub w3 add m w3 0 d  0 w3 neg d w3 0 d 0 w3 d w3 0 d  0 w3 d w3 neg 0 d 0 w3 d w3 neg 0 d 0 w3 neg d w3 neg 0 d cl s } def
/m29 {mp gsave x w2 sub y w2 add w3 sub m currentpoint t 4 {side} repeat cl fill gr} def
/m30 {mp gsave x w2 sub y w2 add w3 sub m currentpoint t 4 {side} repeat cl s gr} def
/m31 {mp x y w2 sub m 0 w d x w2 sub y m w 0 d x w2 sub y w2 add m w w neg d x w2 sub y w2 sub m w w d s} def
/m32 {mp x y w2 sub m w2 w d w neg 0 d cl s} def
/m33 {mp x y w2 add m w3 neg w2 neg d w3 w2 neg d w3 w2 d cl f} def
/m34 {mp x w2 sub y w2 sub w3 add m w3 0 d  0 w3 neg d w3 0 d 0 w3 d w3 0 d  0 w3 d w3 neg 0 d 0 w3 d w3 neg 0 d 0 w3 neg d w3 neg 0 d cl f } def
/m2 {mp x y w2 sub m 0 w d x w2 sub y m w 0 d s} def
/m5 {mp x w2 sub y w2 sub m w w d x w2 sub y w2 add m w w neg d s} def
/reEncode {exch findfont dup length dict begin {1 index /FID eq  {pop pop} {def} ifelse } forall /Encoding exch def currentdict end dup /FontName get exch definefont pop } def [/Times-Bold /Times-Italic /Times-BoldItalic /Helvetica /Helvetica-Oblique
 /Helvetica-Bold /Helvetica-BoldOblique /Courier /Courier-Oblique /Courier-Bold /Courier-BoldOblique /Times-Roman /AvantGarde-Book /AvantGarde-BookOblique /AvantGarde-Demi /AvantGarde-DemiOblique /Bookman-Demi /Bookman-DemiItalic /Bookman-Light
 /Bookman-LightItalic /Helvetica-Narrow /Helvetica-Narrow-Bold /Helvetica-Narrow-BoldOblique /Helvetica-Narrow-Oblique /NewCenturySchlbk-Roman /NewCenturySchlbk-Bold /NewCenturySchlbk-BoldItalic /NewCenturySchlbk-Italic /Palatino-Bold
 /Palatino-BoldItalic /Palatino-Italic /Palatino-Roman ] {ISOLatin1Encoding reEncode } forall
%%EndProlog
%%BeginSetup
%%EndSetup
newpath  gsave  .25 .25 scale  gsave  0 0 t black[  ] 0 sd 3 lw 1 1 1 c 2268 2372 0 0 bf black 1 1 1 c 2268 846 0 1526 bf black 1 1 1 c 1814 639 272 1526 bf black 1814 639 272 1526 bl 272 1526 m 1814 X s
 gsave  2268 846 0 1526 C 1870.21 1394.52 t 0 r /Helvetica findfont 58.7958 sf 0 0 m ( \(kV/cm\)) show NC gr 
 gsave  2268 846 0 1526 C 1805.05 1374.97 t 0 r /Helvetica findfont 39.1972 sf 0 0 m (drift) show NC gr 
 gsave  2268 846 0 1526 C 1765.95 1394.52 t 0 r /Helvetica findfont 58.7958 sf 0 0 m (E) show NC gr  419 1546 m -20 Y s 468 1536 m -10 Y s 517 1536 m -10 Y s 566 1536 m -10 Y s 615 1536 m -10 Y s 664 1546 m -20 Y s 713 1536 m -10 Y s 762 1536 m -10 Y
 s 811 1536 m -10 Y s 861 1536 m -10 Y s 910 1546 m -20 Y s 959 1536 m -10 Y s 1008 1536 m -10 Y s 1057 1536 m -10 Y s 1106 1536 m -10 Y s 1155 1546 m -20 Y s 1204 1536 m -10 Y s 1253 1536 m -10 Y s 1302 1536 m -10 Y s 1351 1536 m -10 Y s 1400 1546 m
 -20 Y s 1449 1536 m -10 Y s 1498 1536 m -10 Y s 1547 1536 m -10 Y s 1596 1536 m -10 Y s 1645 1546 m -20 Y s 1694 1536 m -10 Y s 1743 1536 m -10 Y s 1792 1536 m -10 Y s 1841 1536 m -10 Y s 1890 1546 m -20 Y s 419 1546 m -20 Y s 370 1536 m -10 Y s 321
 1536 m -10 Y s 272 1536 m -10 Y s 1890 1546 m -20 Y s 1939 1536 m -10 Y s 1988 1536 m -10 Y s 2037 1536 m -10 Y s 2086 1536 m -10 Y s
 gsave  2268 846 0 1526 C 381.211 1479.23 t 0 r /Helvetica findfont 52.2629 sf 0 0 m (0.2) show NC gr 
 gsave  2268 846 0 1526 C 609.286 1479.23 t 0 r /Helvetica findfont 52.2629 sf 0 0 m (0.25) show NC gr 
 gsave  2268 846 0 1526 C 873.201 1479.23 t 0 r /Helvetica findfont 52.2629 sf 0 0 m (0.3) show NC gr 
 gsave  2268 846 0 1526 C 1101.28 1479.23 t 0 r /Helvetica findfont 52.2629 sf 0 0 m (0.35) show NC gr 
 gsave  2268 846 0 1526 C 1361.93 1479.23 t 0 r /Helvetica findfont 52.2629 sf 0 0 m (0.4) show NC gr 
 gsave  2268 846 0 1526 C 1590.01 1479.23 t 0 r /Helvetica findfont 52.2629 sf 0 0 m (0.45) show NC gr 
 gsave  2268 846 0 1526 C 1853.92 1479.23 t 0 r /Helvetica findfont 52.2629 sf 0 0 m (0.5) show NC gr  272 1526 m 639 Y s
 gsave  2268 846 0 1526 C 143.361 2013.58 t 90 r /Helvetica findfont 58.7958 sf 0 0 m (<GA>) show NC gr  324 1581 m -52 X s 298 1610 m -26 X s 298 1638 m -26 X s 298 1667 m -26 X s 324 1696 m -52 X s 298 1725 m -26 X s 298 1754 m -26 X s 298 1783 m
 -26 X s 324 1812 m -52 X s 298 1841 m -26 X s 298 1869 m -26 X s 298 1898 m -26 X s 324 1927 m -52 X s 298 1956 m -26 X s 298 1985 m -26 X s 298 2014 m -26 X s 324 2043 m -52 X s 298 2072 m -26 X s 298 2101 m -26 X s 298 2129 m -26 X s 324 2158 m
 -52 X s 324 1581 m -52 X s 298 1552 m -26 X s 324 2158 m -52 X s
 gsave  2268 846 0 1526 C 146.62 1563.94 t 0 r /Helvetica findfont 52.2629 sf 0 0 m (1400) show NC gr 
 gsave  2268 846 0 1526 C 146.62 1677.98 t 0 r /Helvetica findfont 52.2629 sf 0 0 m (1600) show NC gr 
 gsave  2268 846 0 1526 C 146.62 1795.28 t 0 r /Helvetica findfont 52.2629 sf 0 0 m (1800) show NC gr 
 gsave  2268 846 0 1526 C 146.62 1909.31 t 0 r /Helvetica findfont 52.2629 sf 0 0 m (2000) show NC gr 
 gsave  2268 846 0 1526 C 146.62 2023.35 t 0 r /Helvetica findfont 52.2629 sf 0 0 m (2200) show NC gr 
 gsave  2268 846 0 1526 C 146.62 2140.65 t 0 r /Helvetica findfont 52.2629 sf 0 0 m (2400) show NC gr  0 0 0.8 c black 0 0 0.8 c 517 1936 m 221 16 d 225 13 d 216 4 d 221 11 d 220 7 d 221 6 d s /w 23 def /w2 {w 2 div} def /w3 {w 3 div} def 517 1936
 738 1952 963 1965 1179 1969 1400 1980 1620 1987 1841 1993 7 { m20} R black 2086 1526 m 639 Y s
 gsave  2268 846 0 1526 C 2231.88 2042.9 t 90 r /Helvetica findfont 58.7958 sf 0 0 m ( \(nA\)) show NC gr 
 gsave  2268 846 0 1526 C 2251.43 1935.38 t 90 r /Helvetica findfont 39.1972 sf 0 0 m (anode) show NC gr 
 gsave  2268 846 0 1526 C 2231.88 1922.35 t 90 r /Helvetica findfont 58.7958 sf 0 0 m (I) show NC gr  2035 1592 m 51 X s 2061 1608 m 25 X s 2061 1624 m 25 X s 2061 1641 m 25 X s 2061 1657 m 25 X s 2035 1674 m 51 X s 2061 1690 m 25 X s 2061 1706 m 25
 X s 2061 1723 m 25 X s 2061 1739 m 25 X s 2035 1756 m 51 X s 2061 1772 m 25 X s 2061 1788 m 25 X s 2061 1805 m 25 X s 2061 1821 m 25 X s 2035 1837 m 51 X s 2061 1854 m 25 X s 2061 1870 m 25 X s 2061 1887 m 25 X s 2061 1903 m 25 X s 2035 1919 m 51 X
 s 2061 1936 m 25 X s 2061 1952 m 25 X s 2061 1969 m 25 X s 2061 1985 m 25 X s 2035 2001 m 51 X s 2061 2018 m 25 X s 2061 2034 m 25 X s 2061 2051 m 25 X s 2061 2067 m 25 X s 2035 2083 m 51 X s 2061 2100 m 25 X s 2061 2116 m 25 X s 2061 2133 m 25 X s
 2061 2149 m 25 X s 2035 2165 m 51 X s 2035 1592 m 51 X s 2061 1575 m 25 X s 2061 1559 m 25 X s 2061 1542 m 25 X s 2061 1526 m 25 X s
 gsave  2268 846 0 1526 C 2095.03 1573.72 t 0 r /Helvetica findfont 52.2629 sf 0 0 m (50) show NC gr 
 gsave  2268 846 0 1526 C 2095.03 1655.17 t 0 r /Helvetica findfont 52.2629 sf 0 0 m (55) show NC gr 
 gsave  2268 846 0 1526 C 2095.03 1736.63 t 0 r /Helvetica findfont 52.2629 sf 0 0 m (60) show NC gr 
 gsave  2268 846 0 1526 C 2095.03 1818.08 t 0 r /Helvetica findfont 52.2629 sf 0 0 m (65) show NC gr 
 gsave  2268 846 0 1526 C 2095.03 1902.8 t 0 r /Helvetica findfont 52.2629 sf 0 0 m (70) show NC gr 
 gsave  2268 846 0 1526 C 2095.03 1984.25 t 0 r /Helvetica findfont 52.2629 sf 0 0 m (75) show NC gr 
 gsave  2268 846 0 1526 C 2095.03 2065.71 t 0 r /Helvetica findfont 52.2629 sf 0 0 m (80) show NC gr 
 gsave  2268 846 0 1526 C 2095.03 2147.16 t 0 r /Helvetica findfont 52.2629 sf 0 0 m (85) show NC gr  1 1 1 c 2268 680 0 846 bf black 1 1 1 c 1814 680 272 846 bf black 1814 680 272 846 bl 272 846 m 1814 X s
 gsave  2268 680 0 846 C 1870.21 739.614 t 0 r /Helvetica findfont 58.8433 sf 0 0 m ( \(kV/cm\)) show NC gr 
 gsave  2268 680 0 846 C 1805.05 720.065 t 0 r /Helvetica findfont 39.2289 sf 0 0 m (drift) show NC gr 
 gsave  2268 680 0 846 C 1765.95 739.614 t 0 r /Helvetica findfont 58.8433 sf 0 0 m (E) show NC gr  419 862 m -16 Y s 468 854 m -8 Y s 517 854 m -8 Y s 566 854 m -8 Y s 615 854 m -8 Y s 664 862 m -16 Y s 713 854 m -8 Y s 762 854 m -8 Y s 811 854 m -8
 Y s 861 854 m -8 Y s 910 862 m -16 Y s 959 854 m -8 Y s 1008 854 m -8 Y s 1057 854 m -8 Y s 1106 854 m -8 Y s 1155 862 m -16 Y s 1204 854 m -8 Y s 1253 854 m -8 Y s 1302 854 m -8 Y s 1351 854 m -8 Y s 1400 862 m -16 Y s 1449 854 m -8 Y s 1498 854 m
 -8 Y s 1547 854 m -8 Y s 1596 854 m -8 Y s 1645 862 m -16 Y s 1694 854 m -8 Y s 1743 854 m -8 Y s 1792 854 m -8 Y s 1841 854 m -8 Y s 1890 862 m -16 Y s 419 862 m -16 Y s 370 854 m -8 Y s 321 854 m -8 Y s 272 854 m -8 Y s 1890 862 m -16 Y s 1939 854
 m -8 Y s 1988 854 m -8 Y s 2037 854 m -8 Y s 2086 854 m -8 Y s
 gsave  2268 680 0 846 C 381.211 801.521 t 0 r /Helvetica findfont 52.3052 sf 0 0 m (0.2) show NC gr 
 gsave  2268 680 0 846 C 609.286 801.521 t 0 r /Helvetica findfont 52.3052 sf 0 0 m (0.25) show NC gr 
 gsave  2268 680 0 846 C 873.201 801.521 t 0 r /Helvetica findfont 52.3052 sf 0 0 m (0.3) show NC gr 
 gsave  2268 680 0 846 C 1101.28 801.521 t 0 r /Helvetica findfont 52.3052 sf 0 0 m (0.35) show NC gr 
 gsave  2268 680 0 846 C 1361.93 801.521 t 0 r /Helvetica findfont 52.3052 sf 0 0 m (0.4) show NC gr 
 gsave  2268 680 0 846 C 1590.01 801.521 t 0 r /Helvetica findfont 52.3052 sf 0 0 m (0.45) show NC gr 
 gsave  2268 680 0 846 C 1853.92 801.521 t 0 r /Helvetica findfont 52.3052 sf 0 0 m (0.5) show NC gr  272 846 m 680 Y s
 gsave  2268 680 0 846 C 143.361 1228.35 t 90 r /Helvetica findfont 58.8433 sf 0 0 m ( / Mean \(%\)) show NC gr 
 gsave  2268 680 0 846 C 143.361 1192.51 t 90 r /Symbol findfont 58.8433 sf 0 0 m (s) show NC gr  340 880 m -68 X s 306 897 m -34 X s 306 914 m -34 X s 306 931 m -34 X s 340 948 m -68 X s 306 965 m -34 X s 306 982 m -34 X s 306 999 m -34 X s 340 1016
 m -68 X s 306 1033 m -34 X s 306 1050 m -34 X s 306 1067 m -34 X s 340 1084 m -68 X s 306 1101 m -34 X s 306 1118 m -34 X s 306 1135 m -34 X s 340 1152 m -68 X s 306 1169 m -34 X s 306 1186 m -34 X s 306 1203 m -34 X s 340 1220 m -68 X s 306 1237 m
 -34 X s 306 1254 m -34 X s 306 1271 m -34 X s 340 1288 m -68 X s 306 1305 m -34 X s 306 1322 m -34 X s 306 1339 m -34 X s 340 1356 m -68 X s 306 1373 m -34 X s 306 1390 m -34 X s 306 1407 m -34 X s 340 1424 m -68 X s 306 1441 m -34 X s 306 1458 m
 -34 X s 306 1475 m -34 X s 340 1492 m -68 X s 340 880 m -68 X s 306 863 m -34 X s 340 1492 m -68 X s 306 1509 m -34 X s
 gsave  2268 680 0 846 C 202.009 863.427 t 0 r /Helvetica findfont 52.3052 sf 0 0 m (10) show NC gr 
 gsave  2268 680 0 846 C 159.652 928.591 t 0 r /Helvetica findfont 52.3052 sf 0 0 m (10.2) show NC gr 
 gsave  2268 680 0 846 C 159.652 997.013 t 0 r /Helvetica findfont 52.3052 sf 0 0 m (10.4) show NC gr 
 gsave  2268 680 0 846 C 159.652 1065.44 t 0 r /Helvetica findfont 52.3052 sf 0 0 m (10.6) show NC gr 
 gsave  2268 680 0 846 C 159.652 1133.86 t 0 r /Helvetica findfont 52.3052 sf 0 0 m (10.8) show NC gr 
 gsave  2268 680 0 846 C 211.784 1199.02 t 0 r /Helvetica findfont 52.3052 sf 0 0 m (11) show NC gr 
 gsave  2268 680 0 846 C 159.652 1267.45 t 0 r /Helvetica findfont 52.3052 sf 0 0 m (11.2) show NC gr 
 gsave  2268 680 0 846 C 159.652 1335.87 t 0 r /Helvetica findfont 52.3052 sf 0 0 m (11.4) show NC gr 
 gsave  2268 680 0 846 C 159.652 1407.55 t 0 r /Helvetica findfont 52.3052 sf 0 0 m (11.6) show NC gr 
 gsave  2268 680 0 846 C 159.652 1472.71 t 0 r /Helvetica findfont 52.3052 sf 0 0 m (11.8) show NC gr  0.8 0 0 c black 0.8 0 0 c 517 1186 m 221 17 d 225 X 216 -17 d 662 X s 517 1186 738 1203 963 1203 1179 1186 1400 1186 1620 1186 1841 1186 7 { m20} R
 black 1 1 1 c 2268 846 0 0 bf black 1 1 1 c 1814 639 272 207 bf black 1814 639 272 207 bl 272 207 m 1814 X s
 gsave  2268 846 0 0 C 1870.21 74.9389 t 0 r /Helvetica findfont 58.7958 sf 0 0 m ( \(kV/cm\)) show NC gr 
 gsave  2268 846 0 0 C 1805.05 55.3896 t 0 r /Helvetica findfont 39.1972 sf 0 0 m (drift) show NC gr 
 gsave  2268 846 0 0 C 1765.95 74.9389 t 0 r /Helvetica findfont 58.7958 sf 0 0 m (E) show NC gr  419 227 m -20 Y s 468 217 m -10 Y s 517 217 m -10 Y s 566 217 m -10 Y s 615 217 m -10 Y s 664 227 m -20 Y s 713 217 m -10 Y s 762 217 m -10 Y s 811 217
 m -10 Y s 861 217 m -10 Y s 910 227 m -20 Y s 959 217 m -10 Y s 1008 217 m -10 Y s 1057 217 m -10 Y s 1106 217 m -10 Y s 1155 227 m -20 Y s 1204 217 m -10 Y s 1253 217 m -10 Y s 1302 217 m -10 Y s 1351 217 m -10 Y s 1400 227 m -20 Y s 1449 217 m -10
 Y s 1498 217 m -10 Y s 1547 217 m -10 Y s 1596 217 m -10 Y s 1645 227 m -20 Y s 1694 217 m -10 Y s 1743 217 m -10 Y s 1792 217 m -10 Y s 1841 217 m -10 Y s 1890 227 m -20 Y s 419 227 m -20 Y s 370 217 m -10 Y s 321 217 m -10 Y s 272 217 m -10 Y s
 1890 227 m -20 Y s 1939 217 m -10 Y s 1988 217 m -10 Y s 2037 217 m -10 Y s 2086 217 m -10 Y s
 gsave  2268 846 0 0 C 381.211 159.652 t 0 r /Helvetica findfont 52.2629 sf 0 0 m (0.2) show NC gr 
 gsave  2268 846 0 0 C 609.286 159.652 t 0 r /Helvetica findfont 52.2629 sf 0 0 m (0.25) show NC gr 
 gsave  2268 846 0 0 C 873.201 159.652 t 0 r /Helvetica findfont 52.2629 sf 0 0 m (0.3) show NC gr 
 gsave  2268 846 0 0 C 1101.28 159.652 t 0 r /Helvetica findfont 52.2629 sf 0 0 m (0.35) show NC gr 
 gsave  2268 846 0 0 C 1361.93 159.652 t 0 r /Helvetica findfont 52.2629 sf 0 0 m (0.4) show NC gr 
 gsave  2268 846 0 0 C 1590.01 159.652 t 0 r /Helvetica findfont 52.2629 sf 0 0 m (0.45) show NC gr 
 gsave  2268 846 0 0 C 1853.92 159.652 t 0 r /Helvetica findfont 52.2629 sf 0 0 m (0.5) show NC gr  272 207 m 639 Y s
 gsave  2268 846 0 0 C 146.62 651.643 t 90 r /Helvetica findfont 58.7958 sf 0 0 m (IBF \(%\)) show NC gr  324 287 m -52 X s 298 304 m -26 X s 298 320 m -26 X s 298 337 m -26 X s 298 353 m -26 X s 324 370 m -52 X s 298 386 m -26 X s 298 403 m -26 X s
 298 419 m -26 X s 298 436 m -26 X s 324 452 m -52 X s 298 469 m -26 X s 298 485 m -26 X s 298 502 m -26 X s 298 518 m -26 X s 324 535 m -52 X s 298 551 m -26 X s 298 567 m -26 X s 298 584 m -26 X s 298 600 m -26 X s 324 617 m -52 X s 298 633 m -26 X
 s 298 650 m -26 X s 298 666 m -26 X s 298 683 m -26 X s 324 699 m -52 X s 298 716 m -26 X s 298 732 m -26 X s 298 749 m -26 X s 298 765 m -26 X s 324 782 m -52 X s 324 287 m -52 X s 298 271 m -26 X s 298 254 m -26 X s 298 238 m -26 X s 298 221 m -26
 X s 324 782 m -52 X s 298 798 m -26 X s 298 815 m -26 X s 298 831 m -26 X s
 gsave  2268 846 0 0 C 188.976 270.432 t 0 r /Helvetica findfont 52.2629 sf 0 0 m (0.2) show NC gr 
 gsave  2268 846 0 0 C 159.652 351.887 t 0 r /Helvetica findfont 52.2629 sf 0 0 m (0.25) show NC gr 
 gsave  2268 846 0 0 C 188.976 433.342 t 0 r /Helvetica findfont 52.2629 sf 0 0 m (0.3) show NC gr 
 gsave  2268 846 0 0 C 159.652 518.056 t 0 r /Helvetica findfont 52.2629 sf 0 0 m (0.35) show NC gr 
 gsave  2268 846 0 0 C 188.976 599.511 t 0 r /Helvetica findfont 52.2629 sf 0 0 m (0.4) show NC gr 
 gsave  2268 846 0 0 C 159.652 680.967 t 0 r /Helvetica findfont 52.2629 sf 0 0 m (0.45) show NC gr 
 gsave  2268 846 0 0 C 188.976 762.422 t 0 r /Helvetica findfont 52.2629 sf 0 0 m (0.5) show NC gr  0 0.6 0 c black 0 0.6 0 c 517 287 m 221 83 d 225 82 d 216 66 d 221 99 d 220 82 d 221 66 d s 517 287 738 370 963 452 1179 518 1400 617 1620 699 1841
 765 7 { m20} R
 gr  gr showpage
end
%%EOF
