%!PS-Adobe-2.0 EPSF-2.0
%%BoundingBox:  0 0 567 385
%%Title: ../img/NeCO2.eps: NeCO2
%%Creator: ROOT Version 5.34/30
%%CreationDate: Fri Jul  8 12:24:51 2016
%%EndComments
%%BeginProlog
80 dict begin
/s {stroke} def /l {lineto} def /m {moveto} def /t {translate} def
/r {rotate} def /rl {roll}  def /R {repeat} def
/d {rlineto} def /rm {rmoveto} def /gr {grestore} def /f {eofill} def
/c {setrgbcolor} def /black {0 setgray} def /sd {setdash} def
/cl {closepath} def /sf {scalefont setfont} def /lw {setlinewidth} def
/box {m dup 0 exch d exch 0 d 0 exch neg d cl} def
/NC{systemdict begin initclip end}def/C{NC box clip newpath}def
/bl {box s} def /bf {gsave box gsave f grestore 1 lw [] 0 sd s grestore} def /Y { 0 exch d} def /X { 0 d} def 
/K {{pop pop 0 moveto} exch kshow} bind def
/ita {/ang 15 def gsave [1 0 ang dup sin exch cos div 1 0 0] concat} def 
/mp {newpath /y exch def /x exch def} def
/side {[w .77 mul w .23 mul] .385 w mul sd w 0 l currentpoint t -144 r} def
/mr {mp x y w2 0 360 arc} def /m24 {mr s} def /m20 {mr f} def
/mb {mp x y w2 add m w2 neg 0 d 0 w neg d w 0 d 0 w d cl} def
/mt {mp x y w2 add m w2 neg w neg d w 0 d cl} def
/m21 {mb f} def /m25 {mb s} def /m22 {mt f} def /m26{mt s} def
/m23 {mp x y w2 sub m w2 w d w neg 0 d cl f} def
/m27 {mp x y w2 add m w3 neg w2 neg d w3 w2 neg d w3 w2 d cl s} def
/m28 {mp x w2 sub y w2 sub w3 add m w3 0 d  0 w3 neg d w3 0 d 0 w3 d w3 0 d  0 w3 d w3 neg 0 d 0 w3 d w3 neg 0 d 0 w3 neg d w3 neg 0 d cl s } def
/m29 {mp gsave x w2 sub y w2 add w3 sub m currentpoint t 4 {side} repeat cl fill gr} def
/m30 {mp gsave x w2 sub y w2 add w3 sub m currentpoint t 4 {side} repeat cl s gr} def
/m31 {mp x y w2 sub m 0 w d x w2 sub y m w 0 d x w2 sub y w2 add m w w neg d x w2 sub y w2 sub m w w d s} def
/m32 {mp x y w2 sub m w2 w d w neg 0 d cl s} def
/m33 {mp x y w2 add m w3 neg w2 neg d w3 w2 neg d w3 w2 d cl f} def
/m34 {mp x w2 sub y w2 sub w3 add m w3 0 d  0 w3 neg d w3 0 d 0 w3 d w3 0 d  0 w3 d w3 neg 0 d 0 w3 d w3 neg 0 d 0 w3 neg d w3 neg 0 d cl f } def
/m2 {mp x y w2 sub m 0 w d x w2 sub y m w 0 d s} def
/m5 {mp x w2 sub y w2 sub m w w d x w2 sub y w2 add m w w neg d s} def
/reEncode {exch findfont dup length dict begin {1 index /FID eq  {pop pop} {def} ifelse } forall /Encoding exch def currentdict end dup /FontName get exch definefont pop } def [/Times-Bold /Times-Italic /Times-BoldItalic /Helvetica /Helvetica-Oblique
 /Helvetica-Bold /Helvetica-BoldOblique /Courier /Courier-Oblique /Courier-Bold /Courier-BoldOblique /Times-Roman /AvantGarde-Book /AvantGarde-BookOblique /AvantGarde-Demi /AvantGarde-DemiOblique /Bookman-Demi /Bookman-DemiItalic /Bookman-Light
 /Bookman-LightItalic /Helvetica-Narrow /Helvetica-Narrow-Bold /Helvetica-Narrow-BoldOblique /Helvetica-Narrow-Oblique /NewCenturySchlbk-Roman /NewCenturySchlbk-Bold /NewCenturySchlbk-BoldItalic /NewCenturySchlbk-Italic /Palatino-Bold
 /Palatino-BoldItalic /Palatino-Italic /Palatino-Roman ] {ISOLatin1Encoding reEncode } forall
%%EndProlog
%%BeginSetup
%%EndSetup
newpath  gsave  .25 .25 scale  gsave  0 0 t black[  ] 0 sd 3 lw 1 1 1 c 2268 1541 0 0 bf black 1 1 1 c 1814 1233 272 185 bf black 1814 1233 272 185 bl 272 185 m 1814 X s
 gsave  2268 1541 0 0 C 1879.99 52.1314 t 0 r /Helvetica findfont 61.9061 sf 0 0 m (IBF \(%\)) show NC gr  576 222 m -37 Y s 654 203 m -18 Y s 733 203 m -18 Y s 811 203 m -18 Y s 889 222 m -37 Y s 968 203 m -18 Y s 1046 203 m -18 Y s 1124 203 m -18 Y
 s 1203 222 m -37 Y s 1281 203 m -18 Y s 1359 203 m -18 Y s 1438 203 m -18 Y s 1516 222 m -37 Y s 1594 203 m -18 Y s 1673 203 m -18 Y s 1751 203 m -18 Y s 1829 222 m -37 Y s 576 222 m -37 Y s 498 203 m -18 Y s 419 203 m -18 Y s 341 203 m -18 Y s 1829
 222 m -37 Y s 1908 203 m -18 Y s 1986 203 m -18 Y s 2064 203 m -18 Y s
 gsave  2268 1541 0 0 C 537.605 127.07 t 0 r /Helvetica findfont 48.8732 sf 0 0 m (0.2) show NC gr 
 gsave  2268 1541 0 0 C 850.394 127.07 t 0 r /Helvetica findfont 48.8732 sf 0 0 m (0.4) show NC gr 
 gsave  2268 1541 0 0 C 1166.44 127.07 t 0 r /Helvetica findfont 48.8732 sf 0 0 m (0.6) show NC gr 
 gsave  2268 1541 0 0 C 1479.23 127.07 t 0 r /Helvetica findfont 48.8732 sf 0 0 m (0.8) show NC gr 
 gsave  2268 1541 0 0 C 1818.08 127.07 t 0 r /Helvetica findfont 48.8732 sf 0 0 m (1) show NC gr  272 1418 m 1814 X s 576 1381 m 37 Y s 654 1399 m 19 Y s 733 1399 m 19 Y s 811 1399 m 19 Y s 889 1381 m 37 Y s 968 1399 m 19 Y s 1046 1399 m 19 Y s 1124
 1399 m 19 Y s 1203 1381 m 37 Y s 1281 1399 m 19 Y s 1359 1399 m 19 Y s 1438 1399 m 19 Y s 1516 1381 m 37 Y s 1594 1399 m 19 Y s 1673 1399 m 19 Y s 1751 1399 m 19 Y s 1829 1381 m 37 Y s 576 1381 m 37 Y s 498 1399 m 19 Y s 419 1399 m 19 Y s 341 1399 m
 19 Y s 1829 1381 m 37 Y s 1908 1399 m 19 Y s 1986 1399 m 19 Y s 2064 1399 m 19 Y s 272 185 m 1233 Y s
 gsave  2268 1541 0 0 C 110.779 1104.53 t 90 r /Helvetica findfont 61.9061 sf 0 0 m ( / Mean \(%\)) show NC gr 
 gsave  2268 1541 0 0 C 110.779 1065.44 t 90 r /Symbol findfont 61.9061 sf 0 0 m (s) show NC gr  327 292 m -55 X s 299 348 m -27 X s 299 404 m -27 X s 299 461 m -27 X s 327 517 m -55 X s 299 573 m -27 X s 299 630 m -27 X s 299 686 m -27 X s 327 742 m
 -55 X s 299 799 m -27 X s 299 855 m -27 X s 299 911 m -27 X s 327 967 m -55 X s 299 1024 m -27 X s 299 1080 m -27 X s 299 1136 m -27 X s 327 1193 m -55 X s 299 1249 m -27 X s 299 1305 m -27 X s 299 1362 m -27 X s 327 1418 m -55 X s 327 292 m -55 X s
 299 236 m -27 X s
 gsave  2268 1541 0 0 C 221.559 273.69 t 0 r /Helvetica findfont 48.8732 sf 0 0 m (8) show NC gr 
 gsave  2268 1541 0 0 C 195.493 498.507 t 0 r /Helvetica findfont 48.8732 sf 0 0 m (10) show NC gr 
 gsave  2268 1541 0 0 C 192.235 723.323 t 0 r /Helvetica findfont 48.8732 sf 0 0 m (12) show NC gr 
 gsave  2268 1541 0 0 C 192.235 948.14 t 0 r /Helvetica findfont 48.8732 sf 0 0 m (14) show NC gr 
 gsave  2268 1541 0 0 C 192.235 1176.22 t 0 r /Helvetica findfont 48.8732 sf 0 0 m (16) show NC gr 
 gsave  2268 1541 0 0 C 192.235 1401.03 t 0 r /Helvetica findfont 48.8732 sf 0 0 m (18) show NC gr  2086 185 m 1233 Y s 2032 292 m 54 X s 2059 348 m 27 X s 2059 404 m 27 X s 2059 461 m 27 X s 2032 517 m 54 X s 2059 573 m 27 X s 2059 630 m 27 X s 2059
 686 m 27 X s 2032 742 m 54 X s 2059 799 m 27 X s 2059 855 m 27 X s 2059 911 m 27 X s 2032 967 m 54 X s 2059 1024 m 27 X s 2059 1080 m 27 X s 2059 1136 m 27 X s 2032 1193 m 54 X s 2059 1249 m 27 X s 2059 1305 m 27 X s 2059 1362 m 27 X s 2032 1418 m
 54 X s 2032 292 m 54 X s 2059 236 m 27 X s 0 0 0.8 c black 0 0 0.8 c 1359 573 m -235 45 d -109 57 d -141 56 d -110 68 d -63 67 d -78 90 d -47 124 d s /w 23 def /w2 {w 2 div} def /w3 {w 3 div} def 1359 573 1124 618 1015 675 874 731 764 799 701 866
 623 956 576 1080 8 { m20} R 0.8 0 0 c[ 20 20] 0 sd black 0.8 0 0 c 1782 523 m -282 28 d -235 56 d -172 56 d -172 85 d -110 39 d -94 90 d -63 79 d -62 102 d s[  ] 0 sd 1782 523 1500 551 1265 607 1093 663 921 748 811 787 717 877 654 956 592 1058 9 {
 m20} R[ 20 20] 0 sd 0 0.6 0 c[ 20 12 4 12] 0 sd black 0 0.6 0 c 1767 528 m -282 45 d -259 57 d -164 45 d -141 67 d -110 68 d -94 90 d s[  ] 0 sd 1767 528 1485 573 1226 630 1062 675 921 742 811 810 717 900 7 { m20} R[ 20 12 4 12] 0 sd 0.8 0 0.8 c[ 4
 8] 0 sd black 0.8 0 0.8 c 1735 551 m -297 56 d -235 56 d -157 57 d -141 101 d -133 68 d s[  ] 0 sd 1735 551 1438 607 1203 663 1046 720 905 821 772 889 6 { m20} R[ 4 8] 0 sd black
 gsave  2268 1541 0 0 C 1342.38 1107.79 t 0 r /Helvetica findfont 55.3896 sf 0 0 m ( = 190 V) show NC gr 
 gsave  2268 1541 0 0 C 1260.93 1137.12 t 0 r /Helvetica findfont 35.8403 sf 0 0 m (mid) show NC gr 
 gsave  2268 1541 0 0 C 1260.93 1091.5 t 0 r /Helvetica findfont 35.8403 sf 0 0 m (GEM) show NC gr 
 gsave  2268 1541 0 0 C 1225.09 1107.79 t 0 r /Helvetica findfont 55.3896 sf 0 0 m (V) show NC gr 
 gsave  2268 1541 0 0 C 1189.25 1107.79 t 0 r /Symbol findfont 55.3896 sf 0 0 m (D) show NC gr  0 0 0.8 c[  ] 0 sd 1046 1127 m 119 X s 1106 1127 m20 black
 gsave  2268 1541 0 0 C 1342.38 1019.82 t 0 r /Helvetica findfont 55.3896 sf 0 0 m ( = 210 V) show NC gr 
 gsave  2268 1541 0 0 C 1260.93 1049.14 t 0 r /Helvetica findfont 35.8403 sf 0 0 m (mid) show NC gr 
 gsave  2268 1541 0 0 C 1260.93 1003.53 t 0 r /Helvetica findfont 35.8403 sf 0 0 m (GEM) show NC gr 
 gsave  2268 1541 0 0 C 1225.09 1019.82 t 0 r /Helvetica findfont 55.3896 sf 0 0 m (V) show NC gr 
 gsave  2268 1541 0 0 C 1189.25 1019.82 t 0 r /Symbol findfont 55.3896 sf 0 0 m (D) show NC gr  0.8 0 0 c[ 20 20] 0 sd 1046 1038 m 119 X s[  ] 0 sd 1106 1038 m20[ 20 20] 0 sd black
 gsave  2268 1541 0 0 C 1342.38 931.849 t 0 r /Helvetica findfont 55.3896 sf 0 0 m ( = 220 V) show NC gr 
 gsave  2268 1541 0 0 C 1260.93 961.173 t 0 r /Helvetica findfont 35.8403 sf 0 0 m (mid) show NC gr 
 gsave  2268 1541 0 0 C 1260.93 915.558 t 0 r /Helvetica findfont 35.8403 sf 0 0 m (GEM) show NC gr 
 gsave  2268 1541 0 0 C 1225.09 931.849 t 0 r /Helvetica findfont 55.3896 sf 0 0 m (V) show NC gr 
 gsave  2268 1541 0 0 C 1189.25 931.849 t 0 r /Symbol findfont 55.3896 sf 0 0 m (D) show NC gr  0 0.6 0 c[ 20 12 4 12] 0 sd 1046 949 m 119 X s[  ] 0 sd 1106 949 m20[ 20 12 4 12] 0 sd black
 gsave  2268 1541 0 0 C 1342.38 840.619 t 0 r /Helvetica findfont 55.3896 sf 0 0 m ( = 230 V) show NC gr 
 gsave  2268 1541 0 0 C 1260.93 869.943 t 0 r /Helvetica findfont 35.8403 sf 0 0 m (mid) show NC gr 
 gsave  2268 1541 0 0 C 1260.93 824.328 t 0 r /Helvetica findfont 35.8403 sf 0 0 m (GEM) show NC gr 
 gsave  2268 1541 0 0 C 1225.09 840.619 t 0 r /Helvetica findfont 55.3896 sf 0 0 m (V) show NC gr 
 gsave  2268 1541 0 0 C 1189.25 840.619 t 0 r /Symbol findfont 55.3896 sf 0 0 m (D) show NC gr  0.8 0 0.8 c[ 4 8] 0 sd 1046 861 m 119 X s[  ] 0 sd 1106 861 m20[ 4 8] 0 sd black
 gsave  2268 1541 0 0 C 1208.8 1329.35 t 0 r /Helvetica findfont 55.3896 sf 0 0 m ( \(90\25510\)) show NC gr 
 gsave  2268 1541 0 0 C 1189.25 1309.8 t 0 r /Helvetica findfont 35.8403 sf 0 0 m (2) show NC gr 
 gsave  2268 1541 0 0 C 974.206 1329.35 t 0 r /Helvetica findfont 55.3896 sf 0 0 m (Ne + CO) show NC gr 
 gsave  2268 1541 0 0 C 1534.62 1241.38 t 0 r /Helvetica findfont 55.3896 sf 0 0 m ( = 0.075 kV/cm) show NC gr 
 gsave  2268 1541 0 0 C 1485.75 1218.57 t 0 r /Helvetica findfont 35.8403 sf 0 0 m (ind) show NC gr 
 gsave  2268 1541 0 0 C 1091.5 1241.38 t 0 r /Helvetica findfont 55.3896 sf 0 0 m ( = 3.0 kV/cm \255 E) show NC gr 
 gsave  2268 1541 0 0 C 967.689 1218.57 t 0 r /Helvetica findfont 35.8403 sf 0 0 m (transfer) show NC gr 
 gsave  2268 1541 0 0 C 573.446 1241.38 t 0 r /Helvetica findfont 55.3896 sf 0 0 m ( = 0.4 kV/cm \255 E) show NC gr 
 gsave  2268 1541 0 0 C 511.54 1221.83 t 0 r /Helvetica findfont 35.8403 sf 0 0 m (drift) show NC gr 
 gsave  2268 1541 0 0 C 475.699 1241.38 t 0 r /Helvetica findfont 55.3896 sf 0 0 m (E) show NC gr 
 gr  gr showpage
end
%%EOF
