%!PS-Adobe-2.0 EPSF-2.0
%%BoundingBox:  0 0 567 593
%%Title: ../img/NeCO2_EindScan.eps: Ne + CO2 (90-10), E-fields scan
%%Creator: ROOT Version 5.34/30
%%CreationDate: Fri Jul  8 11:54:08 2016
%%EndComments
%%BeginProlog
80 dict begin
/s {stroke} def /l {lineto} def /m {moveto} def /t {translate} def
/r {rotate} def /rl {roll}  def /R {repeat} def
/d {rlineto} def /rm {rmoveto} def /gr {grestore} def /f {eofill} def
/c {setrgbcolor} def /black {0 setgray} def /sd {setdash} def
/cl {closepath} def /sf {scalefont setfont} def /lw {setlinewidth} def
/box {m dup 0 exch d exch 0 d 0 exch neg d cl} def
/NC{systemdict begin initclip end}def/C{NC box clip newpath}def
/bl {box s} def /bf {gsave box gsave f grestore 1 lw [] 0 sd s grestore} def /Y { 0 exch d} def /X { 0 d} def 
/K {{pop pop 0 moveto} exch kshow} bind def
/ita {/ang 15 def gsave [1 0 ang dup sin exch cos div 1 0 0] concat} def 
/mp {newpath /y exch def /x exch def} def
/side {[w .77 mul w .23 mul] .385 w mul sd w 0 l currentpoint t -144 r} def
/mr {mp x y w2 0 360 arc} def /m24 {mr s} def /m20 {mr f} def
/mb {mp x y w2 add m w2 neg 0 d 0 w neg d w 0 d 0 w d cl} def
/mt {mp x y w2 add m w2 neg w neg d w 0 d cl} def
/m21 {mb f} def /m25 {mb s} def /m22 {mt f} def /m26{mt s} def
/m23 {mp x y w2 sub m w2 w d w neg 0 d cl f} def
/m27 {mp x y w2 add m w3 neg w2 neg d w3 w2 neg d w3 w2 d cl s} def
/m28 {mp x w2 sub y w2 sub w3 add m w3 0 d  0 w3 neg d w3 0 d 0 w3 d w3 0 d  0 w3 d w3 neg 0 d 0 w3 d w3 neg 0 d 0 w3 neg d w3 neg 0 d cl s } def
/m29 {mp gsave x w2 sub y w2 add w3 sub m currentpoint t 4 {side} repeat cl fill gr} def
/m30 {mp gsave x w2 sub y w2 add w3 sub m currentpoint t 4 {side} repeat cl s gr} def
/m31 {mp x y w2 sub m 0 w d x w2 sub y m w 0 d x w2 sub y w2 add m w w neg d x w2 sub y w2 sub m w w d s} def
/m32 {mp x y w2 sub m w2 w d w neg 0 d cl s} def
/m33 {mp x y w2 add m w3 neg w2 neg d w3 w2 neg d w3 w2 d cl f} def
/m34 {mp x w2 sub y w2 sub w3 add m w3 0 d  0 w3 neg d w3 0 d 0 w3 d w3 0 d  0 w3 d w3 neg 0 d 0 w3 d w3 neg 0 d 0 w3 neg d w3 neg 0 d cl f } def
/m2 {mp x y w2 sub m 0 w d x w2 sub y m w 0 d s} def
/m5 {mp x w2 sub y w2 sub m w w d x w2 sub y w2 add m w w neg d s} def
/reEncode {exch findfont dup length dict begin {1 index /FID eq  {pop pop} {def} ifelse } forall /Encoding exch def currentdict end dup /FontName get exch definefont pop } def [/Times-Bold /Times-Italic /Times-BoldItalic /Helvetica /Helvetica-Oblique
 /Helvetica-Bold /Helvetica-BoldOblique /Courier /Courier-Oblique /Courier-Bold /Courier-BoldOblique /Times-Roman /AvantGarde-Book /AvantGarde-BookOblique /AvantGarde-Demi /AvantGarde-DemiOblique /Bookman-Demi /Bookman-DemiItalic /Bookman-Light
 /Bookman-LightItalic /Helvetica-Narrow /Helvetica-Narrow-Bold /Helvetica-Narrow-BoldOblique /Helvetica-Narrow-Oblique /NewCenturySchlbk-Roman /NewCenturySchlbk-Bold /NewCenturySchlbk-BoldItalic /NewCenturySchlbk-Italic /Palatino-Bold
 /Palatino-BoldItalic /Palatino-Italic /Palatino-Roman ] {ISOLatin1Encoding reEncode } forall
%%EndProlog
%%BeginSetup
%%EndSetup
newpath  gsave  .25 .25 scale  gsave  0 0 t black[  ] 0 sd 3 lw 1 1 1 c 2268 2372 0 0 bf black 1 1 1 c 2268 1186 0 1186 bf black 1 1 1 c 1814 993 272 1186 bf black 1814 993 272 1186 bl 272 1186 m 1814 X s
 gsave  2268 1186 0 1186 C 1870.21 1045.89 t 0 r /Helvetica findfont 58.6478 sf 0 0 m ( \(kV/cm\)) show NC gr 
 gsave  2268 1186 0 1186 C 1818.08 1026.34 t 0 r /Helvetica findfont 39.0986 sf 0 0 m (ind) show NC gr 
 gsave  2268 1186 0 1186 C 1778.98 1045.89 t 0 r /Helvetica findfont 58.6478 sf 0 0 m (E) show NC gr  272 1214 m -28 Y s 338 1200 m -14 Y s 404 1200 m -14 Y s 470 1200 m -14 Y s 536 1200 m -14 Y s 602 1214 m -28 Y s 668 1200 m -14 Y s 734 1200 m -14
 Y s 800 1200 m -14 Y s 866 1200 m -14 Y s 932 1214 m -28 Y s 998 1200 m -14 Y s 1064 1200 m -14 Y s 1130 1200 m -14 Y s 1196 1200 m -14 Y s 1262 1214 m -28 Y s 1328 1200 m -14 Y s 1394 1200 m -14 Y s 1460 1200 m -14 Y s 1526 1200 m -14 Y s 1592 1214
 m -28 Y s 1657 1200 m -14 Y s 1723 1200 m -14 Y s 1789 1200 m -14 Y s 1855 1200 m -14 Y s 1921 1214 m -28 Y s 1921 1214 m -28 Y s 1987 1200 m -14 Y s 2053 1200 m -14 Y s
 gsave  2268 1186 0 1186 C 254.141 1137.12 t 0 r /Helvetica findfont 52.1314 sf 0 0 m (0) show NC gr 
 gsave  2268 1186 0 1186 C 547.38 1137.12 t 0 r /Helvetica findfont 52.1314 sf 0 0 m (0.05) show NC gr 
 gsave  2268 1186 0 1186 C 896.009 1137.12 t 0 r /Helvetica findfont 52.1314 sf 0 0 m (0.1) show NC gr 
 gsave  2268 1186 0 1186 C 1208.8 1137.12 t 0 r /Helvetica findfont 52.1314 sf 0 0 m (0.15) show NC gr 
 gsave  2268 1186 0 1186 C 1554.17 1137.12 t 0 r /Helvetica findfont 52.1314 sf 0 0 m (0.2) show NC gr 
 gsave  2268 1186 0 1186 C 1866.96 1137.12 t 0 r /Helvetica findfont 52.1314 sf 0 0 m (0.25) show NC gr  272 1186 m 993 Y s
 gsave  2268 1186 0 1186 C 143.361 1879.99 t 90 r /Helvetica findfont 58.6478 sf 0 0 m ( / Mean \(%\)) show NC gr 
 gsave  2268 1186 0 1186 C 143.361 1844.15 t 90 r /Symbol findfont 58.6478 sf 0 0 m (s) show NC gr  329 1288 m -57 X s 301 1313 m -29 X s 301 1339 m -29 X s 301 1364 m -29 X s 301 1390 m -29 X s 329 1415 m -57 X s 301 1441 m -29 X s 301 1466 m -29 X
 s 301 1492 m -29 X s 301 1517 m -29 X s 329 1542 m -57 X s 301 1568 m -29 X s 301 1593 m -29 X s 301 1619 m -29 X s 301 1644 m -29 X s 329 1670 m -57 X s 301 1695 m -29 X s 301 1721 m -29 X s 301 1746 m -29 X s 301 1772 m -29 X s 329 1797 m -57 X s
 301 1822 m -29 X s 301 1848 m -29 X s 301 1873 m -29 X s 301 1899 m -29 X s 329 1924 m -57 X s 301 1950 m -29 X s 301 1975 m -29 X s 301 2001 m -29 X s 301 2026 m -29 X s 329 2052 m -57 X s 301 2077 m -29 X s 301 2103 m -29 X s 301 2128 m -29 X s
 301 2153 m -29 X s 329 2179 m -57 X s 329 1288 m -57 X s 301 1262 m -29 X s 301 1237 m -29 X s 301 1211 m -29 X s 301 1186 m -29 X s
 gsave  2268 1186 0 1186 C 202.009 1270.7 t 0 r /Helvetica findfont 52.1314 sf 0 0 m (10) show NC gr 
 gsave  2268 1186 0 1186 C 159.652 1397.77 t 0 r /Helvetica findfont 52.1314 sf 0 0 m (10.5) show NC gr 
 gsave  2268 1186 0 1186 C 211.784 1521.59 t 0 r /Helvetica findfont 52.1314 sf 0 0 m (11) show NC gr 
 gsave  2268 1186 0 1186 C 159.652 1651.91 t 0 r /Helvetica findfont 52.1314 sf 0 0 m (11.5) show NC gr 
 gsave  2268 1186 0 1186 C 202.009 1775.73 t 0 r /Helvetica findfont 52.1314 sf 0 0 m (12) show NC gr 
 gsave  2268 1186 0 1186 C 159.652 1906.05 t 0 r /Helvetica findfont 52.1314 sf 0 0 m (12.5) show NC gr 
 gsave  2268 1186 0 1186 C 205.267 2033.13 t 0 r /Helvetica findfont 52.1314 sf 0 0 m (13) show NC gr 
 gsave  2268 1186 0 1186 C 159.652 2160.2 t 0 r /Helvetica findfont 52.1314 sf 0 0 m (13.5) show NC gr  0.8 0 0 c black 0.8 0 0 c 437 1517 m 165 -51 d 165 X 330 127 d 409 166 d 415 114 d s /w 23 def /w2 {w 2 div} def /w3 {w 3 div} def 437 1517 602
 1466 767 1466 1097 1593 1506 1759 1921 1873 6 { m20} R black 1 1 1 c 2268 1186 0 0 bf black 1 1 1 c 1814 993 272 193 bf black 1814 993 272 193 bl 272 193 m 1814 X s
 gsave  2268 1186 0 0 C 1870.21 52.1314 t 0 r /Helvetica findfont 58.6478 sf 0 0 m ( \(kV/cm\)) show NC gr 
 gsave  2268 1186 0 0 C 1818.08 32.5821 t 0 r /Helvetica findfont 39.0986 sf 0 0 m (ind) show NC gr 
 gsave  2268 1186 0 0 C 1778.98 52.1314 t 0 r /Helvetica findfont 58.6478 sf 0 0 m (E) show NC gr  272 222 m -29 Y s 338 207 m -14 Y s 404 207 m -14 Y s 470 207 m -14 Y s 536 207 m -14 Y s 602 222 m -29 Y s 668 207 m -14 Y s 734 207 m -14 Y s 800 207
 m -14 Y s 866 207 m -14 Y s 932 222 m -29 Y s 998 207 m -14 Y s 1064 207 m -14 Y s 1130 207 m -14 Y s 1196 207 m -14 Y s 1262 222 m -29 Y s 1328 207 m -14 Y s 1394 207 m -14 Y s 1460 207 m -14 Y s 1526 207 m -14 Y s 1592 222 m -29 Y s 1657 207 m -14
 Y s 1723 207 m -14 Y s 1789 207 m -14 Y s 1855 207 m -14 Y s 1921 222 m -29 Y s 1921 222 m -29 Y s 1987 207 m -14 Y s 2053 207 m -14 Y s
 gsave  2268 1186 0 0 C 254.141 143.361 t 0 r /Helvetica findfont 52.1314 sf 0 0 m (0) show NC gr 
 gsave  2268 1186 0 0 C 547.38 143.361 t 0 r /Helvetica findfont 52.1314 sf 0 0 m (0.05) show NC gr 
 gsave  2268 1186 0 0 C 896.009 143.361 t 0 r /Helvetica findfont 52.1314 sf 0 0 m (0.1) show NC gr 
 gsave  2268 1186 0 0 C 1208.8 143.361 t 0 r /Helvetica findfont 52.1314 sf 0 0 m (0.15) show NC gr 
 gsave  2268 1186 0 0 C 1554.17 143.361 t 0 r /Helvetica findfont 52.1314 sf 0 0 m (0.2) show NC gr 
 gsave  2268 1186 0 0 C 1866.96 143.361 t 0 r /Helvetica findfont 52.1314 sf 0 0 m (0.25) show NC gr  272 193 m 993 Y s
 gsave  2268 1186 0 0 C 146.62 990.497 t 90 r /Helvetica findfont 58.6478 sf 0 0 m (IBF \(%\)) show NC gr  329 291 m -57 X s 301 314 m -29 X s 301 337 m -29 X s 301 359 m -29 X s 301 382 m -29 X s 329 405 m -57 X s 301 428 m -29 X s 301 450 m -29 X s
 301 473 m -29 X s 301 496 m -29 X s 329 519 m -57 X s 301 542 m -29 X s 301 564 m -29 X s 301 587 m -29 X s 301 610 m -29 X s 329 633 m -57 X s 301 655 m -29 X s 301 678 m -29 X s 301 701 m -29 X s 301 724 m -29 X s 329 746 m -57 X s 301 769 m -29 X
 s 301 792 m -29 X s 301 815 m -29 X s 301 838 m -29 X s 329 860 m -57 X s 301 883 m -29 X s 301 906 m -29 X s 301 929 m -29 X s 301 951 m -29 X s 329 974 m -57 X s 301 997 m -29 X s 301 1020 m -29 X s 301 1043 m -29 X s 301 1065 m -29 X s 329 1088 m
 -57 X s 329 291 m -57 X s 301 268 m -29 X s 301 245 m -29 X s 301 223 m -29 X s 301 200 m -29 X s 329 1088 m -57 X s 301 1111 m -29 X s 301 1134 m -29 X s 301 1156 m -29 X s 301 1179 m -29 X s
 gsave  2268 1186 0 0 C 188.976 273.69 t 0 r /Helvetica findfont 52.1314 sf 0 0 m (0.3) show NC gr 
 gsave  2268 1186 0 0 C 159.652 387.727 t 0 r /Helvetica findfont 52.1314 sf 0 0 m (0.35) show NC gr 
 gsave  2268 1186 0 0 C 188.976 501.765 t 0 r /Helvetica findfont 52.1314 sf 0 0 m (0.4) show NC gr 
 gsave  2268 1186 0 0 C 159.652 615.802 t 0 r /Helvetica findfont 52.1314 sf 0 0 m (0.45) show NC gr 
 gsave  2268 1186 0 0 C 188.976 729.84 t 0 r /Helvetica findfont 52.1314 sf 0 0 m (0.5) show NC gr 
 gsave  2268 1186 0 0 C 159.652 843.877 t 0 r /Helvetica findfont 52.1314 sf 0 0 m (0.55) show NC gr 
 gsave  2268 1186 0 0 C 188.976 954.657 t 0 r /Helvetica findfont 52.1314 sf 0 0 m (0.6) show NC gr 
 gsave  2268 1186 0 0 C 159.652 1068.69 t 0 r /Helvetica findfont 52.1314 sf 0 0 m (0.65) show NC gr  0 0.6 0 c black 0 0.6 0 c 437 1043 m 165 -365 d 165 -159 d 330 -114 d 409 -68 d 415 X s 437 1043 602 678 767 519 1097 405 1506 337 1921 337 6 { m20}
 R
 gr  gr showpage
end
%%EOF
