%!PS-Adobe-2.0 EPSF-2.0
%%BoundingBox:  0 0 567 593
%%Title: ../img/NeCO2_EtranScan.eps: Ne + CO2 (90-10), E-fields scan
%%Creator: ROOT Version 5.34/30
%%CreationDate: Fri Jul  8 11:54:18 2016
%%EndComments
%%BeginProlog
80 dict begin
/s {stroke} def /l {lineto} def /m {moveto} def /t {translate} def
/r {rotate} def /rl {roll}  def /R {repeat} def
/d {rlineto} def /rm {rmoveto} def /gr {grestore} def /f {eofill} def
/c {setrgbcolor} def /black {0 setgray} def /sd {setdash} def
/cl {closepath} def /sf {scalefont setfont} def /lw {setlinewidth} def
/box {m dup 0 exch d exch 0 d 0 exch neg d cl} def
/NC{systemdict begin initclip end}def/C{NC box clip newpath}def
/bl {box s} def /bf {gsave box gsave f grestore 1 lw [] 0 sd s grestore} def /Y { 0 exch d} def /X { 0 d} def 
/K {{pop pop 0 moveto} exch kshow} bind def
/ita {/ang 15 def gsave [1 0 ang dup sin exch cos div 1 0 0] concat} def 
/mp {newpath /y exch def /x exch def} def
/side {[w .77 mul w .23 mul] .385 w mul sd w 0 l currentpoint t -144 r} def
/mr {mp x y w2 0 360 arc} def /m24 {mr s} def /m20 {mr f} def
/mb {mp x y w2 add m w2 neg 0 d 0 w neg d w 0 d 0 w d cl} def
/mt {mp x y w2 add m w2 neg w neg d w 0 d cl} def
/m21 {mb f} def /m25 {mb s} def /m22 {mt f} def /m26{mt s} def
/m23 {mp x y w2 sub m w2 w d w neg 0 d cl f} def
/m27 {mp x y w2 add m w3 neg w2 neg d w3 w2 neg d w3 w2 d cl s} def
/m28 {mp x w2 sub y w2 sub w3 add m w3 0 d  0 w3 neg d w3 0 d 0 w3 d w3 0 d  0 w3 d w3 neg 0 d 0 w3 d w3 neg 0 d 0 w3 neg d w3 neg 0 d cl s } def
/m29 {mp gsave x w2 sub y w2 add w3 sub m currentpoint t 4 {side} repeat cl fill gr} def
/m30 {mp gsave x w2 sub y w2 add w3 sub m currentpoint t 4 {side} repeat cl s gr} def
/m31 {mp x y w2 sub m 0 w d x w2 sub y m w 0 d x w2 sub y w2 add m w w neg d x w2 sub y w2 sub m w w d s} def
/m32 {mp x y w2 sub m w2 w d w neg 0 d cl s} def
/m33 {mp x y w2 add m w3 neg w2 neg d w3 w2 neg d w3 w2 d cl f} def
/m34 {mp x w2 sub y w2 sub w3 add m w3 0 d  0 w3 neg d w3 0 d 0 w3 d w3 0 d  0 w3 d w3 neg 0 d 0 w3 d w3 neg 0 d 0 w3 neg d w3 neg 0 d cl f } def
/m2 {mp x y w2 sub m 0 w d x w2 sub y m w 0 d s} def
/m5 {mp x w2 sub y w2 sub m w w d x w2 sub y w2 add m w w neg d s} def
/reEncode {exch findfont dup length dict begin {1 index /FID eq  {pop pop} {def} ifelse } forall /Encoding exch def currentdict end dup /FontName get exch definefont pop } def [/Times-Bold /Times-Italic /Times-BoldItalic /Helvetica /Helvetica-Oblique
 /Helvetica-Bold /Helvetica-BoldOblique /Courier /Courier-Oblique /Courier-Bold /Courier-BoldOblique /Times-Roman /AvantGarde-Book /AvantGarde-BookOblique /AvantGarde-Demi /AvantGarde-DemiOblique /Bookman-Demi /Bookman-DemiItalic /Bookman-Light
 /Bookman-LightItalic /Helvetica-Narrow /Helvetica-Narrow-Bold /Helvetica-Narrow-BoldOblique /Helvetica-Narrow-Oblique /NewCenturySchlbk-Roman /NewCenturySchlbk-Bold /NewCenturySchlbk-BoldItalic /NewCenturySchlbk-Italic /Palatino-Bold
 /Palatino-BoldItalic /Palatino-Italic /Palatino-Roman ] {ISOLatin1Encoding reEncode } forall
%%EndProlog
%%BeginSetup
%%EndSetup
newpath  gsave  .25 .25 scale  gsave  0 0 t black[  ] 0 sd 3 lw 1 1 1 c 2268 2372 0 0 bf black 1 1 1 c 2268 846 0 1526 bf black 1 1 1 c 1814 639 272 1526 bf black 1814 639 272 1526 bl 272 1526 m 1814 X s
 gsave  2268 846 0 1526 C 1870.21 1394.52 t 0 r /Helvetica findfont 58.7958 sf 0 0 m ( \(kV/cm\)) show NC gr 
 gsave  2268 846 0 1526 C 1736.63 1374.97 t 0 r /Helvetica findfont 39.1972 sf 0 0 m (transfer) show NC gr 
 gsave  2268 846 0 1526 C 1697.53 1394.52 t 0 r /Helvetica findfont 58.7958 sf 0 0 m (E) show NC gr  272 1546 m -20 Y s 319 1536 m -10 Y s 366 1536 m -10 Y s 413 1536 m -10 Y s 460 1536 m -10 Y s 507 1546 m -20 Y s 554 1536 m -10 Y s 602 1536 m -10 Y
 s 649 1536 m -10 Y s 696 1536 m -10 Y s 743 1546 m -20 Y s 790 1536 m -10 Y s 837 1536 m -10 Y s 884 1536 m -10 Y s 931 1536 m -10 Y s 978 1546 m -20 Y s 1025 1536 m -10 Y s 1072 1536 m -10 Y s 1119 1536 m -10 Y s 1166 1536 m -10 Y s 1213 1546 m -20
 Y s 1260 1536 m -10 Y s 1307 1536 m -10 Y s 1355 1536 m -10 Y s 1402 1536 m -10 Y s 1449 1546 m -20 Y s 1496 1536 m -10 Y s 1543 1536 m -10 Y s 1590 1536 m -10 Y s 1637 1536 m -10 Y s 1684 1546 m -20 Y s 1731 1536 m -10 Y s 1778 1536 m -10 Y s 1825
 1536 m -10 Y s 1872 1536 m -10 Y s 1919 1546 m -20 Y s 1919 1546 m -20 Y s 1966 1536 m -10 Y s 2013 1536 m -10 Y s 2060 1536 m -10 Y s
 gsave  2268 846 0 1526 C 254.141 1479.23 t 0 r /Helvetica findfont 52.2629 sf 0 0 m (0) show NC gr 
 gsave  2268 846 0 1526 C 469.183 1479.23 t 0 r /Helvetica findfont 52.2629 sf 0 0 m (0.5) show NC gr 
 gsave  2268 846 0 1526 C 729.84 1479.23 t 0 r /Helvetica findfont 52.2629 sf 0 0 m (1) show NC gr 
 gsave  2268 846 0 1526 C 941.624 1479.23 t 0 r /Helvetica findfont 52.2629 sf 0 0 m (1.5) show NC gr 
 gsave  2268 846 0 1526 C 1195.76 1479.23 t 0 r /Helvetica findfont 52.2629 sf 0 0 m (2) show NC gr 
 gsave  2268 846 0 1526 C 1410.81 1479.23 t 0 r /Helvetica findfont 52.2629 sf 0 0 m (2.5) show NC gr 
 gsave  2268 846 0 1526 C 1664.95 1479.23 t 0 r /Helvetica findfont 52.2629 sf 0 0 m (3) show NC gr 
 gsave  2268 846 0 1526 C 1883.25 1479.23 t 0 r /Helvetica findfont 52.2629 sf 0 0 m (3.5) show NC gr  272 1526 m 639 Y s
 gsave  2268 846 0 1526 C 143.361 2013.58 t 90 r /Helvetica findfont 58.7958 sf 0 0 m (<GA>) show NC gr  324 1581 m -52 X s 298 1610 m -26 X s 298 1638 m -26 X s 298 1667 m -26 X s 324 1696 m -52 X s 298 1725 m -26 X s 298 1754 m -26 X s 298 1783 m
 -26 X s 324 1812 m -52 X s 298 1841 m -26 X s 298 1869 m -26 X s 298 1898 m -26 X s 324 1927 m -52 X s 298 1956 m -26 X s 298 1985 m -26 X s 298 2014 m -26 X s 324 2043 m -52 X s 298 2072 m -26 X s 298 2101 m -26 X s 298 2129 m -26 X s 324 2158 m
 -52 X s 324 1581 m -52 X s 298 1552 m -26 X s 324 2158 m -52 X s
 gsave  2268 846 0 1526 C 146.62 1563.94 t 0 r /Helvetica findfont 52.2629 sf 0 0 m (1400) show NC gr 
 gsave  2268 846 0 1526 C 146.62 1677.98 t 0 r /Helvetica findfont 52.2629 sf 0 0 m (1600) show NC gr 
 gsave  2268 846 0 1526 C 146.62 1795.28 t 0 r /Helvetica findfont 52.2629 sf 0 0 m (1800) show NC gr 
 gsave  2268 846 0 1526 C 146.62 1909.31 t 0 r /Helvetica findfont 52.2629 sf 0 0 m (2000) show NC gr 
 gsave  2268 846 0 1526 C 146.62 2023.35 t 0 r /Helvetica findfont 52.2629 sf 0 0 m (2200) show NC gr 
 gsave  2268 846 0 1526 C 146.62 2140.65 t 0 r /Helvetica findfont 52.2629 sf 0 0 m (2400) show NC gr  0 0 0.8 c black 0 0 0.8 c 427 1633 m 160 336 d 156 41 d 155 -7 d 160 12 d 155 -17 d 80 -16 d 76 -13 d 80 11 d 80 -44 d 75 -25 d 80 -10 d 80 2 d 75
 8 d 80 25 d s /w 23 def /w2 {w 2 div} def /w3 {w 3 div} def 427 1633 587 1969 743 2010 898 2003 1058 2015 1213 1998 1293 1982 1369 1969 1449 1980 1529 1936 1604 1911 1684 1901 1764 1903 1839 1911 1919 1936 15 { m20} R black 2086 1526 m 639 Y s
 gsave  2268 846 0 1526 C 2231.88 2042.9 t 90 r /Helvetica findfont 58.7958 sf 0 0 m ( \(nA\)) show NC gr 
 gsave  2268 846 0 1526 C 2251.43 1935.38 t 90 r /Helvetica findfont 39.1972 sf 0 0 m (anode) show NC gr 
 gsave  2268 846 0 1526 C 2231.88 1922.35 t 90 r /Helvetica findfont 58.7958 sf 0 0 m (I) show NC gr  2035 1592 m 51 X s 2061 1608 m 25 X s 2061 1624 m 25 X s 2061 1641 m 25 X s 2061 1657 m 25 X s 2035 1674 m 51 X s 2061 1690 m 25 X s 2061 1706 m 25
 X s 2061 1723 m 25 X s 2061 1739 m 25 X s 2035 1756 m 51 X s 2061 1772 m 25 X s 2061 1788 m 25 X s 2061 1805 m 25 X s 2061 1821 m 25 X s 2035 1837 m 51 X s 2061 1854 m 25 X s 2061 1870 m 25 X s 2061 1887 m 25 X s 2061 1903 m 25 X s 2035 1919 m 51 X
 s 2061 1936 m 25 X s 2061 1952 m 25 X s 2061 1969 m 25 X s 2061 1985 m 25 X s 2035 2001 m 51 X s 2061 2018 m 25 X s 2061 2034 m 25 X s 2061 2051 m 25 X s 2061 2067 m 25 X s 2035 2083 m 51 X s 2061 2100 m 25 X s 2061 2116 m 25 X s 2061 2133 m 25 X s
 2061 2149 m 25 X s 2035 2165 m 51 X s 2035 1592 m 51 X s 2061 1575 m 25 X s 2061 1559 m 25 X s 2061 1542 m 25 X s 2061 1526 m 25 X s
 gsave  2268 846 0 1526 C 2095.03 1573.72 t 0 r /Helvetica findfont 52.2629 sf 0 0 m (50) show NC gr 
 gsave  2268 846 0 1526 C 2095.03 1655.17 t 0 r /Helvetica findfont 52.2629 sf 0 0 m (55) show NC gr 
 gsave  2268 846 0 1526 C 2095.03 1736.63 t 0 r /Helvetica findfont 52.2629 sf 0 0 m (60) show NC gr 
 gsave  2268 846 0 1526 C 2095.03 1818.08 t 0 r /Helvetica findfont 52.2629 sf 0 0 m (65) show NC gr 
 gsave  2268 846 0 1526 C 2095.03 1902.8 t 0 r /Helvetica findfont 52.2629 sf 0 0 m (70) show NC gr 
 gsave  2268 846 0 1526 C 2095.03 1984.25 t 0 r /Helvetica findfont 52.2629 sf 0 0 m (75) show NC gr 
 gsave  2268 846 0 1526 C 2095.03 2065.71 t 0 r /Helvetica findfont 52.2629 sf 0 0 m (80) show NC gr 
 gsave  2268 846 0 1526 C 2095.03 2147.16 t 0 r /Helvetica findfont 52.2629 sf 0 0 m (85) show NC gr  1 1 1 c 2268 680 0 846 bf black 1 1 1 c 1814 680 272 846 bf black 1814 680 272 846 bl 272 846 m 1814 X s
 gsave  2268 680 0 846 C 1870.21 739.614 t 0 r /Helvetica findfont 58.8433 sf 0 0 m ( \(kV/cm\)) show NC gr 
 gsave  2268 680 0 846 C 1736.63 720.065 t 0 r /Helvetica findfont 39.2289 sf 0 0 m (transfer) show NC gr 
 gsave  2268 680 0 846 C 1697.53 739.614 t 0 r /Helvetica findfont 58.8433 sf 0 0 m (E) show NC gr  272 862 m -16 Y s 319 854 m -8 Y s 366 854 m -8 Y s 413 854 m -8 Y s 460 854 m -8 Y s 507 862 m -16 Y s 554 854 m -8 Y s 602 854 m -8 Y s 649 854 m -8
 Y s 696 854 m -8 Y s 743 862 m -16 Y s 790 854 m -8 Y s 837 854 m -8 Y s 884 854 m -8 Y s 931 854 m -8 Y s 978 862 m -16 Y s 1025 854 m -8 Y s 1072 854 m -8 Y s 1119 854 m -8 Y s 1166 854 m -8 Y s 1213 862 m -16 Y s 1260 854 m -8 Y s 1307 854 m -8 Y
 s 1355 854 m -8 Y s 1402 854 m -8 Y s 1449 862 m -16 Y s 1496 854 m -8 Y s 1543 854 m -8 Y s 1590 854 m -8 Y s 1637 854 m -8 Y s 1684 862 m -16 Y s 1731 854 m -8 Y s 1778 854 m -8 Y s 1825 854 m -8 Y s 1872 854 m -8 Y s 1919 862 m -16 Y s 1919 862 m
 -16 Y s 1966 854 m -8 Y s 2013 854 m -8 Y s 2060 854 m -8 Y s
 gsave  2268 680 0 846 C 254.141 801.521 t 0 r /Helvetica findfont 52.3052 sf 0 0 m (0) show NC gr 
 gsave  2268 680 0 846 C 469.183 801.521 t 0 r /Helvetica findfont 52.3052 sf 0 0 m (0.5) show NC gr 
 gsave  2268 680 0 846 C 729.84 801.521 t 0 r /Helvetica findfont 52.3052 sf 0 0 m (1) show NC gr 
 gsave  2268 680 0 846 C 941.624 801.521 t 0 r /Helvetica findfont 52.3052 sf 0 0 m (1.5) show NC gr 
 gsave  2268 680 0 846 C 1195.76 801.521 t 0 r /Helvetica findfont 52.3052 sf 0 0 m (2) show NC gr 
 gsave  2268 680 0 846 C 1410.81 801.521 t 0 r /Helvetica findfont 52.3052 sf 0 0 m (2.5) show NC gr 
 gsave  2268 680 0 846 C 1664.95 801.521 t 0 r /Helvetica findfont 52.3052 sf 0 0 m (3) show NC gr 
 gsave  2268 680 0 846 C 1883.25 801.521 t 0 r /Helvetica findfont 52.3052 sf 0 0 m (3.5) show NC gr  272 846 m 680 Y s
 gsave  2268 680 0 846 C 143.361 1228.35 t 90 r /Helvetica findfont 58.8433 sf 0 0 m ( / Mean \(%\)) show NC gr 
 gsave  2268 680 0 846 C 143.361 1192.51 t 90 r /Symbol findfont 58.8433 sf 0 0 m (s) show NC gr  340 928 m -68 X s 306 949 m -34 X s 306 970 m -34 X s 306 990 m -34 X s 306 1011 m -34 X s 340 1031 m -68 X s 306 1052 m -34 X s 306 1073 m -34 X s 306
 1093 m -34 X s 306 1114 m -34 X s 340 1134 m -68 X s 306 1155 m -34 X s 306 1176 m -34 X s 306 1196 m -34 X s 306 1217 m -34 X s 340 1238 m -68 X s 306 1258 m -34 X s 306 1279 m -34 X s 306 1299 m -34 X s 306 1320 m -34 X s 340 1341 m -68 X s 306
 1361 m -34 X s 306 1382 m -34 X s 306 1402 m -34 X s 306 1423 m -34 X s 340 1444 m -68 X s 340 928 m -68 X s 306 908 m -34 X s 306 887 m -34 X s 306 867 m -34 X s 306 846 m -34 X s 340 1444 m -68 X s 306 1464 m -34 X s 306 1485 m -34 X s 306 1505 m
 -34 X s 306 1526 m -34 X s
 gsave  2268 680 0 846 C 202.009 909.042 t 0 r /Helvetica findfont 52.3052 sf 0 0 m (10) show NC gr 
 gsave  2268 680 0 846 C 159.652 1013.3 t 0 r /Helvetica findfont 52.3052 sf 0 0 m (10.5) show NC gr 
 gsave  2268 680 0 846 C 211.784 1114.31 t 0 r /Helvetica findfont 52.3052 sf 0 0 m (11) show NC gr 
 gsave  2268 680 0 846 C 159.652 1218.57 t 0 r /Helvetica findfont 52.3052 sf 0 0 m (11.5) show NC gr 
 gsave  2268 680 0 846 C 202.009 1319.58 t 0 r /Helvetica findfont 52.3052 sf 0 0 m (12) show NC gr 
 gsave  2268 680 0 846 C 159.652 1427.1 t 0 r /Helvetica findfont 52.3052 sf 0 0 m (12.5) show NC gr  0.8 0 0 c black 0.8 0 0 c 427 1258 m 160 -196 d 156 11 d 155 X 160 41 d 155 62 d 80 41 d 76 21 d 80 20 d 80 21 d 75 20 d 80 31 d 80 -10 d 75 21 d 80
 -11 d s 427 1258 587 1062 743 1073 898 1073 1058 1114 1213 1176 1293 1217 1369 1238 1449 1258 1529 1279 1604 1299 1684 1330 1764 1320 1839 1341 1919 1330 15 { m20} R black 1 1 1 c 2268 846 0 0 bf black 1 1 1 c 1814 639 272 207 bf black 1814 639 272
 207 bl 272 207 m 1814 X s
 gsave  2268 846 0 0 C 1870.21 74.9389 t 0 r /Helvetica findfont 58.7958 sf 0 0 m ( \(kV/cm\)) show NC gr 
 gsave  2268 846 0 0 C 1736.63 55.3896 t 0 r /Helvetica findfont 39.1972 sf 0 0 m (transfer) show NC gr 
 gsave  2268 846 0 0 C 1697.53 74.9389 t 0 r /Helvetica findfont 58.7958 sf 0 0 m (E) show NC gr  272 227 m -20 Y s 319 217 m -10 Y s 366 217 m -10 Y s 413 217 m -10 Y s 460 217 m -10 Y s 507 227 m -20 Y s 554 217 m -10 Y s 602 217 m -10 Y s 649 217
 m -10 Y s 696 217 m -10 Y s 743 227 m -20 Y s 790 217 m -10 Y s 837 217 m -10 Y s 884 217 m -10 Y s 931 217 m -10 Y s 978 227 m -20 Y s 1025 217 m -10 Y s 1072 217 m -10 Y s 1119 217 m -10 Y s 1166 217 m -10 Y s 1213 227 m -20 Y s 1260 217 m -10 Y s
 1307 217 m -10 Y s 1355 217 m -10 Y s 1402 217 m -10 Y s 1449 227 m -20 Y s 1496 217 m -10 Y s 1543 217 m -10 Y s 1590 217 m -10 Y s 1637 217 m -10 Y s 1684 227 m -20 Y s 1731 217 m -10 Y s 1778 217 m -10 Y s 1825 217 m -10 Y s 1872 217 m -10 Y s
 1919 227 m -20 Y s 1919 227 m -20 Y s 1966 217 m -10 Y s 2013 217 m -10 Y s 2060 217 m -10 Y s
 gsave  2268 846 0 0 C 254.141 159.652 t 0 r /Helvetica findfont 52.2629 sf 0 0 m (0) show NC gr 
 gsave  2268 846 0 0 C 469.183 159.652 t 0 r /Helvetica findfont 52.2629 sf 0 0 m (0.5) show NC gr 
 gsave  2268 846 0 0 C 729.84 159.652 t 0 r /Helvetica findfont 52.2629 sf 0 0 m (1) show NC gr 
 gsave  2268 846 0 0 C 941.624 159.652 t 0 r /Helvetica findfont 52.2629 sf 0 0 m (1.5) show NC gr 
 gsave  2268 846 0 0 C 1195.76 159.652 t 0 r /Helvetica findfont 52.2629 sf 0 0 m (2) show NC gr 
 gsave  2268 846 0 0 C 1410.81 159.652 t 0 r /Helvetica findfont 52.2629 sf 0 0 m (2.5) show NC gr 
 gsave  2268 846 0 0 C 1664.95 159.652 t 0 r /Helvetica findfont 52.2629 sf 0 0 m (3) show NC gr 
 gsave  2268 846 0 0 C 1883.25 159.652 t 0 r /Helvetica findfont 52.2629 sf 0 0 m (3.5) show NC gr  272 207 m 639 Y s
 gsave  2268 846 0 0 C 146.62 651.643 t 90 r /Helvetica findfont 58.7958 sf 0 0 m (IBF \(%\)) show NC gr  324 207 m -52 X s 298 220 m -26 X s 298 233 m -26 X s 298 246 m -26 X s 298 259 m -26 X s 324 272 m -52 X s 298 285 m -26 X s 298 298 m -26 X s
 298 311 m -26 X s 298 324 m -26 X s 324 337 m -52 X s 298 350 m -26 X s 298 363 m -26 X s 298 376 m -26 X s 298 389 m -26 X s 324 402 m -52 X s 298 415 m -26 X s 298 428 m -26 X s 298 441 m -26 X s 298 455 m -26 X s 324 468 m -52 X s 298 481 m -26 X
 s 298 494 m -26 X s 298 507 m -26 X s 298 520 m -26 X s 324 533 m -52 X s 298 546 m -26 X s 298 559 m -26 X s 298 572 m -26 X s 298 585 m -26 X s 324 598 m -52 X s 298 611 m -26 X s 298 624 m -26 X s 298 637 m -26 X s 298 650 m -26 X s 324 663 m -52
 X s 298 676 m -26 X s 298 689 m -26 X s 298 702 m -26 X s 298 716 m -26 X s 324 729 m -52 X s 298 742 m -26 X s 298 755 m -26 X s 298 768 m -26 X s 298 781 m -26 X s 324 794 m -52 X s 324 794 m -52 X s 298 807 m -26 X s 298 820 m -26 X s 298 833 m
 -26 X s
 gsave  2268 846 0 0 C 188.976 188.976 t 0 r /Helvetica findfont 52.2629 sf 0 0 m (0.3) show NC gr 
 gsave  2268 846 0 0 C 159.652 254.141 t 0 r /Helvetica findfont 52.2629 sf 0 0 m (0.35) show NC gr 
 gsave  2268 846 0 0 C 188.976 319.305 t 0 r /Helvetica findfont 52.2629 sf 0 0 m (0.4) show NC gr 
 gsave  2268 846 0 0 C 159.652 384.469 t 0 r /Helvetica findfont 52.2629 sf 0 0 m (0.45) show NC gr 
 gsave  2268 846 0 0 C 188.976 449.633 t 0 r /Helvetica findfont 52.2629 sf 0 0 m (0.5) show NC gr 
 gsave  2268 846 0 0 C 159.652 514.798 t 0 r /Helvetica findfont 52.2629 sf 0 0 m (0.55) show NC gr 
 gsave  2268 846 0 0 C 188.976 579.962 t 0 r /Helvetica findfont 52.2629 sf 0 0 m (0.6) show NC gr 
 gsave  2268 846 0 0 C 159.652 645.126 t 0 r /Helvetica findfont 52.2629 sf 0 0 m (0.65) show NC gr 
 gsave  2268 846 0 0 C 188.976 710.291 t 0 r /Helvetica findfont 52.2629 sf 0 0 m (0.7) show NC gr 
 gsave  2268 846 0 0 C 159.652 775.455 t 0 r /Helvetica findfont 52.2629 sf 0 0 m (0.75) show NC gr  0 0.6 0 c black 0 0.6 0 c 427 729 m 160 -92 d 156 -91 d 155 -91 d 160 -66 d 155 -39 d 80 -13 d 76 -13 d 80 -13 d 235 X 80 -7 d 75 X 80 -6 d s 427 729
 587 637 743 546 898 455 1058 389 1213 350 1293 337 1369 324 1449 311 1529 311 1604 311 1684 311 1764 304 1839 304 1919 298 15 { m20} R
 gr  gr showpage
end
%%EOF
