%!PS-Adobe-2.0 EPSF-2.0
%%BoundingBox:  0 0 567 441
%%Title: EtaSpectraPeriods.eps: c2: Jet eta spectra
%%Creator: ROOT Version 5.34/09
%%CreationDate: Mon Jan 20 14:03:58 2014
%%EndComments
%%BeginProlog
80 dict begin
/s {stroke} def /l {lineto} def /m {moveto} def /t {translate} def
/r {rotate} def /rl {roll}  def /R {repeat} def
/d {rlineto} def /rm {rmoveto} def /gr {grestore} def /f {eofill} def
/c {setrgbcolor} def /black {0 setgray} def /sd {setdash} def
/cl {closepath} def /sf {scalefont setfont} def /lw {setlinewidth} def
/box {m dup 0 exch d exch 0 d 0 exch neg d cl} def
/NC{systemdict begin initclip end}def/C{NC box clip newpath}def
/bl {box s} def /bf {box f} def /Y { 0 exch d} def /X { 0 d} def 
/K {{pop pop 0 moveto} exch kshow} bind def
/ita {/ang 15 def gsave [1 0 ang dup sin exch cos div 1 0 0] concat} def 
/mp {newpath /y exch def /x exch def} def
/side {[w .77 mul w .23 mul] .385 w mul sd w 0 l currentpoint t -144 r} def
/mr {mp x y w2 0 360 arc} def /m24 {mr s} def /m20 {mr f} def
/mb {mp x y w2 add m w2 neg 0 d 0 w neg d w 0 d 0 w d cl} def
/mt {mp x y w2 add m w2 neg w neg d w 0 d cl} def
/m21 {mb f} def /m25 {mb s} def /m22 {mt f} def /m26{mt s} def
/m23 {mp x y w2 sub m w2 w d w neg 0 d cl f} def
/m27 {mp x y w2 add m w3 neg w2 neg d w3 w2 neg d w3 w2 d cl s} def
/m28 {mp x w2 sub y w2 sub w3 add m w3 0 d  0 w3 neg d w3 0 d 0 w3 d w3 0 d  0 w3 d w3 neg 0 d 0 w3 d w3 neg 0 d 0 w3 neg d w3 neg 0 d cl s } def
/m29 {mp gsave x w2 sub y w2 add w3 sub m currentpoint t 4 {side} repeat cl fill gr} def
/m30 {mp gsave x w2 sub y w2 add w3 sub m currentpoint t 4 {side} repeat cl s gr} def
/m31 {mp x y w2 sub m 0 w d x w2 sub y m w 0 d x w2 sub y w2 add m w w neg d x w2 sub y w2 sub m w w d s} def
/m32 {mp x y w2 sub m w2 w d w neg 0 d cl s} def
/m33 {mp x y w2 add m w3 neg w2 neg d w3 w2 neg d w3 w2 d cl f} def
/m34 {mp x w2 sub y w2 sub w3 add m w3 0 d  0 w3 neg d w3 0 d 0 w3 d w3 0 d  0 w3 d w3 neg 0 d 0 w3 d w3 neg 0 d 0 w3 neg d w3 neg 0 d cl f } def
/m2 {mp x y w2 sub m 0 w d x w2 sub y m w 0 d s} def
/m5 {mp x w2 sub y w2 sub m w w d x w2 sub y w2 add m w w neg d s} def
/reEncode {exch findfont dup length dict begin {1 index /FID eq  {pop pop} {def} ifelse } forall /Encoding exch def currentdict end dup /FontName get exch definefont pop } def [/Times-Bold /Times-Italic /Times-BoldItalic /Helvetica /Helvetica-Oblique
 /Helvetica-Bold /Helvetica-BoldOblique /Courier /Courier-Oblique /Courier-Bold /Courier-BoldOblique /Times-Roman /AvantGarde-Book /AvantGarde-BookOblique /AvantGarde-Demi /AvantGarde-DemiOblique /Bookman-Demi /Bookman-DemiItalic /Bookman-Light
 /Bookman-LightItalic /Helvetica-Narrow /Helvetica-Narrow-Bold /Helvetica-Narrow-BoldOblique /Helvetica-Narrow-Oblique /NewCenturySchlbk-Roman /NewCenturySchlbk-Bold /NewCenturySchlbk-BoldItalic /NewCenturySchlbk-Italic /Palatino-Bold
 /Palatino-BoldItalic /Palatino-Italic /Palatino-Roman ] {ISOLatin1Encoding reEncode } forall
%%EndProlog
%%BeginSetup
%%EndSetup
newpath  gsave  .25 .25 scale  gsave  0 0 t black[  ] 0 sd 3 lw 1 1 1 c 2268 1762 0 0 bf black 1 1 1 c 1088 846 23 899 bf black 1 1 1 c 817 676 240 1026 bf black 817 676 240 1026 bl 1 1 1 c 817 676 240 1026 bf black 817 676 240 1026 bl 240 1026 m 817
 X s
 gsave  1088 846 23 899 C 1029.12 944.882 t 0 r /Symbol findfont 47.8803 sf 0 0 m (h) show NC gr  240 1045 m -19 Y s 261 1035 m -9 Y s 281 1035 m -9 Y s 302 1035 m -9 Y s 322 1045 m -19 Y s 342 1035 m -9 Y s 363 1035 m -9 Y s 383 1035 m -9 Y s 404
 1045 m -19 Y s 424 1035 m -9 Y s 444 1035 m -9 Y s 465 1035 m -9 Y s 485 1045 m -19 Y s 506 1035 m -9 Y s 526 1035 m -9 Y s 547 1035 m -9 Y s 567 1045 m -19 Y s 587 1035 m -9 Y s 608 1035 m -9 Y s 628 1035 m -9 Y s 649 1045 m -19 Y s 669 1035 m -9 Y
 s 689 1035 m -9 Y s 710 1035 m -9 Y s 730 1045 m -19 Y s 751 1035 m -9 Y s 771 1035 m -9 Y s 791 1035 m -9 Y s 812 1045 m -19 Y s 832 1035 m -9 Y s 853 1035 m -9 Y s 873 1035 m -9 Y s 893 1045 m -19 Y s 914 1035 m -9 Y s 934 1035 m -9 Y s 955 1035 m
 -9 Y s 975 1045 m -19 Y s 996 1035 m -9 Y s 1016 1035 m -9 Y s 1036 1035 m -9 Y s 1057 1045 m -19 Y s 240 1045 m -19 Y s
 gsave  1088 846 23 899 C 225.406 988.142 t 0 r /Helvetica findfont 38.7603 sf 0 0 m (\2551) show NC gr 
 gsave  1088 846 23 899 C 286.88 988.142 t 0 r /Helvetica findfont 38.7603 sf 0 0 m (\2550.8) show NC gr 
 gsave  1088 846 23 899 C 368.845 988.142 t 0 r /Helvetica findfont 38.7603 sf 0 0 m (\2550.6) show NC gr 
 gsave  1088 846 23 899 C 450.811 988.142 t 0 r /Helvetica findfont 38.7603 sf 0 0 m (\2550.4) show NC gr 
 gsave  1088 846 23 899 C 532.777 988.142 t 0 r /Helvetica findfont 38.7603 sf 0 0 m (\2550.2) show NC gr 
 gsave  1088 846 23 899 C 635.234 988.142 t 0 r /Helvetica findfont 38.7603 sf 0 0 m (0) show NC gr 
 gsave  1088 846 23 899 C 701.262 988.142 t 0 r /Helvetica findfont 38.7603 sf 0 0 m (0.2) show NC gr 
 gsave  1088 846 23 899 C 783.227 988.142 t 0 r /Helvetica findfont 38.7603 sf 0 0 m (0.4) show NC gr 
 gsave  1088 846 23 899 C 865.193 988.142 t 0 r /Helvetica findfont 38.7603 sf 0 0 m (0.6) show NC gr 
 gsave  1088 846 23 899 C 947.159 988.142 t 0 r /Helvetica findfont 38.7603 sf 0 0 m (0.8) show NC gr 
 gsave  1088 846 23 899 C 1049.62 988.142 t 0 r /Helvetica findfont 38.7603 sf 0 0 m (1) show NC gr  240 1026 m 676 Y s
 gsave  1088 846 23 899 C 118.395 1671.19 t 90 r /Symbol findfont 47.8803 sf 0 0 m (h) show NC gr 
 gsave  1088 846 23 899 C 118.395 1646.14 t 90 r /Helvetica findfont 47.8803 sf 0 0 m (d) show NC gr 
 gsave  1088 846 23 899 C 68.3047 1664.36 t 90 r /Helvetica-Oblique findfont 47.8803 sf 0 0 m (N) show NC gr 
 gsave  1088 846 23 899 C 68.3047 1639.31 t 90 r /Helvetica findfont 47.8803 sf 0 0 m (d) show NC gr  6 lw 75 1639 m 2 64 d s
 gsave  1088 846 23 899 C 88.7961 1623.38 t 90 r /Helvetica findfont 47.8803 sf 0 0 m ( ) show NC gr 
 gsave  1088 846 23 899 C 132.056 1580.12 t 90 r /Helvetica findfont 31.9202 sf 0 0 m (evt) show NC gr 
 gsave  1088 846 23 899 C 118.395 1541.41 t 90 r /Helvetica-Oblique findfont 47.8803 sf 0 0 m (N) show NC gr 
 gsave  1088 846 23 899 C 70.5815 1573.29 t 90 r /Helvetica findfont 47.8803 sf 0 0 m (1) show NC gr  75 1541 m 82 Y s 3 lw 267 1026 m -27 X s 253 1043 m -13 X s 253 1059 m -13 X s 253 1076 m -13 X s 267 1093 m -27 X s 253 1110 m -13 X s 253 1127 m
 -13 X s 253 1144 m -13 X s 267 1161 m -27 X s 253 1178 m -13 X s 253 1195 m -13 X s 253 1212 m -13 X s 267 1229 m -27 X s 253 1246 m -13 X s 253 1262 m -13 X s 253 1279 m -13 X s 267 1296 m -27 X s 253 1313 m -13 X s 253 1330 m -13 X s 253 1347 m
 -13 X s 267 1364 m -27 X s 253 1381 m -13 X s 253 1398 m -13 X s 253 1415 m -13 X s 267 1432 m -27 X s 253 1449 m -13 X s 253 1465 m -13 X s 253 1482 m -13 X s 267 1499 m -27 X s 253 1516 m -13 X s 253 1533 m -13 X s 253 1550 m -13 X s 267 1567 m
 -27 X s 253 1584 m -13 X s 253 1601 m -13 X s 253 1618 m -13 X s 267 1635 m -27 X s 253 1652 m -13 X s 253 1669 m -13 X s 253 1685 m -13 X s 267 1702 m -27 X s
 gsave  1088 846 23 899 C 214.021 1010.91 t 0 r /Helvetica findfont 38.7603 sf 0 0 m (0) show NC gr 
 gsave  1088 846 23 899 C 182.146 1079.21 t 0 r /Helvetica findfont 38.7603 sf 0 0 m (0.2) show NC gr 
 gsave  1088 846 23 899 C 179.869 1145.24 t 0 r /Helvetica findfont 38.7603 sf 0 0 m (0.4) show NC gr 
 gsave  1088 846 23 899 C 182.146 1213.55 t 0 r /Helvetica findfont 38.7603 sf 0 0 m (0.6) show NC gr 
 gsave  1088 846 23 899 C 182.146 1281.85 t 0 r /Helvetica findfont 38.7603 sf 0 0 m (0.8) show NC gr 
 gsave  1088 846 23 899 C 220.852 1350.16 t 0 r /Helvetica findfont 38.7603 sf 0 0 m (1) show NC gr 
 gsave  1088 846 23 899 C 182.146 1416.18 t 0 r /Helvetica findfont 38.7603 sf 0 0 m (1.2) show NC gr 
 gsave  1088 846 23 899 C 179.869 1484.49 t 0 r /Helvetica findfont 38.7603 sf 0 0 m (1.4) show NC gr 
 gsave  1088 846 23 899 C 182.146 1552.79 t 0 r /Helvetica findfont 38.7603 sf 0 0 m (1.6) show NC gr 
 gsave  1088 846 23 899 C 182.146 1618.82 t 0 r /Helvetica findfont 38.7603 sf 0 0 m (1.8) show NC gr 
 gsave  1088 846 23 899 C 214.021 1687.13 t 0 r /Helvetica findfont 38.7603 sf 0 0 m (2) show NC gr  6 lw 1 1 1 c black 3 lw /w 18 def /w2 {w 2 div} def /w3 {w 3 div} def 530 1218 m24 6 lw 3 lw 538 1217 m24 6 lw 3 lw 547 1216 m24 6 lw 3 lw 555 1214
 m24 6 lw 3 lw 563 1213 m24 6 lw 3 lw 571 1212 m24 6 lw 3 lw 579 1211 m24 6 lw 3 lw 587 1212 m24 6 lw 3 lw 596 1212 m24 6 lw 3 lw 604 1212 m24 6 lw 3 lw 612 1212 m24 6 lw 3 lw 620 1212 m24 6 lw 3 lw 628 1211 m24 6 lw 3 lw 636 1211 m24 6 lw 3 lw 644
 1211 m24 6 lw 3 lw 653 1212 m24 6 lw 3 lw 661 1211 m24 6 lw 3 lw 669 1211 m24 6 lw 3 lw 677 1213 m24 6 lw 3 lw 685 1213 m24 6 lw 3 lw 693 1213 m24 6 lw 3 lw 702 1213 m24 6 lw 3 lw 710 1213 m24 6 lw 3 lw 718 1214 m24 6 lw 3 lw 726 1215 m24 6 lw 3 lw
 734 1217 m24 6 lw 3 lw 742 1219 m24 6 lw 3 lw 751 1220 m24 6 lw 3 lw 759 1221 m24 6 lw 3 lw 767 1223 m24 6 lw 1 0 0 c 1 1 1 c 1 0 0 c 3 lw 530 1223 m25 6 lw 3 lw 538 1222 m25 6 lw 3 lw 547 1220 m25 6 lw 3 lw 555 1219 m25 6 lw 3 lw 563 1218 m25 6 lw
 3 lw 571 1216 m25 6 lw 3 lw 579 1216 m25 6 lw 3 lw 587 1216 m25 6 lw 3 lw 596 1216 m25 6 lw 3 lw 604 1217 m25 6 lw 3 lw 612 1216 m25 6 lw 3 lw 620 1216 m25 6 lw 3 lw 628 1215 m25 6 lw 3 lw 636 1215 m25 6 lw 3 lw 644 1215 m25 6 lw 3 lw 653 1216 m25 6
 lw 3 lw 661 1215 m25 6 lw 3 lw 669 1215 m25 6 lw 3 lw 677 1216 m25 6 lw 3 lw 685 1217 m25 6 lw 3 lw 693 1217 m25 6 lw 3 lw 702 1217 m25 6 lw 3 lw 710 1218 m25 6 lw 3 lw 718 1218 m25 6 lw 3 lw 726 1220 m25 6 lw 3 lw 734 1222 m25 6 lw 3 lw 742 1223
 m25 6 lw 3 lw 751 1224 m25 6 lw 3 lw 759 1225 m25 6 lw 3 lw 767 1228 m25 6 lw 0 0.4 0 c 1 1 1 c 0 0.4 0 c 3 lw 530 1397 m26 6 lw 3 lw 538 1400 m26 6 lw 3 lw 547 1379 m26 6 lw 3 lw 555 1375 m26 6 lw 3 lw 563 1362 m26 6 lw 3 lw 571 1352 m26 6 lw 3 lw
 579 1351 m26 6 lw 3 lw 587 1354 m26 6 lw 3 lw 596 1354 m26 6 lw 3 lw 604 1347 m26 6 lw 3 lw 612 1354 m26 6 lw 3 lw 620 1361 m26 6 lw 3 lw 628 1353 m26 6 lw 3 lw 636 1343 m26 6 lw 3 lw 644 1348 m26 6 lw 3 lw 653 1357 m26 6 lw 3 lw 661 1356 m26 6 lw 3
 lw 669 1350 m26 6 lw 3 lw 677 1347 m26 6 lw 3 lw 685 1347 m26 6 lw 3 lw 693 1348 m26 6 lw 3 lw 702 1352 m26 6 lw 3 lw 710 1352 m26 6 lw 3 lw 718 1362 m26 6 lw 3 lw 726 1357 m26 6 lw 3 lw 734 1369 m26 6 lw 3 lw 742 1370 m26 6 lw 3 lw 751 1388 m26 6
 lw 3 lw 759 1385 m26 6 lw 3 lw 767 1399 m26 6 lw 0 0 1 c 1 1 1 c 0 0 1 c 3 lw 530 1405 m27 6 lw 3 lw 538 1400 m27 6 lw 3 lw 547 1393 m27 6 lw 3 lw 555 1381 m27 6 lw 3 lw 563 1379 m27 6 lw 3 lw 571 1374 m27 6 lw 3 lw 579 1361 m27 6 lw 3 lw 587 1356
 m27 6 lw 3 lw 596 1360 m27 6 lw 3 lw 604 1362 m27 6 lw 3 lw 612 1360 m27 6 lw 3 lw 620 1367 m27 6 lw 3 lw 628 1355 m27 6 lw 3 lw 636 1359 m27 6 lw 3 lw 644 1348 m27 6 lw 3 lw 653 1356 m27 6 lw 3 lw 661 1353 m27 6 lw 3 lw 669 1354 m27 6 lw 3 lw 677
 1351 m27 6 lw 3 lw 685 1357 m27 6 lw 3 lw 693 1354 m27 6 lw 3 lw 702 1358 m27 6 lw 3 lw 710 1361 m27 6 lw 3 lw 718 1360 m27 6 lw 3 lw 726 1367 m27 6 lw 3 lw 734 1363 m27 6 lw 3 lw 742 1385 m27 6 lw 3 lw 751 1386 m27 6 lw 3 lw 759 1391 m27 6 lw 3 lw
 767 1405 m27 6 lw black
 gsave  1088 846 23 899 C 628.403 1646.14 t 0 r /Helvetica findfont 36.4802 sf 0 0 m (Full jets) show NC gr 
 gsave  1088 846 23 899 C 710.369 1602.88 t 0 r /Helvetica-Bold findfont 36.4802 sf 0 0 m (LHC13b) show NC gr  3 lw 666 1616 m24 6 lw
 gsave  1088 846 23 899 C 710.369 1561.9 t 0 r /Helvetica-Bold findfont 36.4802 sf 0 0 m (LHC13c) show NC gr  1 0 0 c 3 lw 666 1575 m25 6 lw black
 gsave  1088 846 23 899 C 710.369 1523.2 t 0 r /Helvetica-Bold findfont 36.4802 sf 0 0 m (LHC13d) show NC gr  0 0.4 0 c 3 lw 666 1535 m26 6 lw black
 gsave  1088 846 23 899 C 710.369 1482.21 t 0 r /Helvetica-Bold findfont 36.4802 sf 0 0 m (LHC13e) show NC gr  0 0 1 c 3 lw 666 1494 m27 6 lw black 3 lw 1 1 1 c 1088 846 1157 899 bf black 1 1 1 c 817 676 1374 1026 bf black 817 676 1374 1026 bl 1 1 1
 c 817 676 1374 1026 bf black 817 676 1374 1026 bl 1374 1026 m 817 X s
 gsave  1088 846 1157 899 C 2162.98 944.882 t 0 r /Symbol findfont 47.8803 sf 0 0 m (h) show NC gr  1374 1045 m -19 Y s 1395 1035 m -9 Y s 1415 1035 m -9 Y s 1435 1035 m -9 Y s 1456 1045 m -19 Y s 1476 1035 m -9 Y s 1497 1035 m -9 Y s 1517 1035 m -9
 Y s 1538 1045 m -19 Y s 1558 1035 m -9 Y s 1578 1035 m -9 Y s 1599 1035 m -9 Y s 1619 1045 m -19 Y s 1640 1035 m -9 Y s 1660 1035 m -9 Y s 1680 1035 m -9 Y s 1701 1045 m -19 Y s 1721 1035 m -9 Y s 1742 1035 m -9 Y s 1762 1035 m -9 Y s 1782 1045 m
 -19 Y s 1803 1035 m -9 Y s 1823 1035 m -9 Y s 1844 1035 m -9 Y s 1864 1045 m -19 Y s 1884 1035 m -9 Y s 1905 1035 m -9 Y s 1925 1035 m -9 Y s 1946 1045 m -19 Y s 1966 1035 m -9 Y s 1987 1035 m -9 Y s 2007 1035 m -9 Y s 2027 1045 m -19 Y s 2048 1035
 m -9 Y s 2068 1035 m -9 Y s 2089 1035 m -9 Y s 2109 1045 m -19 Y s 2129 1035 m -9 Y s 2150 1035 m -9 Y s 2170 1035 m -9 Y s 2191 1045 m -19 Y s 1374 1045 m -19 Y s
 gsave  1088 846 1157 899 C 1359.26 988.142 t 0 r /Helvetica findfont 38.7603 sf 0 0 m (\2551) show NC gr 
 gsave  1088 846 1157 899 C 1420.74 988.142 t 0 r /Helvetica findfont 38.7603 sf 0 0 m (\2550.8) show NC gr 
 gsave  1088 846 1157 899 C 1502.7 988.142 t 0 r /Helvetica findfont 38.7603 sf 0 0 m (\2550.6) show NC gr 
 gsave  1088 846 1157 899 C 1584.67 988.142 t 0 r /Helvetica findfont 38.7603 sf 0 0 m (\2550.4) show NC gr 
 gsave  1088 846 1157 899 C 1666.64 988.142 t 0 r /Helvetica findfont 38.7603 sf 0 0 m (\2550.2) show NC gr 
 gsave  1088 846 1157 899 C 1769.09 988.142 t 0 r /Helvetica findfont 38.7603 sf 0 0 m (0) show NC gr 
 gsave  1088 846 1157 899 C 1835.12 988.142 t 0 r /Helvetica findfont 38.7603 sf 0 0 m (0.2) show NC gr 
 gsave  1088 846 1157 899 C 1917.09 988.142 t 0 r /Helvetica findfont 38.7603 sf 0 0 m (0.4) show NC gr 
 gsave  1088 846 1157 899 C 1999.05 988.142 t 0 r /Helvetica findfont 38.7603 sf 0 0 m (0.6) show NC gr 
 gsave  1088 846 1157 899 C 2081.02 988.142 t 0 r /Helvetica findfont 38.7603 sf 0 0 m (0.8) show NC gr 
 gsave  1088 846 1157 899 C 2183.47 988.142 t 0 r /Helvetica findfont 38.7603 sf 0 0 m (1) show NC gr  1374 1026 m 676 Y s
 gsave  1088 846 1157 899 C 1252.25 1671.19 t 90 r /Symbol findfont 47.8803 sf 0 0 m (h) show NC gr 
 gsave  1088 846 1157 899 C 1252.25 1646.14 t 90 r /Helvetica findfont 47.8803 sf 0 0 m (d) show NC gr 
 gsave  1088 846 1157 899 C 1202.16 1664.36 t 90 r /Helvetica-Oblique findfont 47.8803 sf 0 0 m (N) show NC gr 
 gsave  1088 846 1157 899 C 1202.16 1639.31 t 90 r /Helvetica findfont 47.8803 sf 0 0 m (d) show NC gr  6 lw 1211 1639 m 64 Y s
 gsave  1088 846 1157 899 C 1222.65 1623.38 t 90 r /Helvetica findfont 47.8803 sf 0 0 m ( ) show NC gr 
 gsave  1088 846 1157 899 C 1265.91 1580.12 t 90 r /Helvetica findfont 31.9202 sf 0 0 m (evt) show NC gr 
 gsave  1088 846 1157 899 C 1252.25 1541.41 t 90 r /Helvetica-Oblique findfont 47.8803 sf 0 0 m (N) show NC gr 
 gsave  1088 846 1157 899 C 1204.44 1573.29 t 90 r /Helvetica findfont 47.8803 sf 0 0 m (1) show NC gr  1211 1541 m 82 Y s 3 lw 1400 1026 m -26 X s 1387 1043 m -13 X s 1387 1059 m -13 X s 1387 1076 m -13 X s 1387 1093 m -13 X s 1400 1110 m -26 X s
 1387 1127 m -13 X s 1387 1144 m -13 X s 1387 1161 m -13 X s 1387 1178 m -13 X s 1400 1195 m -26 X s 1387 1212 m -13 X s 1387 1229 m -13 X s 1387 1246 m -13 X s 1387 1262 m -13 X s 1400 1279 m -26 X s 1387 1296 m -13 X s 1387 1313 m -13 X s 1387 1330
 m -13 X s 1387 1347 m -13 X s 1400 1364 m -26 X s 1387 1381 m -13 X s 1387 1398 m -13 X s 1387 1415 m -13 X s 1387 1432 m -13 X s 1400 1449 m -26 X s 1387 1465 m -13 X s 1387 1482 m -13 X s 1387 1499 m -13 X s 1387 1516 m -13 X s 1400 1533 m -26 X s
 1387 1550 m -13 X s 1387 1567 m -13 X s 1387 1584 m -13 X s 1387 1601 m -13 X s 1400 1618 m -26 X s 1387 1635 m -13 X s 1387 1652 m -13 X s 1387 1669 m -13 X s 1387 1685 m -13 X s 1400 1702 m -26 X s
 gsave  1088 846 1157 899 C 1347.88 1010.91 t 0 r /Helvetica findfont 38.7603 sf 0 0 m (0) show NC gr 
 gsave  1088 846 1157 899 C 1354.71 1095.15 t 0 r /Helvetica findfont 38.7603 sf 0 0 m (1) show NC gr 
 gsave  1088 846 1157 899 C 1347.88 1179.39 t 0 r /Helvetica findfont 38.7603 sf 0 0 m (2) show NC gr 
 gsave  1088 846 1157 899 C 1347.88 1263.64 t 0 r /Helvetica findfont 38.7603 sf 0 0 m (3) show NC gr 
 gsave  1088 846 1157 899 C 1347.88 1350.16 t 0 r /Helvetica findfont 38.7603 sf 0 0 m (4) show NC gr 
 gsave  1088 846 1157 899 C 1347.88 1434.4 t 0 r /Helvetica findfont 38.7603 sf 0 0 m (5) show NC gr 
 gsave  1088 846 1157 899 C 1347.88 1518.64 t 0 r /Helvetica findfont 38.7603 sf 0 0 m (6) show NC gr 
 gsave  1088 846 1157 899 C 1347.88 1602.88 t 0 r /Helvetica findfont 38.7603 sf 0 0 m (7) show NC gr 
 gsave  1088 846 1157 899 C 1347.88 1687.13 t 0 r /Helvetica findfont 38.7603 sf 0 0 m (8) show NC gr  6 lw 1 1 1 c black 3 lw 1582 1286 m24 6 lw 3 lw 1591 1285 m24 6 lw 3 lw 1599 1284 m24 6 lw 3 lw 1607 1283 m24 6 lw 3 lw 1615 1283 m24 6 lw 3 lw
 1623 1283 m24 6 lw 3 lw 1631 1283 m24 6 lw 3 lw 1640 1284 m24 6 lw 3 lw 1648 1284 m24 6 lw 3 lw 1656 1284 m24 6 lw 3 lw 1664 1285 m24 6 lw 3 lw 1672 1285 m24 6 lw 3 lw 1680 1285 m24 6 lw 3 lw 1689 1285 m24 6 lw 3 lw 1697 1285 m24 6 lw 3 lw 1705 1285
 m24 6 lw 3 lw 1713 1285 m24 6 lw 3 lw 1721 1285 m24 6 lw 3 lw 1729 1285 m24 6 lw 3 lw 1738 1284 m24 6 lw 3 lw 1746 1283 m24 6 lw 3 lw 1754 1283 m24 6 lw 3 lw 1762 1282 m24 6 lw 3 lw 1770 1281 m24 6 lw 3 lw 1778 1282 m24 6 lw 3 lw 1787 1281 m24 6 lw
 3 lw 1795 1281 m24 6 lw 3 lw 1803 1281 m24 6 lw 3 lw 1811 1283 m24 6 lw 3 lw 1819 1285 m24 6 lw 3 lw 1827 1285 m24 6 lw 3 lw 1835 1286 m24 6 lw 3 lw 1844 1287 m24 6 lw 3 lw 1852 1288 m24 6 lw 3 lw 1860 1288 m24 6 lw 3 lw 1868 1289 m24 6 lw 3 lw 1876
 1289 m24 6 lw 3 lw 1884 1289 m24 6 lw 3 lw 1893 1289 m24 6 lw 3 lw 1901 1289 m24 6 lw 3 lw 1909 1289 m24 6 lw 3 lw 1917 1289 m24 6 lw 3 lw 1925 1289 m24 6 lw 3 lw 1933 1289 m24 6 lw 3 lw 1942 1289 m24 6 lw 3 lw 1950 1290 m24 6 lw 3 lw 1958 1291 m24
 6 lw 3 lw 1966 1292 m24 6 lw 3 lw 1974 1293 m24 6 lw 3 lw 1982 1295 m24 6 lw 3 lw 1991 1026 m24 6 lw 1 0 0 c 1 1 1 c 1 0 0 c 3 lw 1582 1293 m25 6 lw 3 lw 1591 1291 m25 6 lw 3 lw 1599 1290 m25 6 lw 3 lw 1607 1289 m25 6 lw 3 lw 1615 1289 m25 6 lw 3 lw
 1623 1289 m25 6 lw 3 lw 1631 1289 m25 6 lw 3 lw 1640 1289 m25 6 lw 3 lw 1648 1290 m25 6 lw 3 lw 1656 1290 m25 6 lw 3 lw 1664 1290 m25 6 lw 3 lw 1672 1291 m25 6 lw 3 lw 1680 1291 m25 6 lw 3 lw 1689 1291 m25 6 lw 3 lw 1697 1291 m25 6 lw 3 lw 1705 1291
 m25 6 lw 3 lw 1713 1290 m25 6 lw 3 lw 1721 1291 m25 6 lw 3 lw 1729 1290 m25 6 lw 3 lw 1738 1290 m25 6 lw 3 lw 1746 1289 m25 6 lw 3 lw 1754 1288 m25 6 lw 3 lw 1762 1287 m25 6 lw 3 lw 1770 1286 m25 6 lw 3 lw 1778 1287 m25 6 lw 3 lw 1787 1287 m25 6 lw
 3 lw 1795 1286 m25 6 lw 3 lw 1803 1286 m25 6 lw 3 lw 1811 1288 m25 6 lw 3 lw 1819 1290 m25 6 lw 3 lw 1827 1291 m25 6 lw 3 lw 1835 1292 m25 6 lw 3 lw 1844 1293 m25 6 lw 3 lw 1852 1293 m25 6 lw 3 lw 1860 1294 m25 6 lw 3 lw 1868 1294 m25 6 lw 3 lw 1876
 1295 m25 6 lw 3 lw 1884 1295 m25 6 lw 3 lw 1893 1295 m25 6 lw 3 lw 1901 1295 m25 6 lw 3 lw 1909 1295 m25 6 lw 3 lw 1917 1295 m25 6 lw 3 lw 1925 1295 m25 6 lw 3 lw 1933 1295 m25 6 lw 3 lw 1942 1295 m25 6 lw 3 lw 1950 1295 m25 6 lw 3 lw 1958 1296 m25
 6 lw 3 lw 1966 1297 m25 6 lw 3 lw 1974 1299 m25 6 lw 3 lw 1982 1301 m25 6 lw 3 lw 1991 1026 m25 6 lw 0 0.4 0 c 1 1 1 c 0 0.4 0 c 3 lw 1582 1468 m26 6 lw 3 lw 1591 1466 m26 6 lw 3 lw 1599 1465 m26 6 lw 3 lw 1607 1466 m26 6 lw 3 lw 1615 1466 m26 6 lw
 3 lw 1623 1463 m26 6 lw 3 lw 1631 1464 m26 6 lw 3 lw 1640 1463 m26 6 lw 3 lw 1648 1462 m26 6 lw 3 lw 1656 1456 m26 6 lw 3 lw 1664 1455 m26 6 lw 3 lw 1672 1455 m26 6 lw 3 lw 1680 1455 m26 6 lw 3 lw 1689 1448 m26 6 lw 3 lw 1697 1446 m26 6 lw 3 lw 1705
 1444 m26 6 lw 3 lw 1713 1437 m26 6 lw 3 lw 1721 1438 m26 6 lw 3 lw 1729 1437 m26 6 lw 3 lw 1738 1431 m26 6 lw 3 lw 1746 1426 m26 6 lw 3 lw 1754 1427 m26 6 lw 3 lw 1762 1427 m26 6 lw 3 lw 1770 1424 m26 6 lw 3 lw 1778 1424 m26 6 lw 3 lw 1787 1430 m26
 6 lw 3 lw 1795 1432 m26 6 lw 3 lw 1803 1431 m26 6 lw 3 lw 1811 1438 m26 6 lw 3 lw 1819 1443 m26 6 lw 3 lw 1827 1447 m26 6 lw 3 lw 1835 1448 m26 6 lw 3 lw 1844 1451 m26 6 lw 3 lw 1852 1455 m26 6 lw 3 lw 1860 1456 m26 6 lw 3 lw 1868 1455 m26 6 lw 3 lw
 1876 1456 m26 6 lw 3 lw 1884 1457 m26 6 lw 3 lw 1893 1456 m26 6 lw 3 lw 1901 1456 m26 6 lw 3 lw 1909 1455 m26 6 lw 3 lw 1917 1459 m26 6 lw 3 lw 1925 1450 m26 6 lw 3 lw 1933 1457 m26 6 lw 3 lw 1942 1457 m26 6 lw 3 lw 1950 1456 m26 6 lw 3 lw 1958 1457
 m26 6 lw 3 lw 1966 1456 m26 6 lw 3 lw 1974 1462 m26 6 lw 3 lw 1982 1468 m26 6 lw 0 0 1 c 1 1 1 c 0 0 1 c 3 lw 1582 1478 m27 6 lw 3 lw 1591 1476 m27 6 lw 3 lw 1599 1474 m27 6 lw 3 lw 1607 1471 m27 6 lw 3 lw 1615 1471 m27 6 lw 3 lw 1623 1471 m27 6 lw
 3 lw 1631 1474 m27 6 lw 3 lw 1640 1471 m27 6 lw 3 lw 1648 1468 m27 6 lw 3 lw 1656 1470 m27 6 lw 3 lw 1664 1466 m27 6 lw 3 lw 1672 1468 m27 6 lw 3 lw 1680 1460 m27 6 lw 3 lw 1689 1461 m27 6 lw 3 lw 1697 1458 m27 6 lw 3 lw 1705 1454 m27 6 lw 3 lw 1713
 1451 m27 6 lw 3 lw 1721 1446 m27 6 lw 3 lw 1729 1444 m27 6 lw 3 lw 1738 1441 m27 6 lw 3 lw 1746 1432 m27 6 lw 3 lw 1754 1432 m27 6 lw 3 lw 1762 1428 m27 6 lw 3 lw 1770 1427 m27 6 lw 3 lw 1778 1428 m27 6 lw 3 lw 1787 1431 m27 6 lw 3 lw 1795 1436 m27
 6 lw 3 lw 1803 1439 m27 6 lw 3 lw 1811 1446 m27 6 lw 3 lw 1819 1450 m27 6 lw 3 lw 1827 1452 m27 6 lw 3 lw 1835 1453 m27 6 lw 3 lw 1844 1456 m27 6 lw 3 lw 1852 1463 m27 6 lw 3 lw 1860 1463 m27 6 lw 3 lw 1868 1462 m27 6 lw 3 lw 1876 1465 m27 6 lw 3 lw
 1884 1462 m27 6 lw 3 lw 1893 1463 m27 6 lw 3 lw 1901 1462 m27 6 lw 3 lw 1909 1469 m27 6 lw 3 lw 1917 1468 m27 6 lw 3 lw 1925 1464 m27 6 lw 3 lw 1933 1466 m27 6 lw 3 lw 1942 1465 m27 6 lw 3 lw 1950 1471 m27 6 lw 3 lw 1958 1469 m27 6 lw 3 lw 1966 1469
 m27 6 lw 3 lw 1974 1474 m27 6 lw 3 lw 1982 1471 m27 6 lw black
 gsave  1088 846 1157 899 C 1762.26 1646.14 t 0 r /Helvetica findfont 36.4802 sf 0 0 m (Charged jets) show NC gr 
 gsave  1088 846 1157 899 C 1844.23 1602.88 t 0 r /Helvetica-Bold findfont 36.4802 sf 0 0 m (LHC13b) show NC gr  3 lw 1800 1616 m24 6 lw
 gsave  1088 846 1157 899 C 1844.23 1561.9 t 0 r /Helvetica-Bold findfont 36.4802 sf 0 0 m (LHC13c) show NC gr  1 0 0 c 3 lw 1800 1575 m25 6 lw black
 gsave  1088 846 1157 899 C 1844.23 1523.2 t 0 r /Helvetica-Bold findfont 36.4802 sf 0 0 m (LHC13d) show NC gr  0 0.4 0 c 3 lw 1800 1535 m26 6 lw black
 gsave  1088 846 1157 899 C 1844.23 1482.21 t 0 r /Helvetica-Bold findfont 36.4802 sf 0 0 m (LHC13e) show NC gr  0 0 1 c 3 lw 1800 1494 m27 6 lw black 3 lw 1 1 1 c 1088 846 23 18 bf black 1 1 1 c 817 676 240 145 bf black 817 676 240 145 bl 1 1 1 c
 817 676 240 145 bf black 817 676 240 145 bl 240 145 m 817 X s
 gsave  1088 846 23 18 C 1029.12 63.7511 t 0 r /Symbol findfont 47.8803 sf 0 0 m (h) show NC gr  240 164 m -19 Y s 261 154 m -9 Y s 281 154 m -9 Y s 302 154 m -9 Y s 322 164 m -19 Y s 342 154 m -9 Y s 363 154 m -9 Y s 383 154 m -9 Y s 404 164 m -19 Y
 s 424 154 m -9 Y s 444 154 m -9 Y s 465 154 m -9 Y s 485 164 m -19 Y s 506 154 m -9 Y s 526 154 m -9 Y s 547 154 m -9 Y s 567 164 m -19 Y s 587 154 m -9 Y s 608 154 m -9 Y s 628 154 m -9 Y s 649 164 m -19 Y s 669 154 m -9 Y s 689 154 m -9 Y s 710
 154 m -9 Y s 730 164 m -19 Y s 751 154 m -9 Y s 771 154 m -9 Y s 791 154 m -9 Y s 812 164 m -19 Y s 832 154 m -9 Y s 853 154 m -9 Y s 873 154 m -9 Y s 893 164 m -19 Y s 914 154 m -9 Y s 934 154 m -9 Y s 955 154 m -9 Y s 975 164 m -19 Y s 996 154 m
 -9 Y s 1016 154 m -9 Y s 1036 154 m -9 Y s 1057 164 m -19 Y s 240 164 m -19 Y s
 gsave  1088 846 23 18 C 225.406 107.011 t 0 r /Helvetica findfont 38.7603 sf 0 0 m (\2551) show NC gr 
 gsave  1088 846 23 18 C 286.88 107.011 t 0 r /Helvetica findfont 38.7603 sf 0 0 m (\2550.8) show NC gr 
 gsave  1088 846 23 18 C 368.845 107.011 t 0 r /Helvetica findfont 38.7603 sf 0 0 m (\2550.6) show NC gr 
 gsave  1088 846 23 18 C 450.811 107.011 t 0 r /Helvetica findfont 38.7603 sf 0 0 m (\2550.4) show NC gr 
 gsave  1088 846 23 18 C 532.777 107.011 t 0 r /Helvetica findfont 38.7603 sf 0 0 m (\2550.2) show NC gr 
 gsave  1088 846 23 18 C 635.234 107.011 t 0 r /Helvetica findfont 38.7603 sf 0 0 m (0) show NC gr 
 gsave  1088 846 23 18 C 701.262 107.011 t 0 r /Helvetica findfont 38.7603 sf 0 0 m (0.2) show NC gr 
 gsave  1088 846 23 18 C 783.227 107.011 t 0 r /Helvetica findfont 38.7603 sf 0 0 m (0.4) show NC gr 
 gsave  1088 846 23 18 C 865.193 107.011 t 0 r /Helvetica findfont 38.7603 sf 0 0 m (0.6) show NC gr 
 gsave  1088 846 23 18 C 947.159 107.011 t 0 r /Helvetica findfont 38.7603 sf 0 0 m (0.8) show NC gr 
 gsave  1088 846 23 18 C 1049.62 107.011 t 0 r /Helvetica findfont 38.7603 sf 0 0 m (1) show NC gr  240 145 m 676 Y s
 gsave  1088 846 23 18 C 88.7961 808.272 t 90 r /Helvetica findfont 47.8803 sf 0 0 m (\)) show NC gr 
 gsave  1088 846 23 18 C 88.7961 780.951 t 90 r /Helvetica-Oblique findfont 47.8803 sf 0 0 m (c) show NC gr 
 gsave  1088 846 23 18 C 88.7961 576.036 t 90 r /Helvetica findfont 47.8803 sf 0 0 m (>40 GeV/) show NC gr 
 gsave  1088 846 23 18 C 116.118 514.562 t 90 r /Helvetica findfont 31.9202 sf 0 0 m (T,jet) show NC gr 
 gsave  1088 846 23 18 C 88.7961 484.963 t 90 r /Helvetica-Oblique findfont 47.8803 sf 0 0 m (p) show NC gr 
 gsave  1088 846 23 18 C 88.7961 457.642 t 90 r /Helvetica findfont 47.8803 sf 0 0 m ( \() show NC gr 
 gsave  1088 846 23 18 C 118.395 425.766 t 90 r /Symbol findfont 47.8803 sf 0 0 m (h) show NC gr 
 gsave  1088 846 23 18 C 118.395 400.721 t 90 r /Helvetica findfont 47.8803 sf 0 0 m (d) show NC gr 
 gsave  1088 846 23 18 C 68.3047 418.936 t 90 r /Helvetica-Oblique findfont 47.8803 sf 0 0 m (N) show NC gr 
 gsave  1088 846 23 18 C 68.3047 393.891 t 90 r /Helvetica findfont 47.8803 sf 0 0 m (d) show NC gr  6 lw 75 394 m 64 Y s
 gsave  1088 846 23 18 C 88.7961 377.953 t 90 r /Helvetica findfont 47.8803 sf 0 0 m ( ) show NC gr 
 gsave  1088 846 23 18 C 132.056 334.693 t 90 r /Helvetica findfont 31.9202 sf 0 0 m (evt) show NC gr 
 gsave  1088 846 23 18 C 118.395 295.987 t 90 r /Helvetica-Oblique findfont 47.8803 sf 0 0 m (N) show NC gr 
 gsave  1088 846 23 18 C 70.5815 327.863 t 90 r /Helvetica findfont 47.8803 sf 0 0 m (1) show NC gr  75 296 m 82 Y s 3 lw 267 145 m -27 X s 253 161 m -13 X s 253 178 m -13 X s 253 195 m -13 X s 267 212 m -27 X s 253 229 m -13 X s 253 246 m -13 X s
 253 263 m -13 X s 267 280 m -27 X s 253 297 m -13 X s 253 314 m -13 X s 253 331 m -13 X s 267 348 m -27 X s 253 364 m -13 X s 253 381 m -13 X s 253 398 m -13 X s 267 415 m -27 X s 253 432 m -13 X s 253 449 m -13 X s 253 466 m -13 X s 267 483 m -27 X
 s 253 500 m -13 X s 253 517 m -13 X s 253 534 m -13 X s 267 551 m -27 X s 253 567 m -13 X s 253 584 m -13 X s 253 601 m -13 X s 267 618 m -27 X s 253 635 m -13 X s 253 652 m -13 X s 253 669 m -13 X s 267 686 m -27 X s 253 703 m -13 X s 253 720 m -13
 X s 253 737 m -13 X s 267 754 m -27 X s 253 770 m -13 X s 253 787 m -13 X s 253 804 m -13 X s 267 821 m -27 X s
 gsave  1088 846 23 18 C 214.021 129.779 t 0 r /Helvetica findfont 38.7603 sf 0 0 m (0) show NC gr 
 gsave  1088 846 23 18 C 159.378 198.084 t 0 r /Helvetica findfont 38.7603 sf 0 0 m (0.02) show NC gr 
 gsave  1088 846 23 18 C 159.378 264.112 t 0 r /Helvetica findfont 38.7603 sf 0 0 m (0.04) show NC gr 
 gsave  1088 846 23 18 C 159.378 332.416 t 0 r /Helvetica findfont 38.7603 sf 0 0 m (0.06) show NC gr 
 gsave  1088 846 23 18 C 159.378 400.721 t 0 r /Helvetica findfont 38.7603 sf 0 0 m (0.08) show NC gr 
 gsave  1088 846 23 18 C 186.7 469.026 t 0 r /Helvetica findfont 38.7603 sf 0 0 m (0.1) show NC gr 
 gsave  1088 846 23 18 C 159.378 535.054 t 0 r /Helvetica findfont 38.7603 sf 0 0 m (0.12) show NC gr 
 gsave  1088 846 23 18 C 159.378 603.358 t 0 r /Helvetica findfont 38.7603 sf 0 0 m (0.14) show NC gr 
 gsave  1088 846 23 18 C 159.378 671.663 t 0 r /Helvetica findfont 38.7603 sf 0 0 m (0.16) show NC gr 
 gsave  1088 846 23 18 C 159.378 737.691 t 0 r /Helvetica findfont 38.7603 sf 0 0 m (0.18) show NC gr 
 gsave  1088 846 23 18 C 182.146 805.996 t 0 r /Helvetica findfont 38.7603 sf 0 0 m (0.2) show NC gr  6 lw 1 1 1 c black 3 lw 530 145 m24 6 lw 3 lw 538 145 m24 6 lw 3 lw 547 145 m24 6 lw 3 lw 555 145 m24 6 lw 3 lw 563 145 m24 6 lw 3 lw 571 145 m24 6
 lw 3 lw 579 145 m24 6 lw 3 lw 587 145 m24 6 lw 3 lw 596 145 m24 6 lw 3 lw 604 145 m24 6 lw 3 lw 612 145 m24 6 lw 3 lw 620 145 m24 6 lw 3 lw 628 145 m24 6 lw 3 lw 636 145 m24 6 lw 3 lw 644 145 m24 6 lw 3 lw 653 145 m24 6 lw 3 lw 661 145 m24 6 lw 3 lw
 669 145 m24 6 lw 3 lw 677 145 m24 6 lw 3 lw 685 145 m24 6 lw 3 lw 693 145 m24 6 lw 3 lw 702 145 m24 6 lw 3 lw 710 145 m24 6 lw 3 lw 718 145 m24 6 lw 3 lw 726 145 m24 6 lw 3 lw 734 145 m24 6 lw 3 lw 742 145 m24 6 lw 3 lw 751 145 m24 6 lw 3 lw 759 145
 m24 6 lw 3 lw 767 145 m24 6 lw 1 0 0 c 1 1 1 c 1 0 0 c 3 lw 530 145 m25 6 lw 3 lw 538 145 m25 6 lw 3 lw 547 145 m25 6 lw 3 lw 555 145 m25 6 lw 3 lw 563 145 m25 6 lw 3 lw 571 145 m25 6 lw 3 lw 579 145 m25 6 lw 3 lw 587 145 m25 6 lw 3 lw 596 145 m25 6
 lw 3 lw 604 145 m25 6 lw 3 lw 612 145 m25 6 lw 3 lw 620 145 m25 6 lw 3 lw 628 145 m25 6 lw 3 lw 636 145 m25 6 lw 3 lw 644 145 m25 6 lw 3 lw 653 145 m25 6 lw 3 lw 661 145 m25 6 lw 3 lw 669 145 m25 6 lw 3 lw 677 145 m25 6 lw 3 lw 685 145 m25 6 lw 3 lw
 693 145 m25 6 lw 3 lw 702 145 m25 6 lw 3 lw 710 145 m25 6 lw 3 lw 718 145 m25 6 lw 3 lw 726 145 m25 6 lw 3 lw 734 145 m25 6 lw 3 lw 742 145 m25 6 lw 3 lw 751 145 m25 6 lw 3 lw 759 145 m25 6 lw 3 lw 767 145 m25 6 lw 0 0.4 0 c 1 1 1 c 0 0.4 0 c 530
 381 m 3 Y s 530 402 m 4 Y s 3 lw 530 393 m26 6 lw 538 412 m 4 Y s 538 435 m 4 Y s 3 lw 538 426 m26 6 lw 547 368 m 3 Y s 547 389 m 3 Y s 3 lw 547 380 m26 6 lw 555 365 m 3 Y s 555 386 m 3 Y s 3 lw 555 377 m26 6 lw 563 338 m 2 Y s 563 358 m 3 Y s 3 lw
 563 349 m26 6 lw 571 345 m 3 Y s 571 366 m 2 Y s 3 lw 571 357 m26 6 lw 579 339 m 2 Y s 579 359 m 2 Y s 3 lw 579 350 m26 6 lw 587 330 m 2 Y s 587 350 m 2 Y s 3 lw 587 341 m26 6 lw 596 320 m 2 Y s 596 340 m 2 Y s 3 lw 596 331 m26 6 lw 604 293 m 1 Y s
 604 312 m 1 Y s 3 lw 604 303 m26 6 lw 612 325 m 2 Y s 612 345 m 2 Y s 3 lw 612 336 m26 6 lw 620 316 m 1 Y s 620 336 m 1 Y s 3 lw 620 326 m26 6 lw 628 300 m 1 Y s 628 319 m 2 Y s 3 lw 628 310 m26 6 lw 636 312 m 2 Y s 636 332 m 1 Y s 3 lw 636 323 m26
 6 lw 644 312 m 1 Y s 644 331 m 2 Y s 3 lw 644 322 m26 6 lw 653 329 m 2 Y s 653 349 m 2 Y s 3 lw 653 340 m26 6 lw 661 313 m 2 Y s 661 333 m 2 Y s 3 lw 661 324 m26 6 lw 669 329 m 2 Y s 669 349 m 2 Y s 3 lw 669 340 m26 6 lw 677 342 m 3 Y s 677 363 m 2
 Y s 3 lw 677 354 m26 6 lw 685 351 m 2 Y s 685 371 m 3 Y s 3 lw 685 362 m26 6 lw 693 338 m 2 Y s 693 358 m 2 Y s 3 lw 693 349 m26 6 lw 702 342 m 3 Y s 702 363 m 2 Y s 3 lw 702 354 m26 6 lw 710 351 m 2 Y s 710 371 m 3 Y s 3 lw 710 362 m26 6 lw 718 352
 m 3 Y s 718 373 m 2 Y s 3 lw 718 364 m26 6 lw 726 339 m 2 Y s 726 359 m 2 Y s 3 lw 726 350 m26 6 lw 734 373 m 3 Y s 734 394 m 3 Y s 3 lw 734 385 m26 6 lw 742 348 m 2 Y s 742 368 m 3 Y s 3 lw 742 359 m26 6 lw 751 382 m 3 Y s 751 404 m 3 Y s 3 lw 751
 395 m26 6 lw 759 377 m 3 Y s 759 398 m 3 Y s 3 lw 759 389 m26 6 lw 767 382 m 3 Y s 767 404 m 3 Y s 3 lw 767 395 m26 6 lw 0 0 1 c 1 1 1 c 0 0 1 c 3 lw 530 361 m27 6 lw 3 lw 538 362 m27 6 lw 3 lw 547 361 m27 6 lw 3 lw 555 346 m27 6 lw 3 lw 563 342 m27
 6 lw 3 lw 571 336 m27 6 lw 3 lw 579 330 m27 6 lw 3 lw 587 307 m27 6 lw 3 lw 596 312 m27 6 lw 3 lw 604 309 m27 6 lw 3 lw 612 295 m27 6 lw 3 lw 620 320 m27 6 lw 3 lw 628 304 m27 6 lw 3 lw 636 310 m27 6 lw 3 lw 644 319 m27 6 lw 3 lw 653 309 m27 6 lw 3
 lw 661 315 m27 6 lw 3 lw 669 327 m27 6 lw 3 lw 677 353 m27 6 lw 3 lw 685 346 m27 6 lw 3 lw 693 349 m27 6 lw 3 lw 702 353 m27 6 lw 3 lw 710 353 m27 6 lw 3 lw 718 368 m27 6 lw 726 373 m s 726 391 m 1 Y s 3 lw 726 382 m27 6 lw 3 lw 734 365 m27 6 lw 742
 373 m s 742 391 m s 3 lw 742 382 m27 6 lw 751 378 m 1 Y s 751 397 m s 3 lw 751 388 m27 6 lw 3 lw 759 368 m27 6 lw 3 lw 767 380 m27 6 lw black
 gsave  1088 846 23 18 C 628.403 765.013 t 0 r /Helvetica findfont 36.4802 sf 0 0 m (Full jets) show NC gr 
 gsave  1088 846 23 18 C 710.369 721.753 t 0 r /Helvetica-Bold findfont 36.4802 sf 0 0 m (LHC13b) show NC gr  3 lw 666 735 m24 6 lw
 gsave  1088 846 23 18 C 710.369 680.77 t 0 r /Helvetica-Bold findfont 36.4802 sf 0 0 m (LHC13c) show NC gr  1 0 0 c 3 lw 666 694 m25 6 lw black
 gsave  1088 846 23 18 C 710.369 642.064 t 0 r /Helvetica-Bold findfont 36.4802 sf 0 0 m (LHC13d) show NC gr  0 0.4 0 c 3 lw 666 654 m26 6 lw black
 gsave  1088 846 23 18 C 710.369 601.081 t 0 r /Helvetica-Bold findfont 36.4802 sf 0 0 m (LHC13e) show NC gr  0 0 1 c 3 lw 666 613 m27 6 lw black 3 lw 1 1 1 c 1088 846 1157 18 bf black 1 1 1 c 817 676 1374 145 bf black 817 676 1374 145 bl 1 1 1 c 817
 676 1374 145 bf black 817 676 1374 145 bl 1374 145 m 817 X s
 gsave  1088 846 1157 18 C 2162.98 63.7511 t 0 r /Symbol findfont 47.8803 sf 0 0 m (h) show NC gr  1374 164 m -19 Y s 1395 154 m -9 Y s 1415 154 m -9 Y s 1435 154 m -9 Y s 1456 164 m -19 Y s 1476 154 m -9 Y s 1497 154 m -9 Y s 1517 154 m -9 Y s 1538
 164 m -19 Y s 1558 154 m -9 Y s 1578 154 m -9 Y s 1599 154 m -9 Y s 1619 164 m -19 Y s 1640 154 m -9 Y s 1660 154 m -9 Y s 1680 154 m -9 Y s 1701 164 m -19 Y s 1721 154 m -9 Y s 1742 154 m -9 Y s 1762 154 m -9 Y s 1782 164 m -19 Y s 1803 154 m -9 Y
 s 1823 154 m -9 Y s 1844 154 m -9 Y s 1864 164 m -19 Y s 1884 154 m -9 Y s 1905 154 m -9 Y s 1925 154 m -9 Y s 1946 164 m -19 Y s 1966 154 m -9 Y s 1987 154 m -9 Y s 2007 154 m -9 Y s 2027 164 m -19 Y s 2048 154 m -9 Y s 2068 154 m -9 Y s 2089 154 m
 -9 Y s 2109 164 m -19 Y s 2129 154 m -9 Y s 2150 154 m -9 Y s 2170 154 m -9 Y s 2191 164 m -19 Y s 1374 164 m -19 Y s
 gsave  1088 846 1157 18 C 1359.26 107.011 t 0 r /Helvetica findfont 38.7603 sf 0 0 m (\2551) show NC gr 
 gsave  1088 846 1157 18 C 1420.74 107.011 t 0 r /Helvetica findfont 38.7603 sf 0 0 m (\2550.8) show NC gr 
 gsave  1088 846 1157 18 C 1502.7 107.011 t 0 r /Helvetica findfont 38.7603 sf 0 0 m (\2550.6) show NC gr 
 gsave  1088 846 1157 18 C 1584.67 107.011 t 0 r /Helvetica findfont 38.7603 sf 0 0 m (\2550.4) show NC gr 
 gsave  1088 846 1157 18 C 1666.64 107.011 t 0 r /Helvetica findfont 38.7603 sf 0 0 m (\2550.2) show NC gr 
 gsave  1088 846 1157 18 C 1769.09 107.011 t 0 r /Helvetica findfont 38.7603 sf 0 0 m (0) show NC gr 
 gsave  1088 846 1157 18 C 1835.12 107.011 t 0 r /Helvetica findfont 38.7603 sf 0 0 m (0.2) show NC gr 
 gsave  1088 846 1157 18 C 1917.09 107.011 t 0 r /Helvetica findfont 38.7603 sf 0 0 m (0.4) show NC gr 
 gsave  1088 846 1157 18 C 1999.05 107.011 t 0 r /Helvetica findfont 38.7603 sf 0 0 m (0.6) show NC gr 
 gsave  1088 846 1157 18 C 2081.02 107.011 t 0 r /Helvetica findfont 38.7603 sf 0 0 m (0.8) show NC gr 
 gsave  1088 846 1157 18 C 2183.47 107.011 t 0 r /Helvetica findfont 38.7603 sf 0 0 m (1) show NC gr  1374 145 m 676 Y s
 gsave  1088 846 1157 18 C 1222.65 808.272 t 90 r /Helvetica findfont 47.8803 sf 0 0 m (\)) show NC gr 
 gsave  1088 846 1157 18 C 1222.65 780.951 t 90 r /Helvetica-Oblique findfont 47.8803 sf 0 0 m (c) show NC gr 
 gsave  1088 846 1157 18 C 1222.65 576.036 t 90 r /Helvetica findfont 47.8803 sf 0 0 m (>40 GeV/) show NC gr 
 gsave  1088 846 1157 18 C 1249.98 514.562 t 90 r /Helvetica findfont 31.9202 sf 0 0 m (T,jet) show NC gr 
 gsave  1088 846 1157 18 C 1222.65 484.963 t 90 r /Helvetica-Oblique findfont 47.8803 sf 0 0 m (p) show NC gr 
 gsave  1088 846 1157 18 C 1222.65 457.642 t 90 r /Helvetica findfont 47.8803 sf 0 0 m ( \() show NC gr 
 gsave  1088 846 1157 18 C 1252.25 425.766 t 90 r /Symbol findfont 47.8803 sf 0 0 m (h) show NC gr 
 gsave  1088 846 1157 18 C 1252.25 400.721 t 90 r /Helvetica findfont 47.8803 sf 0 0 m (d) show NC gr 
 gsave  1088 846 1157 18 C 1202.16 418.936 t 90 r /Helvetica-Oblique findfont 47.8803 sf 0 0 m (N) show NC gr 
 gsave  1088 846 1157 18 C 1202.16 393.891 t 90 r /Helvetica findfont 47.8803 sf 0 0 m (d) show NC gr  6 lw 1211 394 m 64 Y s
 gsave  1088 846 1157 18 C 1222.65 377.953 t 90 r /Helvetica findfont 47.8803 sf 0 0 m ( ) show NC gr 
 gsave  1088 846 1157 18 C 1265.91 334.693 t 90 r /Helvetica findfont 31.9202 sf 0 0 m (evt) show NC gr 
 gsave  1088 846 1157 18 C 1252.25 295.987 t 90 r /Helvetica-Oblique findfont 47.8803 sf 0 0 m (N) show NC gr 
 gsave  1088 846 1157 18 C 1204.44 327.863 t 90 r /Helvetica findfont 47.8803 sf 0 0 m (1) show NC gr  1211 296 m 82 Y s 3 lw 1400 145 m -26 X s 1387 158 m -13 X s 1387 172 m -13 X s 1387 185 m -13 X s 1387 199 m -13 X s 1400 212 m -26 X s 1387 226 m
 -13 X s 1387 239 m -13 X s 1387 253 m -13 X s 1387 266 m -13 X s 1400 280 m -26 X s 1387 293 m -13 X s 1387 307 m -13 X s 1387 320 m -13 X s 1387 334 m -13 X s 1400 348 m -26 X s 1387 361 m -13 X s 1387 375 m -13 X s 1387 388 m -13 X s 1387 402 m
 -13 X s 1400 415 m -26 X s 1387 429 m -13 X s 1387 442 m -13 X s 1387 456 m -13 X s 1387 469 m -13 X s 1400 483 m -26 X s 1387 496 m -13 X s 1387 510 m -13 X s 1387 523 m -13 X s 1387 537 m -13 X s 1400 551 m -26 X s 1387 564 m -13 X s 1387 578 m
 -13 X s 1387 591 m -13 X s 1387 605 m -13 X s 1400 618 m -26 X s 1387 632 m -13 X s 1387 645 m -13 X s 1387 659 m -13 X s 1387 672 m -13 X s 1400 686 m -26 X s 1387 699 m -13 X s 1387 713 m -13 X s 1387 726 m -13 X s 1387 740 m -13 X s 1400 754 m
 -26 X s 1387 767 m -13 X s 1387 781 m -13 X s 1387 794 m -13 X s 1387 808 m -13 X s 1400 821 m -26 X s
 gsave  1088 846 1157 18 C 1347.88 129.779 t 0 r /Helvetica findfont 38.7603 sf 0 0 m (0) show NC gr 
 gsave  1088 846 1157 18 C 1300.07 198.084 t 0 r /Helvetica findfont 38.7603 sf 0 0 m (0.01) show NC gr 
 gsave  1088 846 1157 18 C 1293.24 264.112 t 0 r /Helvetica findfont 38.7603 sf 0 0 m (0.02) show NC gr 
 gsave  1088 846 1157 18 C 1293.24 332.416 t 0 r /Helvetica findfont 38.7603 sf 0 0 m (0.03) show NC gr 
 gsave  1088 846 1157 18 C 1293.24 400.721 t 0 r /Helvetica findfont 38.7603 sf 0 0 m (0.04) show NC gr 
 gsave  1088 846 1157 18 C 1293.24 469.026 t 0 r /Helvetica findfont 38.7603 sf 0 0 m (0.05) show NC gr 
 gsave  1088 846 1157 18 C 1293.24 535.054 t 0 r /Helvetica findfont 38.7603 sf 0 0 m (0.06) show NC gr 
 gsave  1088 846 1157 18 C 1293.24 603.358 t 0 r /Helvetica findfont 38.7603 sf 0 0 m (0.07) show NC gr 
 gsave  1088 846 1157 18 C 1293.24 671.663 t 0 r /Helvetica findfont 38.7603 sf 0 0 m (0.08) show NC gr 
 gsave  1088 846 1157 18 C 1293.24 737.691 t 0 r /Helvetica findfont 38.7603 sf 0 0 m (0.09) show NC gr 
 gsave  1088 846 1157 18 C 1320.56 805.996 t 0 r /Helvetica findfont 38.7603 sf 0 0 m (0.1) show NC gr  6 lw 1 1 1 c black 3 lw 1582 145 m24 6 lw 3 lw 1591 145 m24 6 lw 3 lw 1599 145 m24 6 lw 3 lw 1607 145 m24 6 lw 3 lw 1615 145 m24 6 lw 3 lw 1623
 145 m24 6 lw 3 lw 1631 145 m24 6 lw 3 lw 1640 145 m24 6 lw 3 lw 1648 145 m24 6 lw 3 lw 1656 145 m24 6 lw 3 lw 1664 145 m24 6 lw 3 lw 1672 145 m24 6 lw 3 lw 1680 145 m24 6 lw 3 lw 1689 145 m24 6 lw 3 lw 1697 145 m24 6 lw 3 lw 1705 145 m24 6 lw 3 lw
 1713 145 m24 6 lw 3 lw 1721 145 m24 6 lw 3 lw 1729 145 m24 6 lw 3 lw 1738 145 m24 6 lw 3 lw 1746 145 m24 6 lw 3 lw 1754 145 m24 6 lw 3 lw 1762 145 m24 6 lw 3 lw 1770 145 m24 6 lw 3 lw 1778 145 m24 6 lw 3 lw 1787 145 m24 6 lw 3 lw 1795 145 m24 6 lw 3
 lw 1803 145 m24 6 lw 3 lw 1811 145 m24 6 lw 3 lw 1819 145 m24 6 lw 3 lw 1827 145 m24 6 lw 3 lw 1835 145 m24 6 lw 3 lw 1844 145 m24 6 lw 3 lw 1852 145 m24 6 lw 3 lw 1860 145 m24 6 lw 3 lw 1868 145 m24 6 lw 3 lw 1876 145 m24 6 lw 3 lw 1884 145 m24 6
 lw 3 lw 1893 145 m24 6 lw 3 lw 1901 145 m24 6 lw 3 lw 1909 145 m24 6 lw 3 lw 1917 145 m24 6 lw 3 lw 1925 145 m24 6 lw 3 lw 1933 145 m24 6 lw 3 lw 1942 145 m24 6 lw 3 lw 1950 145 m24 6 lw 3 lw 1958 145 m24 6 lw 3 lw 1966 145 m24 6 lw 3 lw 1974 145
 m24 6 lw 3 lw 1982 145 m24 6 lw 1 0 0 c 1 1 1 c 1 0 0 c 3 lw 1582 145 m25 6 lw 3 lw 1591 145 m25 6 lw 3 lw 1599 145 m25 6 lw 3 lw 1607 145 m25 6 lw 3 lw 1615 145 m25 6 lw 3 lw 1623 145 m25 6 lw 3 lw 1631 145 m25 6 lw 3 lw 1640 145 m25 6 lw 3 lw 1648
 145 m25 6 lw 3 lw 1656 145 m25 6 lw 3 lw 1664 145 m25 6 lw 3 lw 1672 145 m25 6 lw 3 lw 1680 145 m25 6 lw 3 lw 1689 145 m25 6 lw 3 lw 1697 145 m25 6 lw 3 lw 1705 145 m25 6 lw 3 lw 1713 145 m25 6 lw 3 lw 1721 145 m25 6 lw 3 lw 1729 145 m25 6 lw 3 lw
 1738 145 m25 6 lw 3 lw 1746 145 m25 6 lw 3 lw 1754 145 m25 6 lw 3 lw 1762 145 m25 6 lw 3 lw 1770 145 m25 6 lw 3 lw 1778 145 m25 6 lw 3 lw 1787 145 m25 6 lw 3 lw 1795 145 m25 6 lw 3 lw 1803 145 m25 6 lw 3 lw 1811 145 m25 6 lw 3 lw 1819 145 m25 6 lw 3
 lw 1827 145 m25 6 lw 3 lw 1835 145 m25 6 lw 3 lw 1844 145 m25 6 lw 3 lw 1852 145 m25 6 lw 3 lw 1860 145 m25 6 lw 3 lw 1868 145 m25 6 lw 3 lw 1876 145 m25 6 lw 3 lw 1884 145 m25 6 lw 3 lw 1893 145 m25 6 lw 3 lw 1901 145 m25 6 lw 3 lw 1909 145 m25 6
 lw 3 lw 1917 145 m25 6 lw 3 lw 1925 145 m25 6 lw 3 lw 1933 145 m25 6 lw 3 lw 1942 145 m25 6 lw 3 lw 1950 145 m25 6 lw 3 lw 1958 145 m25 6 lw 3 lw 1966 145 m25 6 lw 3 lw 1974 145 m25 6 lw 3 lw 1982 145 m25 6 lw 0 0.4 0 c 1 1 1 c 0 0.4 0 c 1582 406 m
 9 Y s 1582 433 m 10 Y s 3 lw 1582 424 m26 6 lw 1591 421 m 10 Y s 1591 449 m 11 Y s 3 lw 1591 440 m26 6 lw 1599 426 m 10 Y s 1599 454 m 11 Y s 3 lw 1599 445 m26 6 lw 1607 434 m 11 Y s 1607 463 m 11 Y s 3 lw 1607 454 m26 6 lw 1615 431 m 10 Y s 1615
 459 m 11 Y s 3 lw 1615 450 m26 6 lw 1623 454 m 11 Y s 1623 483 m 11 Y s 3 lw 1623 474 m26 6 lw 1631 421 m 10 Y s 1631 449 m 11 Y s 3 lw 1631 440 m26 6 lw 1640 388 m 9 Y s 1640 415 m 9 Y s 3 lw 1640 406 m26 6 lw 1648 402 m 9 Y s 1648 430 m 9 Y s 3 lw
 1648 421 m26 6 lw 1656 402 m 9 Y s 1656 430 m 9 Y s 3 lw 1656 421 m26 6 lw 1664 376 m 8 Y s 1664 402 m 9 Y s 3 lw 1664 393 m26 6 lw 1672 379 m 9 Y s 1672 406 m 9 Y s 3 lw 1672 397 m26 6 lw 1680 346 m 7 Y s 1680 371 m 8 Y s 3 lw 1680 362 m26 6 lw
 1689 365 m 8 Y s 1689 391 m 8 Y s 3 lw 1689 382 m26 6 lw 1697 366 m 8 Y s 1697 393 m 8 Y s 3 lw 1697 383 m26 6 lw 1705 329 m 7 Y s 1705 354 m 7 Y s 3 lw 1705 345 m26 6 lw 1713 353 m 8 Y s 1713 379 m 8 Y s 3 lw 1713 370 m26 6 lw 1721 325 m 6 Y s 1721
 349 m 7 Y s 3 lw 1721 340 m26 6 lw 1729 290 m 5 Y s 1729 313 m 5 Y s 3 lw 1729 304 m26 6 lw 1738 274 m 4 Y s 1738 296 m 4 Y s 3 lw 1738 287 m26 6 lw 1746 263 m 4 Y s 1746 285 m 3 Y s 3 lw 1746 276 m26 6 lw 1754 288 m 5 Y s 1754 311 m 5 Y s 3 lw 1754
 302 m26 6 lw 1762 258 m 4 Y s 1762 280 m 3 Y s 3 lw 1762 271 m26 6 lw 1770 259 m 4 Y s 1770 281 m 4 Y s 3 lw 1770 272 m26 6 lw 1778 285 m 5 Y s 1778 308 m 5 Y s 3 lw 1778 299 m26 6 lw 1787 288 m 5 Y s 1787 311 m 5 Y s 3 lw 1787 302 m26 6 lw 1795 319
 m 6 Y s 1795 343 m 6 Y s 3 lw 1795 334 m26 6 lw 1803 309 m 6 Y s 1803 333 m 6 Y s 3 lw 1803 324 m26 6 lw 1811 328 m 7 Y s 1811 353 m 7 Y s 3 lw 1811 344 m26 6 lw 1819 352 m 7 Y s 1819 378 m 7 Y s 3 lw 1819 369 m26 6 lw 1827 361 m 8 Y s 1827 388 m 7
 Y s 3 lw 1827 378 m26 6 lw 1835 390 m 9 Y s 1835 417 m 9 Y s 3 lw 1835 408 m26 6 lw 1844 371 m 8 Y s 1844 397 m 9 Y s 3 lw 1844 388 m26 6 lw 1852 373 m 9 Y s 1852 400 m 8 Y s 3 lw 1852 391 m26 6 lw 1860 378 m 9 Y s 1860 405 m 8 Y s 3 lw 1860 396 m26
 6 lw 1868 367 m 9 Y s 1868 394 m 8 Y s 3 lw 1868 385 m26 6 lw 1876 366 m 8 Y s 1876 393 m 8 Y s 3 lw 1876 383 m26 6 lw 1884 364 m 8 Y s 1884 390 m 8 Y s 3 lw 1884 381 m26 6 lw 1893 385 m 9 Y s 1893 412 m 9 Y s 3 lw 1893 403 m26 6 lw 1901 406 m 9 Y s
 1901 433 m 10 Y s 3 lw 1901 424 m26 6 lw 1909 395 m 9 Y s 1909 422 m 9 Y s 3 lw 1909 413 m26 6 lw 1917 352 m 7 Y s 1917 378 m 7 Y s 3 lw 1917 369 m26 6 lw 1925 372 m 9 Y s 1925 399 m 8 Y s 3 lw 1925 390 m26 6 lw 1933 390 m 9 Y s 1933 417 m 9 Y s 3
 lw 1933 408 m26 6 lw 1942 383 m 9 Y s 1942 410 m 9 Y s 3 lw 1942 401 m26 6 lw 1950 383 m 9 Y s 1950 410 m 9 Y s 3 lw 1950 401 m26 6 lw 1958 390 m 9 Y s 1958 417 m 9 Y s 3 lw 1958 408 m26 6 lw 1966 402 m 9 Y s 1966 430 m 9 Y s 3 lw 1966 421 m26 6 lw
 1974 412 m 9 Y s 1974 440 m 9 Y s 3 lw 1974 430 m26 6 lw 1982 382 m 8 Y s 1982 409 m 8 Y s 3 lw 1982 400 m26 6 lw 0 0 1 c 1 1 1 c 0 0 1 c 1582 395 m 5 Y s 1582 418 m 4 Y s 3 lw 1582 409 m27 6 lw 1591 405 m 5 Y s 1591 428 m 5 Y s 3 lw 1591 419 m27 6
 lw 1599 411 m 5 Y s 1599 434 m 5 Y s 3 lw 1599 425 m27 6 lw 1607 383 m 5 Y s 1607 406 m 4 Y s 3 lw 1607 397 m27 6 lw 1615 402 m 5 Y s 1615 425 m 5 Y s 3 lw 1615 416 m27 6 lw 1623 381 m 4 Y s 1623 403 m 4 Y s 3 lw 1623 394 m27 6 lw 1631 371 m 4 Y s
 1631 393 m 4 Y s 3 lw 1631 384 m27 6 lw 1640 354 m 3 Y s 1640 376 m 3 Y s 3 lw 1640 366 m27 6 lw 1648 337 m 3 Y s 1648 358 m 3 Y s 3 lw 1648 349 m27 6 lw 1656 333 m 3 Y s 1656 354 m 3 Y s 3 lw 1656 345 m27 6 lw 1664 320 m 2 Y s 1664 340 m 3 Y s 3 lw
 1664 331 m27 6 lw 1672 340 m 3 Y s 1672 362 m 3 Y s 3 lw 1672 352 m27 6 lw 1680 316 m 2 Y s 1680 336 m 2 Y s 3 lw 1680 327 m27 6 lw 1689 288 m 1 Y s 1689 307 m 2 Y s 3 lw 1689 298 m27 6 lw 1697 290 m 2 Y s 1697 310 m 1 Y s 3 lw 1697 301 m27 6 lw
 1705 288 m 2 Y s 1705 308 m 1 Y s 3 lw 1705 299 m27 6 lw 1713 261 m 1 Y s 1713 280 m s 3 lw 1713 271 m27 6 lw 1721 261 m s 1721 279 m s 3 lw 1721 270 m27 6 lw 3 lw 1729 251 m27 6 lw 3 lw 1738 240 m27 6 lw 3 lw 1746 245 m27 6 lw 3 lw 1754 230 m27 6
 lw 3 lw 1762 228 m27 6 lw 3 lw 1770 225 m27 6 lw 3 lw 1778 256 m27 6 lw 3 lw 1787 256 m27 6 lw 1795 257 m s 1795 276 m s 3 lw 1795 266 m27 6 lw 1803 278 m 1 Y s 1803 297 m 1 Y s 3 lw 1803 288 m27 6 lw 1811 297 m 2 Y s 1811 317 m 2 Y s 3 lw 1811 308
 m27 6 lw 1819 316 m 2 Y s 1819 336 m 2 Y s 3 lw 1819 327 m27 6 lw 1827 291 m 2 Y s 1827 311 m 1 Y s 3 lw 1827 302 m27 6 lw 1835 327 m 2 Y s 1835 347 m 3 Y s 3 lw 1835 338 m27 6 lw 1844 340 m 3 Y s 1844 362 m 3 Y s 3 lw 1844 352 m27 6 lw 1852 347 m 3
 Y s 1852 369 m 3 Y s 3 lw 1852 359 m27 6 lw 1860 342 m 3 Y s 1860 363 m 3 Y s 3 lw 1860 354 m27 6 lw 1868 343 m 3 Y s 1868 364 m 3 Y s 3 lw 1868 355 m27 6 lw 1876 351 m 3 Y s 1876 372 m 3 Y s 3 lw 1876 363 m27 6 lw 1884 360 m 4 Y s 1884 382 m 4 Y s
 3 lw 1884 373 m27 6 lw 1893 375 m 4 Y s 1893 397 m 4 Y s 3 lw 1893 388 m27 6 lw 1901 339 m 3 Y s 1901 360 m 3 Y s 3 lw 1901 351 m27 6 lw 1909 370 m 4 Y s 1909 392 m 4 Y s 3 lw 1909 383 m27 6 lw 1917 363 m 4 Y s 1917 385 m 3 Y s 3 lw 1917 376 m27 6
 lw 1925 379 m 4 Y s 1925 402 m 4 Y s 3 lw 1925 393 m27 6 lw 1933 369 m 4 Y s 1933 391 m 4 Y s 3 lw 1933 382 m27 6 lw 1942 384 m 4 Y s 1942 407 m 4 Y s 3 lw 1942 398 m27 6 lw 1950 383 m 5 Y s 1950 406 m 4 Y s 3 lw 1950 397 m27 6 lw 1958 388 m 4 Y s
 1958 410 m 4 Y s 3 lw 1958 401 m27 6 lw 1966 376 m 4 Y s 1966 398 m 4 Y s 3 lw 1966 389 m27 6 lw 1974 384 m 4 Y s 1974 407 m 4 Y s 3 lw 1974 398 m27 6 lw 1982 387 m 4 Y s 1982 409 m 5 Y s 3 lw 1982 400 m27 6 lw black
 gsave  1088 846 1157 18 C 1762.26 765.013 t 0 r /Helvetica findfont 36.4802 sf 0 0 m (Charged jets) show NC gr 
 gsave  1088 846 1157 18 C 1844.23 721.753 t 0 r /Helvetica-Bold findfont 36.4802 sf 0 0 m (LHC13b) show NC gr  3 lw 1800 735 m24 6 lw
 gsave  1088 846 1157 18 C 1844.23 680.77 t 0 r /Helvetica-Bold findfont 36.4802 sf 0 0 m (LHC13c) show NC gr  1 0 0 c 3 lw 1800 694 m25 6 lw black
 gsave  1088 846 1157 18 C 1844.23 642.064 t 0 r /Helvetica-Bold findfont 36.4802 sf 0 0 m (LHC13d) show NC gr  0 0.4 0 c 3 lw 1800 654 m26 6 lw black
 gsave  1088 846 1157 18 C 1844.23 601.081 t 0 r /Helvetica-Bold findfont 36.4802 sf 0 0 m (LHC13e) show NC gr  0 0 1 c 3 lw 1800 613 m27 6 lw
 gr  gr showpage
end
%%EOF
