%!PS-Adobe-2.0 EPSF-2.0
%%BoundingBox:  0 0 567 441
%%Title: PhiSpectraPeriods.eps: c3: Jet phi spectra
%%Creator: ROOT Version 5.34/09
%%CreationDate: Mon Jan 20 14:03:58 2014
%%EndComments
%%BeginProlog
80 dict begin
/s {stroke} def /l {lineto} def /m {moveto} def /t {translate} def
/r {rotate} def /rl {roll}  def /R {repeat} def
/d {rlineto} def /rm {rmoveto} def /gr {grestore} def /f {eofill} def
/c {setrgbcolor} def /black {0 setgray} def /sd {setdash} def
/cl {closepath} def /sf {scalefont setfont} def /lw {setlinewidth} def
/box {m dup 0 exch d exch 0 d 0 exch neg d cl} def
/NC{systemdict begin initclip end}def/C{NC box clip newpath}def
/bl {box s} def /bf {box f} def /Y { 0 exch d} def /X { 0 d} def 
/K {{pop pop 0 moveto} exch kshow} bind def
/ita {/ang 15 def gsave [1 0 ang dup sin exch cos div 1 0 0] concat} def 
/mp {newpath /y exch def /x exch def} def
/side {[w .77 mul w .23 mul] .385 w mul sd w 0 l currentpoint t -144 r} def
/mr {mp x y w2 0 360 arc} def /m24 {mr s} def /m20 {mr f} def
/mb {mp x y w2 add m w2 neg 0 d 0 w neg d w 0 d 0 w d cl} def
/mt {mp x y w2 add m w2 neg w neg d w 0 d cl} def
/m21 {mb f} def /m25 {mb s} def /m22 {mt f} def /m26{mt s} def
/m23 {mp x y w2 sub m w2 w d w neg 0 d cl f} def
/m27 {mp x y w2 add m w3 neg w2 neg d w3 w2 neg d w3 w2 d cl s} def
/m28 {mp x w2 sub y w2 sub w3 add m w3 0 d  0 w3 neg d w3 0 d 0 w3 d w3 0 d  0 w3 d w3 neg 0 d 0 w3 d w3 neg 0 d 0 w3 neg d w3 neg 0 d cl s } def
/m29 {mp gsave x w2 sub y w2 add w3 sub m currentpoint t 4 {side} repeat cl fill gr} def
/m30 {mp gsave x w2 sub y w2 add w3 sub m currentpoint t 4 {side} repeat cl s gr} def
/m31 {mp x y w2 sub m 0 w d x w2 sub y m w 0 d x w2 sub y w2 add m w w neg d x w2 sub y w2 sub m w w d s} def
/m32 {mp x y w2 sub m w2 w d w neg 0 d cl s} def
/m33 {mp x y w2 add m w3 neg w2 neg d w3 w2 neg d w3 w2 d cl f} def
/m34 {mp x w2 sub y w2 sub w3 add m w3 0 d  0 w3 neg d w3 0 d 0 w3 d w3 0 d  0 w3 d w3 neg 0 d 0 w3 d w3 neg 0 d 0 w3 neg d w3 neg 0 d cl f } def
/m2 {mp x y w2 sub m 0 w d x w2 sub y m w 0 d s} def
/m5 {mp x w2 sub y w2 sub m w w d x w2 sub y w2 add m w w neg d s} def
/reEncode {exch findfont dup length dict begin {1 index /FID eq  {pop pop} {def} ifelse } forall /Encoding exch def currentdict end dup /FontName get exch definefont pop } def [/Times-Bold /Times-Italic /Times-BoldItalic /Helvetica /Helvetica-Oblique
 /Helvetica-Bold /Helvetica-BoldOblique /Courier /Courier-Oblique /Courier-Bold /Courier-BoldOblique /Times-Roman /AvantGarde-Book /AvantGarde-BookOblique /AvantGarde-Demi /AvantGarde-DemiOblique /Bookman-Demi /Bookman-DemiItalic /Bookman-Light
 /Bookman-LightItalic /Helvetica-Narrow /Helvetica-Narrow-Bold /Helvetica-Narrow-BoldOblique /Helvetica-Narrow-Oblique /NewCenturySchlbk-Roman /NewCenturySchlbk-Bold /NewCenturySchlbk-BoldItalic /NewCenturySchlbk-Italic /Palatino-Bold
 /Palatino-BoldItalic /Palatino-Italic /Palatino-Roman ] {ISOLatin1Encoding reEncode } forall
%%EndProlog
%%BeginSetup
%%EndSetup
newpath  gsave  .25 .25 scale  gsave  0 0 t black[  ] 0 sd 3 lw 1 1 1 c 2268 1762 0 0 bf black 1 1 1 c 1088 846 23 899 bf black 1 1 1 c 817 676 240 1026 bf black 817 676 240 1026 bl 1 1 1 c 817 676 240 1026 bf black 817 676 240 1026 bl 240 1026 m 817
 X s
 gsave  1088 846 23 899 C 1026.85 944.882 t 0 r /Symbol findfont 47.8803 sf 0 0 m (j) show NC gr  240 1045 m -19 Y s 266 1035 m -9 Y s 292 1035 m -9 Y s 318 1035 m -9 Y s 344 1035 m -9 Y s 370 1045 m -19 Y s 396 1035 m -9 Y s 422 1035 m -9 Y s 448
 1035 m -9 Y s 474 1035 m -9 Y s 500 1045 m -19 Y s 526 1035 m -9 Y s 552 1035 m -9 Y s 578 1035 m -9 Y s 604 1035 m -9 Y s 630 1045 m -19 Y s 656 1035 m -9 Y s 682 1035 m -9 Y s 708 1035 m -9 Y s 734 1035 m -9 Y s 760 1045 m -19 Y s 786 1035 m -9 Y
 s 812 1035 m -9 Y s 838 1035 m -9 Y s 864 1035 m -9 Y s 890 1045 m -19 Y s 916 1035 m -9 Y s 942 1035 m -9 Y s 968 1035 m -9 Y s 994 1035 m -9 Y s 1020 1045 m -19 Y s 1020 1045 m -19 Y s 1046 1035 m -9 Y s
 gsave  1088 846 23 899 C 227.682 988.142 t 0 r /Helvetica findfont 38.7603 sf 0 0 m (0) show NC gr 
 gsave  1088 846 23 899 C 362.015 988.142 t 0 r /Helvetica findfont 38.7603 sf 0 0 m (1) show NC gr 
 gsave  1088 846 23 899 C 487.24 988.142 t 0 r /Helvetica findfont 38.7603 sf 0 0 m (2) show NC gr 
 gsave  1088 846 23 899 C 617.019 988.142 t 0 r /Helvetica findfont 38.7603 sf 0 0 m (3) show NC gr 
 gsave  1088 846 23 899 C 746.798 988.142 t 0 r /Helvetica findfont 38.7603 sf 0 0 m (4) show NC gr 
 gsave  1088 846 23 899 C 876.577 988.142 t 0 r /Helvetica findfont 38.7603 sf 0 0 m (5) show NC gr 
 gsave  1088 846 23 899 C 1006.36 988.142 t 0 r /Helvetica findfont 38.7603 sf 0 0 m (6) show NC gr  240 1026 m 676 Y s
 gsave  1088 846 23 899 C 118.395 1668.91 t 90 r /Symbol findfont 47.8803 sf 0 0 m (j) show NC gr 
 gsave  1088 846 23 899 C 118.395 1643.87 t 90 r /Helvetica findfont 47.8803 sf 0 0 m (d) show NC gr 
 gsave  1088 846 23 899 C 68.3047 1664.36 t 90 r /Helvetica-Oblique findfont 47.8803 sf 0 0 m (N) show NC gr 
 gsave  1088 846 23 899 C 68.3047 1639.31 t 90 r /Helvetica findfont 47.8803 sf 0 0 m (d) show NC gr  6 lw 75 1639 m 2 64 d s
 gsave  1088 846 23 899 C 88.7961 1623.38 t 90 r /Helvetica findfont 47.8803 sf 0 0 m ( ) show NC gr 
 gsave  1088 846 23 899 C 132.056 1580.12 t 90 r /Helvetica findfont 31.9202 sf 0 0 m (evt) show NC gr 
 gsave  1088 846 23 899 C 118.395 1541.41 t 90 r /Helvetica-Oblique findfont 47.8803 sf 0 0 m (N) show NC gr 
 gsave  1088 846 23 899 C 70.5815 1573.29 t 90 r /Helvetica findfont 47.8803 sf 0 0 m (1) show NC gr  75 1541 m 82 Y s 3 lw 267 1026 m -27 X s 253 1039 m -13 X s 253 1053 m -13 X s 253 1066 m -13 X s 253 1080 m -13 X s 267 1093 m -27 X s 253 1107 m
 -13 X s 253 1120 m -13 X s 253 1134 m -13 X s 253 1147 m -13 X s 267 1161 m -27 X s 253 1175 m -13 X s 253 1188 m -13 X s 253 1202 m -13 X s 253 1215 m -13 X s 267 1229 m -27 X s 253 1242 m -13 X s 253 1256 m -13 X s 253 1269 m -13 X s 253 1283 m
 -13 X s 267 1296 m -27 X s 253 1310 m -13 X s 253 1323 m -13 X s 253 1337 m -13 X s 253 1350 m -13 X s 267 1364 m -27 X s 253 1378 m -13 X s 253 1391 m -13 X s 253 1405 m -13 X s 253 1418 m -13 X s 267 1432 m -27 X s 253 1445 m -13 X s 253 1459 m
 -13 X s 253 1472 m -13 X s 253 1486 m -13 X s 267 1499 m -27 X s 253 1513 m -13 X s 253 1526 m -13 X s 253 1540 m -13 X s 253 1553 m -13 X s 267 1567 m -27 X s 253 1581 m -13 X s 253 1594 m -13 X s 253 1608 m -13 X s 253 1621 m -13 X s 267 1635 m
 -27 X s 253 1648 m -13 X s 253 1662 m -13 X s 253 1675 m -13 X s 253 1689 m -13 X s 267 1702 m -27 X s
 gsave  1088 846 23 899 C 214.021 1010.91 t 0 r /Helvetica findfont 38.7603 sf 0 0 m (0) show NC gr 
 gsave  1088 846 23 899 C 186.7 1079.21 t 0 r /Helvetica findfont 38.7603 sf 0 0 m (0.1) show NC gr 
 gsave  1088 846 23 899 C 182.146 1145.24 t 0 r /Helvetica findfont 38.7603 sf 0 0 m (0.2) show NC gr 
 gsave  1088 846 23 899 C 182.146 1213.55 t 0 r /Helvetica findfont 38.7603 sf 0 0 m (0.3) show NC gr 
 gsave  1088 846 23 899 C 179.869 1281.85 t 0 r /Helvetica findfont 38.7603 sf 0 0 m (0.4) show NC gr 
 gsave  1088 846 23 899 C 182.146 1350.16 t 0 r /Helvetica findfont 38.7603 sf 0 0 m (0.5) show NC gr 
 gsave  1088 846 23 899 C 182.146 1416.18 t 0 r /Helvetica findfont 38.7603 sf 0 0 m (0.6) show NC gr 
 gsave  1088 846 23 899 C 179.869 1484.49 t 0 r /Helvetica findfont 38.7603 sf 0 0 m (0.7) show NC gr 
 gsave  1088 846 23 899 C 182.146 1552.79 t 0 r /Helvetica findfont 38.7603 sf 0 0 m (0.8) show NC gr 
 gsave  1088 846 23 899 C 182.146 1618.82 t 0 r /Helvetica findfont 38.7603 sf 0 0 m (0.9) show NC gr 
 gsave  1088 846 23 899 C 220.852 1687.13 t 0 r /Helvetica findfont 38.7603 sf 0 0 m (1) show NC gr  6 lw 1 1 1 c black 3 lw /w 18 def /w2 {w 2 div} def /w3 {w 3 div} def 476 1207 m24 6 lw 3 lw 481 1268 m24 6 lw 3 lw 487 1268 m24 6 lw 3 lw 493 1268
 m24 6 lw 3 lw 498 1267 m24 6 lw 3 lw 504 1266 m24 6 lw 3 lw 510 1264 m24 6 lw 3 lw 515 1264 m24 6 lw 3 lw 521 1267 m24 6 lw 3 lw 527 1270 m24 6 lw 3 lw 532 1270 m24 6 lw 3 lw 538 1269 m24 6 lw 3 lw 544 1266 m24 6 lw 3 lw 549 1262 m24 6 lw 3 lw 555
 1256 m24 6 lw 3 lw 561 1257 m24 6 lw 3 lw 566 1262 m24 6 lw 3 lw 572 1266 m24 6 lw 3 lw 578 1268 m24 6 lw 3 lw 583 1268 m24 6 lw 3 lw 589 1268 m24 6 lw 3 lw 595 1225 m24 6 lw 1 0 0 c 1 1 1 c 1 0 0 c 3 lw 476 1209 m25 6 lw 3 lw 481 1272 m25 6 lw 3 lw
 487 1272 m25 6 lw 3 lw 493 1273 m25 6 lw 3 lw 498 1272 m25 6 lw 3 lw 504 1273 m25 6 lw 3 lw 510 1270 m25 6 lw 3 lw 515 1270 m25 6 lw 3 lw 521 1275 m25 6 lw 3 lw 527 1278 m25 6 lw 3 lw 532 1278 m25 6 lw 3 lw 538 1276 m25 6 lw 3 lw 544 1271 m25 6 lw 3
 lw 549 1266 m25 6 lw 3 lw 555 1261 m25 6 lw 3 lw 561 1260 m25 6 lw 3 lw 566 1267 m25 6 lw 3 lw 572 1270 m25 6 lw 3 lw 578 1273 m25 6 lw 3 lw 583 1274 m25 6 lw 3 lw 589 1273 m25 6 lw 3 lw 595 1230 m25 6 lw 0 0.4 0 c 1 1 1 c 0 0.4 0 c 3 lw 476 1347
 m26 6 lw 3 lw 481 1454 m26 6 lw 3 lw 487 1461 m26 6 lw 3 lw 493 1464 m26 6 lw 3 lw 498 1462 m26 6 lw 3 lw 504 1455 m26 6 lw 3 lw 510 1425 m26 6 lw 3 lw 515 1423 m26 6 lw 3 lw 521 1470 m26 6 lw 3 lw 527 1487 m26 6 lw 3 lw 532 1489 m26 6 lw 3 lw 538
 1477 m26 6 lw 3 lw 544 1466 m26 6 lw 3 lw 549 1433 m26 6 lw 3 lw 555 1392 m26 6 lw 3 lw 561 1385 m26 6 lw 3 lw 566 1437 m26 6 lw 3 lw 572 1463 m26 6 lw 3 lw 578 1481 m26 6 lw 3 lw 583 1496 m26 6 lw 3 lw 589 1478 m26 6 lw 3 lw 595 1380 m26 6 lw 0 0 1
 c 1 1 1 c 0 0 1 c 3 lw 476 1340 m27 6 lw 3 lw 481 1464 m27 6 lw 3 lw 487 1463 m27 6 lw 3 lw 493 1469 m27 6 lw 3 lw 498 1458 m27 6 lw 3 lw 504 1453 m27 6 lw 3 lw 510 1426 m27 6 lw 3 lw 515 1438 m27 6 lw 3 lw 521 1473 m27 6 lw 3 lw 527 1497 m27 6 lw 3
 lw 532 1511 m27 6 lw 3 lw 538 1493 m27 6 lw 3 lw 544 1466 m27 6 lw 3 lw 549 1430 m27 6 lw 3 lw 555 1407 m27 6 lw 3 lw 561 1409 m27 6 lw 3 lw 566 1448 m27 6 lw 3 lw 572 1475 m27 6 lw 3 lw 578 1495 m27 6 lw 3 lw 583 1502 m27 6 lw 3 lw 589 1487 m27 6
 lw 3 lw 595 1392 m27 6 lw black
 gsave  1088 846 23 899 C 628.403 1646.14 t 0 r /Helvetica findfont 36.4802 sf 0 0 m (Full jets) show NC gr 
 gsave  1088 846 23 899 C 710.369 1602.88 t 0 r /Helvetica-Bold findfont 36.4802 sf 0 0 m (LHC13b) show NC gr  3 lw 666 1616 m24 6 lw
 gsave  1088 846 23 899 C 710.369 1561.9 t 0 r /Helvetica-Bold findfont 36.4802 sf 0 0 m (LHC13c) show NC gr  1 0 0 c 3 lw 666 1575 m25 6 lw black
 gsave  1088 846 23 899 C 710.369 1523.2 t 0 r /Helvetica-Bold findfont 36.4802 sf 0 0 m (LHC13d) show NC gr  0 0.4 0 c 3 lw 666 1535 m26 6 lw black
 gsave  1088 846 23 899 C 710.369 1482.21 t 0 r /Helvetica-Bold findfont 36.4802 sf 0 0 m (LHC13e) show NC gr  0 0 1 c 3 lw 666 1494 m27 6 lw black 3 lw 1 1 1 c 1088 846 1157 899 bf black 1 1 1 c 817 676 1374 1026 bf black 817 676 1374 1026 bl 1 1 1
 c 817 676 1374 1026 bf black 817 676 1374 1026 bl 1374 1026 m 817 X s
 gsave  1088 846 1157 899 C 2160.71 944.882 t 0 r /Symbol findfont 47.8803 sf 0 0 m (j) show NC gr  1374 1045 m -19 Y s 1400 1035 m -9 Y s 1426 1035 m -9 Y s 1452 1035 m -9 Y s 1478 1035 m -9 Y s 1504 1045 m -19 Y s 1530 1035 m -9 Y s 1556 1035 m -9
 Y s 1582 1035 m -9 Y s 1608 1035 m -9 Y s 1634 1045 m -19 Y s 1660 1035 m -9 Y s 1686 1035 m -9 Y s 1712 1035 m -9 Y s 1738 1035 m -9 Y s 1764 1045 m -19 Y s 1790 1035 m -9 Y s 1816 1035 m -9 Y s 1842 1035 m -9 Y s 1868 1035 m -9 Y s 1894 1045 m -19
 Y s 1920 1035 m -9 Y s 1946 1035 m -9 Y s 1972 1035 m -9 Y s 1998 1035 m -9 Y s 2024 1045 m -19 Y s 2050 1035 m -9 Y s 2076 1035 m -9 Y s 2102 1035 m -9 Y s 2128 1035 m -9 Y s 2154 1045 m -19 Y s 2154 1045 m -19 Y s 2180 1035 m -9 Y s
 gsave  1088 846 1157 899 C 1361.54 988.142 t 0 r /Helvetica findfont 38.7603 sf 0 0 m (0) show NC gr 
 gsave  1088 846 1157 899 C 1495.87 988.142 t 0 r /Helvetica findfont 38.7603 sf 0 0 m (1) show NC gr 
 gsave  1088 846 1157 899 C 1621.1 988.142 t 0 r /Helvetica findfont 38.7603 sf 0 0 m (2) show NC gr 
 gsave  1088 846 1157 899 C 1750.88 988.142 t 0 r /Helvetica findfont 38.7603 sf 0 0 m (3) show NC gr 
 gsave  1088 846 1157 899 C 1880.66 988.142 t 0 r /Helvetica findfont 38.7603 sf 0 0 m (4) show NC gr 
 gsave  1088 846 1157 899 C 2010.44 988.142 t 0 r /Helvetica findfont 38.7603 sf 0 0 m (5) show NC gr 
 gsave  1088 846 1157 899 C 2140.21 988.142 t 0 r /Helvetica findfont 38.7603 sf 0 0 m (6) show NC gr  1374 1026 m 676 Y s
 gsave  1088 846 1157 899 C 1252.25 1668.91 t 90 r /Symbol findfont 47.8803 sf 0 0 m (j) show NC gr 
 gsave  1088 846 1157 899 C 1252.25 1643.87 t 90 r /Helvetica findfont 47.8803 sf 0 0 m (d) show NC gr 
 gsave  1088 846 1157 899 C 1202.16 1664.36 t 90 r /Helvetica-Oblique findfont 47.8803 sf 0 0 m (N) show NC gr 
 gsave  1088 846 1157 899 C 1202.16 1639.31 t 90 r /Helvetica findfont 47.8803 sf 0 0 m (d) show NC gr  6 lw 1211 1639 m 64 Y s
 gsave  1088 846 1157 899 C 1222.65 1623.38 t 90 r /Helvetica findfont 47.8803 sf 0 0 m ( ) show NC gr 
 gsave  1088 846 1157 899 C 1265.91 1580.12 t 90 r /Helvetica findfont 31.9202 sf 0 0 m (evt) show NC gr 
 gsave  1088 846 1157 899 C 1252.25 1541.41 t 90 r /Helvetica-Oblique findfont 47.8803 sf 0 0 m (N) show NC gr 
 gsave  1088 846 1157 899 C 1204.44 1573.29 t 90 r /Helvetica findfont 47.8803 sf 0 0 m (1) show NC gr  1211 1541 m 82 Y s 3 lw 1400 1026 m -26 X s 1387 1048 m -13 X s 1387 1071 m -13 X s 1387 1093 m -13 X s 1400 1116 m -26 X s 1387 1138 m -13 X s
 1387 1161 m -13 X s 1387 1184 m -13 X s 1400 1206 m -26 X s 1387 1229 m -13 X s 1387 1251 m -13 X s 1387 1274 m -13 X s 1400 1296 m -26 X s 1387 1319 m -13 X s 1387 1341 m -13 X s 1387 1364 m -13 X s 1400 1387 m -26 X s 1387 1409 m -13 X s 1387 1432
 m -13 X s 1387 1454 m -13 X s 1400 1477 m -26 X s 1387 1499 m -13 X s 1387 1522 m -13 X s 1387 1544 m -13 X s 1400 1567 m -26 X s 1387 1590 m -13 X s 1387 1612 m -13 X s 1387 1635 m -13 X s 1400 1657 m -26 X s 1400 1657 m -26 X s 1387 1680 m -13 X s
 1387 1702 m -13 X s
 gsave  1088 846 1157 899 C 1347.88 1010.91 t 0 r /Helvetica findfont 38.7603 sf 0 0 m (0) show NC gr 
 gsave  1088 846 1157 899 C 1316 1101.98 t 0 r /Helvetica findfont 38.7603 sf 0 0 m (0.2) show NC gr 
 gsave  1088 846 1157 899 C 1313.73 1190.78 t 0 r /Helvetica findfont 38.7603 sf 0 0 m (0.4) show NC gr 
 gsave  1088 846 1157 899 C 1316 1281.85 t 0 r /Helvetica findfont 38.7603 sf 0 0 m (0.6) show NC gr 
 gsave  1088 846 1157 899 C 1316 1370.65 t 0 r /Helvetica findfont 38.7603 sf 0 0 m (0.8) show NC gr 
 gsave  1088 846 1157 899 C 1354.71 1461.72 t 0 r /Helvetica findfont 38.7603 sf 0 0 m (1) show NC gr 
 gsave  1088 846 1157 899 C 1316 1552.79 t 0 r /Helvetica findfont 38.7603 sf 0 0 m (1.2) show NC gr 
 gsave  1088 846 1157 899 C 1313.73 1641.59 t 0 r /Helvetica findfont 38.7603 sf 0 0 m (1.4) show NC gr  6 lw 1 1 1 c black 3 lw 1377 1245 m24 6 lw 3 lw 1383 1246 m24 6 lw 3 lw 1388 1247 m24 6 lw 3 lw 1394 1248 m24 6 lw 3 lw 1400 1248 m24 6 lw 3 lw
 1405 1248 m24 6 lw 3 lw 1411 1246 m24 6 lw 3 lw 1417 1246 m24 6 lw 3 lw 1422 1246 m24 6 lw 3 lw 1428 1246 m24 6 lw 3 lw 1434 1247 m24 6 lw 3 lw 1439 1248 m24 6 lw 3 lw 1445 1248 m24 6 lw 3 lw 1451 1247 m24 6 lw 3 lw 1456 1245 m24 6 lw 3 lw 1462 1246
 m24 6 lw 3 lw 1468 1246 m24 6 lw 3 lw 1473 1245 m24 6 lw 3 lw 1479 1247 m24 6 lw 3 lw 1485 1249 m24 6 lw 3 lw 1490 1249 m24 6 lw 3 lw 1496 1248 m24 6 lw 3 lw 1502 1246 m24 6 lw 3 lw 1507 1245 m24 6 lw 3 lw 1513 1244 m24 6 lw 3 lw 1519 1244 m24 6 lw
 3 lw 1524 1245 m24 6 lw 3 lw 1530 1246 m24 6 lw 3 lw 1536 1246 m24 6 lw 3 lw 1541 1246 m24 6 lw 3 lw 1547 1245 m24 6 lw 3 lw 1553 1246 m24 6 lw 3 lw 1558 1246 m24 6 lw 3 lw 1564 1245 m24 6 lw 3 lw 1570 1247 m24 6 lw 3 lw 1575 1247 m24 6 lw 3 lw 1581
 1248 m24 6 lw 3 lw 1587 1246 m24 6 lw 3 lw 1593 1247 m24 6 lw 3 lw 1598 1246 m24 6 lw 3 lw 1604 1245 m24 6 lw 3 lw 1610 1244 m24 6 lw 3 lw 1615 1244 m24 6 lw 3 lw 1621 1243 m24 6 lw 3 lw 1627 1243 m24 6 lw 3 lw 1632 1242 m24 6 lw 3 lw 1638 1244 m24
 6 lw 3 lw 1644 1244 m24 6 lw 3 lw 1649 1246 m24 6 lw 3 lw 1655 1245 m24 6 lw 3 lw 1661 1246 m24 6 lw 3 lw 1666 1248 m24 6 lw 3 lw 1672 1248 m24 6 lw 3 lw 1678 1248 m24 6 lw 3 lw 1683 1247 m24 6 lw 3 lw 1689 1246 m24 6 lw 3 lw 1695 1246 m24 6 lw 3 lw
 1700 1246 m24 6 lw 3 lw 1706 1245 m24 6 lw 3 lw 1712 1247 m24 6 lw 3 lw 1717 1246 m24 6 lw 3 lw 1723 1247 m24 6 lw 3 lw 1729 1246 m24 6 lw 3 lw 1734 1246 m24 6 lw 3 lw 1740 1246 m24 6 lw 3 lw 1746 1246 m24 6 lw 3 lw 1751 1247 m24 6 lw 3 lw 1757 1248
 m24 6 lw 3 lw 1763 1249 m24 6 lw 3 lw 1768 1248 m24 6 lw 3 lw 1774 1247 m24 6 lw 3 lw 1780 1247 m24 6 lw 3 lw 1785 1245 m24 6 lw 3 lw 1791 1245 m24 6 lw 3 lw 1797 1247 m24 6 lw 3 lw 1802 1247 m24 6 lw 3 lw 1808 1248 m24 6 lw 3 lw 1814 1249 m24 6 lw
 3 lw 1819 1247 m24 6 lw 3 lw 1825 1248 m24 6 lw 3 lw 1831 1247 m24 6 lw 3 lw 1836 1248 m24 6 lw 3 lw 1842 1249 m24 6 lw 3 lw 1848 1248 m24 6 lw 3 lw 1853 1247 m24 6 lw 3 lw 1859 1247 m24 6 lw 3 lw 1865 1245 m24 6 lw 3 lw 1870 1245 m24 6 lw 3 lw 1876
 1244 m24 6 lw 3 lw 1882 1245 m24 6 lw 3 lw 1887 1245 m24 6 lw 3 lw 1893 1246 m24 6 lw 3 lw 1899 1246 m24 6 lw 3 lw 1904 1247 m24 6 lw 3 lw 1910 1245 m24 6 lw 3 lw 1916 1246 m24 6 lw 3 lw 1921 1247 m24 6 lw 3 lw 1927 1247 m24 6 lw 3 lw 1933 1249 m24
 6 lw 3 lw 1938 1249 m24 6 lw 3 lw 1944 1249 m24 6 lw 3 lw 1950 1249 m24 6 lw 3 lw 1955 1248 m24 6 lw 3 lw 1961 1248 m24 6 lw 3 lw 1967 1247 m24 6 lw 3 lw 1972 1248 m24 6 lw 3 lw 1978 1250 m24 6 lw 3 lw 1984 1251 m24 6 lw 3 lw 1989 1250 m24 6 lw 3 lw
 1995 1248 m24 6 lw 3 lw 2001 1245 m24 6 lw 3 lw 2006 1245 m24 6 lw 3 lw 2012 1245 m24 6 lw 3 lw 2018 1244 m24 6 lw 3 lw 2023 1245 m24 6 lw 3 lw 2029 1245 m24 6 lw 3 lw 2035 1247 m24 6 lw 3 lw 2040 1248 m24 6 lw 3 lw 2046 1245 m24 6 lw 3 lw 2052 1248
 m24 6 lw 3 lw 2057 1248 m24 6 lw 3 lw 2063 1249 m24 6 lw 3 lw 2069 1250 m24 6 lw 3 lw 2074 1251 m24 6 lw 3 lw 2080 1250 m24 6 lw 3 lw 2086 1248 m24 6 lw 3 lw 2091 1246 m24 6 lw 3 lw 2097 1246 m24 6 lw 3 lw 2103 1245 m24 6 lw 3 lw 2108 1246 m24 6 lw
 3 lw 2114 1248 m24 6 lw 3 lw 2120 1249 m24 6 lw 3 lw 2125 1249 m24 6 lw 3 lw 2131 1249 m24 6 lw 3 lw 2137 1247 m24 6 lw 3 lw 2142 1247 m24 6 lw 3 lw 2148 1245 m24 6 lw 3 lw 2154 1245 m24 6 lw 3 lw 2159 1246 m24 6 lw 3 lw 2165 1246 m24 6 lw 3 lw 2171
 1246 m24 6 lw 3 lw 2176 1246 m24 6 lw 3 lw 2182 1245 m24 6 lw 3 lw 2188 1245 m24 6 lw 1 0 0 c 1 1 1 c 1 0 0 c 3 lw 1377 1250 m25 6 lw 3 lw 1383 1250 m25 6 lw 3 lw 1388 1252 m25 6 lw 3 lw 1394 1253 m25 6 lw 3 lw 1400 1252 m25 6 lw 3 lw 1405 1252 m25
 6 lw 3 lw 1411 1251 m25 6 lw 3 lw 1417 1251 m25 6 lw 3 lw 1422 1251 m25 6 lw 3 lw 1428 1251 m25 6 lw 3 lw 1434 1252 m25 6 lw 3 lw 1439 1252 m25 6 lw 3 lw 1445 1252 m25 6 lw 3 lw 1451 1251 m25 6 lw 3 lw 1456 1249 m25 6 lw 3 lw 1462 1251 m25 6 lw 3 lw
 1468 1251 m25 6 lw 3 lw 1473 1250 m25 6 lw 3 lw 1479 1251 m25 6 lw 3 lw 1485 1253 m25 6 lw 3 lw 1490 1253 m25 6 lw 3 lw 1496 1252 m25 6 lw 3 lw 1502 1250 m25 6 lw 3 lw 1507 1250 m25 6 lw 3 lw 1513 1249 m25 6 lw 3 lw 1519 1248 m25 6 lw 3 lw 1524 1250
 m25 6 lw 3 lw 1530 1250 m25 6 lw 3 lw 1536 1251 m25 6 lw 3 lw 1541 1250 m25 6 lw 3 lw 1547 1250 m25 6 lw 3 lw 1553 1251 m25 6 lw 3 lw 1558 1250 m25 6 lw 3 lw 1564 1251 m25 6 lw 3 lw 1570 1252 m25 6 lw 3 lw 1575 1253 m25 6 lw 3 lw 1581 1253 m25 6 lw
 3 lw 1587 1252 m25 6 lw 3 lw 1593 1251 m25 6 lw 3 lw 1598 1250 m25 6 lw 3 lw 1604 1248 m25 6 lw 3 lw 1610 1248 m25 6 lw 3 lw 1615 1248 m25 6 lw 3 lw 1621 1247 m25 6 lw 3 lw 1627 1248 m25 6 lw 3 lw 1632 1247 m25 6 lw 3 lw 1638 1250 m25 6 lw 3 lw 1644
 1251 m25 6 lw 3 lw 1649 1253 m25 6 lw 3 lw 1655 1253 m25 6 lw 3 lw 1661 1255 m25 6 lw 3 lw 1666 1255 m25 6 lw 3 lw 1672 1254 m25 6 lw 3 lw 1678 1252 m25 6 lw 3 lw 1683 1251 m25 6 lw 3 lw 1689 1250 m25 6 lw 3 lw 1695 1250 m25 6 lw 3 lw 1700 1250 m25
 6 lw 3 lw 1706 1250 m25 6 lw 3 lw 1712 1251 m25 6 lw 3 lw 1717 1251 m25 6 lw 3 lw 1723 1252 m25 6 lw 3 lw 1729 1251 m25 6 lw 3 lw 1734 1251 m25 6 lw 3 lw 1740 1251 m25 6 lw 3 lw 1746 1251 m25 6 lw 3 lw 1751 1252 m25 6 lw 3 lw 1757 1252 m25 6 lw 3 lw
 1763 1253 m25 6 lw 3 lw 1768 1252 m25 6 lw 3 lw 1774 1251 m25 6 lw 3 lw 1780 1251 m25 6 lw 3 lw 1785 1250 m25 6 lw 3 lw 1791 1250 m25 6 lw 3 lw 1797 1252 m25 6 lw 3 lw 1802 1252 m25 6 lw 3 lw 1808 1253 m25 6 lw 3 lw 1814 1253 m25 6 lw 3 lw 1819 1252
 m25 6 lw 3 lw 1825 1252 m25 6 lw 3 lw 1831 1251 m25 6 lw 3 lw 1836 1252 m25 6 lw 3 lw 1842 1253 m25 6 lw 3 lw 1848 1253 m25 6 lw 3 lw 1853 1252 m25 6 lw 3 lw 1859 1252 m25 6 lw 3 lw 1865 1250 m25 6 lw 3 lw 1870 1250 m25 6 lw 3 lw 1876 1248 m25 6 lw
 3 lw 1882 1248 m25 6 lw 3 lw 1887 1249 m25 6 lw 3 lw 1893 1250 m25 6 lw 3 lw 1899 1251 m25 6 lw 3 lw 1904 1251 m25 6 lw 3 lw 1910 1250 m25 6 lw 3 lw 1916 1251 m25 6 lw 3 lw 1921 1251 m25 6 lw 3 lw 1927 1252 m25 6 lw 3 lw 1933 1253 m25 6 lw 3 lw 1938
 1254 m25 6 lw 3 lw 1944 1254 m25 6 lw 3 lw 1950 1253 m25 6 lw 3 lw 1955 1253 m25 6 lw 3 lw 1961 1253 m25 6 lw 3 lw 1967 1252 m25 6 lw 3 lw 1972 1252 m25 6 lw 3 lw 1978 1254 m25 6 lw 3 lw 1984 1255 m25 6 lw 3 lw 1989 1254 m25 6 lw 3 lw 1995 1253 m25
 6 lw 3 lw 2001 1250 m25 6 lw 3 lw 2006 1250 m25 6 lw 3 lw 2012 1249 m25 6 lw 3 lw 2018 1250 m25 6 lw 3 lw 2023 1249 m25 6 lw 3 lw 2029 1250 m25 6 lw 3 lw 2035 1251 m25 6 lw 3 lw 2040 1252 m25 6 lw 3 lw 2046 1251 m25 6 lw 3 lw 2052 1252 m25 6 lw 3 lw
 2057 1253 m25 6 lw 3 lw 2063 1253 m25 6 lw 3 lw 2069 1255 m25 6 lw 3 lw 2074 1255 m25 6 lw 3 lw 2080 1254 m25 6 lw 3 lw 2086 1252 m25 6 lw 3 lw 2091 1250 m25 6 lw 3 lw 2097 1251 m25 6 lw 3 lw 2103 1250 m25 6 lw 3 lw 2108 1251 m25 6 lw 3 lw 2114 1253
 m25 6 lw 3 lw 2120 1253 m25 6 lw 3 lw 2125 1254 m25 6 lw 3 lw 2131 1254 m25 6 lw 3 lw 2137 1252 m25 6 lw 3 lw 2142 1252 m25 6 lw 3 lw 2148 1250 m25 6 lw 3 lw 2154 1250 m25 6 lw 3 lw 2159 1250 m25 6 lw 3 lw 2165 1251 m25 6 lw 3 lw 2171 1251 m25 6 lw
 3 lw 2176 1250 m25 6 lw 3 lw 2182 1249 m25 6 lw 3 lw 2188 1250 m25 6 lw 0 0.4 0 c 1 1 1 c 0 0.4 0 c 3 lw 1377 1357 m26 6 lw 3 lw 1383 1359 m26 6 lw 3 lw 1388 1365 m26 6 lw 3 lw 1394 1359 m26 6 lw 3 lw 1400 1352 m26 6 lw 3 lw 1405 1356 m26 6 lw 3 lw
 1411 1347 m26 6 lw 3 lw 1417 1349 m26 6 lw 3 lw 1422 1344 m26 6 lw 3 lw 1428 1348 m26 6 lw 3 lw 1434 1355 m26 6 lw 3 lw 1439 1351 m26 6 lw 3 lw 1445 1348 m26 6 lw 3 lw 1451 1342 m26 6 lw 3 lw 1456 1346 m26 6 lw 3 lw 1462 1348 m26 6 lw 3 lw 1468 1345
 m26 6 lw 3 lw 1473 1342 m26 6 lw 3 lw 1479 1348 m26 6 lw 3 lw 1485 1351 m26 6 lw 3 lw 1490 1353 m26 6 lw 3 lw 1496 1353 m26 6 lw 3 lw 1502 1348 m26 6 lw 3 lw 1507 1350 m26 6 lw 3 lw 1513 1346 m26 6 lw 3 lw 1519 1346 m26 6 lw 3 lw 1524 1349 m26 6 lw
 3 lw 1530 1351 m26 6 lw 3 lw 1536 1349 m26 6 lw 3 lw 1541 1352 m26 6 lw 3 lw 1547 1354 m26 6 lw 3 lw 1553 1359 m26 6 lw 3 lw 1558 1385 m26 6 lw 3 lw 1564 1414 m26 6 lw 3 lw 1570 1440 m26 6 lw 3 lw 1575 1457 m26 6 lw 3 lw 1581 1468 m26 6 lw 3 lw 1587
 1472 m26 6 lw 3 lw 1593 1446 m26 6 lw 3 lw 1598 1441 m26 6 lw 3 lw 1604 1441 m26 6 lw 3 lw 1610 1458 m26 6 lw 3 lw 1615 1465 m26 6 lw 3 lw 1621 1468 m26 6 lw 3 lw 1627 1466 m26 6 lw 3 lw 1632 1471 m26 6 lw 3 lw 1638 1459 m26 6 lw 3 lw 1644 1440 m26
 6 lw 3 lw 1649 1452 m26 6 lw 3 lw 1655 1475 m26 6 lw 3 lw 1661 1489 m26 6 lw 3 lw 1666 1494 m26 6 lw 3 lw 1672 1483 m26 6 lw 3 lw 1678 1474 m26 6 lw 3 lw 1683 1456 m26 6 lw 3 lw 1689 1431 m26 6 lw 3 lw 1695 1423 m26 6 lw 3 lw 1700 1451 m26 6 lw 3 lw
 1706 1467 m26 6 lw 3 lw 1712 1478 m26 6 lw 3 lw 1717 1482 m26 6 lw 3 lw 1723 1474 m26 6 lw 3 lw 1729 1455 m26 6 lw 3 lw 1734 1429 m26 6 lw 3 lw 1740 1428 m26 6 lw 3 lw 1746 1435 m26 6 lw 3 lw 1751 1442 m26 6 lw 3 lw 1757 1446 m26 6 lw 3 lw 1763 1444
 m26 6 lw 3 lw 1768 1428 m26 6 lw 3 lw 1774 1401 m26 6 lw 3 lw 1780 1378 m26 6 lw 3 lw 1785 1359 m26 6 lw 3 lw 1791 1353 m26 6 lw 3 lw 1797 1349 m26 6 lw 3 lw 1802 1348 m26 6 lw 3 lw 1808 1358 m26 6 lw 3 lw 1814 1348 m26 6 lw 3 lw 1819 1351 m26 6 lw
 3 lw 1825 1352 m26 6 lw 3 lw 1831 1351 m26 6 lw 3 lw 1836 1350 m26 6 lw 3 lw 1842 1350 m26 6 lw 3 lw 1848 1357 m26 6 lw 3 lw 1853 1349 m26 6 lw 3 lw 1859 1344 m26 6 lw 3 lw 1865 1346 m26 6 lw 3 lw 1870 1344 m26 6 lw 3 lw 1876 1331 m26 6 lw 3 lw 1882
 1337 m26 6 lw 3 lw 1887 1328 m26 6 lw 3 lw 1893 1330 m26 6 lw 3 lw 1899 1336 m26 6 lw 3 lw 1904 1333 m26 6 lw 3 lw 1910 1339 m26 6 lw 3 lw 1916 1341 m26 6 lw 3 lw 1921 1348 m26 6 lw 3 lw 1927 1362 m26 6 lw 3 lw 1933 1360 m26 6 lw 3 lw 1938 1364 m26
 6 lw 3 lw 1944 1366 m26 6 lw 3 lw 1950 1364 m26 6 lw 3 lw 1955 1368 m26 6 lw 3 lw 1961 1360 m26 6 lw 3 lw 1967 1372 m26 6 lw 3 lw 1972 1365 m26 6 lw 3 lw 1978 1373 m26 6 lw 3 lw 1984 1382 m26 6 lw 3 lw 1989 1380 m26 6 lw 3 lw 1995 1375 m26 6 lw 3 lw
 2001 1375 m26 6 lw 3 lw 2006 1360 m26 6 lw 3 lw 2012 1355 m26 6 lw 3 lw 2018 1354 m26 6 lw 3 lw 2023 1359 m26 6 lw 3 lw 2029 1364 m26 6 lw 3 lw 2035 1384 m26 6 lw 3 lw 2040 1382 m26 6 lw 3 lw 2046 1391 m26 6 lw 3 lw 2052 1392 m26 6 lw 3 lw 2057 1391
 m26 6 lw 3 lw 2063 1393 m26 6 lw 3 lw 2069 1403 m26 6 lw 3 lw 2074 1399 m26 6 lw 3 lw 2080 1390 m26 6 lw 3 lw 2086 1392 m26 6 lw 3 lw 2091 1385 m26 6 lw 3 lw 2097 1381 m26 6 lw 3 lw 2103 1380 m26 6 lw 3 lw 2108 1387 m26 6 lw 3 lw 2114 1391 m26 6 lw
 3 lw 2120 1390 m26 6 lw 3 lw 2125 1382 m26 6 lw 3 lw 2131 1390 m26 6 lw 3 lw 2137 1384 m26 6 lw 3 lw 2142 1374 m26 6 lw 3 lw 2148 1377 m26 6 lw 3 lw 2154 1379 m26 6 lw 3 lw 2159 1375 m26 6 lw 3 lw 2165 1380 m26 6 lw 3 lw 2171 1366 m26 6 lw 3 lw 2176
 1372 m26 6 lw 3 lw 2182 1369 m26 6 lw 3 lw 2188 1360 m26 6 lw 0 0 1 c 1 1 1 c 0 0 1 c 3 lw 1377 1369 m27 6 lw 3 lw 1383 1364 m27 6 lw 3 lw 1388 1368 m27 6 lw 3 lw 1394 1371 m27 6 lw 3 lw 1400 1369 m27 6 lw 3 lw 1405 1364 m27 6 lw 3 lw 1411 1358 m27
 6 lw 3 lw 1417 1360 m27 6 lw 3 lw 1422 1358 m27 6 lw 3 lw 1428 1356 m27 6 lw 3 lw 1434 1362 m27 6 lw 3 lw 1439 1361 m27 6 lw 3 lw 1445 1355 m27 6 lw 3 lw 1451 1356 m27 6 lw 3 lw 1456 1348 m27 6 lw 3 lw 1462 1346 m27 6 lw 3 lw 1468 1336 m27 6 lw 3 lw
 1473 1341 m27 6 lw 3 lw 1479 1345 m27 6 lw 3 lw 1485 1345 m27 6 lw 3 lw 1490 1354 m27 6 lw 3 lw 1496 1349 m27 6 lw 3 lw 1502 1351 m27 6 lw 3 lw 1507 1349 m27 6 lw 3 lw 1513 1349 m27 6 lw 3 lw 1519 1351 m27 6 lw 3 lw 1524 1358 m27 6 lw 3 lw 1530 1358
 m27 6 lw 3 lw 1536 1351 m27 6 lw 3 lw 1541 1358 m27 6 lw 3 lw 1547 1358 m27 6 lw 3 lw 1553 1371 m27 6 lw 3 lw 1558 1392 m27 6 lw 3 lw 1564 1421 m27 6 lw 3 lw 1570 1452 m27 6 lw 3 lw 1575 1465 m27 6 lw 3 lw 1581 1476 m27 6 lw 3 lw 1587 1481 m27 6 lw
 3 lw 1593 1461 m27 6 lw 3 lw 1598 1443 m27 6 lw 3 lw 1604 1448 m27 6 lw 3 lw 1610 1449 m27 6 lw 3 lw 1615 1471 m27 6 lw 3 lw 1621 1470 m27 6 lw 3 lw 1627 1472 m27 6 lw 3 lw 1632 1460 m27 6 lw 3 lw 1638 1455 m27 6 lw 3 lw 1644 1448 m27 6 lw 3 lw 1649
 1455 m27 6 lw 3 lw 1655 1477 m27 6 lw 3 lw 1661 1500 m27 6 lw 3 lw 1666 1519 m27 6 lw 3 lw 1672 1499 m27 6 lw 3 lw 1678 1486 m27 6 lw 3 lw 1683 1462 m27 6 lw 3 lw 1689 1444 m27 6 lw 3 lw 1695 1444 m27 6 lw 3 lw 1700 1464 m27 6 lw 3 lw 1706 1478 m27
 6 lw 3 lw 1712 1490 m27 6 lw 3 lw 1717 1491 m27 6 lw 3 lw 1723 1482 m27 6 lw 3 lw 1729 1463 m27 6 lw 3 lw 1734 1436 m27 6 lw 3 lw 1740 1431 m27 6 lw 3 lw 1746 1433 m27 6 lw 3 lw 1751 1443 m27 6 lw 3 lw 1757 1452 m27 6 lw 3 lw 1763 1447 m27 6 lw 3 lw
 1768 1435 m27 6 lw 3 lw 1774 1408 m27 6 lw 3 lw 1780 1389 m27 6 lw 3 lw 1785 1369 m27 6 lw 3 lw 1791 1362 m27 6 lw 3 lw 1797 1361 m27 6 lw 3 lw 1802 1356 m27 6 lw 3 lw 1808 1359 m27 6 lw 3 lw 1814 1352 m27 6 lw 3 lw 1819 1347 m27 6 lw 3 lw 1825 1344
 m27 6 lw 3 lw 1831 1349 m27 6 lw 3 lw 1836 1343 m27 6 lw 3 lw 1842 1345 m27 6 lw 3 lw 1848 1348 m27 6 lw 3 lw 1853 1354 m27 6 lw 3 lw 1859 1350 m27 6 lw 3 lw 1865 1353 m27 6 lw 3 lw 1870 1356 m27 6 lw 3 lw 1876 1347 m27 6 lw 3 lw 1882 1347 m27 6 lw
 3 lw 1887 1355 m27 6 lw 3 lw 1893 1359 m27 6 lw 3 lw 1899 1357 m27 6 lw 3 lw 1904 1356 m27 6 lw 3 lw 1910 1361 m27 6 lw 3 lw 1916 1353 m27 6 lw 3 lw 1921 1358 m27 6 lw 3 lw 1927 1362 m27 6 lw 3 lw 1933 1365 m27 6 lw 3 lw 1938 1362 m27 6 lw 3 lw 1944
 1366 m27 6 lw 3 lw 1950 1370 m27 6 lw 3 lw 1955 1370 m27 6 lw 3 lw 1961 1369 m27 6 lw 3 lw 1967 1378 m27 6 lw 3 lw 1972 1379 m27 6 lw 3 lw 1978 1387 m27 6 lw 3 lw 1984 1387 m27 6 lw 3 lw 1989 1385 m27 6 lw 3 lw 1995 1378 m27 6 lw 3 lw 2001 1371 m27
 6 lw 3 lw 2006 1366 m27 6 lw 3 lw 2012 1361 m27 6 lw 3 lw 2018 1377 m27 6 lw 3 lw 2023 1374 m27 6 lw 3 lw 2029 1383 m27 6 lw 3 lw 2035 1397 m27 6 lw 3 lw 2040 1394 m27 6 lw 3 lw 2046 1394 m27 6 lw 3 lw 2052 1402 m27 6 lw 3 lw 2057 1394 m27 6 lw 3 lw
 2063 1404 m27 6 lw 3 lw 2069 1408 m27 6 lw 3 lw 2074 1405 m27 6 lw 3 lw 2080 1406 m27 6 lw 3 lw 2086 1397 m27 6 lw 3 lw 2091 1391 m27 6 lw 3 lw 2097 1387 m27 6 lw 3 lw 2103 1386 m27 6 lw 3 lw 2108 1392 m27 6 lw 3 lw 2114 1400 m27 6 lw 3 lw 2120 1399
 m27 6 lw 3 lw 2125 1399 m27 6 lw 3 lw 2131 1393 m27 6 lw 3 lw 2137 1389 m27 6 lw 3 lw 2142 1383 m27 6 lw 3 lw 2148 1378 m27 6 lw 3 lw 2154 1386 m27 6 lw 3 lw 2159 1383 m27 6 lw 3 lw 2165 1377 m27 6 lw 3 lw 2171 1381 m27 6 lw 3 lw 2176 1377 m27 6 lw
 3 lw 2182 1376 m27 6 lw 3 lw 2188 1370 m27 6 lw black
 gsave  1088 846 1157 899 C 1762.26 1646.14 t 0 r /Helvetica findfont 36.4802 sf 0 0 m (Charged jets) show NC gr 
 gsave  1088 846 1157 899 C 1844.23 1602.88 t 0 r /Helvetica-Bold findfont 36.4802 sf 0 0 m (LHC13b) show NC gr  3 lw 1800 1616 m24 6 lw
 gsave  1088 846 1157 899 C 1844.23 1561.9 t 0 r /Helvetica-Bold findfont 36.4802 sf 0 0 m (LHC13c) show NC gr  1 0 0 c 3 lw 1800 1575 m25 6 lw black
 gsave  1088 846 1157 899 C 1844.23 1523.2 t 0 r /Helvetica-Bold findfont 36.4802 sf 0 0 m (LHC13d) show NC gr  0 0.4 0 c 3 lw 1800 1535 m26 6 lw black
 gsave  1088 846 1157 899 C 1844.23 1482.21 t 0 r /Helvetica-Bold findfont 36.4802 sf 0 0 m (LHC13e) show NC gr  0 0 1 c 3 lw 1800 1494 m27 6 lw black 3 lw 1 1 1 c 1088 846 23 18 bf black 1 1 1 c 817 676 240 145 bf black 817 676 240 145 bl 1 1 1 c
 817 676 240 145 bf black 817 676 240 145 bl 240 145 m 817 X s
 gsave  1088 846 23 18 C 1026.85 63.7511 t 0 r /Symbol findfont 47.8803 sf 0 0 m (j) show NC gr  240 164 m -19 Y s 266 154 m -9 Y s 292 154 m -9 Y s 318 154 m -9 Y s 344 154 m -9 Y s 370 164 m -19 Y s 396 154 m -9 Y s 422 154 m -9 Y s 448 154 m -9 Y
 s 474 154 m -9 Y s 500 164 m -19 Y s 526 154 m -9 Y s 552 154 m -9 Y s 578 154 m -9 Y s 604 154 m -9 Y s 630 164 m -19 Y s 656 154 m -9 Y s 682 154 m -9 Y s 708 154 m -9 Y s 734 154 m -9 Y s 760 164 m -19 Y s 786 154 m -9 Y s 812 154 m -9 Y s 838
 154 m -9 Y s 864 154 m -9 Y s 890 164 m -19 Y s 916 154 m -9 Y s 942 154 m -9 Y s 968 154 m -9 Y s 994 154 m -9 Y s 1020 164 m -19 Y s 1020 164 m -19 Y s 1046 154 m -9 Y s
 gsave  1088 846 23 18 C 227.682 107.011 t 0 r /Helvetica findfont 38.7603 sf 0 0 m (0) show NC gr 
 gsave  1088 846 23 18 C 362.015 107.011 t 0 r /Helvetica findfont 38.7603 sf 0 0 m (1) show NC gr 
 gsave  1088 846 23 18 C 487.24 107.011 t 0 r /Helvetica findfont 38.7603 sf 0 0 m (2) show NC gr 
 gsave  1088 846 23 18 C 617.019 107.011 t 0 r /Helvetica findfont 38.7603 sf 0 0 m (3) show NC gr 
 gsave  1088 846 23 18 C 746.798 107.011 t 0 r /Helvetica findfont 38.7603 sf 0 0 m (4) show NC gr 
 gsave  1088 846 23 18 C 876.577 107.011 t 0 r /Helvetica findfont 38.7603 sf 0 0 m (5) show NC gr 
 gsave  1088 846 23 18 C 1006.36 107.011 t 0 r /Helvetica findfont 38.7603 sf 0 0 m (6) show NC gr  240 145 m 676 Y s
 gsave  1088 846 23 18 C 88.7961 808.272 t 90 r /Helvetica findfont 47.8803 sf 0 0 m (\)) show NC gr 
 gsave  1088 846 23 18 C 88.7961 780.951 t 90 r /Helvetica-Oblique findfont 47.8803 sf 0 0 m (c) show NC gr 
 gsave  1088 846 23 18 C 88.7961 576.036 t 90 r /Helvetica findfont 47.8803 sf 0 0 m (>40 GeV/) show NC gr 
 gsave  1088 846 23 18 C 116.118 514.562 t 90 r /Helvetica findfont 31.9202 sf 0 0 m (T,jet) show NC gr 
 gsave  1088 846 23 18 C 88.7961 484.963 t 90 r /Helvetica-Oblique findfont 47.8803 sf 0 0 m (p) show NC gr 
 gsave  1088 846 23 18 C 88.7961 457.642 t 90 r /Helvetica findfont 47.8803 sf 0 0 m ( \() show NC gr 
 gsave  1088 846 23 18 C 118.395 423.489 t 90 r /Symbol findfont 47.8803 sf 0 0 m (j) show NC gr 
 gsave  1088 846 23 18 C 118.395 398.444 t 90 r /Helvetica findfont 47.8803 sf 0 0 m (d) show NC gr 
 gsave  1088 846 23 18 C 68.3047 418.936 t 90 r /Helvetica-Oblique findfont 47.8803 sf 0 0 m (N) show NC gr 
 gsave  1088 846 23 18 C 68.3047 393.891 t 90 r /Helvetica findfont 47.8803 sf 0 0 m (d) show NC gr  6 lw 75 394 m 64 Y s
 gsave  1088 846 23 18 C 88.7961 377.953 t 90 r /Helvetica findfont 47.8803 sf 0 0 m ( ) show NC gr 
 gsave  1088 846 23 18 C 132.056 334.693 t 90 r /Helvetica findfont 31.9202 sf 0 0 m (evt) show NC gr 
 gsave  1088 846 23 18 C 118.395 295.987 t 90 r /Helvetica-Oblique findfont 47.8803 sf 0 0 m (N) show NC gr 
 gsave  1088 846 23 18 C 70.5815 327.863 t 90 r /Helvetica findfont 47.8803 sf 0 0 m (1) show NC gr  75 296 m 82 Y s 3 lw 267 145 m -27 X s 253 158 m -13 X s 253 172 m -13 X s 253 185 m -13 X s 253 199 m -13 X s 267 212 m -27 X s 253 226 m -13 X s
 253 239 m -13 X s 253 253 m -13 X s 253 266 m -13 X s 267 280 m -27 X s 253 293 m -13 X s 253 307 m -13 X s 253 320 m -13 X s 253 334 m -13 X s 267 348 m -27 X s 253 361 m -13 X s 253 375 m -13 X s 253 388 m -13 X s 253 402 m -13 X s 267 415 m -27 X
 s 253 429 m -13 X s 253 442 m -13 X s 253 456 m -13 X s 253 469 m -13 X s 267 483 m -27 X s 253 496 m -13 X s 253 510 m -13 X s 253 523 m -13 X s 253 537 m -13 X s 267 551 m -27 X s 253 564 m -13 X s 253 578 m -13 X s 253 591 m -13 X s 253 605 m -13
 X s 267 618 m -27 X s 253 632 m -13 X s 253 645 m -13 X s 253 659 m -13 X s 253 672 m -13 X s 267 686 m -27 X s 253 699 m -13 X s 253 713 m -13 X s 253 726 m -13 X s 253 740 m -13 X s 267 754 m -27 X s 253 767 m -13 X s 253 781 m -13 X s 253 794 m
 -13 X s 253 808 m -13 X s 267 821 m -27 X s
 gsave  1088 846 23 18 C 214.021 129.779 t 0 r /Helvetica findfont 38.7603 sf 0 0 m (0) show NC gr 
 gsave  1088 846 23 18 C 166.208 198.084 t 0 r /Helvetica findfont 38.7603 sf 0 0 m (0.01) show NC gr 
 gsave  1088 846 23 18 C 159.378 264.112 t 0 r /Helvetica findfont 38.7603 sf 0 0 m (0.02) show NC gr 
 gsave  1088 846 23 18 C 159.378 332.416 t 0 r /Helvetica findfont 38.7603 sf 0 0 m (0.03) show NC gr 
 gsave  1088 846 23 18 C 159.378 400.721 t 0 r /Helvetica findfont 38.7603 sf 0 0 m (0.04) show NC gr 
 gsave  1088 846 23 18 C 159.378 469.026 t 0 r /Helvetica findfont 38.7603 sf 0 0 m (0.05) show NC gr 
 gsave  1088 846 23 18 C 159.378 535.054 t 0 r /Helvetica findfont 38.7603 sf 0 0 m (0.06) show NC gr 
 gsave  1088 846 23 18 C 159.378 603.358 t 0 r /Helvetica findfont 38.7603 sf 0 0 m (0.07) show NC gr 
 gsave  1088 846 23 18 C 159.378 671.663 t 0 r /Helvetica findfont 38.7603 sf 0 0 m (0.08) show NC gr 
 gsave  1088 846 23 18 C 159.378 737.691 t 0 r /Helvetica findfont 38.7603 sf 0 0 m (0.09) show NC gr 
 gsave  1088 846 23 18 C 186.7 805.996 t 0 r /Helvetica findfont 38.7603 sf 0 0 m (0.1) show NC gr  6 lw 1 1 1 c black 3 lw 476 145 m24 6 lw 3 lw 481 145 m24 6 lw 3 lw 487 145 m24 6 lw 3 lw 493 145 m24 6 lw 3 lw 498 145 m24 6 lw 3 lw 504 145 m24 6 lw
 3 lw 510 145 m24 6 lw 3 lw 515 145 m24 6 lw 3 lw 521 145 m24 6 lw 3 lw 527 145 m24 6 lw 3 lw 532 145 m24 6 lw 3 lw 538 145 m24 6 lw 3 lw 544 145 m24 6 lw 3 lw 549 145 m24 6 lw 3 lw 555 145 m24 6 lw 3 lw 561 145 m24 6 lw 3 lw 566 145 m24 6 lw 3 lw
 572 145 m24 6 lw 3 lw 578 145 m24 6 lw 3 lw 583 145 m24 6 lw 3 lw 589 145 m24 6 lw 3 lw 595 145 m24 6 lw 1 0 0 c 1 1 1 c 1 0 0 c 3 lw 476 145 m25 6 lw 3 lw 481 145 m25 6 lw 3 lw 487 145 m25 6 lw 3 lw 493 145 m25 6 lw 3 lw 498 145 m25 6 lw 3 lw 504
 145 m25 6 lw 3 lw 510 145 m25 6 lw 3 lw 515 145 m25 6 lw 3 lw 521 145 m25 6 lw 3 lw 527 145 m25 6 lw 3 lw 532 145 m25 6 lw 3 lw 538 145 m25 6 lw 3 lw 544 145 m25 6 lw 3 lw 549 145 m25 6 lw 3 lw 555 145 m25 6 lw 3 lw 561 145 m25 6 lw 3 lw 566 145 m25
 6 lw 3 lw 572 145 m25 6 lw 3 lw 578 145 m25 6 lw 3 lw 583 145 m25 6 lw 3 lw 589 145 m25 6 lw 3 lw 595 145 m25 6 lw 0 0.4 0 c 1 1 1 c 0 0.4 0 c 476 339 m 2 Y s 476 359 m 2 Y s 3 lw 476 350 m26 6 lw 481 418 m 4 Y s 481 440 m 4 Y s 3 lw 481 431 m26 6
 lw 487 402 m 3 Y s 487 424 m 3 Y s 3 lw 487 415 m26 6 lw 493 388 m 3 Y s 493 409 m 3 Y s 3 lw 493 400 m26 6 lw 498 412 m 3 Y s 498 433 m 4 Y s 3 lw 498 424 m26 6 lw 504 375 m 2 Y s 504 395 m 3 Y s 3 lw 504 386 m26 6 lw 510 330 m 1 Y s 510 349 m 2 Y
 s 3 lw 510 340 m26 6 lw 515 328 m 1 Y s 515 348 m 1 Y s 3 lw 515 339 m26 6 lw 521 399 m 3 Y s 521 420 m 4 Y s 3 lw 521 411 m26 6 lw 527 456 m 5 Y s 527 479 m 4 Y s 3 lw 527 470 m26 6 lw 532 441 m 4 Y s 532 463 m 5 Y s 3 lw 532 454 m26 6 lw 538 413 m
 3 Y s 538 434 m 4 Y s 3 lw 538 425 m26 6 lw 544 431 m 4 Y s 544 453 m 4 Y s 3 lw 544 444 m26 6 lw 549 377 m 3 Y s 549 398 m 3 Y s 3 lw 549 389 m26 6 lw 555 305 m 1 Y s 555 324 m 1 Y s 3 lw 555 315 m26 6 lw 561 296 m 1 Y s 561 315 m s 3 lw 561 306
 m26 6 lw 566 386 m 3 Y s 566 407 m 3 Y s 3 lw 566 398 m26 6 lw 572 455 m 4 Y s 572 478 m 4 Y s 3 lw 572 469 m26 6 lw 578 452 m 5 Y s 578 475 m 4 Y s 3 lw 578 466 m26 6 lw 583 479 m 5 Y s 583 503 m 5 Y s 3 lw 583 493 m26 6 lw 589 446 m 4 Y s 589 469
 m 4 Y s 3 lw 589 459 m26 6 lw 595 370 m 2 Y s 595 390 m 3 Y s 3 lw 595 381 m26 6 lw 0 0 1 c 1 1 1 c 0 0 1 c 3 lw 476 324 m27 6 lw 481 405 m s 481 424 m s 3 lw 481 415 m27 6 lw 487 393 m s 487 411 m s 3 lw 487 402 m27 6 lw 3 lw 493 396 m27 6 lw 3 lw
 498 378 m27 6 lw 3 lw 504 361 m27 6 lw 3 lw 510 308 m27 6 lw 3 lw 515 322 m27 6 lw 3 lw 521 382 m27 6 lw 527 436 m 1 Y s 527 455 m 1 Y s 3 lw 527 446 m27 6 lw 532 464 m 1 Y s 532 483 m 1 Y s 3 lw 532 474 m27 6 lw 538 433 m 1 Y s 538 452 m s 3 lw 538
 443 m27 6 lw 544 410 m s 544 429 m s 3 lw 544 419 m27 6 lw 3 lw 549 381 m27 6 lw 3 lw 555 301 m27 6 lw 3 lw 561 313 m27 6 lw 3 lw 566 379 m27 6 lw 572 444 m 1 Y s 572 463 m 1 Y s 3 lw 572 454 m27 6 lw 578 427 m s 578 446 m s 3 lw 578 437 m27 6 lw
 583 453 m 1 Y s 583 472 m 1 Y s 3 lw 583 463 m27 6 lw 589 439 m s 589 458 m s 3 lw 589 448 m27 6 lw 3 lw 595 357 m27 6 lw black
 gsave  1088 846 23 18 C 628.403 765.013 t 0 r /Helvetica findfont 36.4802 sf 0 0 m (Full jets) show NC gr 
 gsave  1088 846 23 18 C 710.369 721.753 t 0 r /Helvetica-Bold findfont 36.4802 sf 0 0 m (LHC13b) show NC gr  3 lw 666 735 m24 6 lw
 gsave  1088 846 23 18 C 710.369 680.77 t 0 r /Helvetica-Bold findfont 36.4802 sf 0 0 m (LHC13c) show NC gr  1 0 0 c 3 lw 666 694 m25 6 lw black
 gsave  1088 846 23 18 C 710.369 642.064 t 0 r /Helvetica-Bold findfont 36.4802 sf 0 0 m (LHC13d) show NC gr  0 0.4 0 c 3 lw 666 654 m26 6 lw black
 gsave  1088 846 23 18 C 710.369 601.081 t 0 r /Helvetica-Bold findfont 36.4802 sf 0 0 m (LHC13e) show NC gr  0 0 1 c 3 lw 666 613 m27 6 lw black 3 lw 1 1 1 c 1088 846 1157 18 bf black 1 1 1 c 817 676 1374 145 bf black 817 676 1374 145 bl 1 1 1 c 817
 676 1374 145 bf black 817 676 1374 145 bl 1374 145 m 817 X s
 gsave  1088 846 1157 18 C 2160.71 63.7511 t 0 r /Symbol findfont 47.8803 sf 0 0 m (j) show NC gr  1374 164 m -19 Y s 1400 154 m -9 Y s 1426 154 m -9 Y s 1452 154 m -9 Y s 1478 154 m -9 Y s 1504 164 m -19 Y s 1530 154 m -9 Y s 1556 154 m -9 Y s 1582
 154 m -9 Y s 1608 154 m -9 Y s 1634 164 m -19 Y s 1660 154 m -9 Y s 1686 154 m -9 Y s 1712 154 m -9 Y s 1738 154 m -9 Y s 1764 164 m -19 Y s 1790 154 m -9 Y s 1816 154 m -9 Y s 1842 154 m -9 Y s 1868 154 m -9 Y s 1894 164 m -19 Y s 1920 154 m -9 Y s
 1946 154 m -9 Y s 1972 154 m -9 Y s 1998 154 m -9 Y s 2024 164 m -19 Y s 2050 154 m -9 Y s 2076 154 m -9 Y s 2102 154 m -9 Y s 2128 154 m -9 Y s 2154 164 m -19 Y s 2154 164 m -19 Y s 2180 154 m -9 Y s
 gsave  1088 846 1157 18 C 1361.54 107.011 t 0 r /Helvetica findfont 38.7603 sf 0 0 m (0) show NC gr 
 gsave  1088 846 1157 18 C 1495.87 107.011 t 0 r /Helvetica findfont 38.7603 sf 0 0 m (1) show NC gr 
 gsave  1088 846 1157 18 C 1621.1 107.011 t 0 r /Helvetica findfont 38.7603 sf 0 0 m (2) show NC gr 
 gsave  1088 846 1157 18 C 1750.88 107.011 t 0 r /Helvetica findfont 38.7603 sf 0 0 m (3) show NC gr 
 gsave  1088 846 1157 18 C 1880.66 107.011 t 0 r /Helvetica findfont 38.7603 sf 0 0 m (4) show NC gr 
 gsave  1088 846 1157 18 C 2010.44 107.011 t 0 r /Helvetica findfont 38.7603 sf 0 0 m (5) show NC gr 
 gsave  1088 846 1157 18 C 2140.21 107.011 t 0 r /Helvetica findfont 38.7603 sf 0 0 m (6) show NC gr  1374 145 m 676 Y s
 gsave  1088 846 1157 18 C 1222.65 808.272 t 90 r /Helvetica findfont 47.8803 sf 0 0 m (\)) show NC gr 
 gsave  1088 846 1157 18 C 1222.65 780.951 t 90 r /Helvetica-Oblique findfont 47.8803 sf 0 0 m (c) show NC gr 
 gsave  1088 846 1157 18 C 1222.65 576.036 t 90 r /Helvetica findfont 47.8803 sf 0 0 m (>40 GeV/) show NC gr 
 gsave  1088 846 1157 18 C 1249.98 514.562 t 90 r /Helvetica findfont 31.9202 sf 0 0 m (T,jet) show NC gr 
 gsave  1088 846 1157 18 C 1222.65 484.963 t 90 r /Helvetica-Oblique findfont 47.8803 sf 0 0 m (p) show NC gr 
 gsave  1088 846 1157 18 C 1222.65 457.642 t 90 r /Helvetica findfont 47.8803 sf 0 0 m ( \() show NC gr 
 gsave  1088 846 1157 18 C 1252.25 423.489 t 90 r /Symbol findfont 47.8803 sf 0 0 m (j) show NC gr 
 gsave  1088 846 1157 18 C 1252.25 398.444 t 90 r /Helvetica findfont 47.8803 sf 0 0 m (d) show NC gr 
 gsave  1088 846 1157 18 C 1202.16 418.936 t 90 r /Helvetica-Oblique findfont 47.8803 sf 0 0 m (N) show NC gr 
 gsave  1088 846 1157 18 C 1202.16 393.891 t 90 r /Helvetica findfont 47.8803 sf 0 0 m (d) show NC gr  6 lw 1211 394 m 64 Y s
 gsave  1088 846 1157 18 C 1222.65 377.953 t 90 r /Helvetica findfont 47.8803 sf 0 0 m ( ) show NC gr 
 gsave  1088 846 1157 18 C 1265.91 334.693 t 90 r /Helvetica findfont 31.9202 sf 0 0 m (evt) show NC gr 
 gsave  1088 846 1157 18 C 1252.25 295.987 t 90 r /Helvetica-Oblique findfont 47.8803 sf 0 0 m (N) show NC gr 
 gsave  1088 846 1157 18 C 1204.44 327.863 t 90 r /Helvetica findfont 47.8803 sf 0 0 m (1) show NC gr  1211 296 m 82 Y s 3 lw 1400 145 m -26 X s 1387 167 m -13 X s 1387 190 m -13 X s 1387 212 m -13 X s 1387 235 m -13 X s 1400 257 m -26 X s 1387 280 m
 -13 X s 1387 302 m -13 X s 1387 325 m -13 X s 1387 348 m -13 X s 1400 370 m -26 X s 1387 393 m -13 X s 1387 415 m -13 X s 1387 438 m -13 X s 1387 460 m -13 X s 1400 483 m -26 X s 1387 505 m -13 X s 1387 528 m -13 X s 1387 551 m -13 X s 1387 573 m
 -13 X s 1400 596 m -26 X s 1387 618 m -13 X s 1387 641 m -13 X s 1387 663 m -13 X s 1387 686 m -13 X s 1400 708 m -26 X s 1387 731 m -13 X s 1387 754 m -13 X s 1387 776 m -13 X s 1387 799 m -13 X s 1400 821 m -26 X s 1400 821 m -26 X s
 gsave  1088 846 1157 18 C 1347.88 129.779 t 0 r /Helvetica findfont 38.7603 sf 0 0 m (0) show NC gr 
 gsave  1088 846 1157 18 C 1272.74 243.62 t 0 r /Helvetica findfont 38.7603 sf 0 0 m (0.005) show NC gr 
 gsave  1088 846 1157 18 C 1300.07 355.185 t 0 r /Helvetica findfont 38.7603 sf 0 0 m (0.01) show NC gr 
 gsave  1088 846 1157 18 C 1272.74 469.026 t 0 r /Helvetica findfont 38.7603 sf 0 0 m (0.015) show NC gr 
 gsave  1088 846 1157 18 C 1293.24 580.59 t 0 r /Helvetica findfont 38.7603 sf 0 0 m (0.02) show NC gr 
 gsave  1088 846 1157 18 C 1272.74 694.431 t 0 r /Helvetica findfont 38.7603 sf 0 0 m (0.025) show NC gr 
 gsave  1088 846 1157 18 C 1293.24 805.996 t 0 r /Helvetica findfont 38.7603 sf 0 0 m (0.03) show NC gr  6 lw 1 1 1 c black 3 lw 1377 145 m24 6 lw 3 lw 1383 145 m24 6 lw 3 lw 1388 145 m24 6 lw 3 lw 1394 145 m24 6 lw 3 lw 1400 145 m24 6 lw 3 lw 1405
 145 m24 6 lw 3 lw 1411 145 m24 6 lw 3 lw 1417 145 m24 6 lw 3 lw 1422 145 m24 6 lw 3 lw 1428 145 m24 6 lw 3 lw 1434 145 m24 6 lw 3 lw 1439 145 m24 6 lw 3 lw 1445 145 m24 6 lw 3 lw 1451 145 m24 6 lw 3 lw 1456 145 m24 6 lw 3 lw 1462 145 m24 6 lw 3 lw
 1468 145 m24 6 lw 3 lw 1473 145 m24 6 lw 3 lw 1479 145 m24 6 lw 3 lw 1485 145 m24 6 lw 3 lw 1490 145 m24 6 lw 3 lw 1496 145 m24 6 lw 3 lw 1502 145 m24 6 lw 3 lw 1507 145 m24 6 lw 3 lw 1513 145 m24 6 lw 3 lw 1519 145 m24 6 lw 3 lw 1524 145 m24 6 lw 3
 lw 1530 145 m24 6 lw 3 lw 1536 145 m24 6 lw 3 lw 1541 145 m24 6 lw 3 lw 1547 145 m24 6 lw 3 lw 1553 145 m24 6 lw 3 lw 1558 145 m24 6 lw 3 lw 1564 145 m24 6 lw 3 lw 1570 145 m24 6 lw 3 lw 1575 145 m24 6 lw 3 lw 1581 145 m24 6 lw 3 lw 1587 145 m24 6
 lw 3 lw 1593 145 m24 6 lw 3 lw 1598 145 m24 6 lw 3 lw 1604 145 m24 6 lw 3 lw 1610 145 m24 6 lw 3 lw 1615 145 m24 6 lw 3 lw 1621 145 m24 6 lw 3 lw 1627 145 m24 6 lw 3 lw 1632 145 m24 6 lw 3 lw 1638 145 m24 6 lw 3 lw 1644 145 m24 6 lw 3 lw 1649 145
 m24 6 lw 3 lw 1655 145 m24 6 lw 3 lw 1661 145 m24 6 lw 3 lw 1672 145 m24 6 lw 3 lw 1678 145 m24 6 lw 3 lw 1683 145 m24 6 lw 3 lw 1689 145 m24 6 lw 3 lw 1695 145 m24 6 lw 3 lw 1700 145 m24 6 lw 3 lw 1706 145 m24 6 lw 3 lw 1712 145 m24 6 lw 3 lw 1717
 145 m24 6 lw 3 lw 1723 145 m24 6 lw 3 lw 1729 145 m24 6 lw 3 lw 1734 145 m24 6 lw 3 lw 1740 145 m24 6 lw 3 lw 1746 145 m24 6 lw 3 lw 1751 145 m24 6 lw 3 lw 1757 145 m24 6 lw 3 lw 1763 145 m24 6 lw 3 lw 1768 145 m24 6 lw 3 lw 1774 145 m24 6 lw 3 lw
 1780 145 m24 6 lw 3 lw 1785 145 m24 6 lw 3 lw 1791 145 m24 6 lw 3 lw 1797 145 m24 6 lw 3 lw 1802 145 m24 6 lw 3 lw 1808 145 m24 6 lw 3 lw 1814 145 m24 6 lw 3 lw 1819 145 m24 6 lw 3 lw 1825 145 m24 6 lw 3 lw 1831 145 m24 6 lw 3 lw 1836 145 m24 6 lw 3
 lw 1842 145 m24 6 lw 3 lw 1848 145 m24 6 lw 3 lw 1853 145 m24 6 lw 3 lw 1859 145 m24 6 lw 3 lw 1865 145 m24 6 lw 3 lw 1870 145 m24 6 lw 3 lw 1876 145 m24 6 lw 3 lw 1882 145 m24 6 lw 3 lw 1887 145 m24 6 lw 3 lw 1893 145 m24 6 lw 3 lw 1899 145 m24 6
 lw 3 lw 1904 145 m24 6 lw 3 lw 1910 145 m24 6 lw 3 lw 1916 145 m24 6 lw 3 lw 1921 145 m24 6 lw 3 lw 1927 145 m24 6 lw 3 lw 1933 145 m24 6 lw 3 lw 1938 145 m24 6 lw 3 lw 1944 145 m24 6 lw 3 lw 1950 145 m24 6 lw 3 lw 1955 145 m24 6 lw 3 lw 1961 145
 m24 6 lw 3 lw 1967 145 m24 6 lw 3 lw 1972 145 m24 6 lw 3 lw 1978 145 m24 6 lw 3 lw 1984 145 m24 6 lw 3 lw 1989 145 m24 6 lw 3 lw 1995 145 m24 6 lw 3 lw 2001 145 m24 6 lw 3 lw 2006 145 m24 6 lw 3 lw 2012 145 m24 6 lw 3 lw 2018 145 m24 6 lw 3 lw 2023
 145 m24 6 lw 3 lw 2029 145 m24 6 lw 3 lw 2035 145 m24 6 lw 3 lw 2040 145 m24 6 lw 3 lw 2046 145 m24 6 lw 3 lw 2052 145 m24 6 lw 3 lw 2057 145 m24 6 lw 3 lw 2063 145 m24 6 lw 3 lw 2069 145 m24 6 lw 3 lw 2074 145 m24 6 lw 3 lw 2080 145 m24 6 lw 3 lw
 2086 145 m24 6 lw 3 lw 2091 145 m24 6 lw 3 lw 2097 145 m24 6 lw 3 lw 2103 145 m24 6 lw 3 lw 2108 145 m24 6 lw 3 lw 2114 145 m24 6 lw 3 lw 2120 145 m24 6 lw 3 lw 2125 145 m24 6 lw 3 lw 2131 145 m24 6 lw 3 lw 2137 145 m24 6 lw 3 lw 2142 145 m24 6 lw 3
 lw 2148 145 m24 6 lw 3 lw 2154 145 m24 6 lw 3 lw 2159 145 m24 6 lw 3 lw 2165 145 m24 6 lw 3 lw 2171 145 m24 6 lw 3 lw 2176 145 m24 6 lw 3 lw 2182 145 m24 6 lw 3 lw 2188 145 m24 6 lw 1 0 0 c 1 1 1 c 1 0 0 c 3 lw 1377 145 m25 6 lw 3 lw 1383 145 m25 6
 lw 3 lw 1388 145 m25 6 lw 3 lw 1394 145 m25 6 lw 3 lw 1400 145 m25 6 lw 3 lw 1405 145 m25 6 lw 3 lw 1411 145 m25 6 lw 3 lw 1417 145 m25 6 lw 3 lw 1422 145 m25 6 lw 3 lw 1428 145 m25 6 lw 3 lw 1434 145 m25 6 lw 3 lw 1439 145 m25 6 lw 3 lw 1445 145
 m25 6 lw 3 lw 1451 145 m25 6 lw 3 lw 1456 145 m25 6 lw 3 lw 1462 145 m25 6 lw 3 lw 1468 145 m25 6 lw 3 lw 1473 145 m25 6 lw 3 lw 1479 145 m25 6 lw 3 lw 1485 145 m25 6 lw 3 lw 1490 145 m25 6 lw 3 lw 1496 145 m25 6 lw 3 lw 1502 145 m25 6 lw 3 lw 1507
 145 m25 6 lw 3 lw 1513 145 m25 6 lw 3 lw 1519 145 m25 6 lw 3 lw 1524 145 m25 6 lw 3 lw 1530 145 m25 6 lw 3 lw 1536 145 m25 6 lw 3 lw 1541 145 m25 6 lw 3 lw 1547 145 m25 6 lw 3 lw 1553 145 m25 6 lw 3 lw 1558 145 m25 6 lw 3 lw 1564 145 m25 6 lw 3 lw
 1570 145 m25 6 lw 3 lw 1575 145 m25 6 lw 3 lw 1581 145 m25 6 lw 3 lw 1587 145 m25 6 lw 3 lw 1593 145 m25 6 lw 3 lw 1598 145 m25 6 lw 3 lw 1604 145 m25 6 lw 3 lw 1610 145 m25 6 lw 3 lw 1615 145 m25 6 lw 3 lw 1621 145 m25 6 lw 3 lw 1627 145 m25 6 lw 3
 lw 1632 145 m25 6 lw 3 lw 1638 145 m25 6 lw 3 lw 1644 145 m25 6 lw 3 lw 1649 145 m25 6 lw 3 lw 1655 145 m25 6 lw 3 lw 1661 145 m25 6 lw 3 lw 1666 145 m25 6 lw 3 lw 1672 145 m25 6 lw 3 lw 1678 145 m25 6 lw 3 lw 1683 145 m25 6 lw 3 lw 1689 145 m25 6
 lw 3 lw 1695 145 m25 6 lw 3 lw 1700 145 m25 6 lw 3 lw 1706 145 m25 6 lw 3 lw 1712 145 m25 6 lw 3 lw 1717 145 m25 6 lw 3 lw 1723 145 m25 6 lw 3 lw 1729 145 m25 6 lw 3 lw 1734 145 m25 6 lw 3 lw 1740 145 m25 6 lw 3 lw 1746 145 m25 6 lw 3 lw 1751 145
 m25 6 lw 3 lw 1757 145 m25 6 lw 3 lw 1763 145 m25 6 lw 3 lw 1768 145 m25 6 lw 3 lw 1774 145 m25 6 lw 3 lw 1780 145 m25 6 lw 3 lw 1785 145 m25 6 lw 3 lw 1791 145 m25 6 lw 3 lw 1797 145 m25 6 lw 3 lw 1802 145 m25 6 lw 3 lw 1808 145 m25 6 lw 3 lw 1814
 145 m25 6 lw 3 lw 1819 145 m25 6 lw 3 lw 1825 145 m25 6 lw 3 lw 1831 145 m25 6 lw 3 lw 1836 145 m25 6 lw 3 lw 1842 145 m25 6 lw 3 lw 1848 145 m25 6 lw 3 lw 1853 145 m25 6 lw 3 lw 1859 145 m25 6 lw 3 lw 1865 145 m25 6 lw 3 lw 1870 145 m25 6 lw 3 lw
 1876 145 m25 6 lw 3 lw 1882 145 m25 6 lw 3 lw 1887 145 m25 6 lw 3 lw 1893 145 m25 6 lw 3 lw 1899 145 m25 6 lw 3 lw 1904 145 m25 6 lw 3 lw 1910 145 m25 6 lw 3 lw 1916 145 m25 6 lw 3 lw 1921 145 m25 6 lw 3 lw 1927 145 m25 6 lw 3 lw 1933 145 m25 6 lw 3
 lw 1938 145 m25 6 lw 3 lw 1944 145 m25 6 lw 3 lw 1950 145 m25 6 lw 3 lw 1955 145 m25 6 lw 3 lw 1961 145 m25 6 lw 3 lw 1967 145 m25 6 lw 3 lw 1972 145 m25 6 lw 3 lw 1978 145 m25 6 lw 3 lw 1984 145 m25 6 lw 3 lw 1989 145 m25 6 lw 3 lw 1995 145 m25 6
 lw 3 lw 2001 145 m25 6 lw 3 lw 2006 145 m25 6 lw 3 lw 2012 145 m25 6 lw 3 lw 2018 145 m25 6 lw 3 lw 2023 145 m25 6 lw 3 lw 2029 145 m25 6 lw 3 lw 2035 145 m25 6 lw 3 lw 2040 145 m25 6 lw 3 lw 2046 145 m25 6 lw 3 lw 2052 145 m25 6 lw 3 lw 2057 145
 m25 6 lw 3 lw 2063 145 m25 6 lw 3 lw 2069 145 m25 6 lw 3 lw 2074 145 m25 6 lw 3 lw 2080 145 m25 6 lw 3 lw 2086 145 m25 6 lw 3 lw 2091 145 m25 6 lw 3 lw 2097 145 m25 6 lw 3 lw 2103 145 m25 6 lw 3 lw 2108 145 m25 6 lw 3 lw 2114 145 m25 6 lw 3 lw 2120
 145 m25 6 lw 3 lw 2125 145 m25 6 lw 3 lw 2131 145 m25 6 lw 3 lw 2137 145 m25 6 lw 3 lw 2142 145 m25 6 lw 3 lw 2148 145 m25 6 lw 3 lw 2154 145 m25 6 lw 3 lw 2159 145 m25 6 lw 3 lw 2165 145 m25 6 lw 3 lw 2171 145 m25 6 lw 3 lw 2176 145 m25 6 lw 3 lw
 2182 145 m25 6 lw 3 lw 2188 145 m25 6 lw 0 0.4 0 c 1 1 1 c 0 0.4 0 c 1377 182 m 1 Y s 1377 201 m s 3 lw 1377 192 m26 6 lw 1383 189 m 1 Y s 1383 208 m 2 Y s 3 lw 1383 199 m26 6 lw 1388 184 m 1 Y s 1388 203 m s 3 lw 1388 194 m26 6 lw 3 lw 1394 175 m26
 6 lw 3 lw 1400 165 m26 6 lw 3 lw 1405 169 m26 6 lw 3 lw 1411 165 m26 6 lw 3 lw 1417 154 m26 6 lw 3 lw 1422 152 m26 6 lw 3 lw 1428 163 m26 6 lw 3 lw 1434 156 m26 6 lw 3 lw 1439 158 m26 6 lw 3 lw 1445 158 m26 6 lw 3 lw 1451 156 m26 6 lw 3 lw 1456 152
 m26 6 lw 3 lw 1462 150 m26 6 lw 3 lw 1468 154 m26 6 lw 3 lw 1473 156 m26 6 lw 3 lw 1479 163 m26 6 lw 3 lw 1485 152 m26 6 lw 3 lw 1490 152 m26 6 lw 3 lw 1496 154 m26 6 lw 3 lw 1502 154 m26 6 lw 3 lw 1507 150 m26 6 lw 3 lw 1513 146 m26 6 lw 3 lw 1519
 154 m26 6 lw 3 lw 1524 148 m26 6 lw 3 lw 1530 150 m26 6 lw 3 lw 1536 160 m26 6 lw 3 lw 1541 160 m26 6 lw 3 lw 1547 179 m26 6 lw 1553 186 m s 1553 205 m s 3 lw 1553 196 m26 6 lw 1558 256 m 6 Y s 1558 280 m 7 Y s 3 lw 1558 271 m26 6 lw 1564 378 m 13 Y
 s 1564 409 m 13 Y s 3 lw 1564 400 m26 6 lw 1570 503 m 18 Y s 1570 539 m 18 Y s 3 lw 1570 530 m26 6 lw 1575 542 m 19 Y s 1575 579 m 19 Y s 3 lw 1575 570 m26 6 lw 1581 533 m 19 Y s 1581 570 m 19 Y s 3 lw 1581 561 m26 6 lw 1587 483 m 17 Y s 1587 519 m
 17 Y s 3 lw 1587 510 m26 6 lw 1593 440 m 15 Y s 1593 473 m 16 Y s 3 lw 1593 464 m26 6 lw 1598 354 m 12 Y s 1598 384 m 12 Y s 3 lw 1598 375 m26 6 lw 1604 333 m 10 Y s 1604 362 m 10 Y s 3 lw 1604 353 m26 6 lw 1610 432 m 15 Y s 1610 466 m 15 Y s 3 lw
 1610 457 m26 6 lw 1615 500 m 17 Y s 1615 536 m 17 Y s 3 lw 1615 527 m26 6 lw 1621 465 m 17 Y s 1621 500 m 16 Y s 3 lw 1621 491 m26 6 lw 1627 438 m 15 Y s 1627 471 m 16 Y s 3 lw 1627 462 m26 6 lw 1632 427 m 15 Y s 1632 460 m 15 Y s 3 lw 1632 451 m26
 6 lw 1638 440 m 15 Y s 1638 473 m 16 Y s 3 lw 1638 464 m26 6 lw 1644 340 m 11 Y s 1644 369 m 11 Y s 3 lw 1644 360 m26 6 lw 1649 340 m 11 Y s 1649 369 m 11 Y s 3 lw 1649 360 m26 6 lw 1655 485 m 17 Y s 1655 521 m 17 Y s 3 lw 1655 511 m26 6 lw 1661 551
 m 19 Y s 1661 589 m 19 Y s 3 lw 1661 580 m26 6 lw 1666 502 m 17 Y s 1666 538 m 17 Y s 3 lw 1666 528 m26 6 lw 1672 518 m 18 Y s 1672 555 m 18 Y s 3 lw 1672 545 m26 6 lw 1678 509 m 18 Y s 1678 545 m 18 Y s 3 lw 1678 536 m26 6 lw 1683 465 m 17 Y s 1683
 500 m 16 Y s 3 lw 1683 491 m26 6 lw 1689 385 m 13 Y s 1689 417 m 13 Y s 3 lw 1689 407 m26 6 lw 1695 354 m 12 Y s 1695 384 m 12 Y s 3 lw 1695 375 m26 6 lw 1700 458 m 16 Y s 1700 492 m 16 Y s 3 lw 1700 483 m26 6 lw 1706 547 m 20 Y s 1706 585 m 19 Y s
 3 lw 1706 576 m26 6 lw 1712 578 m 21 Y s 1712 617 m 21 Y s 3 lw 1712 608 m26 6 lw 1717 578 m 21 Y s 1717 617 m 21 Y s 3 lw 1717 608 m26 6 lw 1723 609 m 22 Y s 1723 649 m 22 Y s 3 lw 1723 640 m26 6 lw 1729 518 m 18 Y s 1729 555 m 18 Y s 3 lw 1729 545
 m26 6 lw 1734 411 m 14 Y s 1734 443 m 14 Y s 3 lw 1734 434 m26 6 lw 1740 401 m 14 Y s 1740 434 m 13 Y s 3 lw 1740 424 m26 6 lw 1746 461 m 17 Y s 1746 496 m 16 Y s 3 lw 1746 487 m26 6 lw 1751 536 m 19 Y s 1751 574 m 19 Y s 3 lw 1751 564 m26 6 lw 1757
 529 m 19 Y s 1757 566 m 19 Y s 3 lw 1757 557 m26 6 lw 1763 613 m 22 Y s 1763 653 m 22 Y s 3 lw 1763 644 m26 6 lw 1768 520 m 18 Y s 1768 556 m 19 Y s 3 lw 1768 547 m26 6 lw 1774 438 m 15 Y s 1774 471 m 16 Y s 3 lw 1774 462 m26 6 lw 1780 279 m 8 Y s
 1780 305 m 8 Y s 3 lw 1780 296 m26 6 lw 1785 189 m 1 Y s 1785 208 m 2 Y s 3 lw 1785 199 m26 6 lw 3 lw 1791 171 m26 6 lw 3 lw 1797 162 m26 6 lw 3 lw 1802 156 m26 6 lw 3 lw 1808 150 m26 6 lw 3 lw 1814 150 m26 6 lw 3 lw 1819 154 m26 6 lw 3 lw 1825 160
 m26 6 lw 3 lw 1831 154 m26 6 lw 3 lw 1836 152 m26 6 lw 3 lw 1842 148 m26 6 lw 3 lw 1848 152 m26 6 lw 3 lw 1859 146 m26 6 lw 3 lw 1865 150 m26 6 lw 3 lw 1870 152 m26 6 lw 3 lw 1876 152 m26 6 lw 3 lw 1882 146 m26 6 lw 3 lw 1887 146 m26 6 lw 3 lw 1893
 152 m26 6 lw 3 lw 1899 152 m26 6 lw 3 lw 1904 150 m26 6 lw 3 lw 1910 150 m26 6 lw 3 lw 1916 160 m26 6 lw 3 lw 1921 162 m26 6 lw 3 lw 1927 169 m26 6 lw 3 lw 1933 163 m26 6 lw 3 lw 1938 177 m26 6 lw 3 lw 1944 184 m26 6 lw 3 lw 1950 180 m26 6 lw 3 lw
 1955 188 m26 6 lw 3 lw 1961 163 m26 6 lw 3 lw 1967 180 m26 6 lw 1972 205 m 2 Y s 1972 225 m 3 Y s 3 lw 1972 216 m26 6 lw 1978 212 m 3 Y s 1978 233 m 3 Y s 3 lw 1978 224 m26 6 lw 1984 206 m 3 Y s 1984 227 m 3 Y s 3 lw 1984 218 m26 6 lw 1989 215 m 4 Y
 s 1989 237 m 3 Y s 3 lw 1989 228 m26 6 lw 1995 212 m 3 Y s 1995 233 m 3 Y s 3 lw 1995 224 m26 6 lw 2001 208 m 3 Y s 2001 229 m 3 Y s 3 lw 2001 220 m26 6 lw 3 lw 2006 167 m26 6 lw 3 lw 2012 180 m26 6 lw 2018 203 m 2 Y s 2018 224 m 2 Y s 3 lw 2018 214
 m26 6 lw 2023 200 m 2 Y s 2023 220 m 2 Y s 3 lw 2023 211 m26 6 lw 2029 194 m 2 Y s 2029 214 m 2 Y s 3 lw 2029 205 m26 6 lw 2035 194 m 2 Y s 2035 214 m 2 Y s 3 lw 2035 205 m26 6 lw 2040 247 m 6 Y s 2040 271 m 6 Y s 3 lw 2040 262 m26 6 lw 2046 222 m 4
 Y s 2046 244 m 4 Y s 3 lw 2046 235 m26 6 lw 2052 203 m 2 Y s 2052 224 m 2 Y s 3 lw 2052 214 m26 6 lw 2057 212 m 3 Y s 2057 233 m 3 Y s 3 lw 2057 224 m26 6 lw 2063 215 m 4 Y s 2063 237 m 3 Y s 3 lw 2063 228 m26 6 lw 2069 217 m 4 Y s 2069 239 m 3 Y s
 3 lw 2069 230 m26 6 lw 2074 250 m 6 Y s 2074 275 m 6 Y s 3 lw 2074 266 m26 6 lw 2080 236 m 5 Y s 2080 260 m 5 Y s 3 lw 2080 250 m26 6 lw 2086 201 m 2 Y s 2086 222 m 2 Y s 3 lw 2086 213 m26 6 lw 2091 224 m 4 Y s 2091 246 m 4 Y s 3 lw 2091 237 m26 6
 lw 2097 193 m 1 Y s 2097 212 m 2 Y s 3 lw 2097 203 m26 6 lw 2103 219 m 3 Y s 2103 241 m 3 Y s 3 lw 2103 232 m26 6 lw 2108 215 m 4 Y s 2108 237 m 3 Y s 3 lw 2108 228 m26 6 lw 2114 261 m 7 Y s 2114 286 m 7 Y s 3 lw 2114 277 m26 6 lw 2120 258 m 6 Y s
 2120 282 m 7 Y s 3 lw 2120 273 m26 6 lw 2125 243 m 6 Y s 2125 267 m 6 Y s 3 lw 2125 258 m26 6 lw 2131 235 m 4 Y s 2131 258 m 5 Y s 3 lw 2131 249 m26 6 lw 2137 233 m 5 Y s 2137 256 m 5 Y s 3 lw 2137 247 m26 6 lw 2142 215 m 4 Y s 2142 237 m 3 Y s 3 lw
 2142 228 m26 6 lw 2148 182 m 1 Y s 2148 201 m s 3 lw 2148 192 m26 6 lw 2154 235 m 4 Y s 2154 258 m 5 Y s 3 lw 2154 249 m26 6 lw 2159 235 m 4 Y s 2159 258 m 5 Y s 3 lw 2159 249 m26 6 lw 2165 265 m 7 Y s 2165 290 m 7 Y s 3 lw 2165 281 m26 6 lw 2171
 229 m 5 Y s 2171 252 m 4 Y s 3 lw 2171 243 m26 6 lw 2176 215 m 4 Y s 2176 237 m 3 Y s 3 lw 2176 228 m26 6 lw 2182 201 m 2 Y s 2182 222 m 2 Y s 3 lw 2182 213 m26 6 lw 3 lw 2188 177 m26 6 lw 0 0 1 c 1 1 1 c 0 0 1 c 3 lw 1377 194 m27 6 lw 3 lw 1383 192
 m27 6 lw 3 lw 1388 185 m27 6 lw 3 lw 1394 180 m27 6 lw 3 lw 1400 178 m27 6 lw 3 lw 1405 163 m27 6 lw 3 lw 1411 161 m27 6 lw 3 lw 1417 155 m27 6 lw 3 lw 1422 151 m27 6 lw 3 lw 1428 156 m27 6 lw 3 lw 1434 156 m27 6 lw 3 lw 1439 159 m27 6 lw 3 lw 1445
 160 m27 6 lw 3 lw 1451 151 m27 6 lw 3 lw 1456 151 m27 6 lw 3 lw 1462 152 m27 6 lw 3 lw 1468 149 m27 6 lw 3 lw 1473 151 m27 6 lw 3 lw 1479 148 m27 6 lw 3 lw 1485 151 m27 6 lw 3 lw 1490 150 m27 6 lw 3 lw 1496 146 m27 6 lw 3 lw 1502 147 m27 6 lw 3 lw
 1507 146 m27 6 lw 3 lw 1513 147 m27 6 lw 3 lw 1519 149 m27 6 lw 3 lw 1524 152 m27 6 lw 3 lw 1530 148 m27 6 lw 3 lw 1536 155 m27 6 lw 3 lw 1541 154 m27 6 lw 3 lw 1547 164 m27 6 lw 3 lw 1553 189 m27 6 lw 1558 236 m 2 Y s 1558 256 m 1 Y s 3 lw 1558 247
 m27 6 lw 1564 351 m 6 Y s 1564 375 m 7 Y s 3 lw 1564 366 m27 6 lw 1570 397 m 8 Y s 1570 423 m 8 Y s 3 lw 1570 414 m27 6 lw 1575 443 m 9 Y s 1575 470 m 10 Y s 3 lw 1575 461 m27 6 lw 1581 466 m 10 Y s 1581 494 m 10 Y s 3 lw 1581 485 m27 6 lw 1587 452
 m 10 Y s 1587 480 m 10 Y s 3 lw 1587 471 m27 6 lw 1593 376 m 7 Y s 1593 401 m 7 Y s 3 lw 1593 392 m27 6 lw 1598 321 m 5 Y s 1598 344 m 5 Y s 3 lw 1598 335 m27 6 lw 1604 318 m 5 Y s 1604 341 m 5 Y s 3 lw 1604 332 m27 6 lw 1610 391 m 8 Y s 1610 417 m
 8 Y s 3 lw 1610 408 m27 6 lw 1615 427 m 9 Y s 1615 454 m 9 Y s 3 lw 1615 445 m27 6 lw 1621 409 m 9 Y s 1621 436 m 8 Y s 3 lw 1621 427 m27 6 lw 1627 401 m 8 Y s 1627 427 m 8 Y s 3 lw 1627 418 m27 6 lw 1632 383 m 8 Y s 1632 409 m 7 Y s 3 lw 1632 400
 m27 6 lw 1638 377 m 7 Y s 1638 402 m 8 Y s 3 lw 1638 393 m27 6 lw 1644 319 m 5 Y s 1644 342 m 5 Y s 3 lw 1644 333 m27 6 lw 1649 343 m 6 Y s 1649 367 m 6 Y s 3 lw 1649 358 m27 6 lw 1655 437 m 10 Y s 1655 465 m 9 Y s 3 lw 1655 456 m27 6 lw 1661 533 m
 12 Y s 1661 563 m 12 Y s 3 lw 1661 554 m27 6 lw 1666 524 m 12 Y s 1666 554 m 12 Y s 3 lw 1666 545 m27 6 lw 1672 497 m 11 Y s 1672 526 m 11 Y s 3 lw 1672 517 m27 6 lw 1678 455 m 10 Y s 1678 483 m 10 Y s 3 lw 1678 474 m27 6 lw 1683 421 m 8 Y s 1683
 448 m 8 Y s 3 lw 1683 438 m27 6 lw 1689 358 m 7 Y s 1689 383 m 7 Y s 3 lw 1689 374 m27 6 lw 1695 337 m 6 Y s 1695 361 m 6 Y s 3 lw 1695 352 m27 6 lw 1700 438 m 10 Y s 1700 466 m 9 Y s 3 lw 1700 457 m27 6 lw 1706 500 m 11 Y s 1706 529 m 11 Y s 3 lw
 1706 520 m27 6 lw 1712 527 m 12 Y s 1712 557 m 12 Y s 3 lw 1712 548 m27 6 lw 1717 512 m 11 Y s 1717 541 m 12 Y s 3 lw 1717 532 m27 6 lw 1723 494 m 11 Y s 1723 523 m 11 Y s 3 lw 1723 514 m27 6 lw 1729 474 m 10 Y s 1729 502 m 11 Y s 3 lw 1729 493 m27
 6 lw 1734 353 m 6 Y s 1734 378 m 6 Y s 3 lw 1734 368 m27 6 lw 1740 289 m 4 Y s 1740 311 m 4 Y s 3 lw 1740 302 m27 6 lw 1746 342 m 6 Y s 1746 366 m 6 Y s 3 lw 1746 357 m27 6 lw 1751 378 m 7 Y s 1751 403 m 8 Y s 3 lw 1751 394 m27 6 lw 1757 386 m 8 Y s
 1757 412 m 8 Y s 3 lw 1757 403 m27 6 lw 1763 375 m 7 Y s 1763 400 m 7 Y s 3 lw 1763 391 m27 6 lw 1768 373 m 7 Y s 1768 398 m 7 Y s 3 lw 1768 389 m27 6 lw 1774 315 m 5 Y s 1774 338 m 5 Y s 3 lw 1774 329 m27 6 lw 1780 230 m 1 Y s 1780 249 m 1 Y s 3 lw
 1780 240 m27 6 lw 3 lw 1785 183 m27 6 lw 3 lw 1791 165 m27 6 lw 3 lw 1797 150 m27 6 lw 3 lw 1802 150 m27 6 lw 3 lw 1808 151 m27 6 lw 3 lw 1814 147 m27 6 lw 3 lw 1819 146 m27 6 lw 3 lw 1825 149 m27 6 lw 3 lw 1831 147 m27 6 lw 3 lw 1836 151 m27 6 lw 3
 lw 1842 150 m27 6 lw 3 lw 1848 152 m27 6 lw 3 lw 1853 154 m27 6 lw 3 lw 1859 150 m27 6 lw 3 lw 1865 150 m27 6 lw 3 lw 1870 148 m27 6 lw 3 lw 1876 146 m27 6 lw 3 lw 1882 153 m27 6 lw 3 lw 1887 147 m27 6 lw 3 lw 1893 150 m27 6 lw 3 lw 1899 155 m27 6
 lw 3 lw 1904 151 m27 6 lw 3 lw 1910 157 m27 6 lw 3 lw 1916 152 m27 6 lw 3 lw 1921 151 m27 6 lw 3 lw 1927 153 m27 6 lw 3 lw 1933 167 m27 6 lw 3 lw 1938 161 m27 6 lw 3 lw 1944 162 m27 6 lw 3 lw 1950 171 m27 6 lw 3 lw 1955 170 m27 6 lw 3 lw 1961 167
 m27 6 lw 3 lw 1967 178 m27 6 lw 3 lw 1972 185 m27 6 lw 3 lw 1978 203 m27 6 lw 3 lw 1984 199 m27 6 lw 3 lw 1989 197 m27 6 lw 3 lw 1995 210 m27 6 lw 3 lw 2001 207 m27 6 lw 3 lw 2006 175 m27 6 lw 3 lw 2012 173 m27 6 lw 3 lw 2018 209 m27 6 lw 2023 214 m
 s 2023 232 m s 3 lw 2023 223 m27 6 lw 2029 213 m s 2029 231 m s 3 lw 2029 222 m27 6 lw 2035 221 m 1 Y s 2035 240 m s 3 lw 2035 231 m27 6 lw 2040 235 m 2 Y s 2040 255 m 1 Y s 3 lw 2040 246 m27 6 lw 2046 220 m s 2046 239 m s 3 lw 2046 230 m27 6 lw 3
 lw 2052 200 m27 6 lw 3 lw 2057 214 m27 6 lw 2063 223 m 1 Y s 2063 242 m 1 Y s 3 lw 2063 233 m27 6 lw 2069 246 m 1 Y s 2069 266 m 1 Y s 3 lw 2069 256 m27 6 lw 2074 242 m 2 Y s 2074 262 m 2 Y s 3 lw 2074 253 m27 6 lw 2080 222 m 1 Y s 2080 241 m s 3 lw
 2080 232 m27 6 lw 2086 217 m s 2086 235 m 1 Y s 3 lw 2086 226 m27 6 lw 2091 229 m 1 Y s 2091 248 m 1 Y s 3 lw 2091 239 m27 6 lw 3 lw 2097 211 m27 6 lw 3 lw 2103 216 m27 6 lw 2108 223 m 1 Y s 2108 242 m 1 Y s 3 lw 2108 233 m27 6 lw 2114 259 m 2 Y s
 2114 280 m 2 Y s 3 lw 2114 270 m27 6 lw 2120 242 m 2 Y s 2120 262 m 2 Y s 3 lw 2120 253 m27 6 lw 2125 269 m 3 Y s 2125 290 m 3 Y s 3 lw 2125 281 m27 6 lw 2131 240 m 2 Y s 2131 260 m 2 Y s 3 lw 2131 251 m27 6 lw 2137 249 m 2 Y s 2137 269 m 2 Y s 3 lw
 2137 260 m27 6 lw 2142 234 m 2 Y s 2142 254 m 1 Y s 3 lw 2142 245 m27 6 lw 3 lw 2148 217 m27 6 lw 2154 224 m 1 Y s 2154 243 m 1 Y s 3 lw 2154 234 m27 6 lw 2159 225 m 1 Y s 2159 244 m 1 Y s 3 lw 2159 235 m27 6 lw 2165 221 m 1 Y s 2165 240 m s 3 lw
 2165 231 m27 6 lw 2171 225 m 1 Y s 2171 244 m 1 Y s 3 lw 2171 235 m27 6 lw 3 lw 2176 220 m27 6 lw 2182 213 m s 2182 231 m s 3 lw 2182 222 m27 6 lw 3 lw 2188 198 m27 6 lw black
 gsave  1088 846 1157 18 C 1762.26 765.013 t 0 r /Helvetica findfont 36.4802 sf 0 0 m (Charged jets) show NC gr 
 gsave  1088 846 1157 18 C 1844.23 721.753 t 0 r /Helvetica-Bold findfont 36.4802 sf 0 0 m (LHC13b) show NC gr  3 lw 1800 735 m24 6 lw
 gsave  1088 846 1157 18 C 1844.23 680.77 t 0 r /Helvetica-Bold findfont 36.4802 sf 0 0 m (LHC13c) show NC gr  1 0 0 c 3 lw 1800 694 m25 6 lw black
 gsave  1088 846 1157 18 C 1844.23 642.064 t 0 r /Helvetica-Bold findfont 36.4802 sf 0 0 m (LHC13d) show NC gr  0 0.4 0 c 3 lw 1800 654 m26 6 lw black
 gsave  1088 846 1157 18 C 1844.23 601.081 t 0 r /Helvetica-Bold findfont 36.4802 sf 0 0 m (LHC13e) show NC gr  0 0 1 c 3 lw 1800 613 m27 6 lw
 gr  gr showpage
end
%%EOF
