%!PS-Adobe-2.0 EPSF-2.0
%%BoundingBox:  0 0 567 441
%%Title: PtSpectraPeriods.eps: c1: Jet pT spectra
%%Creator: ROOT Version 5.34/09
%%CreationDate: Mon Jan 20 14:03:58 2014
%%EndComments
%%BeginProlog
80 dict begin
/s {stroke} def /l {lineto} def /m {moveto} def /t {translate} def
/r {rotate} def /rl {roll}  def /R {repeat} def
/d {rlineto} def /rm {rmoveto} def /gr {grestore} def /f {eofill} def
/c {setrgbcolor} def /black {0 setgray} def /sd {setdash} def
/cl {closepath} def /sf {scalefont setfont} def /lw {setlinewidth} def
/box {m dup 0 exch d exch 0 d 0 exch neg d cl} def
/NC{systemdict begin initclip end}def/C{NC box clip newpath}def
/bl {box s} def /bf {box f} def /Y { 0 exch d} def /X { 0 d} def 
/K {{pop pop 0 moveto} exch kshow} bind def
/ita {/ang 15 def gsave [1 0 ang dup sin exch cos div 1 0 0] concat} def 
/mp {newpath /y exch def /x exch def} def
/side {[w .77 mul w .23 mul] .385 w mul sd w 0 l currentpoint t -144 r} def
/mr {mp x y w2 0 360 arc} def /m24 {mr s} def /m20 {mr f} def
/mb {mp x y w2 add m w2 neg 0 d 0 w neg d w 0 d 0 w d cl} def
/mt {mp x y w2 add m w2 neg w neg d w 0 d cl} def
/m21 {mb f} def /m25 {mb s} def /m22 {mt f} def /m26{mt s} def
/m23 {mp x y w2 sub m w2 w d w neg 0 d cl f} def
/m27 {mp x y w2 add m w3 neg w2 neg d w3 w2 neg d w3 w2 d cl s} def
/m28 {mp x w2 sub y w2 sub w3 add m w3 0 d  0 w3 neg d w3 0 d 0 w3 d w3 0 d  0 w3 d w3 neg 0 d 0 w3 d w3 neg 0 d 0 w3 neg d w3 neg 0 d cl s } def
/m29 {mp gsave x w2 sub y w2 add w3 sub m currentpoint t 4 {side} repeat cl fill gr} def
/m30 {mp gsave x w2 sub y w2 add w3 sub m currentpoint t 4 {side} repeat cl s gr} def
/m31 {mp x y w2 sub m 0 w d x w2 sub y m w 0 d x w2 sub y w2 add m w w neg d x w2 sub y w2 sub m w w d s} def
/m32 {mp x y w2 sub m w2 w d w neg 0 d cl s} def
/m33 {mp x y w2 add m w3 neg w2 neg d w3 w2 neg d w3 w2 d cl f} def
/m34 {mp x w2 sub y w2 sub w3 add m w3 0 d  0 w3 neg d w3 0 d 0 w3 d w3 0 d  0 w3 d w3 neg 0 d 0 w3 d w3 neg 0 d 0 w3 neg d w3 neg 0 d cl f } def
/m2 {mp x y w2 sub m 0 w d x w2 sub y m w 0 d s} def
/m5 {mp x w2 sub y w2 sub m w w d x w2 sub y w2 add m w w neg d s} def
/reEncode {exch findfont dup length dict begin {1 index /FID eq  {pop pop} {def} ifelse } forall /Encoding exch def currentdict end dup /FontName get exch definefont pop } def [/Times-Bold /Times-Italic /Times-BoldItalic /Helvetica /Helvetica-Oblique
 /Helvetica-Bold /Helvetica-BoldOblique /Courier /Courier-Oblique /Courier-Bold /Courier-BoldOblique /Times-Roman /AvantGarde-Book /AvantGarde-BookOblique /AvantGarde-Demi /AvantGarde-DemiOblique /Bookman-Demi /Bookman-DemiItalic /Bookman-Light
 /Bookman-LightItalic /Helvetica-Narrow /Helvetica-Narrow-Bold /Helvetica-Narrow-BoldOblique /Helvetica-Narrow-Oblique /NewCenturySchlbk-Roman /NewCenturySchlbk-Bold /NewCenturySchlbk-BoldItalic /NewCenturySchlbk-Italic /Palatino-Bold
 /Palatino-BoldItalic /Palatino-Italic /Palatino-Roman ] {ISOLatin1Encoding reEncode } forall
%%EndProlog
%%BeginSetup
%%EndSetup
newpath  gsave  .25 .25 scale  gsave  0 0 t black[  ] 0 sd 3 lw 1 1 1 c 2268 1762 0 0 bf black 1 1 1 c 1088 846 23 899 bf black 1 1 1 c 817 676 240 1026 bf black 817 676 240 1026 bl 1 1 1 c 817 676 240 1026 bf black 817 676 240 1026 bl 240 1026 m 817
 X s
 gsave  1088 846 23 899 C 1042.79 947.159 t 0 r /Helvetica findfont 47.8803 sf 0 0 m (\)) show NC gr 
 gsave  1088 846 23 899 C 1015.46 947.159 t 0 r /Helvetica-Oblique findfont 47.8803 sf 0 0 m (c) show NC gr 
 gsave  1088 846 23 899 C 876.577 947.159 t 0 r /Helvetica findfont 47.8803 sf 0 0 m ( \(GeV/) show NC gr 
 gsave  1088 846 23 899 C 856.086 922.114 t 0 r /Helvetica findfont 31.9202 sf 0 0 m (T) show NC gr 
 gsave  1088 846 23 899 C 826.487 947.159 t 0 r /Helvetica-Oblique findfont 47.8803 sf 0 0 m (p) show NC gr  240 1045 m -19 Y s 257 1035 m -9 Y s 273 1035 m -9 Y s 289 1035 m -9 Y s 306 1035 m -9 Y s 322 1045 m -19 Y s 338 1035 m -9 Y s 355 1035 m -9
 Y s 371 1035 m -9 Y s 387 1035 m -9 Y s 404 1045 m -19 Y s 420 1035 m -9 Y s 436 1035 m -9 Y s 453 1035 m -9 Y s 469 1035 m -9 Y s 485 1045 m -19 Y s 502 1035 m -9 Y s 518 1035 m -9 Y s 534 1035 m -9 Y s 551 1035 m -9 Y s 567 1045 m -19 Y s 583 1035
 m -9 Y s 600 1035 m -9 Y s 616 1035 m -9 Y s 632 1035 m -9 Y s 649 1045 m -19 Y s 665 1035 m -9 Y s 681 1035 m -9 Y s 698 1035 m -9 Y s 714 1035 m -9 Y s 730 1045 m -19 Y s 747 1035 m -9 Y s 763 1035 m -9 Y s 779 1035 m -9 Y s 796 1035 m -9 Y s 812
 1045 m -19 Y s 828 1035 m -9 Y s 844 1035 m -9 Y s 861 1035 m -9 Y s 877 1035 m -9 Y s 893 1045 m -19 Y s 910 1035 m -9 Y s 926 1035 m -9 Y s 942 1035 m -9 Y s 959 1035 m -9 Y s 975 1045 m -19 Y s 991 1035 m -9 Y s 1008 1035 m -9 Y s 1024 1035 m -9
 Y s 1040 1035 m -9 Y s 1057 1045 m -19 Y s
 gsave  1088 846 23 899 C 227.682 988.142 t 0 r /Helvetica findfont 38.7603 sf 0 0 m (0) show NC gr 
 gsave  1088 846 23 899 C 298.264 988.142 t 0 r /Helvetica findfont 38.7603 sf 0 0 m (10) show NC gr 
 gsave  1088 846 23 899 C 380.23 988.142 t 0 r /Helvetica findfont 38.7603 sf 0 0 m (20) show NC gr 
 gsave  1088 846 23 899 C 462.195 988.142 t 0 r /Helvetica findfont 38.7603 sf 0 0 m (30) show NC gr 
 gsave  1088 846 23 899 C 544.161 988.142 t 0 r /Helvetica findfont 38.7603 sf 0 0 m (40) show NC gr 
 gsave  1088 846 23 899 C 623.85 988.142 t 0 r /Helvetica findfont 38.7603 sf 0 0 m (50) show NC gr 
 gsave  1088 846 23 899 C 705.815 988.142 t 0 r /Helvetica findfont 38.7603 sf 0 0 m (60) show NC gr 
 gsave  1088 846 23 899 C 787.781 988.142 t 0 r /Helvetica findfont 38.7603 sf 0 0 m (70) show NC gr 
 gsave  1088 846 23 899 C 869.747 988.142 t 0 r /Helvetica findfont 38.7603 sf 0 0 m (80) show NC gr 
 gsave  1088 846 23 899 C 951.712 988.142 t 0 r /Helvetica findfont 38.7603 sf 0 0 m (90) show NC gr 
 gsave  1088 846 23 899 C 1024.57 988.142 t 0 r /Helvetica findfont 38.7603 sf 0 0 m (100) show NC gr  240 1026 m 676 Y s
 gsave  1088 846 23 899 C 141.163 1682.57 t 90 r /Helvetica findfont 31.9202 sf 0 0 m (T) show NC gr 
 gsave  1088 846 23 899 C 113.841 1652.97 t 90 r /Helvetica-Oblique findfont 47.8803 sf 0 0 m (p) show NC gr 
 gsave  1088 846 23 899 C 113.841 1627.93 t 90 r /Helvetica findfont 47.8803 sf 0 0 m (d) show NC gr 
 gsave  1088 846 23 899 C 61.4742 1659.8 t 90 r /Helvetica-Oblique findfont 47.8803 sf 0 0 m (N) show NC gr 
 gsave  1088 846 23 899 C 61.4742 1634.76 t 90 r /Helvetica findfont 47.8803 sf 0 0 m (d) show NC gr  6 lw 71 1628 m 75 Y s
 gsave  1088 846 23 899 C 84.2425 1611.99 t 90 r /Helvetica findfont 47.8803 sf 0 0 m ( ) show NC gr 
 gsave  1088 846 23 899 C 127.502 1568.73 t 90 r /Helvetica findfont 31.9202 sf 0 0 m (evt) show NC gr 
 gsave  1088 846 23 899 C 113.841 1530.03 t 90 r /Helvetica-Oblique findfont 47.8803 sf 0 0 m (N) show NC gr 
 gsave  1088 846 23 899 C 63.7511 1561.9 t 90 r /Helvetica findfont 47.8803 sf 0 0 m (1) show NC gr  71 1530 m 82 Y s 3 lw 253 1026 m -13 X s 253 1031 m -13 X s 253 1036 m -13 X s 253 1040 m -13 X s 253 1044 m -13 X s 267 1048 m -27 X s
 gsave  1088 846 23 899 C 204.914 1049.62 t 0 r /Helvetica findfont 27.3602 sf 0 0 m (\2558) show NC gr 
 gsave  1088 846 23 899 C 161.654 1031.4 t 0 r /Helvetica findfont 38.7603 sf 0 0 m (10) show NC gr  253 1069 m -13 X s 253 1082 m -13 X s 253 1091 m -13 X s 253 1098 m -13 X s 253 1104 m -13 X s 253 1109 m -13 X s 253 1113 m -13 X s 253 1117 m -13 X
 s 267 1120 m -27 X s
 gsave  1088 846 23 899 C 204.914 1120.2 t 0 r /Helvetica findfont 27.3602 sf 0 0 m (\2557) show NC gr 
 gsave  1088 846 23 899 C 161.654 1104.26 t 0 r /Helvetica findfont 38.7603 sf 0 0 m (10) show NC gr  253 1142 m -13 X s 253 1155 m -13 X s 253 1164 m -13 X s 253 1171 m -13 X s 253 1177 m -13 X s 253 1182 m -13 X s 253 1186 m -13 X s 253 1190 m -13
 X s 267 1193 m -27 X s
 gsave  1088 846 23 899 C 204.914 1193.06 t 0 r /Helvetica findfont 27.3602 sf 0 0 m (\2556) show NC gr 
 gsave  1088 846 23 899 C 161.654 1174.84 t 0 r /Helvetica findfont 38.7603 sf 0 0 m (10) show NC gr  253 1215 m -13 X s 253 1228 m -13 X s 253 1237 m -13 X s 253 1244 m -13 X s 253 1250 m -13 X s 253 1255 m -13 X s 253 1259 m -13 X s 253 1262 m -13
 X s 267 1266 m -27 X s
 gsave  1088 846 23 899 C 204.914 1265.91 t 0 r /Helvetica findfont 27.3602 sf 0 0 m (\2555) show NC gr 
 gsave  1088 846 23 899 C 161.654 1247.7 t 0 r /Helvetica findfont 38.7603 sf 0 0 m (10) show NC gr  253 1288 m -13 X s 253 1301 m -13 X s 253 1310 m -13 X s 253 1317 m -13 X s 253 1322 m -13 X s 253 1327 m -13 X s 253 1332 m -13 X s 253 1335 m -13 X
 s 267 1339 m -27 X s
 gsave  1088 846 23 899 C 204.914 1336.5 t 0 r /Helvetica findfont 27.3602 sf 0 0 m (\2554) show NC gr 
 gsave  1088 846 23 899 C 161.654 1320.56 t 0 r /Helvetica findfont 38.7603 sf 0 0 m (10) show NC gr  253 1360 m -13 X s 253 1373 m -13 X s 253 1382 m -13 X s 253 1389 m -13 X s 253 1395 m -13 X s 253 1400 m -13 X s 253 1404 m -13 X s 253 1408 m -13
 X s 267 1411 m -27 X s
 gsave  1088 846 23 899 C 204.914 1411.63 t 0 r /Helvetica findfont 27.3602 sf 0 0 m (\2553) show NC gr 
 gsave  1088 846 23 899 C 161.654 1393.42 t 0 r /Helvetica findfont 38.7603 sf 0 0 m (10) show NC gr  253 1433 m -13 X s 253 1446 m -13 X s 253 1455 m -13 X s 253 1462 m -13 X s 253 1468 m -13 X s 253 1473 m -13 X s 253 1477 m -13 X s 253 1481 m -13
 X s 267 1484 m -27 X s
 gsave  1088 846 23 899 C 204.914 1482.21 t 0 r /Helvetica findfont 27.3602 sf 0 0 m (\2552) show NC gr 
 gsave  1088 846 23 899 C 161.654 1466.27 t 0 r /Helvetica findfont 38.7603 sf 0 0 m (10) show NC gr  253 1506 m -13 X s 253 1519 m -13 X s 253 1528 m -13 X s 253 1535 m -13 X s 253 1541 m -13 X s 253 1546 m -13 X s 253 1550 m -13 X s 253 1554 m -13
 X s 267 1557 m -27 X s
 gsave  1088 846 23 899 C 209.468 1555.07 t 0 r /Helvetica findfont 27.3602 sf 0 0 m (\2551) show NC gr 
 gsave  1088 846 23 899 C 166.208 1539.13 t 0 r /Helvetica findfont 38.7603 sf 0 0 m (10) show NC gr  253 1579 m -13 X s 253 1592 m -13 X s 253 1601 m -13 X s 253 1608 m -13 X s 253 1613 m -13 X s 253 1618 m -13 X s 253 1623 m -13 X s 253 1626 m -13
 X s 267 1630 m -27 X s
 gsave  1088 846 23 899 C 230.581 1613.2 t 0 r  -21 0 t /Helvetica findfont 38.7603 sf 0 0 m (1) show NC gr  253 1651 m -13 X s 253 1664 m -13 X s 253 1673 m -13 X s 253 1680 m -13 X s 253 1686 m -13 X s 253 1691 m -13 X s 253 1695 m -13 X s 253 1699
 m -13 X s 267 1702 m -27 X s
 gsave  1088 846 23 899 C 230.581 1685.95 t 0 r  -43 0 t /Helvetica findfont 38.7603 sf 0 0 m (10) show NC gr  6 lw 1 1 1 c black 3 lw /w 18 def /w2 {w 2 div} def /w3 {w 3 div} def 253 1572 m24 6 lw 3 lw 261 1549 m24 6 lw 3 lw 269 1528 m24 6 lw 3 lw
 277 1509 m24 6 lw 3 lw 285 1490 m24 6 lw 3 lw 293 1473 m24 6 lw 3 lw 302 1456 m24 6 lw 3 lw 310 1440 m24 6 lw 3 lw 318 1425 m24 6 lw 3 lw 326 1411 m24 6 lw 3 lw 334 1397 m24 6 lw 3 lw 342 1385 m24 6 lw 3 lw 351 1372 m24 6 lw 3 lw 359 1361 m24 6 lw 3
 lw 367 1350 m24 6 lw 3 lw 375 1339 m24 6 lw 3 lw 383 1330 m24 6 lw 3 lw 391 1322 m24 6 lw 3 lw 400 1314 m24 6 lw 3 lw 408 1303 m24 6 lw 3 lw 416 1296 m24 6 lw 3 lw 424 1290 m24 6 lw 3 lw 432 1283 m24 6 lw 3 lw 440 1275 m24 6 lw 3 lw 449 1269 m24 6
 lw 3 lw 457 1267 m24 6 lw 3 lw 465 1260 m24 6 lw 3 lw 473 1250 m24 6 lw 3 lw 481 1248 m24 6 lw 3 lw 489 1242 m24 6 lw 3 lw 498 1230 m24 6 lw 3 lw 506 1229 m24 6 lw 3 lw 514 1232 m24 6 lw 3 lw 522 1225 m24 6 lw 3 lw 530 1224 m24 6 lw 3 lw 538 1204
 m24 6 lw 3 lw 547 1210 m24 6 lw 3 lw 555 1207 m24 6 lw 3 lw 563 1202 m24 6 lw 3 lw 571 1201 m24 6 lw 579 1172 m 1 Y s 3 lw 579 1182 m24 6 lw 3 lw 587 1196 m24 6 lw 3 lw 596 1187 m24 6 lw 3 lw 604 1184 m24 6 lw 3 lw 612 1186 m24 6 lw 620 1118 m 13 Y
 s 620 1149 m 4 Y s 3 lw 620 1140 m24 6 lw 628 1164 m 1 Y s 3 lw 628 1175 m24 6 lw 636 1160 m 3 Y s 3 lw 636 1172 m24 6 lw 644 1153 m 3 Y s 3 lw 644 1165 m24 6 lw 653 1172 m 1 Y s 3 lw 653 1182 m24 6 lw 661 1136 m 8 Y s 661 1162 m 1 Y s 3 lw 661 1153
 m24 6 lw 669 1143 m 5 Y s 669 1167 m 1 Y s 3 lw 669 1158 m24 6 lw 677 1118 m 13 Y s 677 1149 m 4 Y s 3 lw 677 1140 m24 6 lw 685 1136 m 8 Y s 685 1162 m 1 Y s 3 lw 685 1153 m24 6 lw 693 1026 m 61 Y s 693 1105 m 13 Y s 3 lw 693 1096 m24 6 lw 702 1128
 m 10 Y s 702 1156 m 3 Y s 3 lw 702 1147 m24 6 lw 710 1136 m 8 Y s 710 1162 m 1 Y s 3 lw 710 1153 m24 6 lw 718 1104 m 18 Y s 718 1140 m 5 Y s 3 lw 718 1131 m24 6 lw 726 1104 m 18 Y s 726 1140 m 5 Y s 3 lw 726 1131 m24 6 lw 734 1104 m 18 Y s 734 1140
 m 5 Y s 3 lw 734 1131 m24 6 lw 742 1104 m 18 Y s 742 1140 m 5 Y s 3 lw 742 1131 m24 6 lw 751 1079 m 30 Y s 751 1127 m 8 Y s 3 lw 751 1118 m24 6 lw 759 1128 m 10 Y s 759 1156 m 3 Y s 3 lw 759 1147 m24 6 lw 775 1079 m 30 Y s 775 1127 m 8 Y s 3 lw 775
 1118 m24 6 lw 783 1026 m 61 Y s 783 1105 m 13 Y s 3 lw 783 1096 m24 6 lw 800 1128 m 10 Y s 800 1156 m 3 Y s 3 lw 800 1147 m24 6 lw 808 1026 m 61 Y s 808 1105 m 13 Y s 3 lw 808 1096 m24 6 lw 816 1026 m 61 Y s 816 1105 m 13 Y s 3 lw 816 1096 m24 6 lw
 824 1079 m 30 Y s 824 1127 m 8 Y s 3 lw 824 1118 m24 6 lw 840 1079 m 30 Y s 840 1127 m 8 Y s 3 lw 840 1118 m24 6 lw 849 1026 m 61 Y s 849 1105 m 13 Y s 3 lw 849 1096 m24 6 lw 857 1026 m 61 Y s 857 1105 m 13 Y s 3 lw 857 1096 m24 6 lw 865 1104 m 18 Y
 s 865 1140 m 5 Y s 3 lw 865 1131 m24 6 lw 873 1026 m 61 Y s 873 1105 m 13 Y s 3 lw 873 1096 m24 6 lw 881 1079 m 30 Y s 881 1127 m 8 Y s 3 lw 881 1118 m24 6 lw 889 1026 m 61 Y s 889 1105 m 13 Y s 3 lw 889 1096 m24 6 lw 898 1026 m 61 Y s 898 1105 m 13
 Y s 3 lw 898 1096 m24 6 lw 914 1026 m 61 Y s 914 1105 m 13 Y s 3 lw 914 1096 m24 6 lw 922 1026 m 61 Y s 922 1105 m 13 Y s 3 lw 922 1096 m24 6 lw 930 1104 m 18 Y s 930 1140 m 5 Y s 3 lw 930 1131 m24 6 lw 1004 1026 m 61 Y s 1004 1105 m 13 Y s 3 lw
 1004 1096 m24 6 lw 1012 1079 m 30 Y s 1012 1127 m 8 Y s 3 lw 1012 1118 m24 6 lw 1 0 0 c 1 1 1 c 1 0 0 c 3 lw 253 1573 m25 6 lw 3 lw 261 1550 m25 6 lw 3 lw 269 1529 m25 6 lw 3 lw 277 1509 m25 6 lw 3 lw 285 1491 m25 6 lw 3 lw 293 1473 m25 6 lw 3 lw
 302 1457 m25 6 lw 3 lw 310 1441 m25 6 lw 3 lw 318 1426 m25 6 lw 3 lw 326 1411 m25 6 lw 3 lw 334 1398 m25 6 lw 3 lw 342 1385 m25 6 lw 3 lw 351 1373 m25 6 lw 3 lw 359 1361 m25 6 lw 3 lw 367 1351 m25 6 lw 3 lw 375 1340 m25 6 lw 3 lw 383 1331 m25 6 lw 3
 lw 391 1322 m25 6 lw 3 lw 400 1313 m25 6 lw 3 lw 408 1306 m25 6 lw 3 lw 416 1299 m25 6 lw 3 lw 424 1290 m25 6 lw 3 lw 432 1282 m25 6 lw 3 lw 440 1276 m25 6 lw 3 lw 449 1268 m25 6 lw 3 lw 457 1265 m25 6 lw 3 lw 465 1258 m25 6 lw 3 lw 473 1254 m25 6
 lw 3 lw 481 1248 m25 6 lw 3 lw 489 1244 m25 6 lw 3 lw 498 1235 m25 6 lw 3 lw 506 1231 m25 6 lw 3 lw 514 1229 m25 6 lw 3 lw 522 1221 m25 6 lw 3 lw 530 1221 m25 6 lw 3 lw 538 1215 m25 6 lw 3 lw 547 1214 m25 6 lw 3 lw 555 1209 m25 6 lw 3 lw 563 1197
 m25 6 lw 3 lw 571 1192 m25 6 lw 3 lw 579 1191 m25 6 lw 3 lw 587 1190 m25 6 lw 3 lw 596 1181 m25 6 lw 3 lw 604 1183 m25 6 lw 3 lw 612 1176 m25 6 lw 3 lw 620 1168 m25 6 lw 3 lw 628 1172 m25 6 lw 3 lw 636 1172 m25 6 lw 3 lw 644 1170 m25 6 lw 3 lw 653
 1170 m25 6 lw 3 lw 661 1158 m25 6 lw 3 lw 669 1154 m25 6 lw 3 lw 677 1149 m25 6 lw 685 1135 m s 3 lw 685 1145 m25 6 lw 3 lw 693 1149 m25 6 lw 3 lw 702 1152 m25 6 lw 3 lw 710 1155 m25 6 lw 718 1133 m s 3 lw 718 1142 m25 6 lw 726 1123 m 3 Y s 3 lw 726
 1135 m25 6 lw 734 1106 m 5 Y s 734 1130 m 1 Y s 3 lw 734 1121 m25 6 lw 742 1081 m 13 Y s 742 1112 m 4 Y s 3 lw 742 1103 m25 6 lw 751 1081 m 13 Y s 751 1112 m 4 Y s 3 lw 751 1103 m25 6 lw 759 1106 m 5 Y s 759 1130 m 1 Y s 3 lw 759 1121 m25 6 lw 767
 1111 m 5 Y s 767 1134 m s 3 lw 767 1125 m25 6 lw 775 1081 m 13 Y s 775 1112 m 4 Y s 3 lw 775 1103 m25 6 lw 783 1067 m 18 Y s 783 1103 m 5 Y s 3 lw 783 1094 m25 6 lw 791 1099 m 8 Y s 791 1125 m 1 Y s 3 lw 791 1116 m25 6 lw 800 1116 m 3 Y s 3 lw 800
 1128 m25 6 lw 808 1106 m 5 Y s 808 1130 m 1 Y s 3 lw 808 1121 m25 6 lw 816 1042 m 30 Y s 816 1090 m 8 Y s 3 lw 816 1081 m25 6 lw 824 1081 m 13 Y s 824 1112 m 4 Y s 3 lw 824 1103 m25 6 lw 832 1026 m 24 Y s 832 1068 m 13 Y s 3 lw 832 1059 m25 6 lw 840
 1111 m 5 Y s 840 1134 m s 3 lw 840 1125 m25 6 lw 849 1067 m 18 Y s 849 1103 m 5 Y s 3 lw 849 1094 m25 6 lw 857 1081 m 13 Y s 857 1112 m 4 Y s 3 lw 857 1103 m25 6 lw 873 1042 m 30 Y s 873 1090 m 8 Y s 3 lw 873 1081 m25 6 lw 881 1026 m 24 Y s 881 1068
 m 13 Y s 3 lw 881 1059 m25 6 lw 889 1026 m 24 Y s 889 1068 m 13 Y s 3 lw 889 1059 m25 6 lw 898 1026 m 24 Y s 898 1068 m 13 Y s 3 lw 898 1059 m25 6 lw 906 1026 m 24 Y s 906 1068 m 13 Y s 3 lw 906 1059 m25 6 lw 922 1026 m 24 Y s 922 1068 m 13 Y s 3 lw
 922 1059 m25 6 lw 930 1042 m 30 Y s 930 1090 m 8 Y s 3 lw 930 1081 m25 6 lw 938 1042 m 30 Y s 938 1090 m 8 Y s 3 lw 938 1081 m25 6 lw 947 1026 m 24 Y s 947 1068 m 13 Y s 3 lw 947 1059 m25 6 lw 955 1042 m 30 Y s 955 1090 m 8 Y s 3 lw 955 1081 m25 6
 lw 979 1042 m 30 Y s 979 1090 m 8 Y s 3 lw 979 1081 m25 6 lw 996 1026 m 24 Y s 996 1068 m 13 Y s 3 lw 996 1059 m25 6 lw 1012 1026 m 24 Y s 1012 1068 m 13 Y s 3 lw 1012 1059 m25 6 lw 1053 1042 m 30 Y s 1053 1090 m 8 Y s 3 lw 1053 1081 m25 6 lw 0 0.4
 0 c 1 1 1 c 0 0.4 0 c 3 lw 253 1568 m26 6 lw 3 lw 261 1555 m26 6 lw 3 lw 269 1540 m26 6 lw 3 lw 277 1525 m26 6 lw 3 lw 285 1511 m26 6 lw 3 lw 293 1496 m26 6 lw 3 lw 302 1483 m26 6 lw 3 lw 310 1469 m26 6 lw 3 lw 318 1458 m26 6 lw 3 lw 326 1449 m26 6
 lw 3 lw 334 1439 m26 6 lw 3 lw 342 1432 m26 6 lw 3 lw 351 1426 m26 6 lw 3 lw 359 1432 m26 6 lw 3 lw 367 1441 m26 6 lw 3 lw 375 1453 m26 6 lw 3 lw 383 1463 m26 6 lw 3 lw 391 1469 m26 6 lw 3 lw 400 1473 m26 6 lw 3 lw 408 1478 m26 6 lw 3 lw 416 1478
 m26 6 lw 3 lw 424 1481 m26 6 lw 3 lw 432 1479 m26 6 lw 3 lw 440 1480 m26 6 lw 3 lw 449 1479 m26 6 lw 3 lw 457 1478 m26 6 lw 3 lw 465 1477 m26 6 lw 3 lw 473 1475 m26 6 lw 3 lw 481 1473 m26 6 lw 3 lw 489 1472 m26 6 lw 3 lw 498 1468 m26 6 lw 3 lw 506
 1466 m26 6 lw 3 lw 514 1465 m26 6 lw 3 lw 522 1461 m26 6 lw 3 lw 530 1461 m26 6 lw 3 lw 538 1458 m26 6 lw 3 lw 547 1454 m26 6 lw 3 lw 555 1450 m26 6 lw 3 lw 563 1448 m26 6 lw 3 lw 571 1446 m26 6 lw 3 lw 579 1444 m26 6 lw 3 lw 587 1440 m26 6 lw 3 lw
 596 1438 m26 6 lw 3 lw 604 1436 m26 6 lw 3 lw 612 1431 m26 6 lw 3 lw 620 1430 m26 6 lw 3 lw 628 1427 m26 6 lw 3 lw 636 1422 m26 6 lw 3 lw 644 1419 m26 6 lw 3 lw 653 1417 m26 6 lw 3 lw 661 1417 m26 6 lw 3 lw 669 1413 m26 6 lw 3 lw 677 1409 m26 6 lw 3
 lw 685 1411 m26 6 lw 3 lw 693 1402 m26 6 lw 3 lw 702 1401 m26 6 lw 3 lw 710 1405 m26 6 lw 3 lw 718 1394 m26 6 lw 3 lw 726 1396 m26 6 lw 3 lw 734 1387 m26 6 lw 3 lw 742 1389 m26 6 lw 3 lw 751 1393 m26 6 lw 3 lw 759 1385 m26 6 lw 3 lw 767 1381 m26 6
 lw 3 lw 775 1377 m26 6 lw 3 lw 783 1375 m26 6 lw 3 lw 791 1370 m26 6 lw 3 lw 800 1371 m26 6 lw 3 lw 808 1367 m26 6 lw 3 lw 816 1364 m26 6 lw 3 lw 824 1365 m26 6 lw 3 lw 832 1364 m26 6 lw 3 lw 840 1356 m26 6 lw 3 lw 849 1356 m26 6 lw 3 lw 857 1354
 m26 6 lw 3 lw 865 1356 m26 6 lw 3 lw 873 1351 m26 6 lw 3 lw 881 1351 m26 6 lw 3 lw 889 1351 m26 6 lw 3 lw 898 1344 m26 6 lw 3 lw 906 1342 m26 6 lw 3 lw 914 1340 m26 6 lw 3 lw 922 1350 m26 6 lw 3 lw 930 1329 m26 6 lw 3 lw 938 1338 m26 6 lw 3 lw 947
 1334 m26 6 lw 3 lw 955 1342 m26 6 lw 3 lw 963 1322 m26 6 lw 971 1310 m s 3 lw 971 1320 m26 6 lw 979 1308 m s 3 lw 979 1317 m26 6 lw 3 lw 987 1325 m26 6 lw 996 1310 m s 3 lw 996 1320 m26 6 lw 1004 1305 m 1 Y s 3 lw 1004 1315 m26 6 lw 1012 1308 m s 3
 lw 1012 1317 m26 6 lw 3 lw 1020 1322 m26 6 lw 3 lw 1028 1324 m26 6 lw 1036 1286 m 5 Y s 1036 1309 m s 3 lw 1036 1300 m26 6 lw 1045 1305 m 1 Y s 3 lw 1045 1315 m26 6 lw 1053 1274 m 8 Y s 1053 1300 m 1 Y s 3 lw 1053 1291 m26 6 lw 0 0 1 c 1 1 1 c 0 0 1
 c 3 lw 253 1569 m27 6 lw 3 lw 261 1556 m27 6 lw 3 lw 269 1541 m27 6 lw 3 lw 277 1526 m27 6 lw 3 lw 285 1511 m27 6 lw 3 lw 293 1496 m27 6 lw 3 lw 302 1484 m27 6 lw 3 lw 310 1470 m27 6 lw 3 lw 318 1459 m27 6 lw 3 lw 326 1448 m27 6 lw 3 lw 334 1437 m27
 6 lw 3 lw 342 1432 m27 6 lw 3 lw 351 1427 m27 6 lw 3 lw 359 1432 m27 6 lw 3 lw 367 1441 m27 6 lw 3 lw 375 1455 m27 6 lw 3 lw 383 1464 m27 6 lw 3 lw 391 1471 m27 6 lw 3 lw 400 1475 m27 6 lw 3 lw 408 1479 m27 6 lw 3 lw 416 1481 m27 6 lw 3 lw 424 1482
 m27 6 lw 3 lw 432 1482 m27 6 lw 3 lw 440 1482 m27 6 lw 3 lw 449 1480 m27 6 lw 3 lw 457 1479 m27 6 lw 3 lw 465 1478 m27 6 lw 3 lw 473 1476 m27 6 lw 3 lw 481 1475 m27 6 lw 3 lw 489 1472 m27 6 lw 3 lw 498 1470 m27 6 lw 3 lw 506 1468 m27 6 lw 3 lw 514
 1464 m27 6 lw 3 lw 522 1463 m27 6 lw 3 lw 530 1460 m27 6 lw 3 lw 538 1456 m27 6 lw 3 lw 547 1455 m27 6 lw 3 lw 555 1451 m27 6 lw 3 lw 563 1449 m27 6 lw 3 lw 571 1446 m27 6 lw 3 lw 579 1441 m27 6 lw 3 lw 587 1438 m27 6 lw 3 lw 596 1436 m27 6 lw 3 lw
 604 1433 m27 6 lw 3 lw 612 1430 m27 6 lw 3 lw 620 1427 m27 6 lw 3 lw 628 1425 m27 6 lw 3 lw 636 1421 m27 6 lw 3 lw 644 1420 m27 6 lw 3 lw 653 1416 m27 6 lw 3 lw 661 1411 m27 6 lw 3 lw 669 1410 m27 6 lw 3 lw 677 1408 m27 6 lw 3 lw 685 1406 m27 6 lw 3
 lw 693 1402 m27 6 lw 3 lw 702 1397 m27 6 lw 3 lw 710 1399 m27 6 lw 3 lw 718 1396 m27 6 lw 3 lw 726 1394 m27 6 lw 3 lw 734 1390 m27 6 lw 3 lw 742 1387 m27 6 lw 3 lw 751 1380 m27 6 lw 3 lw 759 1379 m27 6 lw 3 lw 767 1380 m27 6 lw 3 lw 775 1379 m27 6
 lw 3 lw 783 1373 m27 6 lw 3 lw 791 1365 m27 6 lw 3 lw 800 1365 m27 6 lw 3 lw 808 1372 m27 6 lw 3 lw 816 1368 m27 6 lw 3 lw 824 1362 m27 6 lw 3 lw 832 1366 m27 6 lw 3 lw 840 1354 m27 6 lw 3 lw 849 1361 m27 6 lw 3 lw 857 1355 m27 6 lw 3 lw 865 1348
 m27 6 lw 3 lw 873 1348 m27 6 lw 3 lw 881 1340 m27 6 lw 3 lw 889 1346 m27 6 lw 3 lw 898 1342 m27 6 lw 3 lw 906 1342 m27 6 lw 3 lw 914 1342 m27 6 lw 3 lw 922 1337 m27 6 lw 3 lw 930 1331 m27 6 lw 3 lw 938 1337 m27 6 lw 3 lw 947 1326 m27 6 lw 3 lw 955
 1330 m27 6 lw 3 lw 963 1327 m27 6 lw 3 lw 971 1309 m27 6 lw 3 lw 979 1312 m27 6 lw 3 lw 987 1317 m27 6 lw 3 lw 996 1328 m27 6 lw 3 lw 1004 1304 m27 6 lw 3 lw 1012 1309 m27 6 lw 3 lw 1020 1306 m27 6 lw 3 lw 1028 1319 m27 6 lw 3 lw 1036 1312 m27 6 lw
 3 lw 1045 1318 m27 6 lw 3 lw 1053 1304 m27 6 lw black
 gsave  1088 846 23 899 C 628.403 1646.14 t 0 r /Helvetica findfont 36.4802 sf 0 0 m (Full jets) show NC gr 
 gsave  1088 846 23 899 C 710.369 1602.88 t 0 r /Helvetica-Bold findfont 36.4802 sf 0 0 m (LHC13b) show NC gr  3 lw 666 1616 m24 6 lw
 gsave  1088 846 23 899 C 710.369 1561.9 t 0 r /Helvetica-Bold findfont 36.4802 sf 0 0 m (LHC13c) show NC gr  1 0 0 c 3 lw 666 1575 m25 6 lw black
 gsave  1088 846 23 899 C 710.369 1523.2 t 0 r /Helvetica-Bold findfont 36.4802 sf 0 0 m (LHC13d) show NC gr  0 0.4 0 c 3 lw 666 1535 m26 6 lw black
 gsave  1088 846 23 899 C 710.369 1482.21 t 0 r /Helvetica-Bold findfont 36.4802 sf 0 0 m (LHC13e) show NC gr  0 0 1 c 3 lw 666 1494 m27 6 lw black 3 lw 1 1 1 c 1088 846 1157 899 bf black 1 1 1 c 817 676 1374 1026 bf black 817 676 1374 1026 bl 1 1 1
 c 817 676 1374 1026 bf black 817 676 1374 1026 bl 0 0 0.6 c 1 1 1 c black 0 0 0.6 c 1374 1026 m 817 X s black 1374 1026 m 817 X s
 gsave  1088 846 1157 899 C 2176.64 947.159 t 0 r /Helvetica findfont 47.8803 sf 0 0 m (\)) show NC gr 
 gsave  1088 846 1157 899 C 2149.32 947.159 t 0 r /Helvetica-Oblique findfont 47.8803 sf 0 0 m (c) show NC gr 
 gsave  1088 846 1157 899 C 2010.44 947.159 t 0 r /Helvetica findfont 47.8803 sf 0 0 m ( \(GeV/) show NC gr 
 gsave  1088 846 1157 899 C 1989.94 922.114 t 0 r /Helvetica findfont 31.9202 sf 0 0 m (T) show NC gr 
 gsave  1088 846 1157 899 C 1960.35 947.159 t 0 r /Helvetica-Oblique findfont 47.8803 sf 0 0 m (p) show NC gr  1374 1045 m -19 Y s 1391 1035 m -9 Y s 1407 1035 m -9 Y s 1423 1035 m -9 Y s 1440 1035 m -9 Y s 1456 1045 m -19 Y s 1472 1035 m -9 Y s 1489
 1035 m -9 Y s 1505 1035 m -9 Y s 1521 1035 m -9 Y s 1538 1045 m -19 Y s 1554 1035 m -9 Y s 1570 1035 m -9 Y s 1586 1035 m -9 Y s 1603 1035 m -9 Y s 1619 1045 m -19 Y s 1635 1035 m -9 Y s 1652 1035 m -9 Y s 1668 1035 m -9 Y s 1684 1035 m -9 Y s 1701
 1045 m -19 Y s 1717 1035 m -9 Y s 1733 1035 m -9 Y s 1750 1035 m -9 Y s 1766 1035 m -9 Y s 1782 1045 m -19 Y s 1799 1035 m -9 Y s 1815 1035 m -9 Y s 1831 1035 m -9 Y s 1848 1035 m -9 Y s 1864 1045 m -19 Y s 1880 1035 m -9 Y s 1897 1035 m -9 Y s 1913
 1035 m -9 Y s 1929 1035 m -9 Y s 1946 1045 m -19 Y s 1962 1035 m -9 Y s 1978 1035 m -9 Y s 1995 1035 m -9 Y s 2011 1035 m -9 Y s 2027 1045 m -19 Y s 2044 1035 m -9 Y s 2060 1035 m -9 Y s 2076 1035 m -9 Y s 2093 1035 m -9 Y s 2109 1045 m -19 Y s 2125
 1035 m -9 Y s 2142 1035 m -9 Y s 2158 1035 m -9 Y s 2174 1035 m -9 Y s 2191 1045 m -19 Y s
 gsave  1088 846 1157 899 C 1361.54 988.142 t 0 r /Helvetica findfont 38.7603 sf 0 0 m (0) show NC gr 
 gsave  1088 846 1157 899 C 1432.12 988.142 t 0 r /Helvetica findfont 38.7603 sf 0 0 m (10) show NC gr 
 gsave  1088 846 1157 899 C 1514.09 988.142 t 0 r /Helvetica findfont 38.7603 sf 0 0 m (20) show NC gr 
 gsave  1088 846 1157 899 C 1596.05 988.142 t 0 r /Helvetica findfont 38.7603 sf 0 0 m (30) show NC gr 
 gsave  1088 846 1157 899 C 1678.02 988.142 t 0 r /Helvetica findfont 38.7603 sf 0 0 m (40) show NC gr 
 gsave  1088 846 1157 899 C 1757.71 988.142 t 0 r /Helvetica findfont 38.7603 sf 0 0 m (50) show NC gr 
 gsave  1088 846 1157 899 C 1839.67 988.142 t 0 r /Helvetica findfont 38.7603 sf 0 0 m (60) show NC gr 
 gsave  1088 846 1157 899 C 1921.64 988.142 t 0 r /Helvetica findfont 38.7603 sf 0 0 m (70) show NC gr 
 gsave  1088 846 1157 899 C 2003.6 988.142 t 0 r /Helvetica findfont 38.7603 sf 0 0 m (80) show NC gr 
 gsave  1088 846 1157 899 C 2085.57 988.142 t 0 r /Helvetica findfont 38.7603 sf 0 0 m (90) show NC gr 
 gsave  1088 846 1157 899 C 2158.43 988.142 t 0 r /Helvetica findfont 38.7603 sf 0 0 m (100) show NC gr  1374 1026 m 676 Y s
 gsave  1088 846 1157 899 C 1275.02 1682.57 t 90 r /Helvetica findfont 31.9202 sf 0 0 m (T) show NC gr 
 gsave  1088 846 1157 899 C 1247.7 1652.97 t 90 r /Helvetica-Oblique findfont 47.8803 sf 0 0 m (p) show NC gr 
 gsave  1088 846 1157 899 C 1247.7 1627.93 t 90 r /Helvetica findfont 47.8803 sf 0 0 m (d) show NC gr 
 gsave  1088 846 1157 899 C 1195.33 1659.8 t 90 r /Helvetica-Oblique findfont 47.8803 sf 0 0 m (N) show NC gr 
 gsave  1088 846 1157 899 C 1195.33 1634.76 t 90 r /Helvetica findfont 47.8803 sf 0 0 m (d) show NC gr  6 lw 1204 1628 m 75 Y s
 gsave  1088 846 1157 899 C 1218.1 1611.99 t 90 r /Helvetica findfont 47.8803 sf 0 0 m ( ) show NC gr 
 gsave  1088 846 1157 899 C 1261.36 1568.73 t 90 r /Helvetica findfont 31.9202 sf 0 0 m (evt) show NC gr 
 gsave  1088 846 1157 899 C 1247.7 1530.03 t 90 r /Helvetica-Oblique findfont 47.8803 sf 0 0 m (N) show NC gr 
 gsave  1088 846 1157 899 C 1197.61 1561.9 t 90 r /Helvetica findfont 47.8803 sf 0 0 m (1) show NC gr  1204 1530 m 82 Y s 3 lw 1387 1026 m -13 X s 1387 1031 m -13 X s 1387 1036 m -13 X s 1387 1040 m -13 X s 1387 1044 m -13 X s 1400 1048 m -26 X s
 gsave  1088 846 1157 899 C 1338.77 1049.62 t 0 r /Helvetica findfont 27.3602 sf 0 0 m (\2558) show NC gr 
 gsave  1088 846 1157 899 C 1295.51 1031.4 t 0 r /Helvetica findfont 38.7603 sf 0 0 m (10) show NC gr  1387 1069 m -13 X s 1387 1082 m -13 X s 1387 1091 m -13 X s 1387 1098 m -13 X s 1387 1104 m -13 X s 1387 1109 m -13 X s 1387 1113 m -13 X s 1387
 1117 m -13 X s 1400 1120 m -26 X s
 gsave  1088 846 1157 899 C 1338.77 1120.2 t 0 r /Helvetica findfont 27.3602 sf 0 0 m (\2557) show NC gr 
 gsave  1088 846 1157 899 C 1295.51 1104.26 t 0 r /Helvetica findfont 38.7603 sf 0 0 m (10) show NC gr  1387 1142 m -13 X s 1387 1155 m -13 X s 1387 1164 m -13 X s 1387 1171 m -13 X s 1387 1177 m -13 X s 1387 1182 m -13 X s 1387 1186 m -13 X s 1387
 1190 m -13 X s 1400 1193 m -26 X s
 gsave  1088 846 1157 899 C 1338.77 1193.06 t 0 r /Helvetica findfont 27.3602 sf 0 0 m (\2556) show NC gr 
 gsave  1088 846 1157 899 C 1295.51 1174.84 t 0 r /Helvetica findfont 38.7603 sf 0 0 m (10) show NC gr  1387 1215 m -13 X s 1387 1228 m -13 X s 1387 1237 m -13 X s 1387 1244 m -13 X s 1387 1250 m -13 X s 1387 1255 m -13 X s 1387 1259 m -13 X s 1387
 1262 m -13 X s 1400 1266 m -26 X s
 gsave  1088 846 1157 899 C 1338.77 1265.91 t 0 r /Helvetica findfont 27.3602 sf 0 0 m (\2555) show NC gr 
 gsave  1088 846 1157 899 C 1295.51 1247.7 t 0 r /Helvetica findfont 38.7603 sf 0 0 m (10) show NC gr  1387 1288 m -13 X s 1387 1301 m -13 X s 1387 1310 m -13 X s 1387 1317 m -13 X s 1387 1322 m -13 X s 1387 1327 m -13 X s 1387 1332 m -13 X s 1387
 1335 m -13 X s 1400 1339 m -26 X s
 gsave  1088 846 1157 899 C 1338.77 1336.5 t 0 r /Helvetica findfont 27.3602 sf 0 0 m (\2554) show NC gr 
 gsave  1088 846 1157 899 C 1295.51 1320.56 t 0 r /Helvetica findfont 38.7603 sf 0 0 m (10) show NC gr  1387 1360 m -13 X s 1387 1373 m -13 X s 1387 1382 m -13 X s 1387 1389 m -13 X s 1387 1395 m -13 X s 1387 1400 m -13 X s 1387 1404 m -13 X s 1387
 1408 m -13 X s 1400 1411 m -26 X s
 gsave  1088 846 1157 899 C 1338.77 1411.63 t 0 r /Helvetica findfont 27.3602 sf 0 0 m (\2553) show NC gr 
 gsave  1088 846 1157 899 C 1295.51 1393.42 t 0 r /Helvetica findfont 38.7603 sf 0 0 m (10) show NC gr  1387 1433 m -13 X s 1387 1446 m -13 X s 1387 1455 m -13 X s 1387 1462 m -13 X s 1387 1468 m -13 X s 1387 1473 m -13 X s 1387 1477 m -13 X s 1387
 1481 m -13 X s 1400 1484 m -26 X s
 gsave  1088 846 1157 899 C 1338.77 1482.21 t 0 r /Helvetica findfont 27.3602 sf 0 0 m (\2552) show NC gr 
 gsave  1088 846 1157 899 C 1295.51 1466.27 t 0 r /Helvetica findfont 38.7603 sf 0 0 m (10) show NC gr  1387 1506 m -13 X s 1387 1519 m -13 X s 1387 1528 m -13 X s 1387 1535 m -13 X s 1387 1541 m -13 X s 1387 1546 m -13 X s 1387 1550 m -13 X s 1387
 1554 m -13 X s 1400 1557 m -26 X s
 gsave  1088 846 1157 899 C 1343.33 1555.07 t 0 r /Helvetica findfont 27.3602 sf 0 0 m (\2551) show NC gr 
 gsave  1088 846 1157 899 C 1300.07 1539.13 t 0 r /Helvetica findfont 38.7603 sf 0 0 m (10) show NC gr  1387 1579 m -13 X s 1387 1592 m -13 X s 1387 1601 m -13 X s 1387 1608 m -13 X s 1387 1613 m -13 X s 1387 1618 m -13 X s 1387 1623 m -13 X s 1387
 1626 m -13 X s 1400 1630 m -26 X s
 gsave  1088 846 1157 899 C 1364.44 1613.2 t 0 r  -21 0 t /Helvetica findfont 38.7603 sf 0 0 m (1) show NC gr  1387 1651 m -13 X s 1387 1664 m -13 X s 1387 1673 m -13 X s 1387 1680 m -13 X s 1387 1686 m -13 X s 1387 1691 m -13 X s 1387 1695 m -13 X s
 1387 1699 m -13 X s 1400 1702 m -26 X s
 gsave  1088 846 1157 899 C 1364.44 1685.95 t 0 r  -43 0 t /Helvetica findfont 38.7603 sf 0 0 m (10) show NC gr  6 lw 1 1 1 c black 3 lw 1386 1646 m24 6 lw 3 lw 1395 1619 m24 6 lw 3 lw 1403 1595 m24 6 lw 3 lw 1411 1572 m24 6 lw 3 lw 1419 1550 m24 6
 lw 3 lw 1427 1530 m24 6 lw 3 lw 1435 1511 m24 6 lw 3 lw 1444 1493 m24 6 lw 3 lw 1452 1477 m24 6 lw 3 lw 1460 1461 m24 6 lw 3 lw 1468 1446 m24 6 lw 3 lw 1476 1432 m24 6 lw 3 lw 1484 1419 m24 6 lw 3 lw 1493 1407 m24 6 lw 3 lw 1501 1395 m24 6 lw 3 lw
 1509 1385 m24 6 lw 3 lw 1517 1376 m24 6 lw 3 lw 1525 1366 m24 6 lw 3 lw 1533 1357 m24 6 lw 3 lw 1542 1349 m24 6 lw 3 lw 1550 1343 m24 6 lw 3 lw 1558 1335 m24 6 lw 3 lw 1566 1326 m24 6 lw 3 lw 1574 1321 m24 6 lw 3 lw 1582 1314 m24 6 lw 3 lw 1591 1307
 m24 6 lw 3 lw 1599 1303 m24 6 lw 3 lw 1607 1294 m24 6 lw 3 lw 1615 1288 m24 6 lw 3 lw 1623 1284 m24 6 lw 3 lw 1631 1280 m24 6 lw 3 lw 1640 1275 m24 6 lw 3 lw 1648 1268 m24 6 lw 3 lw 1656 1265 m24 6 lw 3 lw 1664 1264 m24 6 lw 3 lw 1672 1254 m24 6 lw
 3 lw 1680 1248 m24 6 lw 3 lw 1689 1246 m24 6 lw 3 lw 1697 1242 m24 6 lw 3 lw 1705 1244 m24 6 lw 3 lw 1713 1242 m24 6 lw 3 lw 1721 1235 m24 6 lw 3 lw 1729 1224 m24 6 lw 3 lw 1738 1220 m24 6 lw 3 lw 1746 1216 m24 6 lw 3 lw 1754 1218 m24 6 lw 3 lw 1762
 1207 m24 6 lw 3 lw 1770 1207 m24 6 lw 3 lw 1778 1187 m24 6 lw 3 lw 1787 1194 m24 6 lw 3 lw 1795 1201 m24 6 lw 3 lw 1803 1195 m24 6 lw 3 lw 1811 1189 m24 6 lw 3 lw 1819 1189 m24 6 lw 3 lw 1827 1189 m24 6 lw 1835 1157 m 3 Y s 3 lw 1835 1169 m24 6 lw 3
 lw 1844 1187 m24 6 lw 1852 1160 m 3 Y s 3 lw 1852 1172 m24 6 lw 1860 1167 m 1 Y s 3 lw 1860 1177 m24 6 lw 1868 1172 m 1 Y s 3 lw 1868 1182 m24 6 lw 1876 1128 m 10 Y s 1876 1156 m 3 Y s 3 lw 1876 1147 m24 6 lw 1884 1157 m 3 Y s 3 lw 1884 1169 m24 6
 lw 1893 1164 m 1 Y s 3 lw 1893 1175 m24 6 lw 1901 1143 m 5 Y s 1901 1167 m 1 Y s 3 lw 1901 1158 m24 6 lw 1909 1104 m 18 Y s 1909 1140 m 5 Y s 3 lw 1909 1131 m24 6 lw 1917 1143 m 5 Y s 1917 1167 m 1 Y s 3 lw 1917 1158 m24 6 lw 1925 1079 m 30 Y s 1925
 1127 m 8 Y s 3 lw 1925 1118 m24 6 lw 1933 1118 m 13 Y s 1933 1149 m 4 Y s 3 lw 1933 1140 m24 6 lw 1942 1136 m 8 Y s 1942 1162 m 1 Y s 3 lw 1942 1153 m24 6 lw 1950 1136 m 8 Y s 1950 1162 m 1 Y s 3 lw 1950 1153 m24 6 lw 1958 1104 m 18 Y s 1958 1140 m
 5 Y s 3 lw 1958 1131 m24 6 lw 1966 1104 m 18 Y s 1966 1140 m 5 Y s 3 lw 1966 1131 m24 6 lw 1974 1104 m 18 Y s 1974 1140 m 5 Y s 3 lw 1974 1131 m24 6 lw 1982 1118 m 13 Y s 1982 1149 m 4 Y s 3 lw 1982 1140 m24 6 lw 1991 1118 m 13 Y s 1991 1149 m 4 Y s
 3 lw 1991 1140 m24 6 lw 1999 1118 m 13 Y s 1999 1149 m 4 Y s 3 lw 1999 1140 m24 6 lw 2007 1128 m 10 Y s 2007 1156 m 3 Y s 3 lw 2007 1147 m24 6 lw 2015 1079 m 30 Y s 2015 1127 m 8 Y s 3 lw 2015 1118 m24 6 lw 2023 1079 m 30 Y s 2023 1127 m 8 Y s 3 lw
 2023 1118 m24 6 lw 2031 1026 m 61 Y s 2031 1105 m 13 Y s 3 lw 2031 1096 m24 6 lw 2040 1104 m 18 Y s 2040 1140 m 5 Y s 3 lw 2040 1131 m24 6 lw 2048 1104 m 18 Y s 2048 1140 m 5 Y s 3 lw 2048 1131 m24 6 lw 2056 1026 m 61 Y s 2056 1105 m 13 Y s 3 lw
 2056 1096 m24 6 lw 2064 1026 m 61 Y s 2064 1105 m 13 Y s 3 lw 2064 1096 m24 6 lw 2072 1104 m 18 Y s 2072 1140 m 5 Y s 3 lw 2072 1131 m24 6 lw 2089 1079 m 30 Y s 2089 1127 m 8 Y s 3 lw 2089 1118 m24 6 lw 2097 1079 m 30 Y s 2097 1127 m 8 Y s 3 lw 2097
 1118 m24 6 lw 2105 1026 m 61 Y s 2105 1105 m 13 Y s 3 lw 2105 1096 m24 6 lw 2121 1026 m 61 Y s 2121 1105 m 13 Y s 3 lw 2121 1096 m24 6 lw 2138 1026 m 61 Y s 2138 1105 m 13 Y s 3 lw 2138 1096 m24 6 lw 2146 1026 m 61 Y s 2146 1105 m 13 Y s 3 lw 2146
 1096 m24 6 lw 2162 1026 m 61 Y s 2162 1105 m 13 Y s 3 lw 2162 1096 m24 6 lw 2178 1026 m 61 Y s 2178 1105 m 13 Y s 3 lw 2178 1096 m24 6 lw 1 0 0 c 1 1 1 c 1 0 0 c 3 lw 1386 1647 m25 6 lw 3 lw 1395 1620 m25 6 lw 3 lw 1403 1595 m25 6 lw 3 lw 1411 1573
 m25 6 lw 3 lw 1419 1551 m25 6 lw 3 lw 1427 1531 m25 6 lw 3 lw 1435 1512 m25 6 lw 3 lw 1444 1494 m25 6 lw 3 lw 1452 1477 m25 6 lw 3 lw 1460 1461 m25 6 lw 3 lw 1468 1446 m25 6 lw 3 lw 1476 1433 m25 6 lw 3 lw 1484 1420 m25 6 lw 3 lw 1493 1408 m25 6 lw
 3 lw 1501 1396 m25 6 lw 3 lw 1509 1386 m25 6 lw 3 lw 1517 1376 m25 6 lw 3 lw 1525 1367 m25 6 lw 3 lw 1533 1358 m25 6 lw 3 lw 1542 1350 m25 6 lw 3 lw 1550 1342 m25 6 lw 3 lw 1558 1335 m25 6 lw 3 lw 1566 1327 m25 6 lw 3 lw 1574 1320 m25 6 lw 3 lw 1582
 1314 m25 6 lw 3 lw 1591 1308 m25 6 lw 3 lw 1599 1302 m25 6 lw 3 lw 1607 1296 m25 6 lw 3 lw 1615 1290 m25 6 lw 3 lw 1623 1285 m25 6 lw 3 lw 1631 1281 m25 6 lw 3 lw 1640 1277 m25 6 lw 3 lw 1648 1270 m25 6 lw 3 lw 1656 1264 m25 6 lw 3 lw 1664 1261 m25
 6 lw 3 lw 1672 1257 m25 6 lw 3 lw 1680 1253 m25 6 lw 3 lw 1689 1246 m25 6 lw 3 lw 1697 1243 m25 6 lw 3 lw 1705 1240 m25 6 lw 3 lw 1713 1234 m25 6 lw 3 lw 1721 1229 m25 6 lw 3 lw 1729 1223 m25 6 lw 3 lw 1738 1225 m25 6 lw 3 lw 1746 1221 m25 6 lw 3 lw
 1754 1214 m25 6 lw 3 lw 1762 1208 m25 6 lw 3 lw 1770 1206 m25 6 lw 3 lw 1778 1206 m25 6 lw 3 lw 1787 1202 m25 6 lw 3 lw 1795 1196 m25 6 lw 3 lw 1803 1190 m25 6 lw 3 lw 1811 1192 m25 6 lw 3 lw 1819 1185 m25 6 lw 3 lw 1827 1187 m25 6 lw 3 lw 1835 1183
 m25 6 lw 3 lw 1844 1183 m25 6 lw 3 lw 1852 1180 m25 6 lw 3 lw 1860 1170 m25 6 lw 3 lw 1868 1165 m25 6 lw 3 lw 1876 1163 m25 6 lw 3 lw 1884 1164 m25 6 lw 3 lw 1893 1172 m25 6 lw 3 lw 1901 1155 m25 6 lw 3 lw 1909 1159 m25 6 lw 3 lw 1917 1149 m25 6 lw
 1925 1133 m s 3 lw 1925 1142 m25 6 lw 3 lw 1933 1154 m25 6 lw 1942 1123 m 3 Y s 3 lw 1942 1135 m25 6 lw 1950 1130 m 1 Y s 3 lw 1950 1140 m25 6 lw 3 lw 1958 1147 m25 6 lw 1966 1127 m 1 Y s 3 lw 1966 1138 m25 6 lw 1974 1135 m s 3 lw 1974 1145 m25 6 lw
 1982 1116 m 3 Y s 3 lw 1982 1128 m25 6 lw 1991 1091 m 10 Y s 1991 1119 m 3 Y s 3 lw 1991 1110 m25 6 lw 1999 1106 m 5 Y s 1999 1130 m 1 Y s 3 lw 1999 1121 m25 6 lw 2007 1067 m 18 Y s 2007 1103 m 5 Y s 3 lw 2007 1094 m25 6 lw 2015 1111 m 5 Y s 2015
 1134 m s 3 lw 2015 1125 m25 6 lw 2023 1111 m 5 Y s 2023 1134 m s 3 lw 2023 1125 m25 6 lw 2031 1099 m 8 Y s 2031 1125 m 1 Y s 3 lw 2031 1116 m25 6 lw 2040 1116 m 3 Y s 3 lw 2040 1128 m25 6 lw 2048 1091 m 10 Y s 2048 1119 m 3 Y s 3 lw 2048 1110 m25 6
 lw 2056 1091 m 10 Y s 2056 1119 m 3 Y s 3 lw 2056 1110 m25 6 lw 2064 1099 m 8 Y s 2064 1125 m 1 Y s 3 lw 2064 1116 m25 6 lw 2072 1111 m 5 Y s 2072 1134 m s 3 lw 2072 1125 m25 6 lw 2080 1067 m 18 Y s 2080 1103 m 5 Y s 3 lw 2080 1094 m25 6 lw 2089
 1081 m 13 Y s 2089 1112 m 4 Y s 3 lw 2089 1103 m25 6 lw 2097 1081 m 13 Y s 2097 1112 m 4 Y s 3 lw 2097 1103 m25 6 lw 2105 1081 m 13 Y s 2105 1112 m 4 Y s 3 lw 2105 1103 m25 6 lw 2113 1042 m 30 Y s 2113 1090 m 8 Y s 3 lw 2113 1081 m25 6 lw 2121 1067
 m 18 Y s 2121 1103 m 5 Y s 3 lw 2121 1094 m25 6 lw 2129 1026 m 24 Y s 2129 1068 m 13 Y s 3 lw 2129 1059 m25 6 lw 2138 1042 m 30 Y s 2138 1090 m 8 Y s 3 lw 2138 1081 m25 6 lw 2146 1042 m 30 Y s 2146 1090 m 8 Y s 3 lw 2146 1081 m25 6 lw 2154 1042 m 30
 Y s 2154 1090 m 8 Y s 3 lw 2154 1081 m25 6 lw 2162 1091 m 10 Y s 2162 1119 m 3 Y s 3 lw 2162 1110 m25 6 lw 2170 1026 m 24 Y s 2170 1068 m 13 Y s 3 lw 2170 1059 m25 6 lw 2178 1081 m 13 Y s 2178 1112 m 4 Y s 3 lw 2178 1103 m25 6 lw 2187 1026 m 24 Y s
 2187 1068 m 13 Y s 3 lw 2187 1059 m25 6 lw 0 0.4 0 c 1 1 1 c 0 0.4 0 c 3 lw 1386 1650 m26 6 lw 3 lw 1395 1632 m26 6 lw 3 lw 1403 1614 m26 6 lw 3 lw 1411 1596 m26 6 lw 3 lw 1419 1581 m26 6 lw 3 lw 1427 1568 m26 6 lw 3 lw 1435 1556 m26 6 lw 3 lw 1444
 1547 m26 6 lw 3 lw 1452 1539 m26 6 lw 3 lw 1460 1533 m26 6 lw 3 lw 1468 1528 m26 6 lw 3 lw 1476 1524 m26 6 lw 3 lw 1484 1520 m26 6 lw 3 lw 1493 1516 m26 6 lw 3 lw 1501 1514 m26 6 lw 3 lw 1509 1510 m26 6 lw 3 lw 1517 1509 m26 6 lw 3 lw 1525 1505 m26
 6 lw 3 lw 1533 1503 m26 6 lw 3 lw 1542 1500 m26 6 lw 3 lw 1550 1497 m26 6 lw 3 lw 1558 1494 m26 6 lw 3 lw 1566 1491 m26 6 lw 3 lw 1574 1489 m26 6 lw 3 lw 1582 1485 m26 6 lw 3 lw 1591 1482 m26 6 lw 3 lw 1599 1481 m26 6 lw 3 lw 1607 1477 m26 6 lw 3 lw
 1615 1475 m26 6 lw 3 lw 1623 1473 m26 6 lw 3 lw 1631 1471 m26 6 lw 3 lw 1640 1468 m26 6 lw 3 lw 1648 1464 m26 6 lw 3 lw 1656 1460 m26 6 lw 3 lw 1664 1456 m26 6 lw 3 lw 1672 1455 m26 6 lw 3 lw 1680 1451 m26 6 lw 3 lw 1689 1449 m26 6 lw 3 lw 1697 1446
 m26 6 lw 3 lw 1705 1445 m26 6 lw 3 lw 1713 1443 m26 6 lw 3 lw 1721 1438 m26 6 lw 3 lw 1729 1435 m26 6 lw 3 lw 1738 1433 m26 6 lw 3 lw 1746 1431 m26 6 lw 3 lw 1754 1427 m26 6 lw 3 lw 1762 1424 m26 6 lw 3 lw 1770 1419 m26 6 lw 3 lw 1778 1422 m26 6 lw
 3 lw 1787 1415 m26 6 lw 3 lw 1795 1412 m26 6 lw 3 lw 1803 1410 m26 6 lw 3 lw 1811 1406 m26 6 lw 3 lw 1819 1402 m26 6 lw 3 lw 1827 1402 m26 6 lw 3 lw 1835 1399 m26 6 lw 3 lw 1844 1396 m26 6 lw 3 lw 1852 1397 m26 6 lw 3 lw 1860 1390 m26 6 lw 3 lw 1868
 1388 m26 6 lw 3 lw 1876 1385 m26 6 lw 3 lw 1884 1384 m26 6 lw 3 lw 1893 1380 m26 6 lw 3 lw 1901 1376 m26 6 lw 3 lw 1909 1378 m26 6 lw 3 lw 1917 1368 m26 6 lw 3 lw 1925 1371 m26 6 lw 3 lw 1933 1372 m26 6 lw 3 lw 1942 1370 m26 6 lw 3 lw 1950 1366 m26
 6 lw 3 lw 1958 1362 m26 6 lw 3 lw 1966 1364 m26 6 lw 3 lw 1974 1358 m26 6 lw 3 lw 1982 1352 m26 6 lw 3 lw 1991 1351 m26 6 lw 3 lw 1999 1358 m26 6 lw 3 lw 2007 1351 m26 6 lw 3 lw 2015 1357 m26 6 lw 3 lw 2023 1344 m26 6 lw 3 lw 2031 1344 m26 6 lw 3 lw
 2040 1329 m26 6 lw 3 lw 2048 1334 m26 6 lw 3 lw 2056 1352 m26 6 lw 3 lw 2064 1344 m26 6 lw 3 lw 2072 1336 m26 6 lw 3 lw 2080 1330 m26 6 lw 3 lw 2089 1333 m26 6 lw 3 lw 2097 1327 m26 6 lw 3 lw 2105 1329 m26 6 lw 3 lw 2113 1324 m26 6 lw 2121 1298 m 3
 Y s 3 lw 2121 1310 m26 6 lw 3 lw 2129 1329 m26 6 lw 2138 1302 m 1 Y s 3 lw 2138 1313 m26 6 lw 2146 1295 m 3 Y s 3 lw 2146 1307 m26 6 lw 2154 1305 m 1 Y s 3 lw 2154 1315 m26 6 lw 2162 1302 m 1 Y s 3 lw 2162 1313 m26 6 lw 2170 1308 m s 3 lw 2170 1317
 m26 6 lw 2178 1281 m 5 Y s 2178 1305 m 1 Y s 3 lw 2178 1296 m26 6 lw 2187 1291 m 3 Y s 3 lw 2187 1303 m26 6 lw 0 0 1 c 1 1 1 c 0 0 1 c 3 lw 1386 1651 m27 6 lw 3 lw 1395 1633 m27 6 lw 3 lw 1403 1614 m27 6 lw 3 lw 1411 1597 m27 6 lw 3 lw 1419 1582 m27
 6 lw 3 lw 1427 1569 m27 6 lw 3 lw 1435 1557 m27 6 lw 3 lw 1444 1547 m27 6 lw 3 lw 1452 1540 m27 6 lw 3 lw 1460 1534 m27 6 lw 3 lw 1468 1528 m27 6 lw 3 lw 1476 1525 m27 6 lw 3 lw 1484 1521 m27 6 lw 3 lw 1493 1517 m27 6 lw 3 lw 1501 1514 m27 6 lw 3 lw
 1509 1511 m27 6 lw 3 lw 1517 1508 m27 6 lw 3 lw 1525 1505 m27 6 lw 3 lw 1533 1502 m27 6 lw 3 lw 1542 1499 m27 6 lw 3 lw 1550 1497 m27 6 lw 3 lw 1558 1494 m27 6 lw 3 lw 1566 1491 m27 6 lw 3 lw 1574 1488 m27 6 lw 3 lw 1582 1484 m27 6 lw 3 lw 1591 1481
 m27 6 lw 3 lw 1599 1479 m27 6 lw 3 lw 1607 1475 m27 6 lw 3 lw 1615 1472 m27 6 lw 3 lw 1623 1468 m27 6 lw 3 lw 1631 1466 m27 6 lw 3 lw 1640 1463 m27 6 lw 3 lw 1648 1459 m27 6 lw 3 lw 1656 1458 m27 6 lw 3 lw 1664 1455 m27 6 lw 3 lw 1672 1451 m27 6 lw
 3 lw 1680 1449 m27 6 lw 3 lw 1689 1444 m27 6 lw 3 lw 1697 1442 m27 6 lw 3 lw 1705 1440 m27 6 lw 3 lw 1713 1436 m27 6 lw 3 lw 1721 1433 m27 6 lw 3 lw 1729 1430 m27 6 lw 3 lw 1738 1427 m27 6 lw 3 lw 1746 1424 m27 6 lw 3 lw 1754 1420 m27 6 lw 3 lw 1762
 1418 m27 6 lw 3 lw 1770 1416 m27 6 lw 3 lw 1778 1414 m27 6 lw 3 lw 1787 1410 m27 6 lw 3 lw 1795 1407 m27 6 lw 3 lw 1803 1405 m27 6 lw 3 lw 1811 1401 m27 6 lw 3 lw 1819 1399 m27 6 lw 3 lw 1827 1395 m27 6 lw 3 lw 1835 1391 m27 6 lw 3 lw 1844 1392 m27
 6 lw 3 lw 1852 1389 m27 6 lw 3 lw 1860 1386 m27 6 lw 3 lw 1868 1382 m27 6 lw 3 lw 1876 1381 m27 6 lw 3 lw 1884 1379 m27 6 lw 3 lw 1893 1375 m27 6 lw 3 lw 1901 1371 m27 6 lw 3 lw 1909 1371 m27 6 lw 3 lw 1917 1366 m27 6 lw 3 lw 1925 1369 m27 6 lw 3 lw
 1933 1361 m27 6 lw 3 lw 1942 1361 m27 6 lw 3 lw 1950 1357 m27 6 lw 3 lw 1958 1354 m27 6 lw 3 lw 1966 1359 m27 6 lw 3 lw 1974 1355 m27 6 lw 3 lw 1982 1347 m27 6 lw 3 lw 1991 1347 m27 6 lw 3 lw 1999 1345 m27 6 lw 3 lw 2007 1342 m27 6 lw 3 lw 2015 1337
 m27 6 lw 3 lw 2023 1338 m27 6 lw 3 lw 2031 1329 m27 6 lw 3 lw 2040 1329 m27 6 lw 3 lw 2048 1329 m27 6 lw 3 lw 2056 1328 m27 6 lw 3 lw 2064 1322 m27 6 lw 3 lw 2072 1322 m27 6 lw 3 lw 2080 1324 m27 6 lw 3 lw 2089 1312 m27 6 lw 3 lw 2097 1315 m27 6 lw
 3 lw 2105 1304 m27 6 lw 3 lw 2113 1308 m27 6 lw 3 lw 2121 1306 m27 6 lw 3 lw 2129 1308 m27 6 lw 3 lw 2138 1309 m27 6 lw 3 lw 2146 1320 m27 6 lw 3 lw 2154 1312 m27 6 lw 3 lw 2162 1306 m27 6 lw 2170 1284 m 2 Y s 3 lw 2170 1295 m27 6 lw 2178 1292 m 1 Y
 s 3 lw 2178 1302 m27 6 lw 2187 1256 m 8 Y s 2187 1282 m 2 Y s 3 lw 2187 1273 m27 6 lw black
 gsave  1088 846 1157 899 C 1762.26 1646.14 t 0 r /Helvetica findfont 36.4802 sf 0 0 m (Charged jets) show NC gr 
 gsave  1088 846 1157 899 C 1844.23 1602.88 t 0 r /Helvetica-Bold findfont 36.4802 sf 0 0 m (LHC13b) show NC gr  3 lw 1800 1616 m24 6 lw
 gsave  1088 846 1157 899 C 1844.23 1561.9 t 0 r /Helvetica-Bold findfont 36.4802 sf 0 0 m (LHC13c) show NC gr  1 0 0 c 3 lw 1800 1575 m25 6 lw black
 gsave  1088 846 1157 899 C 1844.23 1523.2 t 0 r /Helvetica-Bold findfont 36.4802 sf 0 0 m (LHC13d) show NC gr  0 0.4 0 c 3 lw 1800 1535 m26 6 lw black
 gsave  1088 846 1157 899 C 1844.23 1482.21 t 0 r /Helvetica-Bold findfont 36.4802 sf 0 0 m (LHC13e) show NC gr  0 0 1 c 3 lw 1800 1494 m27 6 lw black 3 lw 1 1 1 c 1088 846 23 18 bf black 1 1 1 c 1088 846 1157 18 bf
 gr  gr showpage
end
%%EOF
