%!PS-Adobe-2.0 EPSF-2.0
%%BoundingBox:  0 0 567 367
%%Title: WorkDir/lego383_lhc13/_R2_XSec_SVDReg.eps: 
%%Creator: ROOT Version 5.34/09
%%CreationDate: Wed Apr 30 12:27:17 2014
%%EndComments
%%BeginProlog
80 dict begin
/s {stroke} def /l {lineto} def /m {moveto} def /t {translate} def
/r {rotate} def /rl {roll}  def /R {repeat} def
/d {rlineto} def /rm {rmoveto} def /gr {grestore} def /f {eofill} def
/c {setrgbcolor} def /black {0 setgray} def /sd {setdash} def
/cl {closepath} def /sf {scalefont setfont} def /lw {setlinewidth} def
/box {m dup 0 exch d exch 0 d 0 exch neg d cl} def
/NC{systemdict begin initclip end}def/C{NC box clip newpath}def
/bl {box s} def /bf {box f} def /Y { 0 exch d} def /X { 0 d} def 
/K {{pop pop 0 moveto} exch kshow} bind def
/ita {/ang 15 def gsave [1 0 ang dup sin exch cos div 1 0 0] concat} def 
/mp {newpath /y exch def /x exch def} def
/side {[w .77 mul w .23 mul] .385 w mul sd w 0 l currentpoint t -144 r} def
/mr {mp x y w2 0 360 arc} def /m24 {mr s} def /m20 {mr f} def
/mb {mp x y w2 add m w2 neg 0 d 0 w neg d w 0 d 0 w d cl} def
/mt {mp x y w2 add m w2 neg w neg d w 0 d cl} def
/m21 {mb f} def /m25 {mb s} def /m22 {mt f} def /m26{mt s} def
/m23 {mp x y w2 sub m w2 w d w neg 0 d cl f} def
/m27 {mp x y w2 add m w3 neg w2 neg d w3 w2 neg d w3 w2 d cl s} def
/m28 {mp x w2 sub y w2 sub w3 add m w3 0 d  0 w3 neg d w3 0 d 0 w3 d w3 0 d  0 w3 d w3 neg 0 d 0 w3 d w3 neg 0 d 0 w3 neg d w3 neg 0 d cl s } def
/m29 {mp gsave x w2 sub y w2 add w3 sub m currentpoint t 4 {side} repeat cl fill gr} def
/m30 {mp gsave x w2 sub y w2 add w3 sub m currentpoint t 4 {side} repeat cl s gr} def
/m31 {mp x y w2 sub m 0 w d x w2 sub y m w 0 d x w2 sub y w2 add m w w neg d x w2 sub y w2 sub m w w d s} def
/m32 {mp x y w2 sub m w2 w d w neg 0 d cl s} def
/m33 {mp x y w2 add m w3 neg w2 neg d w3 w2 neg d w3 w2 d cl f} def
/m34 {mp x w2 sub y w2 sub w3 add m w3 0 d  0 w3 neg d w3 0 d 0 w3 d w3 0 d  0 w3 d w3 neg 0 d 0 w3 d w3 neg 0 d 0 w3 neg d w3 neg 0 d cl f } def
/m2 {mp x y w2 sub m 0 w d x w2 sub y m w 0 d s} def
/m5 {mp x w2 sub y w2 sub m w w d x w2 sub y w2 add m w w neg d s} def
/reEncode {exch findfont dup length dict begin {1 index /FID eq  {pop pop} {def} ifelse } forall /Encoding exch def currentdict end dup /FontName get exch definefont pop } def [/Times-Bold /Times-Italic /Times-BoldItalic /Helvetica /Helvetica-Oblique
 /Helvetica-Bold /Helvetica-BoldOblique /Courier /Courier-Oblique /Courier-Bold /Courier-BoldOblique /Times-Roman /AvantGarde-Book /AvantGarde-BookOblique /AvantGarde-Demi /AvantGarde-DemiOblique /Bookman-Demi /Bookman-DemiItalic /Bookman-Light
 /Bookman-LightItalic /Helvetica-Narrow /Helvetica-Narrow-Bold /Helvetica-Narrow-BoldOblique /Helvetica-Narrow-Oblique /NewCenturySchlbk-Roman /NewCenturySchlbk-Bold /NewCenturySchlbk-BoldItalic /NewCenturySchlbk-Italic /Palatino-Bold
 /Palatino-BoldItalic /Palatino-Italic /Palatino-Roman ] {ISOLatin1Encoding reEncode } forall
%%EndProlog
%%BeginSetup
%%EndSetup
newpath  gsave  .25 .25 scale  gsave  0 0 t black[  ] 0 sd 3 lw 1 1 1 c 2268 1468 0 0 bf black 1 1 1 c 1814 1174 227 147 bf black 1814 1174 227 147 bl 0 0 1 c 1 1 1 c 0 0 1 c 227 929 m 1814 X s black 227 147 m 1814 X s
 gsave  2268 1468 0 0 C 1903.67 43.6099 t 0 r /Helvetica findfont 47.4021 sf 0 0 m ( \(GeV\)) show NC gr 
 gsave  2268 1468 0 0 C 1806.97 62.5708 t 0 r /Helvetica findfont 32.2334 sf 0 0 m (ch+em) show NC gr 
 gsave  2268 1468 0 0 C 1806.97 17.0648 t 0 r /Helvetica findfont 32.2334 sf 0 0 m (T,jet) show NC gr 
 gsave  2268 1468 0 0 C 1780.42 43.6099 t 0 r /Helvetica findfont 47.4021 sf 0 0 m (p) show NC gr  227 182 m -35 Y s 263 164 m -17 Y s 299 164 m -17 Y s 336 164 m -17 Y s 372 164 m -17 Y s 408 182 m -35 Y s 444 164 m -17 Y s 481 164 m -17 Y s 517 164
 m -17 Y s 553 164 m -17 Y s 590 182 m -35 Y s 626 164 m -17 Y s 662 164 m -17 Y s 698 164 m -17 Y s 735 164 m -17 Y s 771 182 m -35 Y s 807 164 m -17 Y s 844 164 m -17 Y s 880 164 m -17 Y s 916 164 m -17 Y s 952 182 m -35 Y s 989 164 m -17 Y s 1025
 164 m -17 Y s 1061 164 m -17 Y s 1098 164 m -17 Y s 1134 182 m -35 Y s 1170 164 m -17 Y s 1206 164 m -17 Y s 1243 164 m -17 Y s 1279 164 m -17 Y s 1315 182 m -35 Y s 1352 164 m -17 Y s 1388 164 m -17 Y s 1424 164 m -17 Y s 1460 164 m -17 Y s 1497
 182 m -35 Y s 1533 164 m -17 Y s 1569 164 m -17 Y s 1606 164 m -17 Y s 1642 164 m -17 Y s 1678 182 m -35 Y s 1714 164 m -17 Y s 1751 164 m -17 Y s 1787 164 m -17 Y s 1823 164 m -17 Y s 1860 182 m -35 Y s 1896 164 m -17 Y s 1932 164 m -17 Y s 1968
 164 m -17 Y s 2005 164 m -17 Y s 2041 182 m -35 Y s
 gsave  2268 1468 0 0 C 199.089 98.5964 t 0 r /Helvetica findfont 47.4021 sf 0 0 m (20) show NC gr 
 gsave  2268 1468 0 0 C 381.113 98.5964 t 0 r /Helvetica findfont 47.4021 sf 0 0 m (30) show NC gr 
 gsave  2268 1468 0 0 C 561.241 98.5964 t 0 r /Helvetica findfont 47.4021 sf 0 0 m (40) show NC gr 
 gsave  2268 1468 0 0 C 743.265 98.5964 t 0 r /Helvetica findfont 47.4021 sf 0 0 m (50) show NC gr 
 gsave  2268 1468 0 0 C 925.289 98.5964 t 0 r /Helvetica findfont 47.4021 sf 0 0 m (60) show NC gr 
 gsave  2268 1468 0 0 C 1107.31 98.5964 t 0 r /Helvetica findfont 47.4021 sf 0 0 m (70) show NC gr 
 gsave  2268 1468 0 0 C 1287.44 98.5964 t 0 r /Helvetica findfont 47.4021 sf 0 0 m (80) show NC gr 
 gsave  2268 1468 0 0 C 1469.47 98.5964 t 0 r /Helvetica findfont 47.4021 sf 0 0 m (90) show NC gr 
 gsave  2268 1468 0 0 C 1638.22 98.5964 t 0 r /Helvetica findfont 47.4021 sf 0 0 m (100) show NC gr 
 gsave  2268 1468 0 0 C 1818.34 98.5964 t 0 r /Helvetica findfont 47.4021 sf 0 0 m (110) show NC gr 
 gsave  2268 1468 0 0 C 2000.37 98.5964 t 0 r /Helvetica findfont 47.4021 sf 0 0 m (120) show NC gr  227 1321 m 1814 X s 227 1286 m 35 Y s 263 1303 m 18 Y s 299 1303 m 18 Y s 336 1303 m 18 Y s 372 1303 m 18 Y s 408 1286 m 35 Y s 444 1303 m 18 Y s 481
 1303 m 18 Y s 517 1303 m 18 Y s 553 1303 m 18 Y s 590 1286 m 35 Y s 626 1303 m 18 Y s 662 1303 m 18 Y s 698 1303 m 18 Y s 735 1303 m 18 Y s 771 1286 m 35 Y s 807 1303 m 18 Y s 844 1303 m 18 Y s 880 1303 m 18 Y s 916 1303 m 18 Y s 952 1286 m 35 Y s
 989 1303 m 18 Y s 1025 1303 m 18 Y s 1061 1303 m 18 Y s 1098 1303 m 18 Y s 1134 1286 m 35 Y s 1170 1303 m 18 Y s 1206 1303 m 18 Y s 1243 1303 m 18 Y s 1279 1303 m 18 Y s 1315 1286 m 35 Y s 1352 1303 m 18 Y s 1388 1303 m 18 Y s 1424 1303 m 18 Y s
 1460 1303 m 18 Y s 1497 1286 m 35 Y s 1533 1303 m 18 Y s 1569 1303 m 18 Y s 1606 1303 m 18 Y s 1642 1303 m 18 Y s 1678 1286 m 35 Y s 1714 1303 m 18 Y s 1751 1303 m 18 Y s 1787 1303 m 18 Y s 1823 1303 m 18 Y s 1860 1286 m 35 Y s 1896 1303 m 18 Y s
 1932 1303 m 18 Y s 1968 1303 m 18 Y s 2005 1303 m 18 Y s 2041 1286 m 35 Y s 227 147 m 1174 Y s
 gsave  2268 1468 0 0 C 87.2199 1075.08 t 90 r /Helvetica findfont 47.4021 sf 0 0 m (systematics) show NC gr  281 147 m -54 X s 254 196 m -27 X s 254 245 m -27 X s 254 294 m -27 X s 281 342 m -54 X s 254 391 m -27 X s 254 440 m -27 X s 254 489 m -27
 X s 281 538 m -54 X s 254 587 m -27 X s 254 636 m -27 X s 254 685 m -27 X s 281 734 m -54 X s 254 783 m -27 X s 254 832 m -27 X s 254 881 m -27 X s 281 929 m -54 X s 254 978 m -27 X s 254 1027 m -27 X s 254 1076 m -27 X s 281 1125 m -54 X s 254 1174
 m -27 X s 254 1223 m -27 X s 254 1272 m -27 X s 281 1321 m -54 X s 281 1321 m -54 X s
 gsave  2268 1468 0 0 C 149.791 130.83 t 0 r /Helvetica findfont 47.4021 sf 0 0 m (0.2) show NC gr 
 gsave  2268 1468 0 0 C 149.791 326.126 t 0 r /Helvetica findfont 47.4021 sf 0 0 m (0.4) show NC gr 
 gsave  2268 1468 0 0 C 149.791 521.423 t 0 r /Helvetica findfont 47.4021 sf 0 0 m (0.6) show NC gr 
 gsave  2268 1468 0 0 C 149.791 716.72 t 0 r /Helvetica findfont 47.4021 sf 0 0 m (0.8) show NC gr 
 gsave  2268 1468 0 0 C 197.193 912.016 t 0 r /Helvetica findfont 47.4021 sf 0 0 m (1) show NC gr 
 gsave  2268 1468 0 0 C 149.791 1107.31 t 0 r /Helvetica findfont 47.4021 sf 0 0 m (1.2) show NC gr 
 gsave  2268 1468 0 0 C 149.791 1302.61 t 0 r /Helvetica findfont 47.4021 sf 0 0 m (1.4) show NC gr  2041 147 m 1174 Y s 1987 147 m 54 X s 2014 196 m 27 X s 2014 245 m 27 X s 2014 294 m 27 X s 1987 342 m 54 X s 2014 391 m 27 X s 2014 440 m 27 X s
 2014 489 m 27 X s 1987 538 m 54 X s 2014 587 m 27 X s 2014 636 m 27 X s 2014 685 m 27 X s 1987 734 m 54 X s 2014 783 m 27 X s 2014 832 m 27 X s 2014 881 m 27 X s 1987 929 m 54 X s 2014 978 m 27 X s 2014 1027 m 27 X s 2014 1076 m 27 X s 1987 1125 m
 54 X s 2014 1174 m 27 X s 2014 1223 m 27 X s 2014 1272 m 27 X s 1987 1321 m 54 X s 1987 1321 m 54 X s 1 0 0 c 1 1 1 c 1 0 0 c 227 147 m 1814 X s black 1 1 1 c black 227 147 m 1814 X s
 gsave  2268 1468 0 0 C 407.658 -45.506 t 0 r /Helvetica-Bold findfont 68.259 sf 0 0 m (X\255Section for different SVD Regularizations) show NC gr  1 1 1 c 567 367 272 176 bf black
 gsave  2268 1468 0 0 C 413.346 460.748 t 0 r /Helvetica findfont 54.9864 sf 0 0 m (k=4) show NC gr  1 0 0 c /w 15 def /w2 {w 2 div} def /w3 {w 3 div} def 343 482 m25 black
 gsave  2268 1468 0 0 C 413.346 345.087 t 0 r /Helvetica findfont 54.9864 sf 0 0 m (k=5 \(Default\)) show NC gr  /w 2 def /w2 {w 2 div} def /w3 {w 3 div} def 343 360 m20
 gsave  2268 1468 0 0 C 413.346 218.05 t 0 r /Helvetica findfont 54.9864 sf 0 0 m (k=6) show NC gr  /w 15 def /w2 {w 2 div} def /w3 {w 3 div} def 343 237 m31
 gsave  2268 1468 0 0 C 1524.45 -47.4021 t 0 r /Helvetica-Bold findfont 68.259 sf 0 0 m ( R = 0.2) show NC gr 
 gsave  2268 1468 0 0 C 1496.01 -68.259 t 0 r /Helvetica-Bold findfont 45.506 sf 0 0 m (T) show NC gr 
 gsave  2268 1468 0 0 C 1313.99 -47.4021 t 0 r /Helvetica-Bold findfont 68.259 sf 0 0 m (anti\255k) show NC gr 
 gr  gr showpage
end
%%EOF
