%!PS-Adobe-2.0 EPSF-2.0
%%BoundingBox:  0 0 567 367
%%Title: WorkDir/lego383_lhc13/_R2_XSec_DiffResp.eps: 
%%Creator: ROOT Version 5.34/09
%%CreationDate: Wed Apr 30 12:27:17 2014
%%EndComments
%%BeginProlog
80 dict begin
/s {stroke} def /l {lineto} def /m {moveto} def /t {translate} def
/r {rotate} def /rl {roll}  def /R {repeat} def
/d {rlineto} def /rm {rmoveto} def /gr {grestore} def /f {eofill} def
/c {setrgbcolor} def /black {0 setgray} def /sd {setdash} def
/cl {closepath} def /sf {scalefont setfont} def /lw {setlinewidth} def
/box {m dup 0 exch d exch 0 d 0 exch neg d cl} def
/NC{systemdict begin initclip end}def/C{NC box clip newpath}def
/bl {box s} def /bf {box f} def /Y { 0 exch d} def /X { 0 d} def 
/K {{pop pop 0 moveto} exch kshow} bind def
/ita {/ang 15 def gsave [1 0 ang dup sin exch cos div 1 0 0] concat} def 
/mp {newpath /y exch def /x exch def} def
/side {[w .77 mul w .23 mul] .385 w mul sd w 0 l currentpoint t -144 r} def
/mr {mp x y w2 0 360 arc} def /m24 {mr s} def /m20 {mr f} def
/mb {mp x y w2 add m w2 neg 0 d 0 w neg d w 0 d 0 w d cl} def
/mt {mp x y w2 add m w2 neg w neg d w 0 d cl} def
/m21 {mb f} def /m25 {mb s} def /m22 {mt f} def /m26{mt s} def
/m23 {mp x y w2 sub m w2 w d w neg 0 d cl f} def
/m27 {mp x y w2 add m w3 neg w2 neg d w3 w2 neg d w3 w2 d cl s} def
/m28 {mp x w2 sub y w2 sub w3 add m w3 0 d  0 w3 neg d w3 0 d 0 w3 d w3 0 d  0 w3 d w3 neg 0 d 0 w3 d w3 neg 0 d 0 w3 neg d w3 neg 0 d cl s } def
/m29 {mp gsave x w2 sub y w2 add w3 sub m currentpoint t 4 {side} repeat cl fill gr} def
/m30 {mp gsave x w2 sub y w2 add w3 sub m currentpoint t 4 {side} repeat cl s gr} def
/m31 {mp x y w2 sub m 0 w d x w2 sub y m w 0 d x w2 sub y w2 add m w w neg d x w2 sub y w2 sub m w w d s} def
/m32 {mp x y w2 sub m w2 w d w neg 0 d cl s} def
/m33 {mp x y w2 add m w3 neg w2 neg d w3 w2 neg d w3 w2 d cl f} def
/m34 {mp x w2 sub y w2 sub w3 add m w3 0 d  0 w3 neg d w3 0 d 0 w3 d w3 0 d  0 w3 d w3 neg 0 d 0 w3 d w3 neg 0 d 0 w3 neg d w3 neg 0 d cl f } def
/m2 {mp x y w2 sub m 0 w d x w2 sub y m w 0 d s} def
/m5 {mp x w2 sub y w2 sub m w w d x w2 sub y w2 add m w w neg d s} def
/reEncode {exch findfont dup length dict begin {1 index /FID eq  {pop pop} {def} ifelse } forall /Encoding exch def currentdict end dup /FontName get exch definefont pop } def [/Times-Bold /Times-Italic /Times-BoldItalic /Helvetica /Helvetica-Oblique
 /Helvetica-Bold /Helvetica-BoldOblique /Courier /Courier-Oblique /Courier-Bold /Courier-BoldOblique /Times-Roman /AvantGarde-Book /AvantGarde-BookOblique /AvantGarde-Demi /AvantGarde-DemiOblique /Bookman-Demi /Bookman-DemiItalic /Bookman-Light
 /Bookman-LightItalic /Helvetica-Narrow /Helvetica-Narrow-Bold /Helvetica-Narrow-BoldOblique /Helvetica-Narrow-Oblique /NewCenturySchlbk-Roman /NewCenturySchlbk-Bold /NewCenturySchlbk-BoldItalic /NewCenturySchlbk-Italic /Palatino-Bold
 /Palatino-BoldItalic /Palatino-Italic /Palatino-Roman ] {ISOLatin1Encoding reEncode } forall
%%EndProlog
%%BeginSetup
%%EndSetup
newpath  gsave  .25 .25 scale  gsave  0 0 t black[  ] 0 sd 3 lw 1 1 1 c 2268 1468 0 0 bf black 1 1 1 c 1814 1174 227 147 bf black 1814 1174 227 147 bl 0 0 1 c 1 1 1 c 0 0 1 c 227 734 m 1814 X s black 227 147 m 1814 X s
 gsave  2268 1468 0 0 C 1903.67 43.6099 t 0 r /Helvetica findfont 47.4021 sf 0 0 m ( \(GeV\)) show NC gr 
 gsave  2268 1468 0 0 C 1806.97 62.5708 t 0 r /Helvetica findfont 32.2334 sf 0 0 m (ch+em) show NC gr 
 gsave  2268 1468 0 0 C 1806.97 17.0648 t 0 r /Helvetica findfont 32.2334 sf 0 0 m (T,jet) show NC gr 
 gsave  2268 1468 0 0 C 1780.42 43.6099 t 0 r /Helvetica findfont 47.4021 sf 0 0 m (p) show NC gr  227 182 m -35 Y s 263 164 m -17 Y s 299 164 m -17 Y s 336 164 m -17 Y s 372 164 m -17 Y s 408 182 m -35 Y s 444 164 m -17 Y s 481 164 m -17 Y s 517 164
 m -17 Y s 553 164 m -17 Y s 590 182 m -35 Y s 626 164 m -17 Y s 662 164 m -17 Y s 698 164 m -17 Y s 735 164 m -17 Y s 771 182 m -35 Y s 807 164 m -17 Y s 844 164 m -17 Y s 880 164 m -17 Y s 916 164 m -17 Y s 952 182 m -35 Y s 989 164 m -17 Y s 1025
 164 m -17 Y s 1061 164 m -17 Y s 1098 164 m -17 Y s 1134 182 m -35 Y s 1170 164 m -17 Y s 1206 164 m -17 Y s 1243 164 m -17 Y s 1279 164 m -17 Y s 1315 182 m -35 Y s 1352 164 m -17 Y s 1388 164 m -17 Y s 1424 164 m -17 Y s 1460 164 m -17 Y s 1497
 182 m -35 Y s 1533 164 m -17 Y s 1569 164 m -17 Y s 1606 164 m -17 Y s 1642 164 m -17 Y s 1678 182 m -35 Y s 1714 164 m -17 Y s 1751 164 m -17 Y s 1787 164 m -17 Y s 1823 164 m -17 Y s 1860 182 m -35 Y s 1896 164 m -17 Y s 1932 164 m -17 Y s 1968
 164 m -17 Y s 2005 164 m -17 Y s 2041 182 m -35 Y s
 gsave  2268 1468 0 0 C 199.089 98.5964 t 0 r /Helvetica findfont 47.4021 sf 0 0 m (20) show NC gr 
 gsave  2268 1468 0 0 C 381.113 98.5964 t 0 r /Helvetica findfont 47.4021 sf 0 0 m (30) show NC gr 
 gsave  2268 1468 0 0 C 561.241 98.5964 t 0 r /Helvetica findfont 47.4021 sf 0 0 m (40) show NC gr 
 gsave  2268 1468 0 0 C 743.265 98.5964 t 0 r /Helvetica findfont 47.4021 sf 0 0 m (50) show NC gr 
 gsave  2268 1468 0 0 C 925.289 98.5964 t 0 r /Helvetica findfont 47.4021 sf 0 0 m (60) show NC gr 
 gsave  2268 1468 0 0 C 1107.31 98.5964 t 0 r /Helvetica findfont 47.4021 sf 0 0 m (70) show NC gr 
 gsave  2268 1468 0 0 C 1287.44 98.5964 t 0 r /Helvetica findfont 47.4021 sf 0 0 m (80) show NC gr 
 gsave  2268 1468 0 0 C 1469.47 98.5964 t 0 r /Helvetica findfont 47.4021 sf 0 0 m (90) show NC gr 
 gsave  2268 1468 0 0 C 1638.22 98.5964 t 0 r /Helvetica findfont 47.4021 sf 0 0 m (100) show NC gr 
 gsave  2268 1468 0 0 C 1818.34 98.5964 t 0 r /Helvetica findfont 47.4021 sf 0 0 m (110) show NC gr 
 gsave  2268 1468 0 0 C 2000.37 98.5964 t 0 r /Helvetica findfont 47.4021 sf 0 0 m (120) show NC gr  227 1321 m 1814 X s 227 1286 m 35 Y s 263 1303 m 18 Y s 299 1303 m 18 Y s 336 1303 m 18 Y s 372 1303 m 18 Y s 408 1286 m 35 Y s 444 1303 m 18 Y s 481
 1303 m 18 Y s 517 1303 m 18 Y s 553 1303 m 18 Y s 590 1286 m 35 Y s 626 1303 m 18 Y s 662 1303 m 18 Y s 698 1303 m 18 Y s 735 1303 m 18 Y s 771 1286 m 35 Y s 807 1303 m 18 Y s 844 1303 m 18 Y s 880 1303 m 18 Y s 916 1303 m 18 Y s 952 1286 m 35 Y s
 989 1303 m 18 Y s 1025 1303 m 18 Y s 1061 1303 m 18 Y s 1098 1303 m 18 Y s 1134 1286 m 35 Y s 1170 1303 m 18 Y s 1206 1303 m 18 Y s 1243 1303 m 18 Y s 1279 1303 m 18 Y s 1315 1286 m 35 Y s 1352 1303 m 18 Y s 1388 1303 m 18 Y s 1424 1303 m 18 Y s
 1460 1303 m 18 Y s 1497 1286 m 35 Y s 1533 1303 m 18 Y s 1569 1303 m 18 Y s 1606 1303 m 18 Y s 1642 1303 m 18 Y s 1678 1286 m 35 Y s 1714 1303 m 18 Y s 1751 1303 m 18 Y s 1787 1303 m 18 Y s 1823 1303 m 18 Y s 1860 1286 m 35 Y s 1896 1303 m 18 Y s
 1932 1303 m 18 Y s 1968 1303 m 18 Y s 2005 1303 m 18 Y s 2041 1286 m 35 Y s 227 147 m 1174 Y s
 gsave  2268 1468 0 0 C 87.2199 1075.08 t 90 r /Helvetica findfont 47.4021 sf 0 0 m (systematics) show NC gr  281 147 m -54 X s 254 176 m -27 X s 254 205 m -27 X s 254 235 m -27 X s 254 264 m -27 X s 281 294 m -54 X s 254 323 m -27 X s 254 352 m -27
 X s 254 382 m -27 X s 254 411 m -27 X s 281 440 m -54 X s 254 470 m -27 X s 254 499 m -27 X s 254 528 m -27 X s 254 558 m -27 X s 281 587 m -54 X s 254 616 m -27 X s 254 646 m -27 X s 254 675 m -27 X s 254 704 m -27 X s 281 734 m -54 X s 254 763 m
 -27 X s 254 792 m -27 X s 254 822 m -27 X s 254 851 m -27 X s 281 881 m -54 X s 254 910 m -27 X s 254 939 m -27 X s 254 969 m -27 X s 254 998 m -27 X s 281 1027 m -54 X s 254 1057 m -27 X s 254 1086 m -27 X s 254 1115 m -27 X s 254 1145 m -27 X s
 281 1174 m -54 X s 254 1203 m -27 X s 254 1233 m -27 X s 254 1262 m -27 X s 254 1291 m -27 X s 281 1321 m -54 X s
 gsave  2268 1468 0 0 C 149.791 130.83 t 0 r /Helvetica findfont 47.4021 sf 0 0 m (0.6) show NC gr 
 gsave  2268 1468 0 0 C 149.791 276.828 t 0 r /Helvetica findfont 47.4021 sf 0 0 m (0.7) show NC gr 
 gsave  2268 1468 0 0 C 149.791 424.723 t 0 r /Helvetica findfont 47.4021 sf 0 0 m (0.8) show NC gr 
 gsave  2268 1468 0 0 C 149.791 570.721 t 0 r /Helvetica findfont 47.4021 sf 0 0 m (0.9) show NC gr 
 gsave  2268 1468 0 0 C 197.193 714.824 t 0 r /Helvetica findfont 47.4021 sf 0 0 m (1) show NC gr 
 gsave  2268 1468 0 0 C 157.375 862.718 t 0 r /Helvetica findfont 47.4021 sf 0 0 m (1.1) show NC gr 
 gsave  2268 1468 0 0 C 149.791 1008.72 t 0 r /Helvetica findfont 47.4021 sf 0 0 m (1.2) show NC gr 
 gsave  2268 1468 0 0 C 149.791 1158.51 t 0 r /Helvetica findfont 47.4021 sf 0 0 m (1.3) show NC gr 
 gsave  2268 1468 0 0 C 149.791 1302.61 t 0 r /Helvetica findfont 47.4021 sf 0 0 m (1.4) show NC gr  2041 147 m 1174 Y s 1987 147 m 54 X s 2014 176 m 27 X s 2014 205 m 27 X s 2014 235 m 27 X s 2014 264 m 27 X s 1987 294 m 54 X s 2014 323 m 27 X s
 2014 352 m 27 X s 2014 382 m 27 X s 2014 411 m 27 X s 1987 440 m 54 X s 2014 470 m 27 X s 2014 499 m 27 X s 2014 528 m 27 X s 2014 558 m 27 X s 1987 587 m 54 X s 2014 616 m 27 X s 2014 646 m 27 X s 2014 675 m 27 X s 2014 704 m 27 X s 1987 734 m 54 X
 s 2014 763 m 27 X s 2014 792 m 27 X s 2014 822 m 27 X s 2014 851 m 27 X s 1987 881 m 54 X s 2014 910 m 27 X s 2014 939 m 27 X s 2014 969 m 27 X s 2014 998 m 27 X s 1987 1027 m 54 X s 2014 1057 m 27 X s 2014 1086 m 27 X s 2014 1115 m 27 X s 2014 1145
 m 27 X s 1987 1174 m 54 X s 2014 1203 m 27 X s 2014 1233 m 27 X s 2014 1262 m 27 X s 2014 1291 m 27 X s 1987 1321 m 54 X s 1 0 0 c 1 1 1 c 1 0 0 c 227 147 m 1814 X s black
 gsave  2268 1468 0 0 C 407.658 -729.992 t 0 r /Helvetica-Bold findfont 68.259 sf 0 0 m (X\255Section for different Responses) show NC gr  1 1 1 c 567 367 272 176 bf black
 gsave  2268 1468 0 0 C 413.346 437.995 t 0 r /Helvetica findfont 54.9864 sf 0 0 m (semigood \(Default\)) show NC gr  0 0 1 c /w 12 def /w2 {w 2 div} def /w3 {w 3 div} def 343 451 m20 black
 gsave  2268 1468 0 0 C 413.346 254.075 t 0 r /Helvetica findfont 54.9864 sf 0 0 m (good) show NC gr  1 0 0 c 343 268 m25 black
 gsave  2268 1468 0 0 C 1524.45 -731.888 t 0 r /Helvetica-Bold findfont 68.259 sf 0 0 m ( R = 0.2) show NC gr 
 gsave  2268 1468 0 0 C 1496.01 -752.745 t 0 r /Helvetica-Bold findfont 45.506 sf 0 0 m (T) show NC gr 
 gsave  2268 1468 0 0 C 1313.99 -731.888 t 0 r /Helvetica-Bold findfont 68.259 sf 0 0 m (anti\255k) show NC gr 
 gr  gr showpage
end
%%EOF
