%!PS-Adobe-2.0 EPSF-2.0
%%BoundingBox:  0 0 567 398
%%Title: /Users/cgy606/Documents/Train/LEGOTrain/020814/lhc13c/lhc13c_ClusterPhi.eps: 
%%Creator: ROOT Version 5.34/09
%%CreationDate: Fri Mar 28 14:55:19 2014
%%EndComments
%%BeginProlog
80 dict begin
/s {stroke} def /l {lineto} def /m {moveto} def /t {translate} def
/r {rotate} def /rl {roll}  def /R {repeat} def
/d {rlineto} def /rm {rmoveto} def /gr {grestore} def /f {eofill} def
/c {setrgbcolor} def /black {0 setgray} def /sd {setdash} def
/cl {closepath} def /sf {scalefont setfont} def /lw {setlinewidth} def
/box {m dup 0 exch d exch 0 d 0 exch neg d cl} def
/NC{systemdict begin initclip end}def/C{NC box clip newpath}def
/bl {box s} def /bf {box f} def /Y { 0 exch d} def /X { 0 d} def 
/K {{pop pop 0 moveto} exch kshow} bind def
/ita {/ang 15 def gsave [1 0 ang dup sin exch cos div 1 0 0] concat} def 
/mp {newpath /y exch def /x exch def} def
/side {[w .77 mul w .23 mul] .385 w mul sd w 0 l currentpoint t -144 r} def
/mr {mp x y w2 0 360 arc} def /m24 {mr s} def /m20 {mr f} def
/mb {mp x y w2 add m w2 neg 0 d 0 w neg d w 0 d 0 w d cl} def
/mt {mp x y w2 add m w2 neg w neg d w 0 d cl} def
/m21 {mb f} def /m25 {mb s} def /m22 {mt f} def /m26{mt s} def
/m23 {mp x y w2 sub m w2 w d w neg 0 d cl f} def
/m27 {mp x y w2 add m w3 neg w2 neg d w3 w2 neg d w3 w2 d cl s} def
/m28 {mp x w2 sub y w2 sub w3 add m w3 0 d  0 w3 neg d w3 0 d 0 w3 d w3 0 d  0 w3 d w3 neg 0 d 0 w3 d w3 neg 0 d 0 w3 neg d w3 neg 0 d cl s } def
/m29 {mp gsave x w2 sub y w2 add w3 sub m currentpoint t 4 {side} repeat cl fill gr} def
/m30 {mp gsave x w2 sub y w2 add w3 sub m currentpoint t 4 {side} repeat cl s gr} def
/m31 {mp x y w2 sub m 0 w d x w2 sub y m w 0 d x w2 sub y w2 add m w w neg d x w2 sub y w2 sub m w w d s} def
/m32 {mp x y w2 sub m w2 w d w neg 0 d cl s} def
/m33 {mp x y w2 add m w3 neg w2 neg d w3 w2 neg d w3 w2 d cl f} def
/m34 {mp x w2 sub y w2 sub w3 add m w3 0 d  0 w3 neg d w3 0 d 0 w3 d w3 0 d  0 w3 d w3 neg 0 d 0 w3 d w3 neg 0 d 0 w3 neg d w3 neg 0 d cl f } def
/m2 {mp x y w2 sub m 0 w d x w2 sub y m w 0 d s} def
/m5 {mp x w2 sub y w2 sub m w w d x w2 sub y w2 add m w w neg d s} def
/reEncode {exch findfont dup length dict begin {1 index /FID eq  {pop pop} {def} ifelse } forall /Encoding exch def currentdict end dup /FontName get exch definefont pop } def [/Times-Bold /Times-Italic /Times-BoldItalic /Helvetica /Helvetica-Oblique
 /Helvetica-Bold /Helvetica-BoldOblique /Courier /Courier-Oblique /Courier-Bold /Courier-BoldOblique /Times-Roman /AvantGarde-Book /AvantGarde-BookOblique /AvantGarde-Demi /AvantGarde-DemiOblique /Bookman-Demi /Bookman-DemiItalic /Bookman-Light
 /Bookman-LightItalic /Helvetica-Narrow /Helvetica-Narrow-Bold /Helvetica-Narrow-BoldOblique /Helvetica-Narrow-Oblique /NewCenturySchlbk-Roman /NewCenturySchlbk-Bold /NewCenturySchlbk-BoldItalic /NewCenturySchlbk-Italic /Palatino-Bold
 /Palatino-BoldItalic /Palatino-Italic /Palatino-Roman ] {ISOLatin1Encoding reEncode } forall
%%EndProlog
%%BeginSetup
%%EndSetup
newpath  gsave  .25 .25 scale  gsave  0 0 t black[  ] 0 sd 3 lw 0.999 0.999 0.999 c 2268 1594 0 0 bf black 0.999 0.999 0.999 c 1814 1276 227 159 bf black 1814 1276 227 159 bl 0 0 1 c 1 1 1 c 0 0 1 c 227 593 m 23 X s 266 593 m 23 X s /w 16 def /w2 {w
 2 div} def /w3 {w 3 div} def 258 593 m20 289 893 m 23 X s 329 893 m 23 X s 321 893 m20 352 836 m 23 X s 391 836 m 23 X s 383 836 m20 414 905 m 24 X s 454 905 m 23 X s 446 905 m20 477 883 m 23 X s 516 883 m 24 X s 508 883 m20 540 536 m 23 X s 579 536
 m 23 X s 571 536 m20 602 872 m 23 X s 642 872 m 23 X s 633 872 m20 665 851 m 23 X s 704 851 m 23 X s 696 851 m20 727 887 m 23 X s 767 887 m 23 X s 759 887 m20 790 878 m 23 X s 829 878 m 23 X s 821 878 m20 852 855 m 23 X s 892 855 m 23 X s 884 855
 m20 915 491 m 23 X s 954 491 m 23 X s 946 491 m20 977 848 m 24 X s 1017 848 m 23 X s 1009 848 m20 1040 850 m 23 X s 1080 850 m 23 X s 1071 850 m20 1103 897 m 23 X s 1142 897 m 23 X s 1134 897 m20 1165 804 m 23 X s 1205 804 m 23 X s 1196 804 m20 1228
 563 m 23 X s 1267 563 m 23 X s 1259 563 m20 1290 633 m 23 X s 1330 633 m 23 X s 1322 633 m20 1353 808 m 23 X s 1392 808 m 23 X s 1384 808 m20 1415 859 m 23 X s 1455 859 m 23 X s 1447 859 m20 1478 842 m 23 X s 1517 842 m 23 X s 1509 842 m20 1540 795
 m 24 X s 1580 795 m 23 X s 1572 795 m20 1603 377 m 23 X s 1643 377 m 23 X s 1634 377 m20 1666 774 m 23 X s 1705 774 m 23 X s 1697 774 m20 1728 815 m 23 X s 1768 815 m 23 X s 1759 815 m20 1791 842 m 23 X s 1830 842 m 23 X s 1822 842 m20 1853 780 m 23
 X s 1893 780 m 23 X s 1885 780 m20 1916 611 m 23 X s 1955 611 m 23 X s 1947 611 m20 black 227 159 m 1814 X s
 gsave  2268 1594 0 0 C 2008.9 63.6768 t 0 r /Symbol findfont 51.3523 sf 0 0 m (j) show NC gr  244 198 m -39 Y s 294 179 m -20 Y s 344 179 m -20 Y s 394 179 m -20 Y s 444 198 m -39 Y s 493 179 m -20 Y s 543 179 m -20 Y s 593 179 m -20 Y s 643 198 m
 -39 Y s 692 179 m -20 Y s 742 179 m -20 Y s 792 179 m -20 Y s 842 198 m -39 Y s 892 179 m -20 Y s 941 179 m -20 Y s 991 179 m -20 Y s 1041 198 m -39 Y s 1091 179 m -20 Y s 1140 179 m -20 Y s 1190 179 m -20 Y s 1240 198 m -39 Y s 1290 179 m -20 Y s
 1340 179 m -20 Y s 1389 179 m -20 Y s 1439 198 m -39 Y s 1489 179 m -20 Y s 1539 179 m -20 Y s 1589 179 m -20 Y s 1638 198 m -39 Y s 1688 179 m -20 Y s 1738 179 m -20 Y s 1788 179 m -20 Y s 1837 198 m -39 Y s 1887 179 m -20 Y s 1937 179 m -20 Y s
 1987 179 m -20 Y s 2037 198 m -39 Y s 244 198 m -39 Y s 2037 198 m -39 Y s
 gsave  2268 1594 0 0 C 207.463 106.813 t 0 r /Helvetica findfont 51.3523 sf 0 0 m (1.4) show NC gr 
 gsave  2268 1594 0 0 C 406.71 106.813 t 0 r /Helvetica findfont 51.3523 sf 0 0 m (1.6) show NC gr 
 gsave  2268 1594 0 0 C 605.957 106.813 t 0 r /Helvetica findfont 51.3523 sf 0 0 m (1.8) show NC gr 
 gsave  2268 1594 0 0 C 825.745 106.813 t 0 r /Helvetica findfont 51.3523 sf 0 0 m (2) show NC gr 
 gsave  2268 1594 0 0 C 1004.45 106.813 t 0 r /Helvetica findfont 51.3523 sf 0 0 m (2.2) show NC gr 
 gsave  2268 1594 0 0 C 1203.7 106.813 t 0 r /Helvetica findfont 51.3523 sf 0 0 m (2.4) show NC gr 
 gsave  2268 1594 0 0 C 1402.94 106.813 t 0 r /Helvetica findfont 51.3523 sf 0 0 m (2.6) show NC gr 
 gsave  2268 1594 0 0 C 1602.19 106.813 t 0 r /Helvetica findfont 51.3523 sf 0 0 m (2.8) show NC gr 
 gsave  2268 1594 0 0 C 1821.98 106.813 t 0 r /Helvetica findfont 51.3523 sf 0 0 m (3) show NC gr 
 gsave  2268 1594 0 0 C 2000.68 106.813 t 0 r /Helvetica findfont 51.3523 sf 0 0 m (3.2) show NC gr  227 159 m 1276 Y s
 gsave  2268 1594 0 0 C 108.867 1405 t 90 r /Symbol findfont 51.3523 sf 0 0 m (j) show NC gr 
 gsave  2268 1594 0 0 C 108.867 1283.81 t 90 r /Helvetica findfont 51.3523 sf 0 0 m ( dN/d) show NC gr 
 gsave  2268 1594 0 0 C 127.354 1176.99 t 90 r /Helvetica findfont 34.9195 sf 0 0 m (Events) show NC gr 
 gsave  2268 1594 0 0 C 108.867 1098.94 t 90 r /Helvetica findfont 51.3523 sf 0 0 m (1/N) show NC gr  281 159 m -54 X s 254 191 m -27 X s 254 223 m -27 X s 254 255 m -27 X s 281 287 m -54 X s 254 319 m -27 X s 254 351 m -27 X s 254 383 m -27 X s 281
 414 m -54 X s 254 446 m -27 X s 254 478 m -27 X s 254 510 m -27 X s 281 542 m -54 X s 254 574 m -27 X s 254 606 m -27 X s 254 638 m -27 X s 281 669 m -54 X s 254 701 m -27 X s 254 733 m -27 X s 254 765 m -27 X s 281 797 m -54 X s 254 829 m -27 X s
 254 861 m -27 X s 254 893 m -27 X s 281 925 m -54 X s 254 956 m -27 X s 254 988 m -27 X s 254 1020 m -27 X s 281 1052 m -54 X s 254 1084 m -27 X s 254 1116 m -27 X s 254 1148 m -27 X s 281 1180 m -54 X s 254 1211 m -27 X s 254 1243 m -27 X s 254
 1275 m -27 X s 281 1307 m -54 X s 254 1339 m -27 X s 254 1371 m -27 X s 254 1403 m -27 X s 281 1435 m -54 X s
 gsave  2268 1594 0 0 C 186.922 141.732 t 0 r /Helvetica findfont 51.3523 sf 0 0 m (0) show NC gr 
 gsave  2268 1594 0 0 C 143.786 269.086 t 0 r /Helvetica findfont 51.3523 sf 0 0 m (0.2) show NC gr 
 gsave  2268 1594 0 0 C 143.786 396.44 t 0 r /Helvetica findfont 51.3523 sf 0 0 m (0.4) show NC gr 
 gsave  2268 1594 0 0 C 143.786 523.793 t 0 r /Helvetica findfont 51.3523 sf 0 0 m (0.6) show NC gr 
 gsave  2268 1594 0 0 C 143.786 651.147 t 0 r /Helvetica findfont 51.3523 sf 0 0 m (0.8) show NC gr 
 gsave  2268 1594 0 0 C 195.139 776.446 t 0 r /Helvetica findfont 51.3523 sf 0 0 m (1) show NC gr 
 gsave  2268 1594 0 0 C 143.786 905.854 t 0 r /Helvetica findfont 51.3523 sf 0 0 m (1.2) show NC gr 
 gsave  2268 1594 0 0 C 143.786 1033.21 t 0 r /Helvetica findfont 51.3523 sf 0 0 m (1.4) show NC gr 
 gsave  2268 1594 0 0 C 143.786 1162.62 t 0 r /Helvetica findfont 51.3523 sf 0 0 m (1.6) show NC gr 
 gsave  2268 1594 0 0 C 143.786 1289.97 t 0 r /Helvetica findfont 51.3523 sf 0 0 m (1.8) show NC gr 
 gsave  2268 1594 0 0 C 186.922 1415.27 t 0 r /Helvetica findfont 51.3523 sf 0 0 m (2) show NC gr 
 gsave  2268 1594 0 0 C 525.847 1308.46 t 0 r /Helvetica-Bold findfont 55.4605 sf 0 0 m ( distribution of clusters for lhc13c merged output) show NC gr 
 gsave  2268 1594 0 0 C 492.982 1308.46 t 0 r /Symbol findfont 55.4605 sf 0 0 m (j) show NC gr 
 gr  gr showpage
end
%%EOF
