%!PS-Adobe-2.0 EPSF-2.0
%%BoundingBox:  0 0 567 398
%%Title: /Users/cgy606/Documents/Train/LEGOTrain/020814/lhc13c/lhc13c_ClusterPt.eps: 
%%Creator: ROOT Version 5.34/09
%%CreationDate: Fri Mar 28 14:55:19 2014
%%EndComments
%%BeginProlog
80 dict begin
/s {stroke} def /l {lineto} def /m {moveto} def /t {translate} def
/r {rotate} def /rl {roll}  def /R {repeat} def
/d {rlineto} def /rm {rmoveto} def /gr {grestore} def /f {eofill} def
/c {setrgbcolor} def /black {0 setgray} def /sd {setdash} def
/cl {closepath} def /sf {scalefont setfont} def /lw {setlinewidth} def
/box {m dup 0 exch d exch 0 d 0 exch neg d cl} def
/NC{systemdict begin initclip end}def/C{NC box clip newpath}def
/bl {box s} def /bf {box f} def /Y { 0 exch d} def /X { 0 d} def 
/K {{pop pop 0 moveto} exch kshow} bind def
/ita {/ang 15 def gsave [1 0 ang dup sin exch cos div 1 0 0] concat} def 
/mp {newpath /y exch def /x exch def} def
/side {[w .77 mul w .23 mul] .385 w mul sd w 0 l currentpoint t -144 r} def
/mr {mp x y w2 0 360 arc} def /m24 {mr s} def /m20 {mr f} def
/mb {mp x y w2 add m w2 neg 0 d 0 w neg d w 0 d 0 w d cl} def
/mt {mp x y w2 add m w2 neg w neg d w 0 d cl} def
/m21 {mb f} def /m25 {mb s} def /m22 {mt f} def /m26{mt s} def
/m23 {mp x y w2 sub m w2 w d w neg 0 d cl f} def
/m27 {mp x y w2 add m w3 neg w2 neg d w3 w2 neg d w3 w2 d cl s} def
/m28 {mp x w2 sub y w2 sub w3 add m w3 0 d  0 w3 neg d w3 0 d 0 w3 d w3 0 d  0 w3 d w3 neg 0 d 0 w3 d w3 neg 0 d 0 w3 neg d w3 neg 0 d cl s } def
/m29 {mp gsave x w2 sub y w2 add w3 sub m currentpoint t 4 {side} repeat cl fill gr} def
/m30 {mp gsave x w2 sub y w2 add w3 sub m currentpoint t 4 {side} repeat cl s gr} def
/m31 {mp x y w2 sub m 0 w d x w2 sub y m w 0 d x w2 sub y w2 add m w w neg d x w2 sub y w2 sub m w w d s} def
/m32 {mp x y w2 sub m w2 w d w neg 0 d cl s} def
/m33 {mp x y w2 add m w3 neg w2 neg d w3 w2 neg d w3 w2 d cl f} def
/m34 {mp x w2 sub y w2 sub w3 add m w3 0 d  0 w3 neg d w3 0 d 0 w3 d w3 0 d  0 w3 d w3 neg 0 d 0 w3 d w3 neg 0 d 0 w3 neg d w3 neg 0 d cl f } def
/m2 {mp x y w2 sub m 0 w d x w2 sub y m w 0 d s} def
/m5 {mp x w2 sub y w2 sub m w w d x w2 sub y w2 add m w w neg d s} def
/reEncode {exch findfont dup length dict begin {1 index /FID eq  {pop pop} {def} ifelse } forall /Encoding exch def currentdict end dup /FontName get exch definefont pop } def [/Times-Bold /Times-Italic /Times-BoldItalic /Helvetica /Helvetica-Oblique
 /Helvetica-Bold /Helvetica-BoldOblique /Courier /Courier-Oblique /Courier-Bold /Courier-BoldOblique /Times-Roman /AvantGarde-Book /AvantGarde-BookOblique /AvantGarde-Demi /AvantGarde-DemiOblique /Bookman-Demi /Bookman-DemiItalic /Bookman-Light
 /Bookman-LightItalic /Helvetica-Narrow /Helvetica-Narrow-Bold /Helvetica-Narrow-BoldOblique /Helvetica-Narrow-Oblique /NewCenturySchlbk-Roman /NewCenturySchlbk-Bold /NewCenturySchlbk-BoldItalic /NewCenturySchlbk-Italic /Palatino-Bold
 /Palatino-BoldItalic /Palatino-Italic /Palatino-Roman ] {ISOLatin1Encoding reEncode } forall
%%EndProlog
%%BeginSetup
%%EndSetup
newpath  gsave  .25 .25 scale  gsave  0 0 t black[  ] 0 sd 3 lw 0.999 0.999 0.999 c 2268 1594 0 0 bf black 0.999 0.999 0.999 c 1814 1276 227 159 bf black 1814 1276 227 159 bl 0 0 1 c 1 1 1 c 0 0 1 c 263 1331 m 10 X s 289 1331 m 10 X s /w 16 def /w2
 {w 2 div} def /w3 {w 3 div} def 281 1331 m20 299 1178 m 10 X s 326 1178 m 10 X s 317 1178 m20 336 1060 m 10 X s 362 1060 m 10 X s 354 1060 m20 372 971 m 10 X s 398 971 m 10 X s 390 971 m20 408 900 m 10 X s 435 900 m 9 X s 426 900 m20 444 842 m 10 X
 s 471 842 m 10 X s 463 842 m20 481 793 m 10 X s 507 793 m 10 X s 499 793 m20 517 751 m 10 X s 543 751 m 10 X s 535 751 m20 553 711 m 10 X s 580 711 m 10 X s 571 711 m20 590 677 m 10 X s 616 677 m 10 X s 608 677 m20 626 648 m 10 X s 652 648 m 10 X s
 644 648 m20 662 623 m 10 X s 689 623 m 9 X s 680 623 m20 698 600 m 10 X s 725 600 m 10 X s 717 600 m20 735 578 m 10 X s 761 578 m 10 X s 753 578 m20 771 554 m 10 X s 797 554 m 10 X s 789 554 m20 807 532 m 10 X s 834 532 m 10 X s 825 532 m20 844 531
 m 10 X s 870 531 m 10 X s 862 531 m20 880 505 m 10 X s 906 505 m 10 X s 898 505 m20 916 484 m 10 X s 943 484 m 9 X s 934 484 m20 952 480 m 10 X s 979 480 m 10 X s 971 480 m20 1007 455 m 1 Y s 989 465 m 10 X s 1015 465 m 10 X s 1007 465 m20 1043 438
 m 2 Y s 1043 456 m 1 Y s 1025 448 m 10 X s 1051 448 m 10 X s 1043 448 m20 1079 410 m 4 Y s 1079 431 m 2 Y s 1061 423 m 10 X s 1088 423 m 10 X s 1079 423 m20 1116 401 m 5 Y s 1116 423 m 3 Y s 1098 414 m 10 X s 1124 414 m 10 X s 1116 414 m20 1152 401
 m 5 Y s 1152 423 m 3 Y s 1134 414 m 10 X s 1160 414 m 10 X s 1152 414 m20 1188 341 m 13 Y s 1188 370 m 8 Y s 1170 362 m 10 X s 1196 362 m 10 X s 1188 362 m20 1225 372 m 8 Y s 1225 397 m 5 Y s 1206 389 m 10 X s 1233 389 m 10 X s 1225 389 m20 1261 347
 m 11 Y s 1261 375 m 7 Y s 1243 366 m 10 X s 1269 366 m 10 X s 1261 366 m20 1297 323 m 15 Y s 1297 355 m 9 Y s 1279 347 m 10 X s 1305 347 m 10 X s 1297 347 m20 1333 308 m 18 Y s 1333 342 m 11 Y s 1315 334 m 10 X s 1342 334 m 10 X s 1333 334 m20 1370
 288 m 22 Y s 1370 327 m 12 Y s 1352 318 m 9 X s 1378 318 m 10 X s 1370 318 m20 1406 308 m 18 Y s 1406 342 m 11 Y s 1388 334 m 10 X s 1414 334 m 10 X s 1406 334 m20 1442 288 m 22 Y s 1442 327 m 12 Y s 1424 318 m 10 X s 1450 318 m 10 X s 1442 318 m20
 1479 159 m 55 Y s 1479 231 m 29 Y s 1460 223 m 10 X s 1487 223 m 10 X s 1479 223 m20 1515 223 m 39 Y s 1515 279 m 20 Y s 1497 271 m 10 X s 1523 271 m 10 X s 1515 271 m20 1551 323 m 15 Y s 1551 355 m 9 Y s 1533 347 m 10 X s 1559 347 m 10 X s 1551 347
 m20 1587 159 m 55 Y s 1587 231 m 29 Y s 1569 223 m 10 X s 1596 223 m 10 X s 1587 223 m20 1624 223 m 39 Y s 1624 279 m 20 Y s 1606 271 m 9 X s 1632 271 m 10 X s 1624 271 m20 1660 245 m 33 Y s 1660 294 m 18 Y s 1642 286 m 10 X s 1668 286 m 10 X s 1660
 286 m20 1696 159 m 55 Y s 1696 231 m 29 Y s 1678 223 m 10 X s 1704 223 m 10 X s 1696 223 m20 1733 191 m 51 Y s 1733 259 m 23 Y s 1714 251 m 10 X s 1741 251 m 10 X s 1733 251 m20 1769 223 m 39 Y s 1769 279 m 20 Y s 1751 271 m 10 X s 1777 271 m 10 X s
 1769 271 m20 1805 159 m 7 Y s 1805 183 m 40 Y s 1787 175 m 10 X s 1813 175 m 10 X s 1805 175 m20 1841 159 m 7 Y s 1841 183 m 40 Y s 1823 175 m 10 X s 1850 175 m 10 X s 1841 175 m20 1878 223 m 39 Y s 1878 279 m 20 Y s 1860 271 m 9 X s 1886 271 m 10 X
 s 1878 271 m20 1914 159 m 55 Y s 1914 231 m 29 Y s 1896 223 m 10 X s 1922 223 m 10 X s 1914 223 m20 1950 191 m 51 Y s 1950 259 m 23 Y s 1932 251 m 10 X s 1958 251 m 10 X s 1950 251 m20 2023 159 m 55 Y s 2023 231 m 29 Y s 2005 223 m 10 X s 2031 223 m
 10 X s 2023 223 m20 black 227 159 m 1814 X s
 gsave  2268 1594 0 0 C 1850.74 51.3523 t 0 r /Helvetica findfont 51.3523 sf 0 0 m ( \(GeV/c\)) show NC gr 
 gsave  2268 1594 0 0 C 1828.14 22.595 t 0 r /Helvetica findfont 34.9195 sf 0 0 m (T) show NC gr 
 gsave  2268 1594 0 0 C 1799.38 51.3523 t 0 r /Helvetica findfont 51.3523 sf 0 0 m (p) show NC gr  227 198 m -39 Y s 263 179 m -20 Y s 299 179 m -20 Y s 336 179 m -20 Y s 372 179 m -20 Y s 408 198 m -39 Y s 444 179 m -20 Y s 481 179 m -20 Y s 517 179
 m -20 Y s 553 179 m -20 Y s 590 198 m -39 Y s 626 179 m -20 Y s 662 179 m -20 Y s 698 179 m -20 Y s 735 179 m -20 Y s 771 198 m -39 Y s 807 179 m -20 Y s 844 179 m -20 Y s 880 179 m -20 Y s 916 179 m -20 Y s 952 198 m -39 Y s 989 179 m -20 Y s 1025
 179 m -20 Y s 1061 179 m -20 Y s 1098 179 m -20 Y s 1134 198 m -39 Y s 1170 179 m -20 Y s 1206 179 m -20 Y s 1243 179 m -20 Y s 1279 179 m -20 Y s 1315 198 m -39 Y s 1352 179 m -20 Y s 1388 179 m -20 Y s 1424 179 m -20 Y s 1460 179 m -20 Y s 1497
 198 m -39 Y s 1533 179 m -20 Y s 1569 179 m -20 Y s 1606 179 m -20 Y s 1642 179 m -20 Y s 1678 198 m -39 Y s 1714 179 m -20 Y s 1751 179 m -20 Y s 1787 179 m -20 Y s 1823 179 m -20 Y s 1860 198 m -39 Y s 1896 179 m -20 Y s 1932 179 m -20 Y s 1968
 179 m -20 Y s 2005 179 m -20 Y s 2041 198 m -39 Y s
 gsave  2268 1594 0 0 C 211.571 106.813 t 0 r /Helvetica findfont 51.3523 sf 0 0 m (0) show NC gr 
 gsave  2268 1594 0 0 C 392.331 106.813 t 0 r /Helvetica findfont 51.3523 sf 0 0 m (5) show NC gr 
 gsave  2268 1594 0 0 C 560.767 106.813 t 0 r /Helvetica findfont 51.3523 sf 0 0 m (10) show NC gr 
 gsave  2268 1594 0 0 C 741.527 106.813 t 0 r /Helvetica findfont 51.3523 sf 0 0 m (15) show NC gr 
 gsave  2268 1594 0 0 C 922.287 106.813 t 0 r /Helvetica findfont 51.3523 sf 0 0 m (20) show NC gr 
 gsave  2268 1594 0 0 C 1105.1 106.813 t 0 r /Helvetica findfont 51.3523 sf 0 0 m (25) show NC gr 
 gsave  2268 1594 0 0 C 1285.86 106.813 t 0 r /Helvetica findfont 51.3523 sf 0 0 m (30) show NC gr 
 gsave  2268 1594 0 0 C 1466.62 106.813 t 0 r /Helvetica findfont 51.3523 sf 0 0 m (35) show NC gr 
 gsave  2268 1594 0 0 C 1647.38 106.813 t 0 r /Helvetica findfont 51.3523 sf 0 0 m (40) show NC gr 
 gsave  2268 1594 0 0 C 1830.2 106.813 t 0 r /Helvetica findfont 51.3523 sf 0 0 m (45) show NC gr 
 gsave  2268 1594 0 0 C 2010.96 106.813 t 0 r /Helvetica findfont 51.3523 sf 0 0 m (50) show NC gr  227 159 m 1276 Y s
 gsave  2268 1594 0 0 C 115.029 1413.21 t 90 r /Helvetica findfont 34.9195 sf 0 0 m (T) show NC gr 
 gsave  2268 1594 0 0 C 86.2718 1263.27 t 90 r /Helvetica findfont 51.3523 sf 0 0 m ( dN/dp) show NC gr 
 gsave  2268 1594 0 0 C 104.759 1156.45 t 90 r /Helvetica findfont 34.9195 sf 0 0 m (Events) show NC gr 
 gsave  2268 1594 0 0 C 86.2718 1078.4 t 90 r /Helvetica findfont 51.3523 sf 0 0 m (1/N) show NC gr  281 159 m -54 X s
 gsave  2268 1594 0 0 C 176.652 160.219 t 0 r /Helvetica findfont 34.9195 sf 0 0 m (\2558) show NC gr 
 gsave  2268 1594 0 0 C 121.191 135.57 t 0 r /Helvetica findfont 51.3523 sf 0 0 m (10) show NC gr  254 207 m -27 X s 254 235 m -27 X s 254 255 m -27 X s 254 271 m -27 X s 254 283 m -27 X s 254 294 m -27 X s 254 303 m -27 X s 254 312 m -27 X s 281 319
 m -54 X s
 gsave  2268 1594 0 0 C 176.652 318.384 t 0 r /Helvetica findfont 34.9195 sf 0 0 m (\2557) show NC gr 
 gsave  2268 1594 0 0 C 121.191 295.789 t 0 r /Helvetica findfont 51.3523 sf 0 0 m (10) show NC gr  254 367 m -27 X s 254 395 m -27 X s 254 415 m -27 X s 254 430 m -27 X s 254 443 m -27 X s 254 454 m -27 X s 254 463 m -27 X s 254 471 m -27 X s 281
 478 m -54 X s
 gsave  2268 1594 0 0 C 176.652 478.603 t 0 r /Helvetica findfont 34.9195 sf 0 0 m (\2556) show NC gr 
 gsave  2268 1594 0 0 C 121.191 453.954 t 0 r /Helvetica findfont 51.3523 sf 0 0 m (10) show NC gr  254 526 m -27 X s 254 554 m -27 X s 254 574 m -27 X s 254 590 m -27 X s 254 602 m -27 X s 254 613 m -27 X s 254 622 m -27 X s 254 630 m -27 X s 281
 638 m -54 X s
 gsave  2268 1594 0 0 C 176.652 638.822 t 0 r /Helvetica findfont 34.9195 sf 0 0 m (\2555) show NC gr 
 gsave  2268 1594 0 0 C 121.191 614.173 t 0 r /Helvetica findfont 51.3523 sf 0 0 m (10) show NC gr  254 686 m -27 X s 254 714 m -27 X s 254 734 m -27 X s 254 749 m -27 X s 254 762 m -27 X s 254 772 m -27 X s 254 782 m -27 X s 254 790 m -27 X s 281
 797 m -54 X s
 gsave  2268 1594 0 0 C 176.652 794.933 t 0 r /Helvetica findfont 34.9195 sf 0 0 m (\2554) show NC gr 
 gsave  2268 1594 0 0 C 121.191 772.338 t 0 r /Helvetica findfont 51.3523 sf 0 0 m (10) show NC gr  254 845 m -27 X s 254 873 m -27 X s 254 893 m -27 X s 254 908 m -27 X s 254 921 m -27 X s 254 932 m -27 X s 254 941 m -27 X s 254 949 m -27 X s 281
 956 m -54 X s
 gsave  2268 1594 0 0 C 176.652 957.206 t 0 r /Helvetica findfont 34.9195 sf 0 0 m (\2553) show NC gr 
 gsave  2268 1594 0 0 C 121.191 932.557 t 0 r /Helvetica findfont 51.3523 sf 0 0 m (10) show NC gr  254 1004 m -27 X s 254 1032 m -27 X s 254 1052 m -27 X s 254 1068 m -27 X s 254 1080 m -27 X s 254 1091 m -27 X s 254 1100 m -27 X s 254 1108 m -27 X
 s 281 1116 m -54 X s
 gsave  2268 1594 0 0 C 176.652 1115.37 t 0 r /Helvetica findfont 34.9195 sf 0 0 m (\2552) show NC gr 
 gsave  2268 1594 0 0 C 121.191 1092.78 t 0 r /Helvetica findfont 51.3523 sf 0 0 m (10) show NC gr  254 1164 m -27 X s 254 1192 m -27 X s 254 1212 m -27 X s 254 1227 m -27 X s 254 1240 m -27 X s 254 1250 m -27 X s 254 1260 m -27 X s 254 1268 m -27 X
 s 281 1275 m -54 X s
 gsave  2268 1594 0 0 C 182.814 1273.54 t 0 r /Helvetica findfont 34.9195 sf 0 0 m (\2551) show NC gr 
 gsave  2268 1594 0 0 C 127.354 1250.94 t 0 r /Helvetica findfont 51.3523 sf 0 0 m (10) show NC gr  254 1323 m -27 X s 254 1351 m -27 X s 254 1371 m -27 X s 254 1387 m -27 X s 254 1399 m -27 X s 254 1410 m -27 X s 254 1419 m -27 X s 254 1427 m -27 X
 s 281 1435 m -54 X s
 gsave  2268 1594 0 0 C 209.083 1412.39 t 0 r  -28 0 t /Helvetica findfont 51.3523 sf 0 0 m (1) show NC gr 
 gsave  2268 1594 0 0 C 571.037 1324.89 t 0 r /Helvetica-Bold findfont 55.4605 sf 0 0 m ( distribution of clusters for lhc13c merged output) show NC gr 
 gsave  2268 1594 0 0 C 548.442 1296.13 t 0 r /Helvetica-Bold findfont 36.9736 sf 0 0 m (T) show NC gr 
 gsave  2268 1594 0 0 C 515.577 1324.89 t 0 r /Helvetica-Bold findfont 55.4605 sf 0 0 m (p) show NC gr 
 gr  gr showpage
end
%%EOF
