%!PS-Adobe-2.0 EPSF-2.0
%%BoundingBox:  0 0 567 439
%%Title: /Users/cgy606/Documents/Train/LEGOTrain/100413/lhc13c/DeltaPt.eps: 
%%Creator: ROOT Version 5.34/09
%%CreationDate: Mon Oct 21 13:57:55 2013
%%EndComments
%%BeginProlog
80 dict begin
/s {stroke} def /l {lineto} def /m {moveto} def /t {translate} def
/r {rotate} def /rl {roll}  def /R {repeat} def
/d {rlineto} def /rm {rmoveto} def /gr {grestore} def /f {eofill} def
/c {setrgbcolor} def /black {0 setgray} def /sd {setdash} def
/cl {closepath} def /sf {scalefont setfont} def /lw {setlinewidth} def
/box {m dup 0 exch d exch 0 d 0 exch neg d cl} def
/NC{systemdict begin initclip end}def/C{NC box clip newpath}def
/bl {box s} def /bf {box f} def /Y { 0 exch d} def /X { 0 d} def 
/K {{pop pop 0 moveto} exch kshow} bind def
/ita {/ang 15 def gsave [1 0 ang dup sin exch cos div 1 0 0] concat} def 
/mp {newpath /y exch def /x exch def} def
/side {[w .77 mul w .23 mul] .385 w mul sd w 0 l currentpoint t -144 r} def
/mr {mp x y w2 0 360 arc} def /m24 {mr s} def /m20 {mr f} def
/mb {mp x y w2 add m w2 neg 0 d 0 w neg d w 0 d 0 w d cl} def
/mt {mp x y w2 add m w2 neg w neg d w 0 d cl} def
/m21 {mb f} def /m25 {mb s} def /m22 {mt f} def /m26{mt s} def
/m23 {mp x y w2 sub m w2 w d w neg 0 d cl f} def
/m27 {mp x y w2 add m w3 neg w2 neg d w3 w2 neg d w3 w2 d cl s} def
/m28 {mp x w2 sub y w2 sub w3 add m w3 0 d  0 w3 neg d w3 0 d 0 w3 d w3 0 d  0 w3 d w3 neg 0 d 0 w3 d w3 neg 0 d 0 w3 neg d w3 neg 0 d cl s } def
/m29 {mp gsave x w2 sub y w2 add w3 sub m currentpoint t 4 {side} repeat cl fill gr} def
/m30 {mp gsave x w2 sub y w2 add w3 sub m currentpoint t 4 {side} repeat cl s gr} def
/m31 {mp x y w2 sub m 0 w d x w2 sub y m w 0 d x w2 sub y w2 add m w w neg d x w2 sub y w2 sub m w w d s} def
/m32 {mp x y w2 sub m w2 w d w neg 0 d cl s} def
/m33 {mp x y w2 add m w3 neg w2 neg d w3 w2 neg d w3 w2 d cl f} def
/m34 {mp x w2 sub y w2 sub w3 add m w3 0 d  0 w3 neg d w3 0 d 0 w3 d w3 0 d  0 w3 d w3 neg 0 d 0 w3 d w3 neg 0 d 0 w3 neg d w3 neg 0 d cl f } def
/m2 {mp x y w2 sub m 0 w d x w2 sub y m w 0 d s} def
/m5 {mp x w2 sub y w2 sub m w w d x w2 sub y w2 add m w w neg d s} def
/reEncode {exch findfont dup length dict begin {1 index /FID eq  {pop pop} {def} ifelse } forall /Encoding exch def currentdict end dup /FontName get exch definefont pop } def [/Times-Bold /Times-Italic /Times-BoldItalic /Helvetica /Helvetica-Oblique
 /Helvetica-Bold /Helvetica-BoldOblique /Courier /Courier-Oblique /Courier-Bold /Courier-BoldOblique /Times-Roman /AvantGarde-Book /AvantGarde-BookOblique /AvantGarde-Demi /AvantGarde-DemiOblique /Bookman-Demi /Bookman-DemiItalic /Bookman-Light
 /Bookman-LightItalic /Helvetica-Narrow /Helvetica-Narrow-Bold /Helvetica-Narrow-BoldOblique /Helvetica-Narrow-Oblique /NewCenturySchlbk-Roman /NewCenturySchlbk-Bold /NewCenturySchlbk-BoldItalic /NewCenturySchlbk-Italic /Palatino-Bold
 /Palatino-BoldItalic /Palatino-Italic /Palatino-Roman ] {ISOLatin1Encoding reEncode } forall
%%EndProlog
%%BeginSetup
%%EndSetup
newpath  gsave  .25 .25 scale  gsave  0 0 t black[  ] 0 sd 3 lw 0.999 0.999 0.999 c 2268 1758 0 0 bf black 0.999 0.999 0.999 c 1837 1406 317 264 bf black 1837 1406 317 264 bl 1 0 0 c 1 1 1 c 1 0 0 c 443 681 m 3 Y s 443 712 m s /w 27 def /w2 {w 2 div}
 def /w3 {w 3 div} def 443 698 m25 459 1140 m25 476 1578 m25 493 1601 m25 510 1552 m25 526 1506 m25 543 1463 m25 560 1422 m25 576 1383 m25 593 1346 m25 610 1310 m25 626 1276 m25 643 1244 m25 660 1212 m25 677 1183 m25 693 1155 m25 710 1129 m25 727
 1104 m25 743 1080 m25 760 1057 m25 777 1036 m25 793 1018 m25 810 998 m25 818 954 m 29 X s 874 954 m 28 X s 860 954 m25 902 888 m 28 X s 957 888 m 28 X s 944 888 m25 985 830 m 29 X s 1041 830 m 28 X s 1027 830 m25 1069 778 m 28 X s 1124 778 m 28 X s
 1111 778 m25 1152 731 m 28 X s 1208 731 m 28 X s 1194 731 m25 1236 711 m 28 X s 1291 711 m 28 X s 1278 711 m25 1319 670 m 28 X s 1375 670 m 28 X s 1361 670 m25 1403 651 m 28 X s 1458 651 m 28 X s 1445 651 m25 1486 632 m 28 X s 1542 632 m 28 X s 1528
 632 m25 1612 563 m 5 Y s 1612 595 m 1 Y s 1570 582 m 28 X s 1625 582 m 28 X s 1612 582 m25 1695 568 m 4 Y s 1695 599 m s 1653 585 m 28 X s 1709 585 m 28 X s 1695 585 m25 1779 507 m 14 Y s 1779 548 m 6 Y s 1737 535 m 28 X s 1792 535 m 28 X s 1779 535
 m25 1862 471 m 22 Y s 1862 521 m 9 Y s 1820 507 m 28 X s 1876 507 m 28 X s 1862 507 m25 1946 471 m 22 Y s 1946 521 m 9 Y s 1904 507 m 28 X s 1959 507 m 28 X s 1946 507 m25 2029 433 m 33 Y s 2029 493 m 14 Y s 1987 480 m 28 X s 2043 480 m 28 X s 2029
 480 m25 2113 349 m 70 Y s 2113 446 m 23 Y s 2071 433 m 28 X s 2126 433 m 28 X s 2113 433 m25 black 317 264 m 1837 X s
 gsave  2268 1758 0 0 C 2128.83 56.9206 t 0 r /Helvetica findfont 97.9034 sf 0 0 m (\)) show NC gr 
 gsave  2268 1758 0 0 C 2074.19 56.9206 t 0 r /Helvetica-Oblique findfont 97.9034 sf 0 0 m (c) show NC gr 
 gsave  2268 1758 0 0 C 1789.58 56.9206 t 0 r /Helvetica findfont 97.9034 sf 0 0 m ( \(GeV/) show NC gr 
 gsave  2268 1758 0 0 C 1593.78 102.457 t 0 r /Helvetica findfont 66.0279 sf 0 0 m (ch+em) show NC gr 
 gsave  2268 1758 0 0 C 1593.78 4.55365 t 0 r /Helvetica findfont 66.0279 sf 0 0 m (T) show NC gr 
 gsave  2268 1758 0 0 C 1534.58 56.9206 t 0 r /Helvetica-Oblique findfont 97.9034 sf 0 0 m (p) show NC gr 
 gsave  2268 1758 0 0 C 1486.77 56.9206 t 0 r /Symbol findfont 97.9034 sf 0 0 m (d) show NC gr  484 306 m -42 Y s 568 285 m -21 Y s 651 285 m -21 Y s 735 285 m -21 Y s 818 306 m -42 Y s 902 285 m -21 Y s 985 285 m -21 Y s 1069 285 m -21 Y s 1152 306
 m -42 Y s 1236 285 m -21 Y s 1319 285 m -21 Y s 1403 285 m -21 Y s 1486 306 m -42 Y s 1570 285 m -21 Y s 1653 285 m -21 Y s 1737 285 m -21 Y s 1820 306 m -42 Y s 1904 285 m -21 Y s 1987 285 m -21 Y s 2071 285 m -21 Y s 2154 306 m -42 Y s 484 306 m
 -42 Y s 401 285 m -21 Y s 317 285 m -21 Y s
 gsave  2268 1758 0 0 C 457.642 170.762 t 0 r /Helvetica findfont 97.9034 sf 0 0 m (0) show NC gr 
 gsave  2268 1758 0 0 C 765.013 170.762 t 0 r /Helvetica findfont 97.9034 sf 0 0 m (20) show NC gr 
 gsave  2268 1758 0 0 C 1099.71 170.762 t 0 r /Helvetica findfont 97.9034 sf 0 0 m (40) show NC gr 
 gsave  2268 1758 0 0 C 1432.12 170.762 t 0 r /Helvetica findfont 97.9034 sf 0 0 m (60) show NC gr 
 gsave  2268 1758 0 0 C 1766.82 170.762 t 0 r /Helvetica findfont 97.9034 sf 0 0 m (80) show NC gr 
 gsave  2268 1758 0 0 C 2074.19 170.762 t 0 r /Helvetica findfont 97.9034 sf 0 0 m (100) show NC gr  317 1670 m 1837 X s 484 1627 m 43 Y s 568 1648 m 22 Y s 651 1648 m 22 Y s 735 1648 m 22 Y s 818 1627 m 43 Y s 902 1648 m 22 Y s 985 1648 m 22 Y s
 1069 1648 m 22 Y s 1152 1627 m 43 Y s 1236 1648 m 22 Y s 1319 1648 m 22 Y s 1403 1648 m 22 Y s 1486 1627 m 43 Y s 1570 1648 m 22 Y s 1653 1648 m 22 Y s 1737 1648 m 22 Y s 1820 1627 m 43 Y s 1904 1648 m 22 Y s 1987 1648 m 22 Y s 2071 1648 m 22 Y s
 2154 1627 m 43 Y s 484 1627 m 43 Y s 401 1648 m 22 Y s 317 1648 m 22 Y s 317 264 m 1406 Y s
 gsave  2268 1758 0 0 C 102.457 860.639 t 90 r /Helvetica findfont 97.9034 sf 0 0 m (Probability Density) show NC gr  372 264 m -55 X s
 gsave  2268 1758 0 0 C 236.79 264.112 t 0 r /Helvetica findfont 66.0279 sf 0 0 m (\2559) show NC gr 
 gsave  2268 1758 0 0 C 132.056 218.575 t 0 r /Helvetica findfont 97.9034 sf 0 0 m (10) show NC gr  345 311 m -28 X s 345 338 m -28 X s 345 358 m -28 X s 345 373 m -28 X s 345 385 m -28 X s 345 396 m -28 X s 345 405 m -28 X s 345 413 m -28 X s 372
 420 m -55 X s
 gsave  2268 1758 0 0 C 236.79 421.212 t 0 r /Helvetica findfont 66.0279 sf 0 0 m (\2558) show NC gr 
 gsave  2268 1758 0 0 C 132.056 375.676 t 0 r /Helvetica findfont 97.9034 sf 0 0 m (10) show NC gr  345 467 m -28 X s 345 494 m -28 X s 345 514 m -28 X s 345 529 m -28 X s 345 541 m -28 X s 345 552 m -28 X s 345 561 m -28 X s 345 569 m -28 X s 372
 576 m -55 X s
 gsave  2268 1758 0 0 C 236.79 576.036 t 0 r /Helvetica findfont 66.0279 sf 0 0 m (\2557) show NC gr 
 gsave  2268 1758 0 0 C 132.056 532.777 t 0 r /Helvetica findfont 97.9034 sf 0 0 m (10) show NC gr  345 623 m -28 X s 345 651 m -28 X s 345 670 m -28 X s 345 685 m -28 X s 345 698 m -28 X s 345 708 m -28 X s 345 717 m -28 X s 345 725 m -28 X s 372
 732 m -55 X s
 gsave  2268 1758 0 0 C 236.79 733.137 t 0 r /Helvetica findfont 66.0279 sf 0 0 m (\2556) show NC gr 
 gsave  2268 1758 0 0 C 132.056 687.601 t 0 r /Helvetica findfont 97.9034 sf 0 0 m (10) show NC gr  345 779 m -28 X s 345 807 m -28 X s 345 826 m -28 X s 345 842 m -28 X s 345 854 m -28 X s 345 864 m -28 X s 345 873 m -28 X s 345 881 m -28 X s 372
 889 m -55 X s
 gsave  2268 1758 0 0 C 236.79 890.238 t 0 r /Helvetica findfont 66.0279 sf 0 0 m (\2555) show NC gr 
 gsave  2268 1758 0 0 C 132.056 844.702 t 0 r /Helvetica findfont 97.9034 sf 0 0 m (10) show NC gr  345 936 m -28 X s 345 963 m -28 X s 345 983 m -28 X s 345 998 m -28 X s 345 1010 m -28 X s 345 1021 m -28 X s 345 1030 m -28 X s 345 1038 m -28 X s
 372 1045 m -55 X s
 gsave  2268 1758 0 0 C 236.79 1042.79 t 0 r /Helvetica findfont 66.0279 sf 0 0 m (\2554) show NC gr 
 gsave  2268 1758 0 0 C 132.056 999.526 t 0 r /Helvetica findfont 97.9034 sf 0 0 m (10) show NC gr  345 1092 m -28 X s 345 1119 m -28 X s 345 1139 m -28 X s 345 1154 m -28 X s 345 1166 m -28 X s 345 1177 m -28 X s 345 1186 m -28 X s 345 1194 m -28 X
 s 372 1201 m -55 X s
 gsave  2268 1758 0 0 C 236.79 1202.16 t 0 r /Helvetica findfont 66.0279 sf 0 0 m (\2553) show NC gr 
 gsave  2268 1758 0 0 C 132.056 1156.63 t 0 r /Helvetica findfont 97.9034 sf 0 0 m (10) show NC gr  345 1248 m -28 X s 345 1276 m -28 X s 345 1295 m -28 X s 345 1310 m -28 X s 345 1323 m -28 X s 345 1333 m -28 X s 345 1342 m -28 X s 345 1350 m -28 X
 s 372 1357 m -55 X s
 gsave  2268 1758 0 0 C 236.79 1356.99 t 0 r /Helvetica findfont 66.0279 sf 0 0 m (\2552) show NC gr 
 gsave  2268 1758 0 0 C 132.056 1313.73 t 0 r /Helvetica findfont 97.9034 sf 0 0 m (10) show NC gr  345 1404 m -28 X s 345 1432 m -28 X s 345 1451 m -28 X s 345 1467 m -28 X s 345 1479 m -28 X s 345 1489 m -28 X s 345 1498 m -28 X s 345 1506 m -28 X
 s 372 1514 m -55 X s
 gsave  2268 1758 0 0 C 248.174 1511.81 t 0 r /Helvetica findfont 66.0279 sf 0 0 m (\2551) show NC gr 
 gsave  2268 1758 0 0 C 143.44 1468.55 t 0 r /Helvetica findfont 97.9034 sf 0 0 m (10) show NC gr  345 1561 m -28 X s 345 1588 m -28 X s 345 1608 m -28 X s 345 1623 m -28 X s 345 1635 m -28 X s 345 1646 m -28 X s 345 1655 m -28 X s 345 1663 m -28 X s
 372 1670 m -55 X s
 gsave  2268 1758 0 0 C 295.257 1627.93 t 0 r  -54 0 t /Helvetica findfont 97.9034 sf 0 0 m (1) show NC gr  2154 264 m 1406 Y s 2100 264 m 54 X s 2127 311 m 27 X s 2127 338 m 27 X s 2127 358 m 27 X s 2127 373 m 27 X s 2127 385 m 27 X s 2127 396 m 27
 X s 2127 405 m 27 X s 2127 413 m 27 X s 2100 420 m 54 X s 2127 467 m 27 X s 2127 494 m 27 X s 2127 514 m 27 X s 2127 529 m 27 X s 2127 541 m 27 X s 2127 552 m 27 X s 2127 561 m 27 X s 2127 569 m 27 X s 2100 576 m 54 X s 2127 623 m 27 X s 2127 651 m
 27 X s 2127 670 m 27 X s 2127 685 m 27 X s 2127 698 m 27 X s 2127 708 m 27 X s 2127 717 m 27 X s 2127 725 m 27 X s 2100 732 m 54 X s 2127 779 m 27 X s 2127 807 m 27 X s 2127 826 m 27 X s 2127 842 m 27 X s 2127 854 m 27 X s 2127 864 m 27 X s 2127 873
 m 27 X s 2127 881 m 27 X s 2100 889 m 54 X s 2127 936 m 27 X s 2127 963 m 27 X s 2127 983 m 27 X s 2127 998 m 27 X s 2127 1010 m 27 X s 2127 1021 m 27 X s 2127 1030 m 27 X s 2127 1038 m 27 X s 2100 1045 m 54 X s 2127 1092 m 27 X s 2127 1119 m 27 X s
 2127 1139 m 27 X s 2127 1154 m 27 X s 2127 1166 m 27 X s 2127 1177 m 27 X s 2127 1186 m 27 X s 2127 1194 m 27 X s 2100 1201 m 54 X s 2127 1248 m 27 X s 2127 1276 m 27 X s 2127 1295 m 27 X s 2127 1310 m 27 X s 2127 1323 m 27 X s 2127 1333 m 27 X s
 2127 1342 m 27 X s 2127 1350 m 27 X s 2100 1357 m 54 X s 2127 1404 m 27 X s 2127 1432 m 27 X s 2127 1451 m 27 X s 2127 1467 m 27 X s 2127 1479 m 27 X s 2127 1489 m 27 X s 2127 1498 m 27 X s 2127 1506 m 27 X s 2100 1514 m 54 X s 2127 1561 m 27 X s
 2127 1588 m 27 X s 2127 1608 m 27 X s 2127 1623 m 27 X s 2127 1635 m 27 X s 2127 1646 m 27 X s 2127 1655 m 27 X s 2127 1663 m 27 X s 2100 1670 m 54 X s 1 1 1 c black 426 264 m 217 Y s 426 508 m 34 Y s 426 495 m31 443 695 m 2 Y s 443 710 m31 459 1149
 m31 476 1585 m31 493 1607 m31 510 1550 m31 526 1495 m31 543 1444 m31 560 1394 m31 576 1347 m31 593 1302 m31 610 1259 m31 626 1218 m31 643 1179 m31 660 1142 m31 677 1108 m31 693 1075 m31 710 1043 m31 727 1018 m31 743 991 m31 760 966 m31 777 946 m31
 793 921 m31 810 902 m31 818 856 m 29 X s 874 856 m 28 X s 860 856 m31 902 782 m 28 X s 957 782 m 28 X s 944 782 m31 985 721 m 29 X s 1041 721 m 28 X s 1027 721 m31 1069 667 m 28 X s 1124 667 m 28 X s 1111 667 m31 1152 625 m 28 X s 1208 625 m 28 X s
 1194 625 m31 1278 592 m 1 Y s 1236 607 m 28 X s 1291 607 m 28 X s 1278 607 m31 1361 524 m 11 Y s 1361 562 m 4 Y s 1319 548 m 28 X s 1375 548 m 28 X s 1361 548 m31 1445 524 m 11 Y s 1445 562 m 4 Y s 1403 548 m 28 X s 1458 548 m 28 X s 1445 548 m31
 1528 471 m 22 Y s 1528 521 m 9 Y s 1486 507 m 28 X s 1542 507 m 28 X s 1528 507 m31 1612 433 m 33 Y s 1612 493 m 14 Y s 1570 480 m 28 X s 1625 480 m 28 X s 1612 480 m31 1695 454 m 27 Y s 1695 508 m 12 Y s 1653 495 m 28 X s 1709 495 m 28 X s 1695 495
 m31 1779 433 m 33 Y s 1779 493 m 14 Y s 1737 480 m 28 X s 1792 480 m 28 X s 1779 480 m31 1862 402 m 44 Y s 1862 474 m 17 Y s 1820 460 m 28 X s 1876 460 m 28 X s 1862 460 m31 1946 264 m 108 Y s 1946 399 m 34 Y s 1904 385 m 28 X s 1959 385 m 28 X s
 1946 385 m31 2029 264 m 108 Y s 2029 399 m 34 Y s 1987 385 m 28 X s 2043 385 m 28 X s 2029 385 m31 2113 264 m 108 Y s 2113 399 m 34 Y s 2071 385 m 28 X s 2126 385 m 28 X s 2113 385 m31 0 0 1 c 1 1 1 c 0 0 1 c 426 264 m 217 Y s 426 508 m 34 Y s 426
 495 m20 443 681 m 3 Y s 443 712 m s 443 698 m20 459 1150 m20 476 1586 m20 493 1608 m20 510 1550 m20 526 1493 m20 543 1440 m20 560 1388 m20 576 1338 m20 593 1290 m20 610 1244 m20 626 1200 m20 643 1157 m20 660 1117 m20 677 1079 m20 693 1043 m20 710
 1006 m20 727 978 m20 743 949 m20 760 921 m20 777 898 m20 793 870 m20 810 852 m20 818 796 m 29 X s 874 796 m 28 X s 860 796 m20 902 716 m 28 X s 957 716 m 28 X s 944 716 m20 985 655 m 29 X s 1041 655 m 28 X s 1027 655 m20 1111 554 m 6 Y s 1111 587 m
 2 Y s 1069 574 m 28 X s 1124 574 m 28 X s 1111 574 m20 1194 531 m 9 Y s 1194 568 m 3 Y s 1152 554 m 28 X s 1208 554 m 28 X s 1194 554 m20 1278 497 m 16 Y s 1278 540 m 7 Y s 1236 527 m 28 X s 1291 527 m 28 X s 1278 527 m20 1361 433 m 33 Y s 1361 493
 m 14 Y s 1319 480 m 28 X s 1375 480 m 28 X s 1361 480 m20 1445 264 m 108 Y s 1445 399 m 34 Y s 1403 385 m 28 X s 1458 385 m 28 X s 1445 385 m20 1528 349 m 70 Y s 1528 446 m 23 Y s 1486 433 m 28 X s 1542 433 m 28 X s 1528 433 m20 1612 264 m 108 Y s
 1612 399 m 34 Y s 1570 385 m 28 X s 1625 385 m 28 X s 1612 385 m20 1695 264 m 108 Y s 1695 399 m 34 Y s 1653 385 m 28 X s 1709 385 m 28 X s 1695 385 m20 1779 264 m 108 Y s 1779 399 m 34 Y s 1737 385 m 28 X s 1792 385 m 28 X s 1779 385 m20 1862 264 m
 108 Y s 1862 399 m 34 Y s 1820 385 m 28 X s 1876 385 m 28 X s 1862 385 m20 black 1 1 1 c 680 439 794 1055 bf black
 gsave  2268 1758 0 0 C 963.096 1404.8 t 0 r /Helvetica-Bold findfont 66.0279 sf 0 0 m (p=1 \(No signal exclusion\)) show NC gr  1 0 0 c 879 1421 m25 black
 gsave  2268 1758 0 0 C 1220.38 1268.19 t 0 r /Helvetica-Bold findfont 66.0279 sf 0 0 m ( \(Partial exclusion\)) show NC gr 
 gsave  2268 1758 0 0 C 1140.69 1231.76 t 0 r /Helvetica-Bold findfont 43.2596 sf 0 0 m (Coll) show NC gr 
 gsave  2268 1758 0 0 C 963.096 1268.19 t 0 r /Helvetica-Bold findfont 66.0279 sf 0 0 m (p=1/N) show NC gr  879 1274 m31
 gsave  2268 1758 0 0 C 963.096 1111.09 t 0 r /Helvetica-Bold findfont 66.0279 sf 0 0 m (p=0 \(Leading signal exclusion\)) show NC gr  0 0 1 c 879 1128 m20 black
 gsave  2268 1758 0 0 C 1056.45 1514.09 t 0 r /Helvetica-Bold findfont 81.9657 sf 0 0 m (=5.02 TeV Min Bias R=0.4) show NC gr 
 gsave  2268 1758 0 0 C 1013.19 1514.09 t 0 r /Helvetica-Bold findfont 81.9657 sf 0 0 m (s) show NC gr  6 lw 986 1560 m 9 -48 d s 0 lw 995 1512 m 9 70 d s 1004 1582 m 52 X s
 gsave  2268 1758 0 0 C 751.352 1514.09 t 0 r /Helvetica-Bold findfont 81.9657 sf 0 0 m (p\255Pb ) show NC gr  3 lw 0.999 0.999 0.999 c 217 229 522 404 bf 217 229 522 404 bf 217 229 522 404 bl 1 1 1 c
/WT 2.68885 def /HT 2.28502 def /XS 522 def /YY 633 def /NX 81 def /NY 164 def /DrawCell {WT HT XX YY bf /NBBD NBBD 1 add def NBBD NBB eq {exit} if /XX WT XX add def IX NX eq {/YY YY HT sub def /XX XS def /IX 0 def} if /IX IX 1 add def} def /DrawCT
 {/NBB NX NY mul def /XX XS def /IX 1 def /NBBD 0 def /RC 0 def /GC 1 def /BC 2 def 1 1 NBB {/NB CT RC get def NB 301 ge {/NBL NB 300 sub def 1 1 NBL {DrawCell} for /RC RC 1 add def /GC RC 1 add def /BC RC 2 add def}{CT RC get 255 div CT GC get 255
 div CT BC get 255 div setrgbcolor DrawCell /RC RC 3 add def /GC GC 3 add def /BC BC 3 add def} ifelse NBBD NBB eq {exit} if} for /YY YY HT sub def clear} def /CT [ 255 255 255 325 223 223 223 31 31 31 0 0 0 324 17 17 17 204 204 204 255 255 255 350
 223 223 223 31 31 31 0 0 0 326 17 17 17 204 204 204 255 255 255 348 223 223 223 31 31 31 0 0 0 328 17 17 17 204 204 204 255 255 255 346 221 221 221 31 31 31 0 0 0 330 17 17 17 202 202 202 255 255 255 344 221 221 221 28 28 28 0 0 0 304 1 1 1 4 4 4
 320 2 2 2 0 0 0 304 14 14 14 202 202 202 255 255 255 342 223 223 223 31 31 31 0 0 0 304 20 20 20 207 207 207 255 255 255 320 221 221 221 31 31 31 0 0 0 304 17 17 17 204 204 204 255 255 255 340 223 223 223 31 31 31 0 0 0 304 24 24 24 212 212 212 255
 255 255 322 225 225 225 35 35 35 0 0 0 304 17 17 17 204 204 204 255 255 255 338 223 223 223 31 31 31 0 0 0 304 24 24 24 214 214 214 255 255 255 306 236 236 236 115 115 115 255 255 255 306 130 130 130 220 220 220 255 255 255 306 227 226 226 35 35 35
 0 0 0 304 17 17 17 204 204 204 255 255 255 336 227 227 227 33 33 33 0 0 0 304 20 20 20 212 212 212 255 255 255 307 247 247 247 3 3 3 238 238 238 255 255 255 304 254 254 254 14 14 14 221 221 221 255 255 255 307 225 225 225 31 31 31 0 0 0 304 18 18 18
 209 209 209 255 255 255 334 227 227 227 37 37 37 0 0 0 304 19 19 19 207 207 207 255 255 255 301 222 222 222 255 255 255 306 39 39 39 194 194 194 255 255 255 304 224 224 224 12 12 12 253 253 253 255 255 255 305 229 229 229 255 255 255 301 221 221 221
 30 30 30 0 0 0 304 21 21 21 209 209 209 255 255 255 332 223 223 223 33 33 33 0 0 0 304 20 20 20 207 207 207 255 255 255 301 222 222 222 10 10 10 219 219 219 255 255 255 305 85 85 85 149 149 149 255 255 255 304 179 179 179 55 55 55 255 255 255 305
 236 236 236 19 19 19 202 202 202 255 255 255 301 221 221 221 31 31 31 0 0 0 304 18 18 18 204 204 204 255 255 255 330 223 223 223 31 31 31 0 0 0 304 24 24 24 212 212 212 255 255 255 303 109 109 109 79 79 79 255 255 255 305 130 130 130 103 103 103 255
 255 255 304 134 134 134 100 100 100 255 255 255 305 108 108 108 80 80 80 255 255 255 303 225 225 225 35 35 35 0 0 0 304 17 17 17 204 204 204 255 255 255 328 223 223 223 31 31 31 0 0 0 304 24 24 24 214 214 214 255 255 255 304 239 239 239 22 22 22 187
 187 187 255 255 255 304 175 175 175 58 58 58 255 255 255 304 89 89 89 145 145 145 255 255 255 304 211 211 211 14 14 14 224 224 224 255 255 255 304 227 226 226 35 35 35 0 0 0 304 17 17 17 204 204 204 255 255 255 326 227 227 227 33 33 33 0 0 0 304 20
 20 20 212 212 212 255 255 255 306 151 151 151 46 46 46 252 252 252 255 255 255 303 220 220 220 15 15 14 254 254 254 255 255 255 303 45 45 45 189 189 189 255 255 255 304 71 71 71 125 125 125 255 255 255 306 225 225 225 31 31 31 0 0 0 304 18 18 18 209
 209 209 255 255 255 324 228 228 228 37 37 37 0 0 0 304 18 18 18 207 207 207 255 255 255 307 251 251 251 44 44 44 155 155 155 255 255 255 303 253 253 253 11 11 11 225 225 225 255 255 255 302 250 250 250 6 6 6 233 233 233 255 255 255 303 182 182 182
 26 26 26 242 242 242 255 255 255 307 221 221 221 30 30 30 0 0 0 304 21 21 21 211 211 211 255 255 255 322 227 227 227 37 37 37 0 0 0 304 18 18 18 206 206 206 255 255 255 301 203 203 203 255 255 255 306 187 187 187 23 23 23 240 240 240 255 255 255 303
 54 54 54 180 180 179 255 255 255 302 211 211 211 23 23 23 255 255 255 303 249 249 249 40 40 40 161 161 161 255 255 255 306 202 202 202 254 254 254 255 255 255 221 221 221 30 30 30 0 0 0 304 21 21 21 209 209 209 255 255 255 320 223 223 223 33 33 33 0
 0 0 304 19 19 19 206 206 206 255 255 255 301 237 237 237 26 26 26 111 111 111 251 251 251 255 255 255 305 79 79 79 116 116 116 255 255 255 303 99 99 99 134 134 134 255 255 255 302 166 166 166 68 68 68 255 255 255 303 142 142 142 55 55 55 253 253 253
 255 255 255 304 254 254 254 132 132 132 18 18 18 220 220 220 255 255 255 301 221 221 221 31 31 31 0 0 0 304 18 18 18 204 204 204 255 255 255 318 227 227 227 33 33 33 0 0 0 304 19 19 19 208 208 208 255 255 255 303 225 225 225 46 46 46 73 73 73 242
 242 242 255 255 255 304 217 217 217 12 12 12 221 221 221 255 255 255 302 144 144 144 90 90 90 255 255 255 302 122 122 122 112 112 112 255 255 255 302 236 236 236 17 17 17 197 197 197 255 255 255 304 248 248 248 91 91 91 33 33 33 214 214 214 255 255
 255 303 224 224 224 31 31 31 0 0 0 304 18 18 18 209 209 209 255 255 255 317 48 48 48 0 0 0 304 18 18 18 206 206 206 255 255 255 305 243 243 243 79 79 79 47 47 47 225 225 225 255 255 255 304 112 112 111 84 84 84 255 255 255 302 188 188 188 46 46 46
 255 255 255 302 78 78 78 156 156 156 255 255 255 302 109 109 109 87 87 87 255 255 255 304 235 235 235 62 61 61 63 63 63 235 235 235 255 255 255 305 221 221 221 30 30 30 0 0 0 304 21 21 21 255 255 255 317 22 22 22 0 0 0 303 18 18 18 206 206 206 255
 255 255 307 252 252 252 118 118 118 24 24 24 200 200 200 255 255 255 303 238 238 238 20 20 20 189 189 189 255 255 255 301 233 233 233 6 6 6 249 249 249 255 255 255 301 33 33 33 201 201 201 255 255 255 301 210 210 210 14 14 14 225 225 225 255 255 255
 303 213 213 213 34 34 34 100 99 99 249 249 249 255 255 255 307 221 221 221 30 30 30 0 0 0 304 255 255 255 317 22 22 22 0 0 0 303 193 193 193 255 255 255 310 159 159 159 15 15 15 164 164 164 255 255 255 303 150 150 150 41 41 41 249 249 249 255 255
 255 301 24 24 24 211 210 210 255 255 255 241 241 241 3 3 3 244 244 244 255 255 255 254 254 254 61 61 61 127 127 127 255 255 255 303 180 180 180 17 17 17 141 141 141 254 254 254 255 255 255 309 219 219 219 0 0 0 304 255 255 255 317 22 22 22 0 0 0 303
 226 226 226 255 255 255 311 191 191 191 17 17 17 124 124 124 254 254 254 255 255 255 301 251 251 251 44 44 44 146 146 146 255 255 255 301 68 68 68 166 166 166 255 255 255 199 199 199 35 35 35 255 255 255 301 168 168 168 28 28 28 244 244 244 255 255
 255 302 142 142 142 12 12 12 176 176 176 255 255 255 311 250 250 250 0 0 0 304 255 255 255 317 22 22 22 0 0 0 303 226 226 226 255 255 255 203 203 203 128 128 128 218 218 218 255 255 255 308 218 218 218 40 40 40 90 90 90 247 247 247 255 255 255 301
 191 191 191 20 20 20 237 237 237 255 255 255 112 112 112 123 123 123 255 255 255 155 155 155 80 80 80 255 255 255 246 246 246 32 32 32 168 168 168 255 255 255 301 250 250 250 106 106 105 31 31 31 207 207 207 255 255 255 308 226 226 226 138 138 138
 187 187 187 255 255 255 250 250 250 0 0 0 304 255 255 255 317 22 22 22 0 0 0 303 226 226 226 255 255 255 209 209 209 92 92 92 13 13 13 57 56 56 149 149 149 236 236 236 255 255 255 306 239 239 239 69 69 69 56 56 56 232 232 232 255 255 255 301 86 86
 86 112 112 112 255 255 255 166 166 166 89 89 89 255 255 255 122 122 122 133 133 133 255 255 255 133 133 133 64 64 64 254 254 254 255 255 255 238 238 238 68 68 68 57 57 57 232 232 232 255 255 255 306 241 241 241 159 159 159 66 66 66 10 10 10 83 83 83
 197 197 197 255 255 255 250 250 250 0 0 0 304 255 255 255 317 22 22 22 0 0 0 303 226 226 226 255 255 255 302 244 244 244 163 163 163 71 71 71 9 9 9 80 80 80 171 171 171 246 246 246 255 255 255 304 251 251 251 106 106 106 31 31 31 209 209 209 255 255
 255 226 226 226 22 22 22 227 227 227 301 61 61 61 255 255 255 93 93 93 194 194 194 240 240 240 24 24 24 212 212 212 255 255 255 218 218 218 39 39 39 91 91 91 247 247 247 255 255 255 304 250 250 250 180 180 180 89 89 89 11 11 11 62 62 62 154 154 154
 239 239 239 255 255 255 302 250 250 250 0 0 0 304 255 255 255 317 22 22 22 0 0 0 303 226 226 226 255 255 255 305 230 229 229 140 140 140 49 49 49 15 15 15 100 100 100 192 192 192 253 253 253 255 255 255 303 147 147 147 16 16 16 180 180 180 255 255
 255 155 155 155 107 107 107 255 255 255 65 65 65 255 255 255 72 72 72 247 247 247 131 131 131 132 132 132 255 255 255 193 193 193 19 19 19 132 132 132 254 254 254 255 255 255 302 254 254 254 201 201 201 108 108 108 21 21 21 41 41 41 131 131 131 223
 223 223 255 255 255 305 250 250 250 0 0 0 304 255 255 255 317 22 22 22 0 0 0 303 226 226 226 255 255 255 308 211 211 211 115 115 115 22 22 22 33 33 33 126 126 126 220 220 220 255 255 255 302 184 184 184 24 24 24 169 169 169 254 254 254 74 74 74 229
 229 229 98 98 98 253 253 253 96 96 96 242 242 242 65 65 65 250 250 250 184 184 184 23 23 23 173 173 173 255 255 255 302 227 227 227 136 136 135 41 41 41 17 17 17 106 106 106 203 203 203 254 254 254 255 255 255 307 250 250 250 0 0 0 304 255 255 255
 317 22 22 22 0 0 0 303 226 226 226 255 255 255 310 250 250 250 179 179 179 88 88 88 11 11 11 61 61 61 153 153 153 239 239 239 255 255 255 228 228 228 69 69 69 161 161 161 220 220 220 123 123 122 151 151 151 228 228 228 128 128 128 141 141 141 202
 202 202 177 177 177 63 62 62 221 221 221 255 255 255 243 243 243 162 162 162 69 69 69 10 10 10 80 80 80 171 171 171 247 247 247 255 255 255 310 250 250 250 0 0 0 304 255 255 255 317 22 22 22 0 0 0 303 226 226 226 255 255 255 313 242 242 242 160 160
 160 67 67 67 12 12 12 102 102 102 210 210 210 252 252 252 132 132 132 152 152 152 155 155 155 187 187 187 177 177 177 170 170 170 141 141 141 168 168 168 120 120 120 249 249 249 219 219 219 112 112 112 15 15 15 59 59 59 152 152 152 237 237 237 255
 255 255 313 250 250 250 0 0 0 304 255 255 255 317 22 22 22 0 0 0 303 226 226 226 255 255 255 316 233 233 233 159 159 159 86 86 86 80 80 80 174 174 174 191 191 191 162 162 162 172 172 172 139 139 139 164 164 164 168 168 168 181 181 181 185 185 185 86
 86 86 80 80 80 153 153 153 228 228 228 255 255 255 316 250 250 250 0 0 0 304 255 255 255 317 22 22 22 0 0 0 303 226 226 226 255 255 255 248 248 248 243 243 243 314 253 253 253 255 255 255 301 250 250 250 188 188 188 144 144 144 158 158 158 301 164
 164 163 165 165 165 156 156 156 146 146 146 181 181 181 247 247 247 255 255 255 301 254 254 254 244 244 244 243 243 243 313 247 247 247 255 255 255 250 250 250 0 0 0 304 255 255 255 317 22 22 22 0 0 0 303 226 226 226 255 255 255 117 117 117 0 0 0
 314 7 7 7 36 36 36 67 67 67 97 97 97 128 128 128 159 159 159 188 188 188 158 158 158 149 149 148 155 155 155 188 188 188 162 162 162 131 131 131 100 100 100 70 70 70 39 39 39 9 9 9 0 0 0 314 88 88 88 255 255 255 250 250 250 0 0 0 304 255 255 255 317
 22 22 22 0 0 0 303 226 226 226 255 255 255 251 251 251 248 248 248 311 249 249 249 250 250 250 301 254 254 254 255 255 255 301 242 242 242 173 173 173 146 146 146 160 160 160 161 161 161 163 163 163 168 168 168 155 155 155 150 150 150 164 164 164
 236 236 236 255 255 255 301 254 254 254 250 250 250 314 252 252 252 255 255 255 250 250 250 0 0 0 304 255 255 255 317 22 22 22 0 0 0 303 226 226 226 255 255 255 316 217 217 217 141 141 141 71 71 71 88 88 88 192 192 192 189 189 189 163 163 163 170
 170 170 139 139 139 162 162 162 173 173 173 170 170 170 205 205 205 98 98 98 65 65 65 131 131 131 206 206 206 254 254 254 255 255 255 315 250 250 250 0 0 0 304 255 255 255 317 22 22 22 0 0 0 303 226 226 226 255 255 255 313 238 237 237 149 149 149 52
 52 52 13 13 13 113 113 113 223 223 223 253 253 253 131 131 131 151 151 151 152 152 152 184 184 184 182 182 182 169 169 169 137 137 137 178 178 178 109 109 109 247 247 247 234 234 234 129 129 129 22 22 22 38 38 38 135 135 135 229 229 229 255 255 255
 313 250 250 250 0 0 0 304 255 255 255 317 22 22 22 0 0 0 303 226 226 226 255 255 255 310 248 248 248 173 173 173 82 82 82 10 10 10 67 67 67 160 160 160 242 242 242 255 255 255 232 232 232 74 73 73 155 155 155 221 221 221 121 121 121 148 148 148 231
 231 231 127 127 127 143 143 143 200 200 200 183 183 183 59 59 59 216 216 216 255 255 255 248 248 248 173 173 173 80 80 80 9 9 9 69 69 69 160 160 160 242 242 242 255 255 255 310 250 250 250 0 0 0 304 255 255 255 317 22 22 22 0 0 0 303 226 226 226 255
 255 255 307 254 254 254 196 196 196 103 103 103 17 17 17 48 48 48 139 139 139 227 227 227 255 255 255 302 184 184 184 27 27 27 166 166 166 253 253 253 74 74 74 228 228 228 95 95 95 254 254 254 94 94 94 244 244 244 65 65 65 247 247 247 193 193 193 25
 25 25 159 159 159 255 255 255 302 236 236 236 151 151 151 60 60 60 12 12 12 91 91 91 184 184 184 251 251 251 255 255 255 307 250 250 250 0 0 0 304 255 255 255 317 22 22 22 0 0 0 303 226 226 226 255 255 255 305 215 215 215 123 123 123 33 33 33 27 27
 27 117 117 117 210 210 210 255 255 255 303 254 254 254 144 144 144 17 17 17 183 183 183 255 255 255 151 151 151 109 109 109 254 254 254 62 62 62 255 255 255 73 73 73 244 244 244 138 138 138 122 122 122 255 255 255 207 207 207 27 27 27 113 113 113
 252 252 252 255 255 255 303 221 221 221 129 129 129 37 37 37 24 24 24 112 112 111 205 204 204 254 254 254 255 255 255 304 250 250 250 0 0 0 304 255 255 255 317 22 22 22 0 0 0 303 226 226 226 255 255 255 302 234 234 234 146 146 146 53 53 53 14 14 14
 97 97 97 188 188 188 252 252 252 255 255 255 304 250 250 250 102 102 102 33 32 32 211 211 211 255 255 255 224 224 224 21 21 21 228 228 228 219 219 219 65 65 65 255 255 255 97 97 97 188 188 188 243 243 243 26 26 26 205 205 205 255 255 255 228 228 228
 51 51 51 75 75 75 241 241 241 255 255 255 304 254 254 254 200 200 200 109 109 109 21 21 21 43 43 42 136 136 136 226 226 226 255 255 255 302 250 250 250 0 0 0 304 255 255 255 317 22 22 22 0 0 0 303 226 226 226 255 255 255 206 206 206 78 78 78 6 6 6
 65 65 65 162 162 162 245 245 245 255 255 255 306 241 241 241 69 69 69 54 54 54 232 232 232 255 255 255 301 87 87 87 110 110 110 255 255 255 159 159 159 94 94 94 255 255 255 126 126 126 128 128 128 255 255 255 138 138 138 59 59 59 254 254 254 255 255
 255 244 244 244 78 78 78 46 46 46 227 227 227 255 255 255 306 249 249 249 174 174 174 77 77 77 6 6 6 68 67 67 188 188 188 255 255 255 250 250 250 0 0 0 304 255 255 255 317 22 22 22 0 0 0 303 226 226 226 255 255 255 208 208 208 134 134 134 223 223
 223 255 255 255 308 221 221 221 44 44 44 84 84 84 245 245 245 255 255 255 301 194 194 194 18 18 18 235 235 235 255 255 255 107 107 107 128 128 127 255 255 255 159 159 159 75 75 75 255 255 255 247 247 247 34 34 34 165 165 165 255 255 255 301 252 252
 252 112 112 112 27 27 27 202 202 202 255 255 255 308 232 232 232 145 145 145 185 185 185 255 255 255 250 250 250 0 0 0 304 255 255 255 317 22 22 22 0 0 0 303 226 226 226 255 255 255 311 190 189 189 19 19 19 124 123 123 253 253 253 255 255 255 301
 251 251 251 45 45 45 145 145 145 255 255 255 301 62 62 62 172 172 172 255 255 255 204 204 204 30 30 30 255 255 255 301 174 174 174 25 25 25 241 241 241 255 255 255 302 153 153 153 13 13 13 164 164 164 255 255 255 311 250 250 250 0 0 0 304 255 255
 255 317 22 22 22 0 0 0 303 187 187 187 255 255 255 310 153 153 153 15 15 15 169 168 168 255 255 255 303 147 147 147 44 44 44 250 250 250 255 255 255 254 254 254 17 17 17 217 217 217 255 255 255 246 246 246 3 3 3 240 240 240 255 255 255 254 254 254
 70 70 70 118 118 118 255 255 255 303 194 194 194 22 22 22 124 124 124 253 253 253 255 255 255 309 212 212 212 0 0 0 304 255 255 255 317 22 22 22 0 0 0 303 15 15 15 204 203 203 255 255 255 307 253 253 253 118 117 117 23 23 23 202 202 202 255 255 255
 303 239 239 239 19 19 19 189 189 189 255 255 255 301 228 228 228 9 9 9 252 252 252 255 255 255 301 37 37 37 197 197 197 255 255 255 301 215 215 215 12 12 12 222 222 222 255 255 255 303 221 221 221 39 39 39 88 88 88 247 247 247 255 255 255 307 218
 218 218 25 25 25 0 0 0 304 255 255 255 317 48 48 48 0 0 0 304 18 18 18 206 206 206 255 255 255 305 244 244 244 84 84 84 44 44 44 223 223 223 255 255 255 304 114 114 114 81 81 81 255 255 255 302 184 184 184 50 50 50 255 255 255 302 81 81 81 153 153
 153 255 255 255 302 111 111 111 85 85 85 255 255 255 304 237 237 237 66 66 66 59 59 59 232 232 232 255 255 255 305 220 220 220 29 29 29 0 0 0 304 21 21 21 255 255 255 317 228 228 228 37 37 37 0 0 0 304 18 18 18 204 203 203 255 255 255 303 223 223
 223 47 47 47 75 75 75 241 241 241 255 255 255 304 216 216 216 13 13 13 221 221 221 255 255 255 302 139 139 139 95 95 95 255 255 255 302 126 126 126 108 108 108 255 255 255 302 238 238 238 20 20 20 192 192 192 255 255 255 304 250 250 250 102 102 102
 29 29 29 205 205 205 255 255 255 303 218 218 218 29 29 29 0 0 0 304 21 21 21 211 211 211 255 255 255 318 228 228 228 39 39 39 0 0 0 304 15 15 15 199 199 199 255 255 255 301 238 238 238 24 24 24 118 118 118 252 252 252 255 255 255 305 75 75 75 121
 121 121 255 255 255 303 94 94 94 140 140 140 255 255 255 302 171 171 171 63 63 63 255 255 255 303 151 151 151 47 47 47 252 252 252 255 255 255 304 254 254 254 148 147 147 15 15 15 219 219 219 255 255 255 301 214 214 214 25 25 25 0 0 0 304 22 22 22
 211 211 211 255 255 255 320 231 231 231 39 39 39 0 0 0 304 15 15 15 204 203 203 255 255 255 301 209 209 209 255 255 255 306 186 186 186 22 22 22 242 241 241 255 255 255 303 50 50 50 184 184 184 255 255 255 302 215 214 214 20 20 20 254 254 254 255
 255 255 302 251 251 251 43 43 43 155 155 155 255 255 255 306 212 212 212 254 254 254 255 255 255 218 218 218 25 25 25 0 0 0 304 22 22 22 213 213 213 255 255 255 322 228 228 228 37 37 37 0 0 0 304 18 18 18 206 206 206 255 255 255 307 251 251 251 45
 45 45 153 153 153 255 255 255 303 252 252 252 9 9 9 228 228 227 255 255 255 302 251 251 251 7 7 7 231 231 231 255 255 255 303 185 185 185 24 24 24 241 241 241 255 255 255 307 220 220 220 29 29 29 0 0 0 304 21 21 21 211 211 211 255 255 255 324 228
 228 228 37 37 37 0 0 0 304 18 18 18 206 206 206 255 255 255 306 150 150 150 48 48 48 252 252 252 255 255 255 303 216 216 216 18 18 18 254 254 254 255 255 255 303 48 48 48 186 186 186 255 255 255 304 77 77 77 118 118 118 255 255 255 306 220 220 220
 29 29 29 0 0 0 304 21 21 21 211 211 211 255 255 255 326 228 228 228 37 37 37 0 0 0 304 18 18 18 206 206 206 255 255 255 304 237 237 237 20 20 20 192 192 192 255 255 255 304 172 172 172 62 62 62 255 255 255 304 93 93 93 141 141 141 255 255 255 304
 218 218 218 13 13 13 217 217 217 255 255 255 304 221 221 221 29 29 29 0 0 0 304 21 21 21 211 211 211 255 255 255 328 228 228 228 37 37 37 0 0 0 304 18 18 18 204 203 203 255 255 255 303 104 104 104 85 85 85 255 255 255 305 127 127 127 107 107 107 255
 255 255 304 138 138 138 96 96 96 255 255 255 305 117 117 117 70 70 70 254 254 254 255 255 255 302 220 220 220 30 30 30 0 0 0 304 21 21 21 211 211 211 255 255 255 330 227 227 227 34 34 34 0 0 0 304 15 15 15 204 203 203 255 255 255 301 226 226 226 11
 11 11 222 222 222 255 255 255 305 83 83 83 151 151 151 255 255 255 304 181 181 181 52 52 52 255 255 255 305 240 240 240 26 26 26 212 212 212 255 255 255 301 220 220 220 27 27 27 0 0 0 304 18 18 18 209 209 209 255 255 255 332 227 227 227 37 37 37 0 0
 0 304 18 18 18 206 206 206 255 255 255 301 230 230 230 255 255 255 306 39 39 39 195 195 195 255 255 255 304 225 225 225 11 11 11 253 253 253 255 255 255 305 245 245 245 255 255 255 301 221 221 221 30 30 30 0 0 0 304 21 21 21 209 209 209 255 255 255
 334 228 228 228 37 37 37 0 0 0 304 18 18 18 206 206 206 255 255 255 307 246 246 246 3 3 3 239 239 239 255 255 255 304 254 254 254 16 16 16 219 219 219 255 255 255 307 221 221 221 30 30 30 0 0 0 304 21 21 21 211 211 211 255 255 255 336 228 228 228 37
 37 37 0 0 0 304 18 18 18 206 206 206 255 255 255 306 238 238 238 130 130 130 255 255 255 306 143 143 143 224 224 224 255 255 255 306 221 221 221 30 30 30 0 0 0 304 21 21 21 211 211 211 255 255 255 338 227 227 227 33 33 33 0 0 0 304 19 19 19 208 208
 208 255 255 255 322 224 224 224 31 31 31 0 0 0 304 18 18 18 209 209 209 255 255 255 340 223 223 223 31 31 31 0 0 0 304 19 19 19 206 206 206 255 255 255 320 221 221 221 31 31 31 0 0 0 304 17 17 17 204 204 204 255 255 255 342 223 223 223 33 33 33 0 0
 0 332 18 18 18 204 204 204 255 255 255 344 227 227 227 37 37 37 0 0 0 330 21 21 21 209 209 209 255 255 255 346 227 227 227 33 33 33 0 0 0 328 18 18 18 209 209 209 255 255 255 348 223 223 223 31 31 31 0 0 0 326 17 17 17 204 204 204 255 255 255 350
 223 223 223 31 31 31 0 0 0 324 17 17 17 204 204 204 255 255 255 661 228 228 228 151 151 151 113 113 113 111 111 111 141 141 141 210 210 210 255 255 255 306 224 224 224 210 210 210 301 244 244 244 255 255 255 306 233 233 233 210 210 210 306 235 235
 235 255 255 255 305 241 241 241 175 175 175 139 139 139 138 138 138 179 179 179 246 246 246 255 255 255 305 214 214 214 210 210 210 306 218 218 218 255 255 255 318 248 248 248 112 112 112 4 4 4 0 0 0 304 76 76 76 233 233 233 255 255 255 304 77 77 77
 0 0 0 301 197 197 197 255 255 255 306 133 133 133 0 0 0 306 144 144 144 255 255 255 303 253 253 253 132 132 132 12 12 12 0 0 0 303 21 21 21 165 165 165 255 255 255 304 23 23 23 0 0 0 306 44 44 44 255 255 255 318 85 85 85 0 0 0 307 43 43 43 244 244
 244 255 255 255 303 77 77 77 0 0 0 301 197 197 197 255 255 255 306 133 133 133 0 0 0 306 144 144 144 255 255 255 303 99 99 99 0 0 0 307 161 161 161 255 255 255 303 23 23 23 0 0 0 306 44 44 44 255 255 255 317 177 177 177 0 0 0 301 2 2 2 132 132 132
 235 235 235 243 243 243 159 159 159 14 14 14 0 0 0 301 126 126 126 255 255 255 303 77 77 77 0 0 0 301 197 197 197 255 255 255 306 180 180 180 99 99 99 95 95 95 0 0 0 301 8 8 8 99 99 99 301 187 187 187 255 255 255 302 166 166 166 0 0 0 301 7 7 7 108
 108 108 162 162 162 156 156 156 75 75 75 0 0 0 301 16 16 16 240 240 240 255 255 255 302 23 23 23 0 0 0 301 95 95 95 99 99 99 303 126 126 126 255 255 255 317 77 77 77 0 0 0 301 123 123 123 255 255 255 303 176 176 176 0 0 0 301 25 25 25 254 254 254
 255 255 255 302 77 77 77 0 0 0 301 197 197 197 255 255 255 308 243 243 243 0 0 0 301 22 22 22 255 255 255 304 252 252 252 32 32 32 0 0 0 1 1 1 185 185 185 255 255 255 303 82 82 82 0 0 0 301 157 157 157 255 255 255 302 23 23 23 0 0 0 301 243 243 243
 255 255 255 322 23 23 23 0 0 0 301 226 226 226 255 255 255 303 254 254 254 29 29 29 0 0 0 301 224 224 224 255 255 255 302 77 77 77 0 0 0 301 197 197 197 255 255 255 308 243 243 243 0 0 0 301 22 22 22 255 255 255 304 189 189 189 0 0 0 301 77 77 77
 255 255 255 304 178 178 178 30 30 30 72 72 72 172 172 172 255 255 255 302 23 23 23 0 0 0 301 243 243 243 255 255 255 322 2 2 2 0 0 0 7 7 7 255 255 255 305 63 63 63 0 0 0 301 210 210 210 255 255 255 302 77 77 77 0 0 0 301 197 197 197 255 255 255 308
 243 243 243 0 0 0 301 22 22 22 255 255 255 304 123 123 123 0 0 0 301 153 153 153 255 255 255 311 23 23 23 0 0 0 301 243 243 243 255 255 255 322 0 0 0 301 11 11 11 255 255 255 305 66 66 66 0 0 0 301 210 210 210 255 255 255 302 77 77 77 0 0 0 301 197
 197 197 255 255 255 308 243 243 243 0 0 0 301 22 22 22 255 255 255 304 79 79 79 0 0 0 301 193 193 193 255 255 255 311 23 23 23 0 0 0 301 106 106 106 110 110 110 303 173 173 173 255 255 255 317 0 0 0 301 9 9 9 210 210 210 305 54 54 54 0 0 0 301 210
 210 210 255 255 255 302 77 77 77 0 0 0 301 197 197 197 255 255 255 308 243 243 243 0 0 0 301 22 22 22 255 255 255 304 55 55 55 0 0 0 301 214 214 214 255 255 255 311 23 23 23 0 0 0 306 110 110 110 255 255 255 317 0 0 0 311 210 210 210 255 255 255 302
 77 77 77 0 0 0 301 197 197 197 255 255 255 308 243 243 243 0 0 0 301 22 22 22 255 255 255 304 44 44 44 0 0 0 301 221 221 221 255 255 255 311 23 23 23 0 0 0 306 110 110 110 255 255 255 317 0 0 0 311 210 210 210 255 255 255 302 77 77 77 0 0 0 301 197
 197 197 255 255 255 308 243 243 243 0 0 0 301 22 22 22 255 255 255 304 57 57 57 0 0 0 301 207 207 207 255 255 255 311 23 23 23 0 0 0 301 201 201 201 210 210 210 303 229 229 229 255 255 255 317 0 0 0 301 4 4 4 104 104 104 305 27 27 27 0 0 0 301 210
 210 210 255 255 255 302 77 77 77 0 0 0 301 197 197 197 255 255 255 308 243 243 243 0 0 0 301 22 22 22 255 255 255 304 79 79 79 0 0 0 301 181 181 181 255 255 255 311 23 23 23 0 0 0 301 243 243 243 255 255 255 322 0 0 0 301 11 11 11 255 255 255 305 66
 66 66 0 0 0 301 210 210 210 255 255 255 302 77 77 77 0 0 0 301 197 197 197 255 255 255 308 243 243 243 0 0 0 301 22 22 22 255 255 255 304 121 121 121 0 0 0 301 128 128 128 255 255 255 304 240 240 240 182 182 182 224 224 224 254 254 254 255 255 255
 302 23 23 23 0 0 0 301 243 243 243 255 255 255 322 0 0 0 301 11 11 11 255 255 255 305 66 66 66 0 0 0 301 210 210 210 255 255 255 302 77 77 77 0 0 0 301 197 197 197 255 255 255 308 243 243 243 0 0 0 301 22 22 22 255 255 255 304 189 189 189 0 0 0 301
 37 37 37 250 250 250 255 255 255 303 170 170 170 0 0 0 301 110 110 110 255 255 255 302 23 23 23 0 0 0 301 243 243 243 255 255 255 322 0 0 0 301 11 11 11 255 255 255 305 66 66 66 0 0 0 301 210 210 210 255 255 255 302 77 77 77 0 0 0 301 197 197 197
 255 255 255 308 243 243 243 0 0 0 301 22 22 22 255 255 255 304 252 252 252 34 34 34 0 0 0 301 99 99 99 246 246 246 255 255 255 301 227 227 227 38 38 38 0 0 0 301 187 187 187 255 255 255 302 23 23 23 0 0 0 301 243 243 243 255 255 255 322 0 0 0 301 11
 11 11 255 255 255 305 66 66 66 0 0 0 301 210 210 210 255 255 255 302 77 77 77 0 0 0 301 8 8 8 11 11 11 303 149 149 149 255 255 255 301 138 138 138 11 11 11 301 0 0 0 301 1 1 1 11 11 11 301 149 149 149 255 255 255 302 169 169 169 0 0 0 302 20 20 20
 72 72 72 61 61 61 7 7 7 0 0 0 301 61 61 61 254 254 254 255 255 255 302 23 23 23 0 0 0 301 11 11 11 304 53 53 53 255 255 255 317 0 0 0 301 11 11 11 255 255 255 305 66 66 66 0 0 0 301 210 210 210 255 255 255 302 77 77 77 0 0 0 306 144 144 144 255 255
 255 301 133 133 133 0 0 0 306 144 144 144 255 255 255 303 122 122 122 0 0 0 306 39 39 39 226 226 226 255 255 255 303 23 23 23 0 0 0 306 44 44 44 255 255 255 317 44 44 44 301 53 53 53 255 255 255 305 99 99 99 44 44 44 301 218 218 218 255 255 255 302
 108 108 108 44 44 44 306 163 163 163 255 255 255 301 154 154 154 44 44 44 306 163 163 163 255 255 255 304 181 181 181 65 65 65 6 6 6 0 0 0 301 31 31 31 127 127 127 243 243 243 255 255 255 304 63 63 63 44 44 44 306 80 80 80 255 255 255 360 251 251
 251 233 233 233 240 240 240 255 255 255 760 253 253 253 247 247 247 255 255 255 323 246 246 246 253 253 253 255 255 255 312 254 254 254 237 237 237 253 253 253 255 255 255 306 22 22 22 302 36 36 36 141 141 141 254 254 254 255 255 255 93 93 93 22 22
 22 302 170 170 170 255 255 255 301 42 42 42 22 22 22 301 54 54 54 189 189 189 255 255 255 302 62 62 62 22 22 22 302 123 123 123 255 255 255 301 180 180 180 25 25 25 0 0 0 71 71 71 239 239 239 255 255 255 301 103 103 103 22 22 22 301 38 38 38 143 143
 143 254 254 254 255 255 255 301 133 133 133 54 54 54 250 250 250 255 255 255 301 224 224 224 26 26 26 184 184 184 255 255 255 301 223 223 223 57 57 57 0 0 0 18 18 18 153 153 153 255 255 255 302 42 42 42 146 146 146 255 255 255 301 93 93 93 123 123
 123 255 255 255 301 191 191 191 32 32 32 0 0 0 25 25 25 185 185 185 255 255 255 224 224 224 22 22 22 303 0 0 0 101 101 101 155 155 155 113 113 113 0 0 0 158 158 158 255 255 255 77 77 77 47 47 47 155 155 155 301 218 218 218 255 255 255 301 22 22 22
 87 87 87 153 153 153 69 69 69 8 8 8 223 223 223 255 255 255 301 44 44 44 63 63 63 155 155 155 301 198 198 198 255 255 255 234 234 234 13 13 13 73 73 73 165 165 165 15 15 15 99 99 99 255 255 255 301 88 88 88 40 40 40 155 155 155 107 107 107 0 0 0 158
 158 158 255 255 255 301 121 121 121 0 0 0 144 144 144 255 255 255 301 89 89 89 0 0 0 177 177 177 255 255 255 301 67 67 67 34 34 34 172 172 172 99 99 99 1 1 1 211 211 211 255 255 255 301 22 22 22 9 9 9 218 218 218 255 255 255 77 77 77 110 110 110 255
 255 255 237 237 237 16 16 16 97 97 97 195 195 195 92 92 92 22 22 22 250 250 250 221 221 221 0 0 0 114 114 114 155 155 155 301 0 0 0 166 166 166 255 255 255 301 60 60 60 81 81 81 255 255 255 77 77 77 70 70 70 232 232 232 301 246 246 246 255 255 255
 301 22 22 22 144 144 144 255 255 255 243 243 243 0 0 0 158 158 158 255 255 255 301 44 44 44 95 95 95 232 232 232 301 242 242 242 255 255 255 151 151 151 0 0 0 222 222 222 255 255 255 118 118 118 11 11 11 249 249 249 255 255 255 88 88 88 66 66 66 255
 255 255 301 54 54 54 84 84 84 255 255 255 301 121 121 121 0 0 0 16 16 16 234 234 234 200 200 200 0 0 0 301 177 177 177 255 255 255 301 4 4 4 147 147 147 255 255 255 248 248 248 5 5 5 148 148 148 255 255 255 301 22 22 22 0 0 0 63 63 63 254 254 254 77
 77 77 110 110 110 255 255 255 153 153 153 9 9 9 246 246 246 255 255 255 231 231 231 171 171 171 248 248 248 221 221 221 0 0 0 172 172 172 232 232 232 301 0 0 0 158 158 158 243 243 243 203 203 203 15 15 15 114 114 114 255 255 255 77 77 77 0 0 0 302
 162 162 162 255 255 255 301 22 22 22 137 137 137 242 242 242 149 149 149 0 0 0 192 192 192 255 255 255 301 44 44 44 0 0 0 302 110 110 110 255 255 255 112 112 112 14 14 14 255 255 255 301 163 163 163 0 0 0 223 223 223 255 255 255 88 88 88 63 63 63
 243 243 243 200 200 200 12 12 12 117 117 117 255 255 255 301 121 121 121 31 31 31 9 9 9 110 110 110 61 61 61 35 35 35 0 0 0 177 177 177 255 255 255 301 0 0 0 158 158 158 243 243 243 301 10 10 10 144 144 144 255 255 255 301 22 22 22 89 89 89 0 0 0
 156 156 156 77 77 77 110 110 110 255 255 255 113 113 113 40 40 40 255 255 255 304 221 221 221 0 0 0 307 50 50 50 236 236 236 255 255 255 77 77 77 57 57 57 188 188 188 301 230 230 230 255 255 255 301 22 22 22 0 0 0 302 102 102 102 254 254 254 255 255
 255 301 44 44 44 77 77 77 188 188 188 301 217 217 217 255 255 255 113 113 113 13 13 13 255 255 255 301 161 161 161 0 0 0 223 223 223 255 255 255 88 88 88 0 0 0 302 51 51 51 235 235 235 255 255 255 301 121 121 121 55 55 55 127 127 127 1 1 1 0 0 0 170
 170 170 0 0 0 177 177 177 255 255 255 301 0 0 0 304 144 144 144 255 255 255 301 22 22 22 162 162 162 91 91 91 17 17 17 54 54 54 110 110 110 255 255 255 111 111 111 39 39 39 255 255 255 304 221 221 221 0 0 0 139 139 139 188 188 188 301 0 0 0 115 115
 115 177 177 177 199 199 199 252 252 252 255 255 255 301 77 77 77 301 255 255 255 304 22 22 22 100 100 100 121 121 121 0 0 0 167 167 167 255 255 255 302 44 44 44 104 104 104 255 255 255 303 156 156 156 0 0 0 215 215 215 255 255 255 111 111 111 13 13
 13 251 251 251 255 255 255 88 88 88 46 46 46 162 162 162 9 9 9 97 97 97 255 255 255 302 121 121 121 55 55 55 245 245 245 29 29 29 69 69 69 243 243 243 0 0 0 177 177 177 255 255 255 301 0 0 0 115 115 115 177 177 177 301 7 7 7 144 144 144 255 255 255
 301 22 22 22 162 162 162 234 234 234 20 20 20 0 0 0 110 110 110 255 255 255 150 150 150 6 6 6 240 240 240 255 255 255 229 229 229 141 141 141 243 243 243 221 221 221 0 0 0 188 188 188 255 255 255 301 0 0 0 166 166 166 255 255 255 304 77 77 77 40 40
 40 133 133 133 301 210 210 210 255 255 255 301 22 22 22 144 144 144 254 254 254 87 87 87 13 13 13 215 215 215 255 255 255 301 44 44 44 104 104 104 255 255 255 303 238 238 238 18 18 18 59 59 59 145 145 145 9 9 9 109 109 109 255 255 255 301 88 88 88
 66 66 66 255 255 255 156 156 156 0 0 0 156 156 156 255 255 255 301 121 121 121 55 55 55 255 255 255 176 176 176 210 210 210 243 243 243 0 0 0 177 177 177 255 255 255 301 0 0 0 166 166 166 255 255 255 301 11 11 11 144 144 144 255 255 255 301 22 22 22
 162 162 162 255 255 255 164 164 164 0 0 0 110 110 110 255 255 255 232 232 232 13 13 13 73 73 73 165 165 165 72 72 72 33 33 33 251 251 251 221 221 221 0 0 0 98 98 98 133 133 133 301 34 34 34 178 178 178 255 255 255 304 101 101 101 34 34 34 302 174
 174 174 255 255 255 301 53 53 53 159 159 159 255 255 255 243 243 243 59 59 59 83 83 83 253 253 253 255 255 255 73 73 73 124 124 124 255 255 255 304 192 192 192 34 34 34 4 4 4 85 85 85 244 244 244 255 255 255 301 111 111 111 92 92 92 255 255 255 301
 105 105 105 44 44 44 229 229 229 255 255 255 140 140 140 82 82 82 255 255 255 302 245 245 245 34 34 34 187 187 187 255 255 255 301 34 34 34 178 178 178 255 255 255 301 44 44 44 159 159 159 255 255 255 301 53 53 53 174 174 174 255 255 255 301 86 86
 86 130 130 130 255 255 255 301 187 187 187 39 39 39 1 1 1 49 49 49 208 208 208 255 255 255 226 226 226 34 34 34 303] def /NY 100 def DrawCT  black
 gsave  217 229 522 404 C 521.575 358.572 t 0 r /Helvetica findfont 41.2667 sf 0 0 m (21/10/2013) show NC gr 
 gr  gr showpage
end
%%EOF
