%!PS-Adobe-2.0 EPSF-2.0
%%BoundingBox:  0 0 567 366
%%Title: : 
%%Creator: ROOT Version 5.34/09
%%CreationDate: Mon Mar 31 01:01:18 2014
%%EndComments
%%BeginProlog
80 dict begin
/s {stroke} def /l {lineto} def /m {moveto} def /t {translate} def
/r {rotate} def /rl {roll}  def /R {repeat} def
/d {rlineto} def /rm {rmoveto} def /gr {grestore} def /f {eofill} def
/c {setrgbcolor} def /black {0 setgray} def /sd {setdash} def
/cl {closepath} def /sf {scalefont setfont} def /lw {setlinewidth} def
/box {m dup 0 exch d exch 0 d 0 exch neg d cl} def
/NC{systemdict begin initclip end}def/C{NC box clip newpath}def
/bl {box s} def /bf {box f} def /Y { 0 exch d} def /X { 0 d} def 
/K {{pop pop 0 moveto} exch kshow} bind def
/ita {/ang 15 def gsave [1 0 ang dup sin exch cos div 1 0 0] concat} def 
/mp {newpath /y exch def /x exch def} def
/side {[w .77 mul w .23 mul] .385 w mul sd w 0 l currentpoint t -144 r} def
/mr {mp x y w2 0 360 arc} def /m24 {mr s} def /m20 {mr f} def
/mb {mp x y w2 add m w2 neg 0 d 0 w neg d w 0 d 0 w d cl} def
/mt {mp x y w2 add m w2 neg w neg d w 0 d cl} def
/m21 {mb f} def /m25 {mb s} def /m22 {mt f} def /m26{mt s} def
/m23 {mp x y w2 sub m w2 w d w neg 0 d cl f} def
/m27 {mp x y w2 add m w3 neg w2 neg d w3 w2 neg d w3 w2 d cl s} def
/m28 {mp x w2 sub y w2 sub w3 add m w3 0 d  0 w3 neg d w3 0 d 0 w3 d w3 0 d  0 w3 d w3 neg 0 d 0 w3 d w3 neg 0 d 0 w3 neg d w3 neg 0 d cl s } def
/m29 {mp gsave x w2 sub y w2 add w3 sub m currentpoint t 4 {side} repeat cl fill gr} def
/m30 {mp gsave x w2 sub y w2 add w3 sub m currentpoint t 4 {side} repeat cl s gr} def
/m31 {mp x y w2 sub m 0 w d x w2 sub y m w 0 d x w2 sub y w2 add m w w neg d x w2 sub y w2 sub m w w d s} def
/m32 {mp x y w2 sub m w2 w d w neg 0 d cl s} def
/m33 {mp x y w2 add m w3 neg w2 neg d w3 w2 neg d w3 w2 d cl f} def
/m34 {mp x w2 sub y w2 sub w3 add m w3 0 d  0 w3 neg d w3 0 d 0 w3 d w3 0 d  0 w3 d w3 neg 0 d 0 w3 d w3 neg 0 d 0 w3 neg d w3 neg 0 d cl f } def
/m2 {mp x y w2 sub m 0 w d x w2 sub y m w 0 d s} def
/m5 {mp x w2 sub y w2 sub m w w d x w2 sub y w2 add m w w neg d s} def
/reEncode {exch findfont dup length dict begin {1 index /FID eq  {pop pop} {def} ifelse } forall /Encoding exch def currentdict end dup /FontName get exch definefont pop } def [/Times-Bold /Times-Italic /Times-BoldItalic /Helvetica /Helvetica-Oblique
 /Helvetica-Bold /Helvetica-BoldOblique /Courier /Courier-Oblique /Courier-Bold /Courier-BoldOblique /Times-Roman /AvantGarde-Book /AvantGarde-BookOblique /AvantGarde-Demi /AvantGarde-DemiOblique /Bookman-Demi /Bookman-DemiItalic /Bookman-Light
 /Bookman-LightItalic /Helvetica-Narrow /Helvetica-Narrow-Bold /Helvetica-Narrow-BoldOblique /Helvetica-Narrow-Oblique /NewCenturySchlbk-Roman /NewCenturySchlbk-Bold /NewCenturySchlbk-BoldItalic /NewCenturySchlbk-Italic /Palatino-Bold
 /Palatino-BoldItalic /Palatino-Italic /Palatino-Roman ] {ISOLatin1Encoding reEncode } forall
%%EndProlog
%%BeginSetup
%%EndSetup
newpath  gsave  .25 .25 scale  gsave  0 0 t black[  ] 0 sd 3 lw 0.999 0.999 0.999 c 2268 1464 0 0 bf black 0.999 0.999 0.999 c 1814 1171 227 146 bf black 1814 1171 227 146 bl 1 1 1 c 1 0 0 c 82 54 227 146 bf 1 0.653333 0 c 83 54 309 146 bf 0.413333 1
 0 c 82 54 392 146 bf 0 1 0.0533333 c 83 54 474 146 bf 0 1 0.52 c 82 54 557 146 bf 0 1 0.8 c 83 54 639 146 bf 82 54 722 146 bf 0 1 0.986667 c 82 54 804 146 bf 0 0.733333 1 c 83 54 886 146 bf 82 54 969 146 bf 0 0.546666 1 c 83 54 1051 146 bf 82 54
 1134 146 bf 83 54 1216 146 bf 0 0.266667 1 c 82 54 1299 146 bf 83 54 1381 146 bf 82 54 1464 146 bf 0 0.0800001 1 c 83 54 1546 146 bf 82 54 1629 146 bf 83 54 1711 146 bf 82 54 1794 146 bf 0.386667 0 1 c 82 54 1876 146 bf 1 0.186667 0 c 82 53 227 200
 bf 1 0 0 c 83 53 309 200 bf 1 0.653333 0 c 82 53 392 200 bf 0.413333 1 0 c 83 53 474 200 bf 0 1 0.0533333 c 82 53 557 200 bf 0 1 0.52 c 83 53 639 200 bf 0 1 0.8 c 82 53 722 200 bf 82 53 804 200 bf 0 1 0.986667 c 83 53 886 200 bf 0 0.733333 1 c 82 53
 969 200 bf 83 53 1051 200 bf 0 0.546666 1 c 82 53 1134 200 bf 83 53 1216 200 bf 82 53 1299 200 bf 0 0.266667 1 c 83 53 1381 200 bf 82 53 1464 200 bf 83 53 1546 200 bf 0 0.0800001 1 c 82 53 1629 200 bf 83 53 1711 200 bf 82 53 1794 200 bf 82 53 1876
 200 bf 0.386667 0 1 c 83 53 1958 200 bf 1 0.186667 0 c 83 53 309 253 bf 1 0 0 c 82 53 392 253 bf 1 0.653333 0 c 83 53 474 253 bf 0.413333 1 0 c 82 53 557 253 bf 0 1 0.0533333 c 83 53 639 253 bf 0 1 0.52 c 82 53 722 253 bf 0 1 0.8 c 82 53 804 253 bf
 83 53 886 253 bf 0 1 0.986667 c 82 53 969 253 bf 0 0.733333 1 c 83 53 1051 253 bf 82 53 1134 253 bf 0 0.546666 1 c 83 53 1216 253 bf 82 53 1299 253 bf 83 53 1381 253 bf 0 0.266667 1 c 82 53 1464 253 bf 83 53 1546 253 bf 82 53 1629 253 bf 0 0.0800001
 1 c 83 53 1711 253 bf 82 53 1794 253 bf 82 53 1876 253 bf 83 53 1958 253 bf 1 0.186667 0 c 82 53 392 306 bf 1 0 0 c 83 53 474 306 bf 1 0.653333 0 c 82 53 557 306 bf 0.413333 1 0 c 83 53 639 306 bf 0 1 0.0533333 c 82 53 722 306 bf 0 1 0.52 c 82 53
 804 306 bf 0 1 0.8 c 83 53 886 306 bf 82 53 969 306 bf 0 1 0.986667 c 83 53 1051 306 bf 0 0.733333 1 c 82 53 1134 306 bf 83 53 1216 306 bf 0 0.546666 1 c 82 53 1299 306 bf 83 53 1381 306 bf 82 53 1464 306 bf 0 0.266667 1 c 83 53 1546 306 bf 82 53
 1629 306 bf 83 53 1711 306 bf 0 0.0800001 1 c 82 53 1794 306 bf 82 53 1876 306 bf 83 53 1958 306 bf 1 0.186667 0 c 83 54 474 359 bf 1 0 0 c 82 54 557 359 bf 1 0.653333 0 c 83 54 639 359 bf 0.413333 1 0 c 82 54 722 359 bf 0 1 0.0533333 c 82 54 804
 359 bf 0 1 0.52 c 83 54 886 359 bf 0 1 0.8 c 82 54 969 359 bf 83 54 1051 359 bf 0 1 0.986667 c 82 54 1134 359 bf 0 0.733333 1 c 83 54 1216 359 bf 82 54 1299 359 bf 0 0.546666 1 c 83 54 1381 359 bf 82 54 1464 359 bf 83 54 1546 359 bf 0 0.266667 1 c
 82 54 1629 359 bf 83 54 1711 359 bf 82 54 1794 359 bf 0 0.0800001 1 c 82 54 1876 359 bf 83 54 1958 359 bf 1 0.186667 0 c 82 53 557 413 bf 1 0 0 c 83 53 639 413 bf 1 0.653333 0 c 82 53 722 413 bf 0.413333 1 0 c 82 53 804 413 bf 0 1 0.0533333 c 83 53
 886 413 bf 0 1 0.52 c 82 53 969 413 bf 0 1 0.8 c 83 53 1051 413 bf 82 53 1134 413 bf 0 1 0.986667 c 83 53 1216 413 bf 0 0.733333 1 c 82 53 1299 413 bf 83 53 1381 413 bf 0 0.546666 1 c 82 53 1464 413 bf 83 53 1546 413 bf 82 53 1629 413 bf 0 0.266667
 1 c 83 53 1711 413 bf 82 53 1794 413 bf 82 53 1876 413 bf 0 0.0800001 1 c 83 53 1958 413 bf 1 0.186667 0 c 83 53 639 466 bf 1 0 0 c 82 53 722 466 bf 1 0.653333 0 c 82 53 804 466 bf 0.413333 1 0 c 83 53 886 466 bf 0 1 0.0533333 c 82 53 969 466 bf 0 1
 0.52 c 83 53 1051 466 bf 0 1 0.8 c 82 53 1134 466 bf 83 53 1216 466 bf 0 1 0.986667 c 82 53 1299 466 bf 0 0.733333 1 c 83 53 1381 466 bf 82 53 1464 466 bf 0 0.546666 1 c 83 53 1546 466 bf 82 53 1629 466 bf 83 53 1711 466 bf 0 0.266667 1 c 82 53 1794
 466 bf 82 53 1876 466 bf 83 53 1958 466 bf 1 0.186667 0 c 82 53 722 519 bf 1 0 0 c 82 53 804 519 bf 1 0.653333 0 c 83 53 886 519 bf 0.413333 1 0 c 82 53 969 519 bf 0 1 0.0533333 c 83 53 1051 519 bf 0 1 0.52 c 82 53 1134 519 bf 0 1 0.8 c 83 53 1216
 519 bf 82 53 1299 519 bf 0 1 0.986667 c 83 53 1381 519 bf 0 0.733333 1 c 82 53 1464 519 bf 83 53 1546 519 bf 0 0.546666 1 c 82 53 1629 519 bf 83 53 1711 519 bf 82 53 1794 519 bf 0 0.266667 1 c 82 53 1876 519 bf 83 53 1958 519 bf 1 0.186667 0 c 82 53
 804 572 bf 1 0 0 c 83 53 886 572 bf 1 0.653333 0 c 82 53 969 572 bf 0.413333 1 0 c 83 53 1051 572 bf 0 1 0.0533333 c 82 53 1134 572 bf 0 1 0.52 c 83 53 1216 572 bf 0 1 0.8 c 82 53 1299 572 bf 83 53 1381 572 bf 0 1 0.986667 c 82 53 1464 572 bf 0
 0.733333 1 c 83 53 1546 572 bf 82 53 1629 572 bf 0 0.546666 1 c 83 53 1711 572 bf 82 53 1794 572 bf 82 53 1876 572 bf 0 0.266667 1 c 83 53 1958 572 bf 1 0.186667 0 c 83 54 886 625 bf 1 0 0 c 82 54 969 625 bf 1 0.653333 0 c 83 54 1051 625 bf 0.413333
 1 0 c 82 54 1134 625 bf 0 1 0.0533333 c 83 54 1216 625 bf 0 1 0.52 c 82 54 1299 625 bf 0 1 0.8 c 83 54 1381 625 bf 82 54 1464 625 bf 0 1 0.986667 c 83 54 1546 625 bf 0 0.733333 1 c 82 54 1629 625 bf 83 54 1711 625 bf 0 0.546666 1 c 82 54 1794 625 bf
 82 54 1876 625 bf 83 54 1958 625 bf 1 0.186667 0 c 82 53 969 679 bf 1 0 0 c 83 53 1051 679 bf 1 0.653333 0 c 82 53 1134 679 bf 0.413333 1 0 c 83 53 1216 679 bf 0 1 0.0533333 c 82 53 1299 679 bf 0 1 0.52 c 83 53 1381 679 bf 0 1 0.8 c 82 53 1464 679
 bf 83 53 1546 679 bf 0 1 0.986667 c 82 53 1629 679 bf 0 0.733333 1 c 83 53 1711 679 bf 82 53 1794 679 bf 0 0.546666 1 c 82 53 1876 679 bf 83 53 1958 679 bf 1 0.186667 0 c 83 53 1051 732 bf 1 0 0 c 82 53 1134 732 bf 1 0.653333 0 c 83 53 1216 732 bf
 0.413333 1 0 c 82 53 1299 732 bf 0 1 0.0533333 c 83 53 1381 732 bf 0 1 0.52 c 82 53 1464 732 bf 0 1 0.8 c 83 53 1546 732 bf 82 53 1629 732 bf 0 1 0.986667 c 83 53 1711 732 bf 0 0.733333 1 c 82 53 1794 732 bf 82 53 1876 732 bf 0 0.546666 1 c 83 53
 1958 732 bf 1 0.186667 0 c 82 53 1134 785 bf 1 0 0 c 83 53 1216 785 bf 1 0.653333 0 c 82 53 1299 785 bf 0.413333 1 0 c 83 53 1381 785 bf 0 1 0.0533333 c 82 53 1464 785 bf 0 1 0.52 c 83 53 1546 785 bf 0 1 0.8 c 82 53 1629 785 bf 83 53 1711 785 bf 0 1
 0.986667 c 82 53 1794 785 bf 0 0.733333 1 c 82 53 1876 785 bf 83 53 1958 785 bf 1 0.186667 0 c 83 54 1216 838 bf 1 0 0 c 82 54 1299 838 bf 1 0.653333 0 c 83 54 1381 838 bf 0.413333 1 0 c 82 54 1464 838 bf 0 1 0.0533333 c 83 54 1546 838 bf 0 1 0.52 c
 82 54 1629 838 bf 0 1 0.8 c 83 54 1711 838 bf 82 54 1794 838 bf 0 1 0.986667 c 82 54 1876 838 bf 0 0.733333 1 c 83 54 1958 838 bf 1 0.186667 0 c 82 53 1299 892 bf 1 0 0 c 83 53 1381 892 bf 1 0.653333 0 c 82 53 1464 892 bf 0.413333 1 0 c 83 53 1546
 892 bf 0 1 0.0533333 c 82 53 1629 892 bf 0 1 0.52 c 83 53 1711 892 bf 0 1 0.8 c 82 53 1794 892 bf 82 53 1876 892 bf 0 1 0.986667 c 83 53 1958 892 bf 1 0.186667 0 c 83 53 1381 945 bf 1 0 0 c 82 53 1464 945 bf 1 0.653333 0 c 83 53 1546 945 bf 0.413333
 1 0 c 82 53 1629 945 bf 0 1 0.0533333 c 83 53 1711 945 bf 0 1 0.52 c 82 53 1794 945 bf 0 1 0.8 c 82 53 1876 945 bf 83 53 1958 945 bf 1 0.186667 0 c 82 53 1464 998 bf 1 0 0 c 83 53 1546 998 bf 1 0.653333 0 c 82 53 1629 998 bf 0.413333 1 0 c 83 53
 1711 998 bf 0 1 0.0533333 c 82 53 1794 998 bf 0 1 0.52 c 82 53 1876 998 bf 0 1 0.8 c 83 53 1958 998 bf 1 0.186667 0 c 83 53 1546 1051 bf 1 0 0 c 82 53 1629 1051 bf 1 0.653333 0 c 83 53 1711 1051 bf 0.413333 1 0 c 82 53 1794 1051 bf 0 1 0.0533333 c
 82 53 1876 1051 bf 0 1 0.52 c 83 53 1958 1051 bf 1 0.186667 0 c 82 54 1629 1104 bf 1 0 0 c 83 54 1711 1104 bf 1 0.653333 0 c 82 54 1794 1104 bf 0.413333 1 0 c 82 54 1876 1104 bf 0 1 0.0533333 c 83 54 1958 1104 bf 1 0.186667 0 c 83 53 1711 1158 bf 1
 0 0 c 82 53 1794 1158 bf 1 0.653333 0 c 82 53 1876 1158 bf 0.413333 1 0 c 83 53 1958 1158 bf 1 0.186667 0 c 82 53 1794 1211 bf 1 0 0 c 82 53 1876 1211 bf 1 0.653333 0 c 83 53 1958 1211 bf 1 0.186667 0 c 82 53 1876 1264 bf 1 0 0 c 83 53 1958 1264 bf
 1 1 1 c black 227 146 m 1814 X s
 gsave  2268 1464 0 0 C 1903.67 43.6099 t 0 r /Helvetica findfont 47.4021 sf 0 0 m ( \(GeV\)) show NC gr 
 gsave  2268 1464 0 0 C 1882.81 17.0648 t 0 r /Helvetica findfont 32.2334 sf 0 0 m (T) show NC gr 
 gsave  2268 1464 0 0 C 1632.53 43.6099 t 0 r /Helvetica findfont 47.4021 sf 0 0 m (Measured p) show NC gr  392 182 m -36 Y s 474 164 m -18 Y s 557 164 m -18 Y s 639 164 m -18 Y s 722 182 m -36 Y s 804 164 m -18 Y s 886 164 m -18 Y s 969 164 m -18 Y
 s 1051 182 m -36 Y s 1134 164 m -18 Y s 1216 164 m -18 Y s 1299 164 m -18 Y s 1381 182 m -36 Y s 1464 164 m -18 Y s 1546 164 m -18 Y s 1629 164 m -18 Y s 1711 182 m -36 Y s 1794 164 m -18 Y s 1876 164 m -18 Y s 1958 164 m -18 Y s 2041 182 m -36 Y s
 392 182 m -36 Y s 309 164 m -18 Y s 227 164 m -18 Y s
 gsave  2268 1464 0 0 C 364.048 98.5964 t 0 r /Helvetica findfont 47.4021 sf 0 0 m (20) show NC gr 
 gsave  2268 1464 0 0 C 693.967 98.5964 t 0 r /Helvetica findfont 47.4021 sf 0 0 m (40) show NC gr 
 gsave  2268 1464 0 0 C 1023.89 98.5964 t 0 r /Helvetica findfont 47.4021 sf 0 0 m (60) show NC gr 
 gsave  2268 1464 0 0 C 1353.8 98.5964 t 0 r /Helvetica findfont 47.4021 sf 0 0 m (80) show NC gr 
 gsave  2268 1464 0 0 C 1670.45 98.5964 t 0 r /Helvetica findfont 47.4021 sf 0 0 m (100) show NC gr 
 gsave  2268 1464 0 0 C 2000.37 98.5964 t 0 r /Helvetica findfont 47.4021 sf 0 0 m (120) show NC gr  227 146 m 1171 Y s
 gsave  2268 1464 0 0 C 79.6355 1181.26 t 90 r /Helvetica findfont 47.4021 sf 0 0 m ( \(GeV\)) show NC gr 
 gsave  2268 1464 0 0 C 106.181 1160.4 t 90 r /Helvetica findfont 32.2334 sf 0 0 m (T) show NC gr 
 gsave  2268 1464 0 0 C 79.6355 813.42 t 90 r /Helvetica findfont 47.4021 sf 0 0 m (Detector\255Level p) show NC gr  281 253 m -54 X s 254 306 m -27 X s 254 359 m -27 X s 254 413 m -27 X s 281 466 m -54 X s 254 519 m -27 X s 254 572 m -27 X s 254 625
 m -27 X s 281 679 m -54 X s 254 732 m -27 X s 254 785 m -27 X s 254 838 m -27 X s 281 892 m -54 X s 254 945 m -27 X s 254 998 m -27 X s 254 1051 m -27 X s 281 1104 m -54 X s 254 1158 m -27 X s 254 1211 m -27 X s 254 1264 m -27 X s 281 1317 m -54 X s
 281 253 m -54 X s 254 200 m -27 X s 254 146 m -27 X s
 gsave  2268 1464 0 0 C 163.063 237.011 t 0 r /Helvetica findfont 47.4021 sf 0 0 m (20) show NC gr 
 gsave  2268 1464 0 0 C 163.063 449.372 t 0 r /Helvetica findfont 47.4021 sf 0 0 m (40) show NC gr 
 gsave  2268 1464 0 0 C 163.063 661.733 t 0 r /Helvetica findfont 47.4021 sf 0 0 m (60) show NC gr 
 gsave  2268 1464 0 0 C 163.063 875.991 t 0 r /Helvetica findfont 47.4021 sf 0 0 m (80) show NC gr 
 gsave  2268 1464 0 0 C 136.518 1088.35 t 0 r /Helvetica findfont 47.4021 sf 0 0 m (100) show NC gr 
 gsave  2268 1464 0 0 C 136.518 1300.71 t 0 r /Helvetica findfont 47.4021 sf 0 0 m (120) show NC gr  1 1 1 c 1360 73 454 1383 bf black
 gsave  2268 1464 0 0 C 845.654 1412.58 t 0 r /Helvetica-Bold findfont 58.7786 sf 0 0 m ( Response Matrix R=0.4) show NC gr 
 gsave  2268 1464 0 0 C 822.9 1382.25 t 0 r /Helvetica-Bold findfont 37.9217 sf 0 0 m (T) show NC gr 
 gsave  2268 1464 0 0 C 788.771 1412.58 t 0 r /Helvetica-Bold findfont 58.7786 sf 0 0 m (p) show NC gr 
 gsave  2268 1464 0 0 C 760.33 1412.58 t 0 r /Symbol findfont 58.7786 sf 0 0 m (d) show NC gr  0.386667 0 1 c 50 59 2050 146 bf 0.2 0 1 c 50 58 2050 205 bf 0 0.0800001 1 c 50 59 2050 263 bf 0 0.266667 1 c 50 59 2050 322 bf 0 0.546666 1 c 50 58 2050
 381 bf 0 0.733333 1 c 50 59 2050 439 bf 0 1 0.986667 c 50 58 2050 498 bf 0 1 0.8 c 50 59 2050 556 bf 0 1 0.52 c 50 58 2050 615 bf 0 1 0.333333 c 50 59 2050 673 bf 0 1 0.0533333 c 50 58 2050 732 bf 0.133333 1 0 c 50 59 2050 790 bf 0.413333 1 0 c 50
 59 2050 849 bf 0.6 1 0 c 50 58 2050 908 bf 0.88 1 0 c 50 59 2050 966 bf 1 0.933333 0 c 50 58 2050 1025 bf 1 0.653333 0 c 50 59 2050 1083 bf 1 0.466667 0 c 50 58 2050 1142 bf 1 0.186667 0 c 50 59 2050 1200 bf 1 0 0 c 50 58 2050 1259 bf black 2100 146
 m 1171 Y s
 gsave  2268 1464 0 0 C 2237.38 862.718 t 90 r /Helvetica findfont 54.9864 sf 0 0 m (Probability Density) show NC gr  2045 146 m 55 X s
 gsave  2268 1464 0 0 C 2163.43 147.895 t 0 r /Helvetica findfont 32.2334 sf 0 0 m (\25510) show NC gr 
 gsave  2268 1464 0 0 C 2112.24 125.142 t 0 r /Helvetica findfont 47.4021 sf 0 0 m (10) show NC gr  2073 182 m 27 X s 2073 202 m 27 X s 2073 217 m 27 X s 2073 228 m 27 X s 2073 238 m 27 X s 2073 245 m 27 X s 2073 252 m 27 X s 2073 258 m 27 X s 2045
 263 m 55 X s
 gsave  2268 1464 0 0 C 2163.43 263.556 t 0 r /Helvetica findfont 32.2334 sf 0 0 m (\2559) show NC gr 
 gsave  2268 1464 0 0 C 2112.24 240.803 t 0 r /Helvetica findfont 47.4021 sf 0 0 m (10) show NC gr  2073 299 m 27 X s 2073 319 m 27 X s 2073 334 m 27 X s 2073 345 m 27 X s 2073 355 m 27 X s 2073 362 m 27 X s 2073 369 m 27 X s 2073 375 m 27 X s 2045
 381 m 55 X s
 gsave  2268 1464 0 0 C 2163.43 381.113 t 0 r /Helvetica findfont 32.2334 sf 0 0 m (\2558) show NC gr 
 gsave  2268 1464 0 0 C 2112.24 358.36 t 0 r /Helvetica findfont 47.4021 sf 0 0 m (10) show NC gr  2073 416 m 27 X s 2073 436 m 27 X s 2073 451 m 27 X s 2073 462 m 27 X s 2073 472 m 27 X s 2073 480 m 27 X s 2073 486 m 27 X s 2073 492 m 27 X s 2045
 498 m 55 X s
 gsave  2268 1464 0 0 C 2163.43 496.774 t 0 r /Helvetica findfont 32.2334 sf 0 0 m (\2557) show NC gr 
 gsave  2268 1464 0 0 C 2112.24 475.917 t 0 r /Helvetica findfont 47.4021 sf 0 0 m (10) show NC gr  2073 533 m 27 X s 2073 554 m 27 X s 2073 568 m 27 X s 2073 580 m 27 X s 2073 589 m 27 X s 2073 597 m 27 X s 2073 603 m 27 X s 2073 609 m 27 X s 2045
 615 m 55 X s
 gsave  2268 1464 0 0 C 2163.43 616.227 t 0 r /Helvetica findfont 32.2334 sf 0 0 m (\2556) show NC gr 
 gsave  2268 1464 0 0 C 2112.24 593.474 t 0 r /Helvetica findfont 47.4021 sf 0 0 m (10) show NC gr  2073 650 m 27 X s 2073 671 m 27 X s 2073 685 m 27 X s 2073 697 m 27 X s 2073 706 m 27 X s 2073 714 m 27 X s 2073 721 m 27 X s 2073 727 m 27 X s 2045
 732 m 55 X s
 gsave  2268 1464 0 0 C 2163.43 731.888 t 0 r /Helvetica findfont 32.2334 sf 0 0 m (\2555) show NC gr 
 gsave  2268 1464 0 0 C 2112.24 709.135 t 0 r /Helvetica findfont 47.4021 sf 0 0 m (10) show NC gr  2073 767 m 27 X s 2073 788 m 27 X s 2073 802 m 27 X s 2073 814 m 27 X s 2073 823 m 27 X s 2073 831 m 27 X s 2073 838 m 27 X s 2073 844 m 27 X s 2045
 849 m 55 X s
 gsave  2268 1464 0 0 C 2163.43 847.55 t 0 r /Helvetica findfont 32.2334 sf 0 0 m (\2554) show NC gr 
 gsave  2268 1464 0 0 C 2112.24 826.693 t 0 r /Helvetica findfont 47.4021 sf 0 0 m (10) show NC gr  2073 884 m 27 X s 2073 905 m 27 X s 2073 919 m 27 X s 2073 931 m 27 X s 2073 940 m 27 X s 2073 948 m 27 X s 2073 955 m 27 X s 2073 961 m 27 X s 2045
 966 m 55 X s
 gsave  2268 1464 0 0 C 2163.43 967.003 t 0 r /Helvetica findfont 32.2334 sf 0 0 m (\2553) show NC gr 
 gsave  2268 1464 0 0 C 2112.24 944.25 t 0 r /Helvetica findfont 47.4021 sf 0 0 m (10) show NC gr  2073 1001 m 27 X s 2073 1022 m 27 X s 2073 1037 m 27 X s 2073 1048 m 27 X s 2073 1057 m 27 X s 2073 1065 m 27 X s 2073 1072 m 27 X s 2073 1078 m 27 X s
 2045 1083 m 55 X s
 gsave  2268 1464 0 0 C 2163.43 1082.66 t 0 r /Helvetica findfont 32.2334 sf 0 0 m (\2552) show NC gr 
 gsave  2268 1464 0 0 C 2112.24 1061.81 t 0 r /Helvetica findfont 47.4021 sf 0 0 m (10) show NC gr  2073 1118 m 27 X s 2073 1139 m 27 X s 2073 1154 m 27 X s 2073 1165 m 27 X s 2073 1174 m 27 X s 2073 1182 m 27 X s 2073 1189 m 27 X s 2073 1195 m 27 X
 s 2045 1200 m 55 X s
 gsave  2268 1464 0 0 C 2163.43 1200.22 t 0 r /Helvetica findfont 32.2334 sf 0 0 m (\2551) show NC gr 
 gsave  2268 1464 0 0 C 2112.24 1179.36 t 0 r /Helvetica findfont 47.4021 sf 0 0 m (10) show NC gr  2073 1236 m 27 X s 2073 1256 m 27 X s 2073 1271 m 27 X s 2073 1282 m 27 X s 2073 1291 m 27 X s 2073 1299 m 27 X s 2073 1306 m 27 X s 2073 1312 m 27 X
 s 2045 1317 m 55 X s
 gsave  2268 1464 0 0 C 2113.4 1296.92 t 0 r /Helvetica findfont 47.4021 sf 0 0 m (1) show NC gr  1 1 1 c 1360 73 454 1383 bf black
 gsave  2268 1464 0 0 C 845.654 1412.58 t 0 r /Helvetica-Bold findfont 58.7786 sf 0 0 m ( Response Matrix R=0.4) show NC gr 
 gsave  2268 1464 0 0 C 822.9 1382.25 t 0 r /Helvetica-Bold findfont 37.9217 sf 0 0 m (T) show NC gr 
 gsave  2268 1464 0 0 C 788.771 1412.58 t 0 r /Helvetica-Bold findfont 58.7786 sf 0 0 m (p) show NC gr 
 gsave  2268 1464 0 0 C 760.33 1412.58 t 0 r /Symbol findfont 58.7786 sf 0 0 m (d) show NC gr 
 gr  gr showpage
end
%%EOF
