%!PS-Adobe-2.0 EPSF-2.0
%%BoundingBox:  0 0 567 398
%%Title: /Users/cgy606/Documents/Train/LEGOTrain/020814/lhc13c/lhc13c_TrackEta.eps: 
%%Creator: ROOT Version 5.34/09
%%CreationDate: Fri Mar 28 14:55:19 2014
%%EndComments
%%BeginProlog
80 dict begin
/s {stroke} def /l {lineto} def /m {moveto} def /t {translate} def
/r {rotate} def /rl {roll}  def /R {repeat} def
/d {rlineto} def /rm {rmoveto} def /gr {grestore} def /f {eofill} def
/c {setrgbcolor} def /black {0 setgray} def /sd {setdash} def
/cl {closepath} def /sf {scalefont setfont} def /lw {setlinewidth} def
/box {m dup 0 exch d exch 0 d 0 exch neg d cl} def
/NC{systemdict begin initclip end}def/C{NC box clip newpath}def
/bl {box s} def /bf {box f} def /Y { 0 exch d} def /X { 0 d} def 
/K {{pop pop 0 moveto} exch kshow} bind def
/ita {/ang 15 def gsave [1 0 ang dup sin exch cos div 1 0 0] concat} def 
/mp {newpath /y exch def /x exch def} def
/side {[w .77 mul w .23 mul] .385 w mul sd w 0 l currentpoint t -144 r} def
/mr {mp x y w2 0 360 arc} def /m24 {mr s} def /m20 {mr f} def
/mb {mp x y w2 add m w2 neg 0 d 0 w neg d w 0 d 0 w d cl} def
/mt {mp x y w2 add m w2 neg w neg d w 0 d cl} def
/m21 {mb f} def /m25 {mb s} def /m22 {mt f} def /m26{mt s} def
/m23 {mp x y w2 sub m w2 w d w neg 0 d cl f} def
/m27 {mp x y w2 add m w3 neg w2 neg d w3 w2 neg d w3 w2 d cl s} def
/m28 {mp x w2 sub y w2 sub w3 add m w3 0 d  0 w3 neg d w3 0 d 0 w3 d w3 0 d  0 w3 d w3 neg 0 d 0 w3 d w3 neg 0 d 0 w3 neg d w3 neg 0 d cl s } def
/m29 {mp gsave x w2 sub y w2 add w3 sub m currentpoint t 4 {side} repeat cl fill gr} def
/m30 {mp gsave x w2 sub y w2 add w3 sub m currentpoint t 4 {side} repeat cl s gr} def
/m31 {mp x y w2 sub m 0 w d x w2 sub y m w 0 d x w2 sub y w2 add m w w neg d x w2 sub y w2 sub m w w d s} def
/m32 {mp x y w2 sub m w2 w d w neg 0 d cl s} def
/m33 {mp x y w2 add m w3 neg w2 neg d w3 w2 neg d w3 w2 d cl f} def
/m34 {mp x w2 sub y w2 sub w3 add m w3 0 d  0 w3 neg d w3 0 d 0 w3 d w3 0 d  0 w3 d w3 neg 0 d 0 w3 d w3 neg 0 d 0 w3 neg d w3 neg 0 d cl f } def
/m2 {mp x y w2 sub m 0 w d x w2 sub y m w 0 d s} def
/m5 {mp x w2 sub y w2 sub m w w d x w2 sub y w2 add m w w neg d s} def
/reEncode {exch findfont dup length dict begin {1 index /FID eq  {pop pop} {def} ifelse } forall /Encoding exch def currentdict end dup /FontName get exch definefont pop } def [/Times-Bold /Times-Italic /Times-BoldItalic /Helvetica /Helvetica-Oblique
 /Helvetica-Bold /Helvetica-BoldOblique /Courier /Courier-Oblique /Courier-Bold /Courier-BoldOblique /Times-Roman /AvantGarde-Book /AvantGarde-BookOblique /AvantGarde-Demi /AvantGarde-DemiOblique /Bookman-Demi /Bookman-DemiItalic /Bookman-Light
 /Bookman-LightItalic /Helvetica-Narrow /Helvetica-Narrow-Bold /Helvetica-Narrow-BoldOblique /Helvetica-Narrow-Oblique /NewCenturySchlbk-Roman /NewCenturySchlbk-Bold /NewCenturySchlbk-BoldItalic /NewCenturySchlbk-Italic /Palatino-Bold
 /Palatino-BoldItalic /Palatino-Italic /Palatino-Roman ] {ISOLatin1Encoding reEncode } forall
%%EndProlog
%%BeginSetup
%%EndSetup
newpath  gsave  .25 .25 scale  gsave  0 0 t black[  ] 0 sd 3 lw 0.999 0.999 0.999 c 2268 1594 0 0 bf black 0.999 0.999 0.999 c 1814 1276 227 159 bf black 1814 1276 227 159 bl 0 0 1 c 1 1 1 c 0 0 1 c 245 812 m s 262 812 m s /w 16 def /w2 {w 2 div} def
 /w3 {w 3 div} def 253 812 m20 262 833 m 1 X s 279 833 m 1 X s 271 833 m20 280 853 m 1 X s 297 853 m 1 X s 289 853 m20 298 874 m 1 X s 315 874 m 1 X s 307 874 m20 316 894 m s 333 894 m s 325 894 m20 333 911 m 1 X s 351 911 m s 342 911 m20 351 922 m 1
 X s 368 922 m 1 X s 360 922 m20 369 930 m 1 X s 386 930 m 1 X s 378 930 m20 387 938 m 1 X s 404 938 m 1 X s 396 938 m20 405 942 m s 422 942 m s 414 942 m20 422 946 m 1 X s 440 946 m s 431 946 m20 440 950 m 1 X s 457 950 m 1 X s 449 950 m20 458 953 m
 1 X s 475 953 m 1 X s 467 953 m20 476 955 m s 493 955 m 1 X s 485 955 m20 494 957 m s 511 957 m s 502 957 m20 511 959 m 1 X s 528 959 m 1 X s 520 959 m20 529 961 m 1 X s 546 961 m 1 X s 538 961 m20 547 962 m 1 X s 564 962 m 1 X s 556 962 m20 565 963
 m s 582 963 m s 574 963 m20 582 964 m 1 X s 600 964 m s 591 964 m20 600 965 m 1 X s 617 965 m 1 X s 609 965 m20 618 966 m 1 X s 635 966 m 1 X s 627 966 m20 636 967 m 1 X s 653 967 m 1 X s 645 967 m20 654 968 m s 671 968 m s 663 968 m20 671 970 m 1 X
 s 689 970 m s 680 970 m20 689 970 m 1 X s 706 970 m 1 X s 698 970 m20 707 971 m 1 X s 724 971 m 1 X s 716 971 m20 725 973 m s 742 973 m 1 X s 734 973 m20 743 975 m s 760 975 m s 751 975 m20 760 975 m 1 X s 777 975 m 1 X s 769 975 m20 778 976 m 1 X s
 795 976 m 1 X s 787 976 m20 796 977 m 1 X s 813 977 m 1 X s 805 977 m20 814 978 m s 831 978 m s 823 978 m20 831 979 m 1 X s 849 979 m s 840 979 m20 849 980 m 1 X s 866 980 m 1 X s 858 980 m20 867 980 m 1 X s 884 980 m 1 X s 876 980 m20 885 981 m 1 X
 s 902 981 m 1 X s 894 981 m20 903 981 m s 920 981 m s 912 981 m20 920 982 m 1 X s 938 982 m s 929 982 m20 938 982 m 1 X s 955 982 m 1 X s 947 982 m20 956 982 m 1 X s 973 982 m 1 X s 965 982 m20 974 983 m s 991 983 m 1 X s 983 983 m20 992 980 m s
 1009 980 m s 1000 980 m20 1009 981 m 1 X s 1026 981 m 1 X s 1018 981 m20 1027 978 m 1 X s 1044 978 m 1 X s 1036 978 m20 1045 971 m 1 X s 1062 971 m 1 X s 1054 971 m20 1063 968 m s 1080 968 m 1 X s 1072 968 m20 1081 962 m s 1098 962 m s 1089 962 m20
 1098 960 m 1 X s 1115 960 m 1 X s 1107 960 m20 1116 965 m 1 X s 1133 965 m 1 X s 1125 965 m20 1134 975 m 1 X s 1151 975 m 1 X s 1143 975 m20 1152 955 m s 1169 955 m s 1161 955 m20 1169 961 m 1 X s 1187 961 m s 1178 961 m20 1187 969 m 1 X s 1204 969
 m 1 X s 1196 969 m20 1205 973 m 1 X s 1222 973 m 1 X s 1214 973 m20 1223 981 m s 1240 981 m 1 X s 1232 981 m20 1241 988 m s 1258 988 m s 1249 988 m20 1258 989 m 1 X s 1275 989 m 1 X s 1267 989 m20 1276 993 m 1 X s 1293 993 m 1 X s 1285 993 m20 1294
 994 m 1 X s 1311 994 m 1 X s 1303 994 m20 1312 995 m s 1329 995 m 1 X s 1321 995 m20 1330 997 m s 1347 997 m s 1338 997 m20 1347 998 m 1 X s 1364 998 m 1 X s 1356 998 m20 1365 998 m 1 X s 1382 998 m 1 X s 1374 998 m20 1383 999 m 1 X s 1400 999 m 1 X
 s 1392 999 m20 1401 999 m s 1418 999 m s 1410 999 m20 1418 999 m 1 X s 1436 999 m s 1427 999 m20 1436 1000 m 1 X s 1453 1000 m 1 X s 1445 1000 m20 1454 1001 m 1 X s 1471 1001 m 1 X s 1463 1001 m20 1472 1001 m s 1489 1001 m 1 X s 1481 1001 m20 1490
 1001 m s 1507 1001 m s 1498 1001 m20 1507 1002 m 1 X s 1524 1002 m 1 X s 1516 1002 m20 1525 1002 m 1 X s 1542 1002 m 1 X s 1534 1002 m20 1543 1002 m 1 X s 1560 1002 m 1 X s 1552 1002 m20 1561 1002 m s 1578 1002 m 1 X s 1570 1002 m20 1579 1002 m s
 1596 1002 m s 1587 1002 m20 1596 1002 m 1 X s 1613 1002 m 1 X s 1605 1002 m20 1614 1003 m 1 X s 1631 1003 m 1 X s 1623 1003 m20 1632 1003 m 1 X s 1649 1003 m 1 X s 1641 1003 m20 1650 1003 m s 1667 1003 m s 1659 1003 m20 1667 1003 m 1 X s 1685 1003 m
 s 1676 1003 m20 1685 1003 m 1 X s 1702 1003 m 1 X s 1694 1003 m20 1703 1004 m 1 X s 1720 1004 m 1 X s 1712 1004 m20 1721 1004 m s 1738 1004 m 1 X s 1730 1004 m20 1739 1004 m s 1756 1004 m s 1747 1004 m20 1756 1004 m 1 X s 1773 1004 m 1 X s 1765 1004
 m20 1774 1004 m 1 X s 1791 1004 m 1 X s 1783 1004 m20 1792 1003 m 1 X s 1809 1003 m 1 X s 1801 1003 m20 1810 1003 m s 1827 1003 m 1 X s 1819 1003 m20 1828 1002 m s 1845 1002 m s 1836 1002 m20 1845 1000 m 1 X s 1862 1000 m 1 X s 1854 1000 m20 1863
 998 m 1 X s 1880 998 m 1 X s 1872 998 m20 1881 993 m 1 X s 1898 993 m 1 X s 1890 993 m20 1899 987 m s 1916 987 m s 1908 987 m20 1916 977 m 1 X s 1934 977 m s 1925 977 m20 1934 961 m 1 X s 1951 961 m 1 X s 1943 961 m20 1952 944 m 1 X s 1969 944 m 1 X
 s 1961 944 m20 1970 928 m s 1987 928 m 1 X s 1979 928 m20 1988 913 m s 2005 913 m s 1996 913 m20 2005 896 m 1 X s 2022 896 m 1 X s 2014 896 m20 black 227 159 m 1814 X s
 gsave  2268 1594 0 0 C 2010.96 63.6768 t 0 r /Symbol findfont 51.3523 sf 0 0 m (h) show NC gr  343 198 m -39 Y s 393 179 m -20 Y s 442 179 m -20 Y s 492 179 m -20 Y s 541 198 m -39 Y s 590 179 m -20 Y s 640 179 m -20 Y s 689 179 m -20 Y s 739 198 m
 -39 Y s 788 179 m -20 Y s 837 179 m -20 Y s 887 179 m -20 Y s 936 198 m -39 Y s 986 179 m -20 Y s 1035 179 m -20 Y s 1084 179 m -20 Y s 1134 198 m -39 Y s 1183 179 m -20 Y s 1233 179 m -20 Y s 1282 179 m -20 Y s 1331 198 m -39 Y s 1381 179 m -20 Y s
 1430 179 m -20 Y s 1480 179 m -20 Y s 1529 198 m -39 Y s 1579 179 m -20 Y s 1628 179 m -20 Y s 1677 179 m -20 Y s 1727 198 m -39 Y s 1776 179 m -20 Y s 1826 179 m -20 Y s 1875 179 m -20 Y s 1924 198 m -39 Y s 343 198 m -39 Y s 294 179 m -20 Y s 245
 179 m -20 Y s 1924 198 m -39 Y s 1974 179 m -20 Y s 2023 179 m -20 Y s
 gsave  2268 1594 0 0 C 297.843 106.813 t 0 r /Helvetica findfont 51.3523 sf 0 0 m (\2550.8) show NC gr 
 gsave  2268 1594 0 0 C 495.036 106.813 t 0 r /Helvetica findfont 51.3523 sf 0 0 m (\2550.6) show NC gr 
 gsave  2268 1594 0 0 C 692.229 106.813 t 0 r /Helvetica findfont 51.3523 sf 0 0 m (\2550.4) show NC gr 
 gsave  2268 1594 0 0 C 891.476 106.813 t 0 r /Helvetica findfont 51.3523 sf 0 0 m (\2550.2) show NC gr 
 gsave  2268 1594 0 0 C 1119.48 106.813 t 0 r /Helvetica findfont 51.3523 sf 0 0 m (0) show NC gr 
 gsave  2268 1594 0 0 C 1296.13 106.813 t 0 r /Helvetica findfont 51.3523 sf 0 0 m (0.2) show NC gr 
 gsave  2268 1594 0 0 C 1493.32 106.813 t 0 r /Helvetica findfont 51.3523 sf 0 0 m (0.4) show NC gr 
 gsave  2268 1594 0 0 C 1690.52 106.813 t 0 r /Helvetica findfont 51.3523 sf 0 0 m (0.6) show NC gr 
 gsave  2268 1594 0 0 C 1887.71 106.813 t 0 r /Helvetica findfont 51.3523 sf 0 0 m (0.8) show NC gr  227 159 m 1276 Y s
 gsave  2268 1594 0 0 C 108.867 1407.05 t 90 r /Symbol findfont 51.3523 sf 0 0 m (h) show NC gr 
 gsave  2268 1594 0 0 C 108.867 1285.86 t 90 r /Helvetica findfont 51.3523 sf 0 0 m ( dN/d) show NC gr 
 gsave  2268 1594 0 0 C 127.354 1179.05 t 90 r /Helvetica findfont 34.9195 sf 0 0 m (Events) show NC gr 
 gsave  2268 1594 0 0 C 108.867 1100.99 t 90 r /Helvetica findfont 51.3523 sf 0 0 m (1/N) show NC gr  281 159 m -54 X s 254 191 m -27 X s 254 223 m -27 X s 254 255 m -27 X s 281 287 m -54 X s 254 319 m -27 X s 254 351 m -27 X s 254 383 m -27 X s 281
 414 m -54 X s 254 446 m -27 X s 254 478 m -27 X s 254 510 m -27 X s 281 542 m -54 X s 254 574 m -27 X s 254 606 m -27 X s 254 638 m -27 X s 281 669 m -54 X s 254 701 m -27 X s 254 733 m -27 X s 254 765 m -27 X s 281 797 m -54 X s 254 829 m -27 X s
 254 861 m -27 X s 254 893 m -27 X s 281 925 m -54 X s 254 956 m -27 X s 254 988 m -27 X s 254 1020 m -27 X s 281 1052 m -54 X s 254 1084 m -27 X s 254 1116 m -27 X s 254 1148 m -27 X s 281 1180 m -54 X s 254 1211 m -27 X s 254 1243 m -27 X s 254
 1275 m -27 X s 281 1307 m -54 X s 254 1339 m -27 X s 254 1371 m -27 X s 254 1403 m -27 X s 281 1435 m -54 X s
 gsave  2268 1594 0 0 C 186.922 141.732 t 0 r /Helvetica findfont 51.3523 sf 0 0 m (0) show NC gr 
 gsave  2268 1594 0 0 C 186.922 267.032 t 0 r /Helvetica findfont 51.3523 sf 0 0 m (2) show NC gr 
 gsave  2268 1594 0 0 C 186.922 394.385 t 0 r /Helvetica findfont 51.3523 sf 0 0 m (4) show NC gr 
 gsave  2268 1594 0 0 C 186.922 523.793 t 0 r /Helvetica findfont 51.3523 sf 0 0 m (6) show NC gr 
 gsave  2268 1594 0 0 C 186.922 651.147 t 0 r /Helvetica findfont 51.3523 sf 0 0 m (8) show NC gr 
 gsave  2268 1594 0 0 C 158.165 778.5 t 0 r /Helvetica findfont 51.3523 sf 0 0 m (10) show NC gr 
 gsave  2268 1594 0 0 C 158.165 905.854 t 0 r /Helvetica findfont 51.3523 sf 0 0 m (12) show NC gr 
 gsave  2268 1594 0 0 C 158.165 1033.21 t 0 r /Helvetica findfont 51.3523 sf 0 0 m (14) show NC gr 
 gsave  2268 1594 0 0 C 158.165 1162.62 t 0 r /Helvetica findfont 51.3523 sf 0 0 m (16) show NC gr 
 gsave  2268 1594 0 0 C 158.165 1289.97 t 0 r /Helvetica findfont 51.3523 sf 0 0 m (18) show NC gr 
 gsave  2268 1594 0 0 C 158.165 1417.32 t 0 r /Helvetica findfont 51.3523 sf 0 0 m (20) show NC gr  1 1 1 c black 245 775 m s 262 775 m s 253 775 m21 262 794 m 1 X s 279 794 m 1 X s 271 794 m21 280 812 m 1 X s 297 812 m 1 X s 289 812 m21 298 830 m 1
 X s 315 830 m 1 X s 307 830 m21 316 848 m s 333 848 m s 325 848 m21 333 863 m 1 X s 351 863 m s 342 863 m21 351 872 m 1 X s 368 872 m 1 X s 360 872 m21 369 878 m 1 X s 386 878 m 1 X s 378 878 m21 387 883 m 1 X s 404 883 m 1 X s 396 883 m21 405 887 m
 s 422 887 m s 414 887 m21 422 891 m 1 X s 440 891 m s 431 891 m21 440 894 m 1 X s 457 894 m 1 X s 449 894 m21 458 896 m 1 X s 475 896 m 1 X s 467 896 m21 476 899 m s 493 899 m 1 X s 485 899 m21 494 901 m s 511 901 m s 502 901 m21 511 903 m 1 X s 528
 903 m 1 X s 520 903 m21 529 905 m 1 X s 546 905 m 1 X s 538 905 m21 547 908 m 1 X s 564 908 m 1 X s 556 908 m21 565 909 m s 582 909 m s 574 909 m21 582 911 m 1 X s 600 911 m s 591 911 m21 600 912 m 1 X s 617 912 m 1 X s 609 912 m21 618 914 m 1 X s
 635 914 m 1 X s 627 914 m21 636 915 m 1 X s 653 915 m 1 X s 645 915 m21 654 917 m s 671 917 m s 663 917 m21 671 919 m 1 X s 689 919 m s 680 919 m21 689 920 m 1 X s 706 920 m 1 X s 698 920 m21 707 922 m 1 X s 724 922 m 1 X s 716 922 m21 725 924 m s
 742 924 m 1 X s 734 924 m21 743 926 m s 760 926 m s 751 926 m21 760 927 m 1 X s 777 927 m 1 X s 769 927 m21 778 929 m 1 X s 795 929 m 1 X s 787 929 m21 796 930 m 1 X s 813 930 m 1 X s 805 930 m21 814 932 m s 831 932 m s 823 932 m21 831 933 m 1 X s
 849 933 m s 840 933 m21 849 934 m 1 X s 866 934 m 1 X s 858 934 m21 867 936 m 1 X s 884 936 m 1 X s 876 936 m21 885 937 m 1 X s 902 937 m 1 X s 894 937 m21 903 938 m s 920 938 m s 912 938 m21 920 939 m 1 X s 938 939 m s 929 939 m21 938 939 m 1 X s
 955 939 m 1 X s 947 939 m21 956 939 m 1 X s 973 939 m 1 X s 965 939 m21 974 941 m s 991 941 m 1 X s 983 941 m21 992 937 m s 1009 937 m s 1000 937 m21 1009 939 m 1 X s 1026 939 m 1 X s 1018 939 m21 1027 935 m 1 X s 1044 935 m 1 X s 1036 935 m21 1045
 928 m 1 X s 1062 928 m 1 X s 1054 928 m21 1063 923 m s 1080 923 m 1 X s 1072 923 m21 1081 915 m s 1098 915 m s 1089 915 m21 1098 909 m 1 X s 1115 909 m 1 X s 1107 909 m21 1116 911 m 1 X s 1133 911 m 1 X s 1125 911 m21 1134 920 m 1 X s 1151 920 m 1 X
 s 1143 920 m21 1152 906 m s 1169 906 m s 1161 906 m21 1169 917 m 1 X s 1187 917 m s 1178 917 m21 1187 928 m 1 X s 1204 928 m 1 X s 1196 928 m21 1205 933 m 1 X s 1222 933 m 1 X s 1214 933 m21 1223 943 m s 1240 943 m 1 X s 1232 943 m21 1241 951 m s
 1258 951 m s 1249 951 m21 1258 953 m 1 X s 1275 953 m 1 X s 1267 953 m21 1276 957 m 1 X s 1293 957 m 1 X s 1285 957 m21 1294 959 m 1 X s 1311 959 m 1 X s 1303 959 m21 1312 960 m s 1329 960 m 1 X s 1321 960 m21 1330 963 m s 1347 963 m s 1338 963 m21
 1347 963 m 1 X s 1364 963 m 1 X s 1356 963 m21 1365 964 m 1 X s 1382 964 m 1 X s 1374 964 m21 1383 965 m 1 X s 1400 965 m 1 X s 1392 965 m21 1401 966 m s 1418 966 m s 1410 966 m21 1418 966 m 1 X s 1436 966 m s 1427 966 m21 1436 967 m 1 X s 1453 967
 m 1 X s 1445 967 m21 1454 968 m 1 X s 1471 968 m 1 X s 1463 968 m21 1472 968 m s 1489 968 m 1 X s 1481 968 m21 1490 968 m s 1507 968 m s 1498 968 m21 1507 969 m 1 X s 1524 969 m 1 X s 1516 969 m21 1525 968 m 1 X s 1542 968 m 1 X s 1534 968 m21 1543
 968 m 1 X s 1560 968 m 1 X s 1552 968 m21 1561 969 m s 1578 969 m 1 X s 1570 969 m21 1579 969 m s 1596 969 m s 1587 969 m21 1596 970 m 1 X s 1613 970 m 1 X s 1605 970 m21 1614 970 m 1 X s 1631 970 m 1 X s 1623 970 m21 1632 970 m 1 X s 1649 970 m 1 X
 s 1641 970 m21 1650 971 m s 1667 971 m s 1659 971 m21 1667 971 m 1 X s 1685 971 m s 1676 971 m21 1685 972 m 1 X s 1702 972 m 1 X s 1694 972 m21 1703 972 m 1 X s 1720 972 m 1 X s 1712 972 m21 1721 972 m s 1738 972 m 1 X s 1730 972 m21 1739 973 m s
 1756 973 m s 1747 973 m21 1756 972 m 1 X s 1773 972 m 1 X s 1765 972 m21 1774 972 m 1 X s 1791 972 m 1 X s 1783 972 m21 1792 971 m 1 X s 1809 971 m 1 X s 1801 971 m21 1810 970 m s 1827 970 m 1 X s 1819 970 m21 1828 970 m s 1845 970 m s 1836 970 m21
 1845 968 m 1 X s 1862 968 m 1 X s 1854 968 m21 1863 966 m 1 X s 1880 966 m 1 X s 1872 966 m21 1881 962 m 1 X s 1898 962 m 1 X s 1890 962 m21 1899 957 m s 1916 957 m s 1908 957 m21 1916 948 m 1 X s 1934 948 m s 1925 948 m21 1934 934 m 1 X s 1951 934
 m 1 X s 1943 934 m21 1952 918 m 1 X s 1969 918 m 1 X s 1961 918 m21 1970 903 m s 1987 903 m 1 X s 1979 903 m21 1988 889 m s 2005 889 m s 1996 889 m21 2005 873 m 1 X s 2022 873 m 1 X s 2014 873 m21 1 0 0 c 1 1 1 c 1 0 0 c 227 363 m s 244 363 m 1 X s
 236 363 m24 245 196 m s 262 196 m s 253 196 m24 262 198 m 1 X s 279 198 m 1 X s 271 198 m24 280 201 m 1 X s 297 201 m 1 X s 289 201 m24 298 203 m 1 X s 315 203 m 1 X s 307 203 m24 316 205 m s 333 205 m s 325 205 m24 333 207 m 1 X s 351 207 m s 342
 207 m24 351 209 m 1 X s 368 209 m 1 X s 360 209 m24 369 211 m 1 X s 386 211 m 1 X s 378 211 m24 387 214 m 1 X s 404 214 m 1 X s 396 214 m24 405 214 m s 422 214 m s 414 214 m24 422 214 m 1 X s 440 214 m s 431 214 m24 440 215 m 1 X s 457 215 m 1 X s
 449 215 m24 458 216 m 1 X s 475 216 m 1 X s 467 216 m24 476 216 m s 493 216 m 1 X s 485 216 m24 494 215 m s 511 215 m s 502 215 m24 511 215 m 1 X s 528 215 m 1 X s 520 215 m24 529 215 m 1 X s 546 215 m 1 X s 538 215 m24 547 214 m 1 X s 564 214 m 1 X
 s 556 214 m24 565 213 m s 582 213 m s 574 213 m24 582 213 m 1 X s 600 213 m s 591 213 m24 600 212 m 1 X s 617 212 m 1 X s 609 212 m24 618 212 m 1 X s 635 212 m 1 X s 627 212 m24 636 211 m 1 X s 653 211 m 1 X s 645 211 m24 654 211 m s 671 211 m s 663
 211 m24 671 210 m 1 X s 689 210 m s 680 210 m24 689 209 m 1 X s 706 209 m 1 X s 698 209 m24 707 209 m 1 X s 724 209 m 1 X s 716 209 m24 725 208 m s 742 208 m 1 X s 734 208 m24 743 208 m s 760 208 m s 751 208 m24 760 207 m 1 X s 777 207 m 1 X s 769
 207 m24 778 207 m 1 X s 795 207 m 1 X s 787 207 m24 796 206 m 1 X s 813 206 m 1 X s 805 206 m24 814 206 m s 831 206 m s 823 206 m24 831 205 m 1 X s 849 205 m s 840 205 m24 849 205 m 1 X s 866 205 m 1 X s 858 205 m24 867 204 m 1 X s 884 204 m 1 X s
 876 204 m24 885 203 m 1 X s 902 203 m 1 X s 894 203 m24 903 203 m s 920 203 m s 912 203 m24 920 203 m 1 X s 938 203 m s 929 203 m24 938 202 m 1 X s 955 202 m 1 X s 947 202 m24 956 202 m 1 X s 973 202 m 1 X s 965 202 m24 974 202 m s 991 202 m 1 X s
 983 202 m24 992 202 m s 1009 202 m s 1000 202 m24 1009 202 m 1 X s 1026 202 m 1 X s 1018 202 m24 1027 202 m 1 X s 1044 202 m 1 X s 1036 202 m24 1045 203 m 1 X s 1062 203 m 1 X s 1054 203 m24 1063 204 m s 1080 204 m 1 X s 1072 204 m24 1081 207 m s
 1098 207 m s 1089 207 m24 1098 211 m 1 X s 1115 211 m 1 X s 1107 211 m24 1116 213 m 1 X s 1133 213 m 1 X s 1125 213 m24 1134 214 m 1 X s 1151 214 m 1 X s 1143 214 m24 1152 209 m s 1169 209 m s 1161 209 m24 1169 204 m 1 X s 1187 204 m s 1178 204 m24
 1187 200 m 1 X s 1204 200 m 1 X s 1196 200 m24 1205 199 m 1 X s 1222 199 m 1 X s 1214 199 m24 1223 197 m s 1240 197 m 1 X s 1232 197 m24 1241 196 m s 1258 196 m s 1249 196 m24 1258 196 m 1 X s 1275 196 m 1 X s 1267 196 m24 1276 195 m 1 X s 1293 195
 m 1 X s 1285 195 m24 1294 195 m 1 X s 1311 195 m 1 X s 1303 195 m24 1312 194 m s 1329 194 m 1 X s 1321 194 m24 1330 194 m s 1347 194 m s 1338 194 m24 1347 194 m 1 X s 1364 194 m 1 X s 1356 194 m24 1365 193 m 1 X s 1382 193 m 1 X s 1374 193 m24 1383
 193 m 1 X s 1400 193 m 1 X s 1392 193 m24 1401 193 m s 1418 193 m s 1410 193 m24 1418 193 m 1 X s 1436 193 m s 1427 193 m24 1436 193 m 1 X s 1453 193 m 1 X s 1445 193 m24 1454 193 m 1 X s 1471 193 m 1 X s 1463 193 m24 1472 193 m s 1489 193 m 1 X s
 1481 193 m24 1490 193 m s 1507 193 m s 1498 193 m24 1507 193 m 1 X s 1524 193 m 1 X s 1516 193 m24 1525 193 m 1 X s 1542 193 m 1 X s 1534 193 m24 1543 193 m 1 X s 1560 193 m 1 X s 1552 193 m24 1561 193 m s 1578 193 m 1 X s 1570 193 m24 1579 192 m s
 1596 192 m s 1587 192 m24 1596 192 m 1 X s 1613 192 m 1 X s 1605 192 m24 1614 192 m 1 X s 1631 192 m 1 X s 1623 192 m24 1632 192 m 1 X s 1649 192 m 1 X s 1641 192 m24 1650 191 m s 1667 191 m s 1659 191 m24 1667 191 m 1 X s 1685 191 m s 1676 191 m24
 1685 191 m 1 X s 1702 191 m 1 X s 1694 191 m24 1703 191 m 1 X s 1720 191 m 1 X s 1712 191 m24 1721 191 m s 1738 191 m 1 X s 1730 191 m24 1739 191 m s 1756 191 m s 1747 191 m24 1756 192 m 1 X s 1773 192 m 1 X s 1765 192 m24 1774 192 m 1 X s 1791 192
 m 1 X s 1783 192 m24 1792 192 m 1 X s 1809 192 m 1 X s 1801 192 m24 1810 192 m s 1827 192 m 1 X s 1819 192 m24 1828 192 m s 1845 192 m s 1836 192 m24 1845 191 m 1 X s 1862 191 m 1 X s 1854 191 m24 1863 191 m 1 X s 1880 191 m 1 X s 1872 191 m24 1881
 190 m 1 X s 1898 190 m 1 X s 1890 190 m24 1899 189 m s 1916 189 m s 1908 189 m24 1916 188 m 1 X s 1934 188 m s 1925 188 m24 1934 187 m 1 X s 1951 187 m 1 X s 1943 187 m24 1952 185 m 1 X s 1969 185 m 1 X s 1961 185 m24 1970 184 m s 1987 184 m 1 X s
 1979 184 m24 1988 183 m s 2005 183 m s 1996 183 m24 2005 182 m 1 X s 2022 182 m 1 X s 2014 182 m24 2023 327 m 1 X s 2040 327 m 1 X s 2032 327 m24 black 1 1 1 c 567 239 907 558 bf black
 gsave  2268 1594 0 0 C 1047.59 743.581 t 0 r /Helvetica-Bold findfont 36.9736 sf 0 0 m (Sum) show NC gr  0 0 1 c 978 757 m20 black
 gsave  2268 1594 0 0 C 1047.59 663.471 t 0 r /Helvetica-Bold findfont 36.9736 sf 0 0 m (w/SPD & ITSrefit) show NC gr  978 677 m21
 gsave  2268 1594 0 0 C 1047.59 583.362 t 0 r /Helvetica-Bold findfont 36.9736 sf 0 0 m (w/o SPD & ITSrefit) show NC gr  1 0 0 c 978 598 m24 black
 gsave  2268 1594 0 0 C 472.441 1308.46 t 0 r /Helvetica-Bold findfont 55.4605 sf 0 0 m ( distribution of tracks for lhc13c merged output) show NC gr 
 gsave  2268 1594 0 0 C 441.63 1308.46 t 0 r /Symbol findfont 55.4605 sf 0 0 m (h) show NC gr 
 gr  gr showpage
end
%%EOF
