%!PS-Adobe-2.0 EPSF-2.0
%%BoundingBox:  0 0 567 398
%%Title: : 
%%Creator: ROOT Version 5.34/09
%%CreationDate: Fri Mar 28 18:31:57 2014
%%EndComments
%%BeginProlog
80 dict begin
/s {stroke} def /l {lineto} def /m {moveto} def /t {translate} def
/r {rotate} def /rl {roll}  def /R {repeat} def
/d {rlineto} def /rm {rmoveto} def /gr {grestore} def /f {eofill} def
/c {setrgbcolor} def /black {0 setgray} def /sd {setdash} def
/cl {closepath} def /sf {scalefont setfont} def /lw {setlinewidth} def
/box {m dup 0 exch d exch 0 d 0 exch neg d cl} def
/NC{systemdict begin initclip end}def/C{NC box clip newpath}def
/bl {box s} def /bf {box f} def /Y { 0 exch d} def /X { 0 d} def 
/K {{pop pop 0 moveto} exch kshow} bind def
/ita {/ang 15 def gsave [1 0 ang dup sin exch cos div 1 0 0] concat} def 
/mp {newpath /y exch def /x exch def} def
/side {[w .77 mul w .23 mul] .385 w mul sd w 0 l currentpoint t -144 r} def
/mr {mp x y w2 0 360 arc} def /m24 {mr s} def /m20 {mr f} def
/mb {mp x y w2 add m w2 neg 0 d 0 w neg d w 0 d 0 w d cl} def
/mt {mp x y w2 add m w2 neg w neg d w 0 d cl} def
/m21 {mb f} def /m25 {mb s} def /m22 {mt f} def /m26{mt s} def
/m23 {mp x y w2 sub m w2 w d w neg 0 d cl f} def
/m27 {mp x y w2 add m w3 neg w2 neg d w3 w2 neg d w3 w2 d cl s} def
/m28 {mp x w2 sub y w2 sub w3 add m w3 0 d  0 w3 neg d w3 0 d 0 w3 d w3 0 d  0 w3 d w3 neg 0 d 0 w3 d w3 neg 0 d 0 w3 neg d w3 neg 0 d cl s } def
/m29 {mp gsave x w2 sub y w2 add w3 sub m currentpoint t 4 {side} repeat cl fill gr} def
/m30 {mp gsave x w2 sub y w2 add w3 sub m currentpoint t 4 {side} repeat cl s gr} def
/m31 {mp x y w2 sub m 0 w d x w2 sub y m w 0 d x w2 sub y w2 add m w w neg d x w2 sub y w2 sub m w w d s} def
/m32 {mp x y w2 sub m w2 w d w neg 0 d cl s} def
/m33 {mp x y w2 add m w3 neg w2 neg d w3 w2 neg d w3 w2 d cl f} def
/m34 {mp x w2 sub y w2 sub w3 add m w3 0 d  0 w3 neg d w3 0 d 0 w3 d w3 0 d  0 w3 d w3 neg 0 d 0 w3 d w3 neg 0 d 0 w3 neg d w3 neg 0 d cl f } def
/m2 {mp x y w2 sub m 0 w d x w2 sub y m w 0 d s} def
/m5 {mp x w2 sub y w2 sub m w w d x w2 sub y w2 add m w w neg d s} def
/reEncode {exch findfont dup length dict begin {1 index /FID eq  {pop pop} {def} ifelse } forall /Encoding exch def currentdict end dup /FontName get exch definefont pop } def [/Times-Bold /Times-Italic /Times-BoldItalic /Helvetica /Helvetica-Oblique
 /Helvetica-Bold /Helvetica-BoldOblique /Courier /Courier-Oblique /Courier-Bold /Courier-BoldOblique /Times-Roman /AvantGarde-Book /AvantGarde-BookOblique /AvantGarde-Demi /AvantGarde-DemiOblique /Bookman-Demi /Bookman-DemiItalic /Bookman-Light
 /Bookman-LightItalic /Helvetica-Narrow /Helvetica-Narrow-Bold /Helvetica-Narrow-BoldOblique /Helvetica-Narrow-Oblique /NewCenturySchlbk-Roman /NewCenturySchlbk-Bold /NewCenturySchlbk-BoldItalic /NewCenturySchlbk-Italic /Palatino-Bold
 /Palatino-BoldItalic /Palatino-Italic /Palatino-Roman ] {ISOLatin1Encoding reEncode } forall
%%EndProlog
%%BeginSetup
%%EndSetup
newpath  gsave  .25 .25 scale  gsave  0 0 t black[  ] 0 sd 3 lw 0.999 0.999 0.999 c 2268 1594 0 0 bf black 0.999 0.999 0.999 c 1814 1276 227 159 bf black 1814 1276 227 159 bl 1 0 0 c 1 1 1 c 1 0 0 c 363 461 m 43 Y s 363 520 m 25 Y s 317 512 m 38 X s
 371 512 m 37 X s /w 16 def /w2 {w 2 div} def /w3 {w 3 div} def 363 512 m20 454 1000 m s 408 1008 m 37 X s 462 1008 m 37 X s 454 1008 m20 499 1110 m 37 X s 552 1110 m 38 X s 544 1110 m20 590 1131 m 37 X s 643 1131 m 37 X s 635 1131 m20 680 1120 m 37
 X s 734 1120 m 37 X s 726 1120 m20 771 1096 m 37 X s 825 1096 m 37 X s 816 1096 m20 862 1069 m 37 X s 915 1069 m 37 X s 907 1069 m20 952 1046 m 38 X s 1006 1046 m 37 X s 998 1046 m20 1089 997 m 1 Y s 1043 1006 m 37 X s 1097 1006 m 37 X s 1089 1006
 m20 1179 964 m 3 Y s 1179 984 m 2 Y s 1134 975 m 37 X s 1187 975 m 38 X s 1179 975 m20 1270 933 m 4 Y s 1270 954 m 3 Y s 1225 946 m 37 X s 1278 946 m 37 X s 1270 946 m20 1361 876 m 8 Y s 1361 900 m 6 Y s 1315 892 m 37 X s 1369 892 m 37 X s 1361 892
 m20 1451 845 m 9 Y s 1451 870 m 6 Y s 1406 862 m 37 X s 1460 862 m 37 X s 1451 862 m20 1542 821 m 15 Y s 1542 853 m 10 Y s 1497 845 m 37 X s 1550 845 m 37 X s 1542 845 m20 1633 756 m 17 Y s 1633 790 m 11 Y s 1587 781 m 38 X s 1641 781 m 37 X s 1633
 781 m20 1723 708 m 10 Y s 1723 735 m 7 Y s 1678 726 m 37 X s 1732 726 m 37 X s 1723 726 m20 1814 667 m 44 Y s 1814 728 m 25 Y s 1769 719 m 37 X s 1822 719 m 38 X s 1814 719 m20 1905 646 m 54 Y s 1905 716 m 28 Y s 1860 708 m 37 X s 1913 708 m 37 X s
 1905 708 m20 1996 617 m 68 Y s 1996 701 m 33 Y s 1950 693 m 37 X s 2004 693 m 37 X s 1996 693 m20 black 227 159 m 1814 X s
 gsave  2268 1594 0 0 C 1971.93 16.4327 t 0 r /Helvetica findfont 34.9195 sf 0 0 m (T,jet) show NC gr 
 gsave  2268 1594 0 0 C 1926.74 45.19 t 0 r /Helvetica findfont 51.3523 sf 0 0 m (/p) show NC gr 
 gsave  2268 1594 0 0 C 1785.01 63.6768 t 0 r /Helvetica findfont 34.9195 sf 0 0 m (const.) show NC gr 
 gsave  2268 1594 0 0 C 1785.01 16.4327 t 0 r /Helvetica findfont 34.9195 sf 0 0 m (T,leading) show NC gr 
 gsave  2268 1594 0 0 C 1698.73 45.19 t 0 r /Helvetica findfont 51.3523 sf 0 0 m ( = p) show NC gr 
 gsave  2268 1594 0 0 C 1587.81 63.6768 t 0 r /Helvetica findfont 34.9195 sf 0 0 m (const.) show NC gr 
 gsave  2268 1594 0 0 C 1587.81 28.7573 t 0 r /Helvetica findfont 34.9195 sf 0 0 m (leading) show NC gr 
 gsave  2268 1594 0 0 C 1563.16 45.19 t 0 r /Helvetica findfont 51.3523 sf 0 0 m (z) show NC gr  227 198 m -39 Y s 263 179 m -20 Y s 299 179 m -20 Y s 336 179 m -20 Y s 372 179 m -20 Y s 408 198 m -39 Y s 444 179 m -20 Y s 481 179 m -20 Y s 517 179 m
 -20 Y s 553 179 m -20 Y s 590 198 m -39 Y s 626 179 m -20 Y s 662 179 m -20 Y s 698 179 m -20 Y s 735 179 m -20 Y s 771 198 m -39 Y s 807 179 m -20 Y s 844 179 m -20 Y s 880 179 m -20 Y s 916 179 m -20 Y s 952 198 m -39 Y s 989 179 m -20 Y s 1025
 179 m -20 Y s 1061 179 m -20 Y s 1098 179 m -20 Y s 1134 198 m -39 Y s 1170 179 m -20 Y s 1206 179 m -20 Y s 1243 179 m -20 Y s 1279 179 m -20 Y s 1315 198 m -39 Y s 1352 179 m -20 Y s 1388 179 m -20 Y s 1424 179 m -20 Y s 1460 179 m -20 Y s 1497
 198 m -39 Y s 1533 179 m -20 Y s 1569 179 m -20 Y s 1606 179 m -20 Y s 1642 179 m -20 Y s 1678 198 m -39 Y s 1714 179 m -20 Y s 1751 179 m -20 Y s 1787 179 m -20 Y s 1823 179 m -20 Y s 1860 198 m -39 Y s 1896 179 m -20 Y s 1932 179 m -20 Y s 1968
 179 m -20 Y s 2005 179 m -20 Y s 2041 198 m -39 Y s
 gsave  2268 1594 0 0 C 211.571 106.813 t 0 r /Helvetica findfont 51.3523 sf 0 0 m (0) show NC gr 
 gsave  2268 1594 0 0 C 375.899 106.813 t 0 r /Helvetica findfont 51.3523 sf 0 0 m (0.1) show NC gr 
 gsave  2268 1594 0 0 C 554.605 106.813 t 0 r /Helvetica findfont 51.3523 sf 0 0 m (0.2) show NC gr 
 gsave  2268 1594 0 0 C 735.365 106.813 t 0 r /Helvetica findfont 51.3523 sf 0 0 m (0.3) show NC gr 
 gsave  2268 1594 0 0 C 916.125 106.813 t 0 r /Helvetica findfont 51.3523 sf 0 0 m (0.4) show NC gr 
 gsave  2268 1594 0 0 C 1098.94 106.813 t 0 r /Helvetica findfont 51.3523 sf 0 0 m (0.5) show NC gr 
 gsave  2268 1594 0 0 C 1279.7 106.813 t 0 r /Helvetica findfont 51.3523 sf 0 0 m (0.6) show NC gr 
 gsave  2268 1594 0 0 C 1460.46 106.813 t 0 r /Helvetica findfont 51.3523 sf 0 0 m (0.7) show NC gr 
 gsave  2268 1594 0 0 C 1641.22 106.813 t 0 r /Helvetica findfont 51.3523 sf 0 0 m (0.8) show NC gr 
 gsave  2268 1594 0 0 C 1824.03 106.813 t 0 r /Helvetica findfont 51.3523 sf 0 0 m (0.9) show NC gr 
 gsave  2268 1594 0 0 C 2029.44 106.813 t 0 r /Helvetica findfont 51.3523 sf 0 0 m (1) show NC gr  227 159 m 1276 Y s
 gsave  2268 1594 0 0 C 88.3259 1365.97 t 90 r /Helvetica findfont 51.3523 sf 0 0 m (/dz) show NC gr 
 gsave  2268 1594 0 0 C 104.759 1326.94 t 90 r /Helvetica findfont 34.9195 sf 0 0 m (jet) show NC gr 
 gsave  2268 1594 0 0 C 88.3259 1248.89 t 90 r /Helvetica findfont 51.3523 sf 0 0 m ( dN) show NC gr 
 gsave  2268 1594 0 0 C 104.759 1209.86 t 90 r /Helvetica findfont 34.9195 sf 0 0 m (jet) show NC gr 
 gsave  2268 1594 0 0 C 88.3259 1131.8 t 90 r /Helvetica findfont 51.3523 sf 0 0 m (1/N) show NC gr  281 159 m -54 X s
 gsave  2268 1594 0 0 C 176.652 158.165 t 0 r /Helvetica findfont 34.9195 sf 0 0 m (\2554) show NC gr 
 gsave  2268 1594 0 0 C 121.191 135.57 t 0 r /Helvetica findfont 51.3523 sf 0 0 m (10) show NC gr  254 223 m -27 X s 254 261 m -27 X s 254 287 m -27 X s 254 308 m -27 X s 254 325 m -27 X s 254 339 m -27 X s 254 351 m -27 X s 254 362 m -27 X s 281 372
 m -54 X s
 gsave  2268 1594 0 0 C 176.652 373.845 t 0 r /Helvetica findfont 34.9195 sf 0 0 m (\2553) show NC gr 
 gsave  2268 1594 0 0 C 121.191 349.195 t 0 r /Helvetica findfont 51.3523 sf 0 0 m (10) show NC gr  254 436 m -27 X s 254 473 m -27 X s 254 500 m -27 X s 254 520 m -27 X s 254 537 m -27 X s 254 552 m -27 X s 254 564 m -27 X s 254 575 m -27 X s 281
 584 m -54 X s
 gsave  2268 1594 0 0 C 176.652 583.362 t 0 r /Helvetica findfont 34.9195 sf 0 0 m (\2552) show NC gr 
 gsave  2268 1594 0 0 C 121.191 560.767 t 0 r /Helvetica findfont 51.3523 sf 0 0 m (10) show NC gr  254 648 m -27 X s 254 686 m -27 X s 254 712 m -27 X s 254 733 m -27 X s 254 750 m -27 X s 254 764 m -27 X s 254 776 m -27 X s 254 787 m -27 X s 281
 797 m -54 X s
 gsave  2268 1594 0 0 C 182.814 796.987 t 0 r /Helvetica findfont 34.9195 sf 0 0 m (\2551) show NC gr 
 gsave  2268 1594 0 0 C 127.354 774.392 t 0 r /Helvetica findfont 51.3523 sf 0 0 m (10) show NC gr  254 861 m -27 X s 254 898 m -27 X s 254 925 m -27 X s 254 946 m -27 X s 254 962 m -27 X s 254 977 m -27 X s 254 989 m -27 X s 254 1000 m -27 X s 281
 1010 m -54 X s
 gsave  2268 1594 0 0 C 209.083 987.333 t 0 r  -28 0 t /Helvetica findfont 51.3523 sf 0 0 m (1) show NC gr  254 1073 m -27 X s 254 1111 m -27 X s 254 1137 m -27 X s 254 1158 m -27 X s 254 1175 m -27 X s 254 1189 m -27 X s 254 1201 m -27 X s 254 1212
 m -27 X s 281 1222 m -54 X s
 gsave  2268 1594 0 0 C 209.083 1199.86 t 0 r  -57 0 t /Helvetica findfont 51.3523 sf 0 0 m (10) show NC gr  254 1286 m -27 X s 254 1323 m -27 X s 254 1350 m -27 X s 254 1371 m -27 X s 254 1387 m -27 X s 254 1402 m -27 X s 254 1414 m -27 X s 254 1425
 m -27 X s 281 1435 m -54 X s
 gsave  2268 1594 0 0 C 188.976 1433.76 t 0 r /Helvetica findfont 34.9195 sf 0 0 m (2) show NC gr 
 gsave  2268 1594 0 0 C 133.516 1411.16 t 0 r /Helvetica findfont 51.3523 sf 0 0 m (10) show NC gr  0 0 1 c 1 1 1 c 0 0 1 c 363 159 m 495 Y s 363 671 m 55 Y s 317 662 m 38 X s 371 662 m 37 X s 363 662 m21 454 999 m 7 Y s 454 1022 m 5 Y s 408 1014 m
 37 X s 462 1014 m 37 X s 454 1014 m21 544 1094 m 1 Y s 499 1103 m 37 X s 552 1103 m 38 X s 544 1103 m21 590 1121 m 37 X s 643 1121 m 37 X s 635 1121 m21 680 1133 m 37 X s 734 1133 m 37 X s 726 1133 m21 816 1082 m 1 Y s 816 1099 m 1 Y s 771 1091 m 37
 X s 825 1091 m 37 X s 816 1091 m21 907 1043 m 3 Y s 907 1063 m 2 Y s 862 1055 m 37 X s 915 1055 m 37 X s 907 1055 m21 998 1017 m 5 Y s 998 1039 m 3 Y s 952 1031 m 38 X s 1006 1031 m 37 X s 998 1031 m21 1089 994 m 7 Y s 1089 1018 m 5 Y s 1043 1010 m
 37 X s 1097 1010 m 37 X s 1089 1010 m21 1179 979 m 9 Y s 1179 1004 m 6 Y s 1134 996 m 37 X s 1187 996 m 38 X s 1179 996 m21 1270 961 m 10 Y s 1270 988 m 7 Y s 1225 979 m 37 X s 1278 979 m 37 X s 1270 979 m21 1361 885 m 19 Y s 1361 921 m 13 Y s 1315
 912 m 37 X s 1369 912 m 37 X s 1361 912 m21 1451 869 m 22 Y s 1451 907 m 15 Y s 1406 899 m 37 X s 1460 899 m 37 X s 1451 899 m21 1542 798 m 36 Y s 1542 850 m 22 Y s 1497 842 m 37 X s 1550 842 m 37 X s 1542 842 m21 1633 779 m 41 Y s 1633 836 m 23 Y s
 1587 828 m 38 X s 1641 828 m 37 X s 1633 828 m21 1723 684 m 72 Y s 1723 772 m 34 Y s 1678 764 m 37 X s 1732 764 m 37 X s 1723 764 m21 1814 684 m 72 Y s 1814 772 m 34 Y s 1769 764 m 37 X s 1822 764 m 38 X s 1814 764 m21 1905 613 m 105 Y s 1905 735 m
 41 Y s 1860 726 m 37 X s 1913 726 m 37 X s 1905 726 m21 black 1 1 1 c 681 319 680 319 bf black
 gsave  2268 1594 0 0 C 850.394 546.388 t 0 r /Helvetica-Bold findfont 36.9736 sf 0 0 m (Simulation \(Detector\255level\)) show NC gr  1 0 0 c 765 558 m20 black
 gsave  2268 1594 0 0 C 850.394 384.115 t 0 r /Helvetica-Bold findfont 36.9736 sf 0 0 m (Data) show NC gr  0 0 1 c 765 398 m21 black
 gsave  2268 1594 0 0 C 316.33 1324.89 t 0 r /Helvetica-Bold findfont 55.4605 sf 0 0 m (Jet Z comparison between lhc13b and lhc13b4_fix_good) show NC gr 
 gsave  2268 1594 0 0 C 1770.63 1222.18 t 0 r /Helvetica-Bold findfont 55.4605 sf 0 0 m ( < 50 GeV) show NC gr 
 gsave  2268 1594 0 0 C 1653.54 1248.89 t 0 r /Helvetica-Bold findfont 36.9736 sf 0 0 m (uncorr) show NC gr 
 gsave  2268 1594 0 0 C 1653.54 1193.43 t 0 r /Helvetica-Bold findfont 36.9736 sf 0 0 m (T,jet) show NC gr 
 gsave  2268 1594 0 0 C 1495.38 1222.18 t 0 r /Helvetica-Bold findfont 55.4605 sf 0 0 m (30 < p) show NC gr 
 gsave  2268 1594 0 0 C 1665.87 1094.83 t 0 r /Helvetica-Bold findfont 55.4605 sf 0 0 m ( R=0.4) show NC gr 
 gsave  2268 1594 0 0 C 1643.27 1076.34 t 0 r /Helvetica-Bold findfont 36.9736 sf 0 0 m (T) show NC gr 
 gsave  2268 1594 0 0 C 1495.38 1094.83 t 0 r /Helvetica-Bold findfont 55.4605 sf 0 0 m (anti\255k) show NC gr 
 gr  gr showpage
end
%%EOF
