%!PS-Adobe-2.0 EPSF-2.0
%%BoundingBox:  0 0 567 398
%%Title: : 
%%Creator: ROOT Version 5.34/09
%%CreationDate: Fri Mar 28 16:17:53 2014
%%EndComments
%%BeginProlog
80 dict begin
/s {stroke} def /l {lineto} def /m {moveto} def /t {translate} def
/r {rotate} def /rl {roll}  def /R {repeat} def
/d {rlineto} def /rm {rmoveto} def /gr {grestore} def /f {eofill} def
/c {setrgbcolor} def /black {0 setgray} def /sd {setdash} def
/cl {closepath} def /sf {scalefont setfont} def /lw {setlinewidth} def
/box {m dup 0 exch d exch 0 d 0 exch neg d cl} def
/NC{systemdict begin initclip end}def/C{NC box clip newpath}def
/bl {box s} def /bf {box f} def /Y { 0 exch d} def /X { 0 d} def 
/K {{pop pop 0 moveto} exch kshow} bind def
/ita {/ang 15 def gsave [1 0 ang dup sin exch cos div 1 0 0] concat} def 
/mp {newpath /y exch def /x exch def} def
/side {[w .77 mul w .23 mul] .385 w mul sd w 0 l currentpoint t -144 r} def
/mr {mp x y w2 0 360 arc} def /m24 {mr s} def /m20 {mr f} def
/mb {mp x y w2 add m w2 neg 0 d 0 w neg d w 0 d 0 w d cl} def
/mt {mp x y w2 add m w2 neg w neg d w 0 d cl} def
/m21 {mb f} def /m25 {mb s} def /m22 {mt f} def /m26{mt s} def
/m23 {mp x y w2 sub m w2 w d w neg 0 d cl f} def
/m27 {mp x y w2 add m w3 neg w2 neg d w3 w2 neg d w3 w2 d cl s} def
/m28 {mp x w2 sub y w2 sub w3 add m w3 0 d  0 w3 neg d w3 0 d 0 w3 d w3 0 d  0 w3 d w3 neg 0 d 0 w3 d w3 neg 0 d 0 w3 neg d w3 neg 0 d cl s } def
/m29 {mp gsave x w2 sub y w2 add w3 sub m currentpoint t 4 {side} repeat cl fill gr} def
/m30 {mp gsave x w2 sub y w2 add w3 sub m currentpoint t 4 {side} repeat cl s gr} def
/m31 {mp x y w2 sub m 0 w d x w2 sub y m w 0 d x w2 sub y w2 add m w w neg d x w2 sub y w2 sub m w w d s} def
/m32 {mp x y w2 sub m w2 w d w neg 0 d cl s} def
/m33 {mp x y w2 add m w3 neg w2 neg d w3 w2 neg d w3 w2 d cl f} def
/m34 {mp x w2 sub y w2 sub w3 add m w3 0 d  0 w3 neg d w3 0 d 0 w3 d w3 0 d  0 w3 d w3 neg 0 d 0 w3 d w3 neg 0 d 0 w3 neg d w3 neg 0 d cl f } def
/m2 {mp x y w2 sub m 0 w d x w2 sub y m w 0 d s} def
/m5 {mp x w2 sub y w2 sub m w w d x w2 sub y w2 add m w w neg d s} def
/reEncode {exch findfont dup length dict begin {1 index /FID eq  {pop pop} {def} ifelse } forall /Encoding exch def currentdict end dup /FontName get exch definefont pop } def [/Times-Bold /Times-Italic /Times-BoldItalic /Helvetica /Helvetica-Oblique
 /Helvetica-Bold /Helvetica-BoldOblique /Courier /Courier-Oblique /Courier-Bold /Courier-BoldOblique /Times-Roman /AvantGarde-Book /AvantGarde-BookOblique /AvantGarde-Demi /AvantGarde-DemiOblique /Bookman-Demi /Bookman-DemiItalic /Bookman-Light
 /Bookman-LightItalic /Helvetica-Narrow /Helvetica-Narrow-Bold /Helvetica-Narrow-BoldOblique /Helvetica-Narrow-Oblique /NewCenturySchlbk-Roman /NewCenturySchlbk-Bold /NewCenturySchlbk-BoldItalic /NewCenturySchlbk-Italic /Palatino-Bold
 /Palatino-BoldItalic /Palatino-Italic /Palatino-Roman ] {ISOLatin1Encoding reEncode } forall
%%EndProlog
%%BeginSetup
%%EndSetup
newpath  gsave  .25 .25 scale  gsave  0 0 t black[  ] 0 sd 3 lw 0.999 0.999 0.999 c 2268 1594 0 0 bf black 0.999 0.999 0.999 c 1814 1276 227 159 bf black 1814 1276 227 159 bl 0 0 1 c 1 1 1 c 0 0 1 c 287 446 m 22 X s 326 446 m 22 X s /w 16 def /w2 {w
 2 div} def /w3 {w 3 div} def 317 446 m20 348 498 m 22 X s 386 498 m 22 X s 378 498 m20 408 527 m 22 X s 447 527 m 22 X s 438 527 m20 469 541 m 22 X s 507 541 m 22 X s 499 541 m20 559 536 m 2 Y s 559 554 m 2 Y s 529 546 m 22 X s 568 546 m 22 X s 559
 546 m20 620 548 m 6 Y s 620 571 m 6 Y s 590 562 m 22 X s 628 562 m 22 X s 620 562 m20 680 546 m 12 Y s 680 575 m 11 Y s 650 566 m 22 X s 689 566 m 22 X s 680 566 m20 741 542 m 18 Y s 741 576 m 18 Y s 711 568 m 22 X s 749 568 m 22 X s 741 568 m20 801
 578 m 25 Y s 801 619 m 24 Y s 771 611 m 22 X s 809 611 m 22 X s 801 611 m20 862 513 m 40 Y s 862 569 m 40 Y s 831 561 m 23 X s 870 561 m 22 X s 862 561 m20 922 452 m 36 Y s 922 504 m 36 Y s 892 496 m 22 X s 930 496 m 22 X s 922 496 m20 983 541 m 41
 Y s 983 599 m 41 Y s 952 591 m 22 X s 991 591 m 22 X s 983 591 m20 1043 542 m 87 Y s 1043 646 m 87 Y s 1013 638 m 22 X s 1051 638 m 22 X s 1043 638 m20 1104 612 m 93 Y s 1104 721 m 93 Y s 1073 713 m 22 X s 1112 713 m 22 X s 1104 713 m20 1164 469 m
 119 Y s 1164 604 m 119 Y s 1134 596 m 22 X s 1172 596 m 22 X s 1164 596 m20 1225 591 m 56 Y s 1225 664 m 57 Y s 1194 656 m 22 X s 1233 656 m 22 X s 1225 656 m20 1285 493 m 138 Y s 1285 648 m 138 Y s 1255 639 m 22 X s 1293 639 m 22 X s 1285 639 m20
 1315 536 m 22 X s 1354 536 m 22 X s 1346 536 m20 1376 510 m 22 X s 1414 510 m 22 X s 1406 510 m20 1466 687 m 19 Y s 1466 722 m 19 Y s 1436 714 m 22 X s 1475 714 m 22 X s 1466 714 m20 1527 1012 m 64 Y s 1527 1092 m 64 Y s 1497 1084 m 22 X s 1535 1084
 m 22 X s 1527 1084 m20 1557 306 m 22 X s 1596 306 m 22 X s 1587 306 m20 1829 345 m 87 Y s 1829 448 m 87 Y s 1799 440 m 22 X s 1838 440 m 22 X s 1829 440 m20 1890 458 m 235 Y s 1890 710 m 235 Y s 1860 701 m 22 X s 1898 701 m 22 X s 1890 701 m20 black
 227 159 m 1814 X s
 gsave  2268 1594 0 0 C 1891.82 65.7309 t 0 r /Helvetica findfont 51.3523 sf 0 0 m ( \(GeV\)) show NC gr 
 gsave  2268 1594 0 0 C 1787.06 86.2718 t 0 r /Helvetica findfont 34.9195 sf 0 0 m (ch+em) show NC gr 
 gsave  2268 1594 0 0 C 1787.06 36.9736 t 0 r /Helvetica findfont 34.9195 sf 0 0 m (T,jet) show NC gr 
 gsave  2268 1594 0 0 C 1758.3 65.7309 t 0 r /Helvetica findfont 51.3523 sf 0 0 m (p) show NC gr  227 198 m -39 Y s 287 179 m -20 Y s 348 179 m -20 Y s 408 179 m -20 Y s 469 198 m -39 Y s 529 179 m -20 Y s 590 179 m -20 Y s 650 179 m -20 Y s 711 198
 m -39 Y s 771 179 m -20 Y s 831 179 m -20 Y s 892 179 m -20 Y s 952 198 m -39 Y s 1013 179 m -20 Y s 1073 179 m -20 Y s 1134 179 m -20 Y s 1194 198 m -39 Y s 1255 179 m -20 Y s 1315 179 m -20 Y s 1376 179 m -20 Y s 1436 198 m -39 Y s 1497 179 m -20
 Y s 1557 179 m -20 Y s 1618 179 m -20 Y s 1678 198 m -39 Y s 1739 179 m -20 Y s 1799 179 m -20 Y s 1860 179 m -20 Y s 1920 198 m -39 Y s 1920 198 m -39 Y s 1980 179 m -20 Y s 2041 179 m -20 Y s
 gsave  2268 1594 0 0 C 211.571 106.813 t 0 r /Helvetica findfont 51.3523 sf 0 0 m (0) show NC gr 
 gsave  2268 1594 0 0 C 439.576 106.813 t 0 r /Helvetica findfont 51.3523 sf 0 0 m (20) show NC gr 
 gsave  2268 1594 0 0 C 679.904 106.813 t 0 r /Helvetica findfont 51.3523 sf 0 0 m (40) show NC gr 
 gsave  2268 1594 0 0 C 922.287 106.813 t 0 r /Helvetica findfont 51.3523 sf 0 0 m (60) show NC gr 
 gsave  2268 1594 0 0 C 1164.67 106.813 t 0 r /Helvetica findfont 51.3523 sf 0 0 m (80) show NC gr 
 gsave  2268 1594 0 0 C 1392.67 106.813 t 0 r /Helvetica findfont 51.3523 sf 0 0 m (100) show NC gr 
 gsave  2268 1594 0 0 C 1633 106.813 t 0 r /Helvetica findfont 51.3523 sf 0 0 m (120) show NC gr 
 gsave  2268 1594 0 0 C 1875.39 106.813 t 0 r /Helvetica findfont 51.3523 sf 0 0 m (140) show NC gr  227 159 m 1276 Y s
 gsave  2268 1594 0 0 C 117.083 1273.54 t 90 r /Helvetica findfont 51.3523 sf 0 0 m (<NEF>) show NC gr  281 159 m -54 X s 254 185 m -27 X s 254 210 m -27 X s 254 236 m -27 X s 254 261 m -27 X s 281 287 m -54 X s 254 312 m -27 X s 254 338 m -27 X s
 254 363 m -27 X s 254 389 m -27 X s 281 414 m -54 X s 254 440 m -27 X s 254 465 m -27 X s 254 491 m -27 X s 254 516 m -27 X s 281 542 m -54 X s 254 567 m -27 X s 254 593 m -27 X s 254 618 m -27 X s 254 644 m -27 X s 281 669 m -54 X s 254 695 m -27 X
 s 254 720 m -27 X s 254 746 m -27 X s 254 771 m -27 X s 281 797 m -54 X s 254 822 m -27 X s 254 848 m -27 X s 254 873 m -27 X s 254 899 m -27 X s 281 925 m -54 X s 254 950 m -27 X s 254 976 m -27 X s 254 1001 m -27 X s 254 1027 m -27 X s 281 1052 m
 -54 X s 254 1078 m -27 X s 254 1103 m -27 X s 254 1129 m -27 X s 254 1154 m -27 X s 281 1180 m -54 X s 254 1205 m -27 X s 254 1231 m -27 X s 254 1256 m -27 X s 254 1282 m -27 X s 281 1307 m -54 X s 254 1333 m -27 X s 254 1358 m -27 X s 254 1384 m
 -27 X s 254 1409 m -27 X s 281 1435 m -54 X s
 gsave  2268 1594 0 0 C 186.922 141.732 t 0 r /Helvetica findfont 51.3523 sf 0 0 m (0) show NC gr 
 gsave  2268 1594 0 0 C 152.003 269.086 t 0 r /Helvetica findfont 51.3523 sf 0 0 m (0.1) show NC gr 
 gsave  2268 1594 0 0 C 143.786 396.44 t 0 r /Helvetica findfont 51.3523 sf 0 0 m (0.2) show NC gr 
 gsave  2268 1594 0 0 C 143.786 523.793 t 0 r /Helvetica findfont 51.3523 sf 0 0 m (0.3) show NC gr 
 gsave  2268 1594 0 0 C 143.786 651.147 t 0 r /Helvetica findfont 51.3523 sf 0 0 m (0.4) show NC gr 
 gsave  2268 1594 0 0 C 143.786 778.5 t 0 r /Helvetica findfont 51.3523 sf 0 0 m (0.5) show NC gr 
 gsave  2268 1594 0 0 C 143.786 907.908 t 0 r /Helvetica findfont 51.3523 sf 0 0 m (0.6) show NC gr 
 gsave  2268 1594 0 0 C 143.786 1035.26 t 0 r /Helvetica findfont 51.3523 sf 0 0 m (0.7) show NC gr 
 gsave  2268 1594 0 0 C 143.786 1162.62 t 0 r /Helvetica findfont 51.3523 sf 0 0 m (0.8) show NC gr 
 gsave  2268 1594 0 0 C 143.786 1289.97 t 0 r /Helvetica findfont 51.3523 sf 0 0 m (0.9) show NC gr 
 gsave  2268 1594 0 0 C 195.139 1415.27 t 0 r /Helvetica findfont 51.3523 sf 0 0 m (1) show NC gr  1 1 1 c black 287 486 m 22 X s 326 486 m 22 X s 317 486 m21 348 500 m 22 X s 386 500 m 22 X s 378 500 m21 408 515 m 22 X s 447 515 m 22 X s 438 515 m21
 469 539 m 22 X s 507 539 m 22 X s 499 539 m21 529 542 m 22 X s 568 542 m 22 X s 559 542 m21 620 565 m 5 Y s 620 586 m 5 Y s 590 578 m 22 X s 628 578 m 22 X s 620 578 m21 680 551 m 10 Y s 680 578 m 10 Y s 650 570 m 22 X s 689 570 m 22 X s 680 570 m21
 741 534 m 17 Y s 741 568 m 17 Y s 711 560 m 22 X s 749 560 m 22 X s 741 560 m21 801 472 m 20 Y s 801 508 m 20 Y s 771 500 m 22 X s 809 500 m 22 X s 801 500 m21 862 579 m 31 Y s 862 627 m 31 Y s 831 619 m 23 X s 870 619 m 22 X s 862 619 m21 922 557 m
 38 Y s 922 612 m 38 Y s 892 603 m 22 X s 930 603 m 22 X s 922 603 m21 983 581 m 74 Y s 983 671 m 74 Y s 952 663 m 22 X s 991 663 m 22 X s 983 663 m21 1043 458 m 61 Y s 1043 536 m 61 Y s 1013 527 m 22 X s 1051 527 m 22 X s 1043 527 m21 1104 356 m 51
 Y s 1104 424 m 50 Y s 1073 415 m 22 X s 1112 415 m 22 X s 1104 415 m21 1164 590 m 94 Y s 1164 701 m 94 Y s 1134 692 m 22 X s 1172 692 m 22 X s 1164 692 m21 1225 558 m 79 Y s 1225 654 m 80 Y s 1194 646 m 22 X s 1233 646 m 22 X s 1225 646 m21 1346 646
 m 56 Y s 1346 718 m 56 Y s 1315 710 m 22 X s 1354 710 m 22 X s 1346 710 m21 1376 166 m 22 X s 1414 166 m 22 X s 1406 166 m21 1497 663 m 22 X s 1535 663 m 22 X s 1527 663 m21 1557 319 m 22 X s 1596 319 m 22 X s 1587 319 m21 1618 982 m 22 X s 1656 982
 m 22 X s 1648 982 m21
 gsave  2268 1594 0 0 C 589.524 1308.46 t 0 r /Helvetica-Bold findfont 55.4605 sf 0 0 m (Mean Jet NEF for lhc13b merged output) show NC gr  1 1 1 c 453 239 454 797 bf black
 gsave  2268 1594 0 0 C 566.929 951.044 t 0 r /Helvetica-Bold findfont 71.8932 sf 0 0 m (R=0.2) show NC gr  0 0 1 c 510 976 m20 black
 gsave  2268 1594 0 0 C 566.929 831.907 t 0 r /Helvetica-Bold findfont 71.8932 sf 0 0 m (R=0.4) show NC gr  510 857 m21
 gr  gr showpage
end
%%EOF
